%!PS-Adobe-3.0 EPSF-3.0
%%Title: /home/hettin12/webplots/03-20-15_shift_run/mcmc/ps_param_extra_pruned/binary_fractions/binary_fractions_big.eps
%%Creator: matplotlib version 1.2.x, http://matplotlib.sourceforge.net/
%%CreationDate: Thu Apr  2 16:45:35 2015
%%Orientation: portrait
%%BoundingBox: 18 252 594 540
%%EndComments
%%BeginProlog
/mpldict 10 dict def
mpldict begin
/m { moveto } bind def
/l { lineto } bind def
/r { rlineto } bind def
/c { curveto } bind def
/cl { closepath } bind def
/box {
m
1 index 0 r
0 exch r
neg 0 r
cl
} bind def
/clipbox {
box
clip
newpath
} bind def
%!PS-Adobe-3.0 Resource-Font
%%Title: cmr10
%%Copyright: Copyright (C) 1994, Basil K. Malyshev. All Rights Reserved.012BaKoMa Fonts Collection, Level-B.
%%Creator: Converted from TrueType to type 3 by PPR
25 dict begin
/_d{bind def}bind def
/_m{moveto}_d
/_l{lineto}_d
/_cl{closepath eofill}_d
/_c{curveto}_d
/_sc{7 -1 roll{setcachedevice}{pop pop pop pop pop pop}ifelse}_d
/_e{exec}_d
/FontName /Cmr10 def
/PaintType 0 def
/FontMatrix[.001 0 0 .001 0 0]def
/FontBBox[-44 -250 1009 750]def
/FontType 3 def
/Encoding [ /i /zero /parenright /eight /h /parenleft /c /r ] def
/FontInfo 10 dict dup begin
/FamilyName (cmr10) def
/FullName (cmr10) def
/Notice (Copyright (C) 1994, Basil K. Malyshev. All Rights Reserved.012BaKoMa Fonts Collection, Level-B. ) def
/Weight (Regular) def
/Version (1.1/12-Nov-94) def
/ItalicAngle 0.0 def
/isFixedPitch false def
/UnderlinePosition -133 def
/UnderlineThickness 20 def
end readonly def
/CharStrings 8 dict dup begin
/i{{277 0 31 0 249 669 _sc
31 0 _m
31 35 _l
53 35 72 36 87 40 _c
101 44 109 53 109 67 _c
109 340 _l
109 365 104 381 94 387 _c
84 393 64 396 35 396 _c
35 431 _l
179 442 _l
179 67 _l
179 53 185 44 198 40 _c
210 36 227 35 249 35 _c
249 0 _l
31 0 _l
73 614 _m
73 628 78 641 89 652 _c
100 663 113 669 128 669 _c
137 669 146 666 155 661 _c
}_e{163 656 170 649 175 641 _c
180 632 183 623 183 614 _c
183 599 177 586 166 575 _c
155 564 142 559 128 559 _c
113 559 100 564 89 575 _c
78 586 73 599 73 614 _c
_cl}_e}_d
/zero{{500 0 39 -21 460 666 _sc
250 -21 _m
168 -21 112 12 83 79 _c
53 146 39 226 39 319 _c
39 377 44 431 55 482 _c
65 533 86 576 118 612 _c
149 648 193 666 250 666 _c
294 666 330 655 358 634 _c
386 612 407 585 422 551 _c
436 517 446 480 452 441 _c
457 402 460 361 460 319 _c
460 261 454 208 444 158 _c
433 108 412 65 381 31 _c
350 -3 306 -21 250 -21 _c
250 4 _m
}_e{287 4 315 23 333 61 _c
351 99 362 141 366 187 _c
370 233 373 283 373 335 _c
373 385 370 431 366 473 _c
362 515 351 554 333 588 _c
315 622 287 640 250 640 _c
212 640 184 622 166 588 _c
148 554 136 515 132 473 _c
128 431 126 385 126 335 _c
126 297 126 262 128 230 _c
130 197 135 163 143 128 _c
151 93 163 64 181 40 _c
198 16 221 4 250 4 _c
_cl}_e}_d
/parenright{{388 0 56 -249 291 750 _sc
65 -249 _m
59 -249 56 -246 56 -240 _c
56 -237 56 -235 58 -234 _c
172 -122 229 38 229 250 _c
229 462 172 623 60 733 _c
57 734 56 737 56 741 _c
56 743 57 745 59 747 _c
61 749 63 750 65 750 _c
74 750 _l
76 750 77 749 79 748 _c
127 710 167 664 199 610 _c
231 556 254 498 269 437 _c
283 376 291 314 291 250 _c
291 202 287 156 279 110 _c
}_e{271 64 258 20 241 -24 _c
223 -68 201 -108 175 -146 _c
148 -184 116 -217 79 -247 _c
77 -248 76 -249 74 -249 _c
65 -249 _l
_cl}_e}_d
/eight{{500 0 42 -21 457 666 _sc
42 152 _m
42 192 55 227 81 258 _c
107 288 141 314 183 335 _c
146 359 _l
123 373 104 393 90 418 _c
76 443 69 469 69 497 _c
69 529 77 557 94 583 _c
110 609 133 629 161 644 _c
189 658 218 666 250 666 _c
279 666 307 660 335 648 _c
363 636 385 618 403 596 _c
421 574 430 547 430 516 _c
430 493 424 472 414 453 _c
403 434 388 417 370 402 _c
}_e{352 386 332 373 312 363 _c
369 326 _l
395 308 417 286 433 258 _c
449 230 457 200 457 170 _c
457 134 447 101 428 71 _c
408 41 383 19 351 3 _c
319 -13 285 -21 250 -21 _c
215 -21 182 -14 150 0 _c
118 13 92 33 72 60 _c
52 86 42 117 42 152 _c
96 152 _m
96 125 103 101 118 79 _c
132 57 151 40 175 28 _c
199 16 224 10 250 10 _c
288 10 323 21 355 44 _c
}_e{387 66 403 96 403 134 _c
403 146 400 159 395 171 _c
390 183 383 195 374 205 _c
365 215 355 224 344 231 _c
210 318 _l
189 306 170 292 152 275 _c
134 258 121 239 111 218 _c
101 197 96 175 96 152 _c
165 457 _m
286 379 _l
314 395 337 414 355 438 _c
373 461 382 487 382 516 _c
382 538 375 559 363 578 _c
350 596 334 611 314 621 _c
294 631 272 637 249 637 _c
}_e{229 637 208 633 188 625 _c
167 617 150 606 137 590 _c
123 574 117 556 117 536 _c
117 504 133 478 165 457 _c
_cl}_e}_d
/h{{555 0 30 0 537 694 _sc
30 0 _m
30 35 _l
52 35 71 36 86 40 _c
100 44 108 53 108 67 _c
108 592 _l
108 610 105 623 100 631 _c
94 639 87 643 77 645 _c
67 647 51 648 30 648 _c
30 683 _l
178 694 _l
178 350 _l
192 378 211 400 236 417 _c
261 433 289 442 320 442 _c
366 442 400 430 424 408 _c
447 386 459 352 459 307 _c
459 67 _l
459 53 466 44 481 40 _c
}_e{495 36 514 35 537 35 _c
537 0 _l
308 0 _l
308 35 _l
330 35 349 36 364 40 _c
378 44 386 53 386 67 _c
386 304 _l
386 336 381 363 372 384 _c
362 405 343 416 314 416 _c
275 416 243 400 218 369 _c
193 338 181 303 181 264 _c
181 67 _l
181 53 188 44 203 40 _c
217 36 236 35 259 35 _c
259 0 _l
30 0 _l
_cl}_e}_d
/parenleft{{388 0 97 -249 332 750 _sc
310 -247 _m
272 -217 240 -184 214 -146 _c
187 -108 165 -67 148 -25 _c
131 17 118 62 110 109 _c
101 155 97 202 97 250 _c
97 298 101 345 110 392 _c
118 438 131 483 149 527 _c
166 570 188 611 215 649 _c
242 687 274 720 310 748 _c
310 749 311 750 315 750 _c
324 750 _l
326 750 327 749 329 747 _c
331 745 332 743 332 741 _c
332 738 331 736 330 735 _c
}_e{297 703 270 668 248 632 _c
226 596 209 557 196 516 _c
183 474 174 432 168 388 _c
162 344 159 298 159 250 _c
159 38 215 -122 329 -232 _c
331 -234 332 -236 332 -240 _c
332 -242 331 -244 329 -246 _c
327 -248 326 -249 324 -249 _c
315 -249 _l
311 -249 310 -248 310 -247 _c
_cl}_e}_d
/c{{444 0 33 -10 415 448 _sc
249 -10 _m
208 -10 171 0 139 21 _c
106 41 80 69 61 104 _c
42 139 33 176 33 216 _c
33 255 42 293 61 329 _c
79 365 105 393 138 415 _c
171 437 208 448 249 448 _c
288 448 324 440 356 425 _c
388 409 404 384 404 350 _c
404 337 399 326 390 316 _c
380 306 369 302 356 302 _c
342 302 331 306 322 316 _c
312 326 308 337 308 350 _c
}_e{308 362 311 372 319 381 _c
327 389 336 395 347 397 _c
324 411 292 419 250 419 _c
218 419 192 408 173 387 _c
153 365 140 339 132 308 _c
124 277 120 246 120 216 _c
120 183 124 152 134 122 _c
144 92 159 67 181 47 _c
202 27 229 18 261 18 _c
293 18 320 27 342 47 _c
364 66 379 91 387 123 _c
387 127 389 129 395 129 _c
407 129 _l
409 129 410 128 412 126 _c
}_e{414 124 415 122 415 120 _c
415 117 _l
405 77 385 46 355 24 _c
325 1 289 -10 249 -10 _c
_cl}_e}_d
/r{{391 0 26 0 364 442 _sc
26 0 _m
26 35 _l
48 35 67 36 82 40 _c
96 44 104 53 104 67 _c
104 340 _l
104 358 101 371 96 379 _c
90 387 83 391 73 393 _c
63 395 47 396 26 396 _c
26 431 _l
169 442 _l
169 344 _l
179 373 195 397 215 415 _c
235 433 259 442 287 442 _c
307 442 324 436 340 424 _c
356 412 364 397 364 378 _c
364 366 359 355 351 346 _c
}_e{342 337 331 333 319 333 _c
306 333 295 337 287 346 _c
278 354 274 365 274 378 _c
274 396 280 408 293 416 _c
287 416 _l
260 416 238 406 221 386 _c
203 366 191 342 184 314 _c
177 285 174 257 174 231 _c
174 67 _l
174 45 206 35 271 35 _c
271 0 _l
26 0 _l
_cl}_e}_d
end readonly def

/BuildGlyph
 {exch begin
 CharStrings exch
 2 copy known not{pop /.notdef}if
 true 3 1 roll get exec
 end}_d

/BuildChar {
 1 index /Encoding get exch get
 1 index /BuildGlyph get exec
}_d

FontName currentdict end definefont pop
%!PS-Adobe-3.0 Resource-Font
%%Title: cmmi10
%%Copyright: Copyright (C) 1994, Basil K. Malyshev. All Rights Reserved.012BaKoMa Fonts Collection, Level-B.
%%Creator: Converted from TrueType to type 3 by PPR
25 dict begin
/_d{bind def}bind def
/_m{moveto}_d
/_l{lineto}_d
/_cl{closepath eofill}_d
/_c{curveto}_d
/_sc{7 -1 roll{setcachedevice}{pop pop pop pop pop pop}ifelse}_d
/_e{exec}_d
/FontName /Cmmi10 def
/PaintType 0 def
/FontMatrix[.001 0 0 .001 0 0]def
/FontBBox[-34 -250 1048 750]def
/FontType 3 def
/Encoding [ /eta /period /b /f /slash /greater ] def
/FontInfo 10 dict dup begin
/FamilyName (cmmi10) def
/FullName (cmmi10) def
/Notice (Copyright (C) 1994, Basil K. Malyshev. All Rights Reserved.012BaKoMa Fonts Collection, Level-B. ) def
/Weight (Regular) def
/Version (1.1/12-Nov-94) def
/ItalicAngle 0.0 def
/isFixedPitch false def
/UnderlinePosition -133 def
/UnderlineThickness 20 def
end readonly def
/CharStrings 6 dict dup begin
/eta{{496 0 27 -215 497 442 _sc
107 -10 _m
99 -10 92 -7 86 -3 _c
80 1 77 8 77 17 _c
77 21 77 24 78 26 _c
153 324 _l
157 342 160 359 160 373 _c
160 401 150 416 131 416 _c
110 416 94 403 84 378 _c
74 353 64 322 55 284 _c
55 282 54 280 52 279 _c
50 278 48 278 47 278 _c
35 278 _l
33 278 31 279 29 281 _c
27 283 27 286 27 288 _c
}_e{34 317 41 342 48 362 _c
54 382 65 400 79 417 _c
93 433 110 442 132 442 _c
156 442 178 434 198 418 _c
217 402 227 382 227 358 _c
246 384 269 404 295 419 _c
321 434 350 442 382 442 _c
416 442 444 432 465 414 _c
486 395 497 368 497 334 _c
497 314 494 295 490 279 _c
374 -183 _l
372 -192 367 -200 359 -206 _c
351 -212 343 -215 333 -215 _c
325 -215 318 -212 312 -207 _c
}_e{306 -202 303 -195 303 -187 _c
303 -183 303 -180 304 -179 _c
419 281 _l
425 308 429 331 429 349 _c
429 367 425 383 417 396 _c
409 409 397 416 380 416 _c
314 416 260 375 217 295 _c
149 22 _l
147 12 142 5 134 -1 _c
126 -7 117 -10 107 -10 _c
_cl}_e}_d
/period{277 0 84 0 194 110 _sc
84 55 _m
84 70 89 83 100 94 _c
111 104 124 110 139 110 _c
148 110 157 107 166 102 _c
174 97 181 90 186 82 _c
191 73 194 64 194 55 _c
194 40 188 27 178 16 _c
167 5 154 0 139 0 _c
124 0 111 5 100 16 _c
89 27 84 40 84 55 _c
_cl}_d
/b{{429 0 45 -10 416 694 _sc
173 -10 _m
132 -10 100 5 78 36 _c
56 67 45 104 45 147 _c
45 153 46 165 49 183 _c
52 201 54 212 54 217 _c
151 605 _l
153 616 155 625 156 632 _c
156 642 134 648 91 648 _c
84 648 81 652 81 661 _c
81 663 82 666 83 670 _c
84 674 85 677 87 679 _c
89 681 91 683 95 683 _c
230 694 _l
238 694 242 689 242 681 _c
168 386 _l
}_e{206 423 244 442 282 442 _c
310 442 335 434 355 419 _c
375 404 391 384 401 360 _c
411 336 416 310 416 282 _c
416 250 409 216 397 182 _c
384 148 367 116 345 86 _c
323 56 297 33 267 16 _c
237 -1 206 -10 173 -10 _c
175 15 _m
197 15 219 24 239 43 _c
259 62 275 84 287 108 _c
300 134 312 170 324 216 _c
336 262 342 298 342 326 _c
342 350 337 371 327 389 _c
}_e{317 407 301 416 280 416 _c
256 416 233 407 211 389 _c
189 371 169 350 153 326 _c
125 213 _l
114 171 108 137 108 112 _c
108 86 113 64 124 44 _c
135 24 152 15 175 15 _c
_cl}_e}_d
/f{{489 0 53 -204 552 705 _sc
97 -164 _m
109 -173 124 -178 142 -178 _c
166 -178 185 -151 200 -99 _c
206 -73 223 9 251 151 _c
297 396 _l
211 396 _l
204 396 201 400 201 409 _c
203 423 208 431 214 431 _c
303 431 _l
315 496 _l
319 516 322 533 326 548 _c
329 562 332 576 336 588 _c
340 600 345 614 353 630 _c
364 652 379 670 399 684 _c
418 698 439 705 462 705 _c
476 705 490 702 504 697 _c
}_e{518 691 529 683 538 673 _c
547 662 552 649 552 635 _c
552 617 546 602 535 590 _c
523 578 510 572 494 572 _c
483 572 474 575 466 582 _c
458 588 455 597 455 608 _c
455 622 460 635 470 646 _c
480 657 492 663 507 665 _c
494 674 479 679 461 679 _c
451 679 441 674 432 665 _c
423 655 417 645 415 635 _c
411 617 401 571 387 497 _c
375 431 _l
478 431 _l
484 431 488 426 488 418 _c
}_e{487 416 486 413 485 409 _c
484 405 483 401 481 399 _c
479 397 477 396 475 396 _c
368 396 _l
322 152 _l
316 116 309 80 301 44 _c
293 8 283 -29 269 -68 _c
255 -106 238 -139 216 -165 _c
194 -191 169 -204 140 -204 _c
117 -204 97 -197 79 -185 _c
61 -172 53 -155 53 -134 _c
53 -116 58 -101 69 -89 _c
80 -77 94 -71 111 -71 _c
121 -71 130 -74 138 -81 _c
146 -87 150 -96 150 -107 _c
}_e{150 -121 144 -134 134 -146 _c
123 -158 111 -164 97 -164 _c
_cl}_e}_d
/slash{500 0 56 -249 443 750 _sc
56 -229 _m
56 -227 56 -225 57 -225 _c
405 738 _l
406 742 408 745 412 747 _c
415 749 419 750 423 750 _c
429 750 433 748 437 744 _c
441 740 443 736 443 730 _c
443 726 _l
95 -237 _l
91 -245 84 -249 76 -249 _c
70 -249 66 -247 62 -243 _c
58 -239 56 -234 56 -229 _c
_cl}_d
/greater{777 0 83 -39 694 540 _sc
83 -19 _m
83 -10 87 -4 96 0 _c
627 250 _l
93 503 _l
86 505 83 510 83 520 _c
83 524 84 529 88 533 _c
92 537 97 540 103 540 _c
104 540 107 539 111 538 _c
685 267 _l
691 264 694 258 694 250 _c
694 241 690 235 682 232 _c
111 -37 _l
107 -38 104 -39 103 -39 _c
97 -39 92 -36 88 -32 _c
84 -28 83 -23 83 -19 _c
_cl}_d
end readonly def

/BuildGlyph
 {exch begin
 CharStrings exch
 2 copy known not{pop /.notdef}if
 true 3 1 roll get exec
 end}_d

/BuildChar {
 1 index /Encoding get exch get
 1 index /BuildGlyph get exec
}_d

FontName currentdict end definefont pop
%!PS-Adobe-3.0 Resource-Font
%%Title: Bitstream Vera Serif
%%Copyright: Copyright (c) 2003 by Bitstream, Inc. All Rights Reserved.
%%Creator: Converted from TrueType to type 3 by PPR
25 dict begin
/_d{bind def}bind def
/_m{moveto}_d
/_l{lineto}_d
/_cl{closepath eofill}_d
/_c{curveto}_d
/_sc{7 -1 roll{setcachedevice}{pop pop pop pop pop pop}ifelse}_d
/_e{exec}_d
/FontName /BitstreamVeraSerif-Roman def
/PaintType 0 def
/FontMatrix[.001 0 0 .001 0 0]def
/FontBBox[-183 -236 1287 928]def
/FontType 3 def
/Encoding [ /space /period /slash /zero /one /two /three /five /six /seven /eight /nine /greater /F /H /bracketleft /bracketright /e /minus ] def
/FontInfo 10 dict dup begin
/FamilyName (Bitstream Vera Serif) def
/FullName (Bitstream Vera Serif) def
/Notice (Copyright (c) 2003 by Bitstream, Inc. All Rights Reserved. Bitstream Vera is a trademark of Bitstream, Inc.) def
/Weight (Roman) def
/Version (Release 1.10) def
/ItalicAngle 0.0 def
/isFixedPitch false def
/UnderlinePosition -213 def
/UnderlineThickness 133 def
end readonly def
/CharStrings 19 dict dup begin
/space{318 0 0 0 0 0 _sc
}_d
/period{318 0 94 -13 224 116 _sc
94 51 _m
94 69 100 84 112 97 _c
124 109 140 116 159 116 _c
177 116 192 109 205 97 _c
217 84 224 69 224 51 _c
224 33 217 17 205 5 _c
192 -7 177 -13 159 -13 _c
140 -13 124 -7 112 5 _c
100 17 94 32 94 51 _c
_cl}_d
/slash{337 0 0 -92 337 729 _sc
259 729 _m
337 729 _l
78 -92 _l
0 -92 _l
259 729 _l
_cl}_d
/zero{636 0 66 -13 570 742 _sc
318 34 _m
368 34 405 61 430 116 _c
454 170 467 253 467 364 _c
467 474 454 557 430 612 _c
405 666 368 694 318 694 _c
268 694 230 666 206 612 _c
181 557 169 474 169 364 _c
169 253 181 170 206 116 _c
230 61 268 34 318 34 _c
318 -13 _m
238 -13 176 20 132 86 _c
88 152 66 244 66 364 _c
66 483 88 576 132 642 _c
176 708 238 742 318 742 _c
397 742 459 708 503 642 _c
547 576 570 483 570 364 _c
570 244 547 152 503 86 _c
459 20 397 -13 318 -13 _c
_cl}_d
/one{636 0 122 0 494 742 _sc
142 0 _m
142 52 _l
269 52 _l
269 658 _l
122 563 _l
122 627 _l
300 742 _l
367 742 _l
367 52 _l
494 52 _l
494 0 _l
142 0 _l
_cl}_d
/two{{636 0 68 0 538 742 _sc
128 555 _m
73 555 _l
73 685 _l
107 703 142 717 178 727 _c
213 737 248 742 282 742 _c
358 742 418 723 462 687 _c
506 650 528 600 528 537 _c
528 465 478 380 378 281 _c
370 273 365 268 361 264 _c
177 80 _l
481 80 _l
481 170 _l
538 170 _l
538 0 _l
68 0 _l
68 53 _l
289 274 _l
337 322 372 367 393 408 _c
414 449 425 492 425 537 _c
}_e{425 586 412 624 386 652 _c
360 680 325 694 281 694 _c
234 694 198 682 173 659 _c
147 636 132 601 128 555 _c
_cl}_e}_d
/three{{636 0 76 -13 562 742 _sc
97 698 _m
135 712 171 723 206 731 _c
241 738 274 742 305 742 _c
376 742 432 726 472 696 _c
512 665 532 622 532 568 _c
532 524 518 487 490 458 _c
462 428 423 408 373 398 _c
433 389 479 367 512 332 _c
545 297 562 252 562 197 _c
562 129 539 77 493 41 _c
447 5 382 -13 296 -13 _c
258 -13 220 -9 184 -1 _c
148 6 112 18 76 35 _c
76 177 _l
}_e{131 177 _l
134 129 150 94 178 70 _c
206 46 246 34 298 34 _c
348 34 387 48 416 77 _c
444 106 459 146 459 196 _c
459 253 444 296 414 326 _c
384 355 341 370 284 370 _c
238 370 _l
238 420 _l
262 420 _l
319 420 362 431 390 455 _c
418 479 433 514 433 562 _c
433 604 421 637 398 660 _c
374 682 341 694 297 694 _c
253 694 218 683 194 662 _c
170 641 156 610 152 570 _c
}_e{97 570 _l
97 698 _l
_cl}_e}_d
/five{{636 0 85 -13 559 729 _sc
503 729 _m
503 649 _l
169 649 _l
169 440 _l
185 452 205 460 228 466 _c
250 472 276 475 304 475 _c
382 475 444 453 490 409 _c
536 365 559 306 559 231 _c
559 153 536 93 490 51 _c
444 8 379 -13 296 -13 _c
262 -13 228 -9 193 -1 _c
157 6 121 18 85 35 _c
85 177 _l
140 177 _l
143 130 158 94 184 70 _c
210 46 248 34 296 34 _c
}_e{347 34 386 51 414 85 _c
442 119 456 167 456 231 _c
456 294 442 342 415 376 _c
387 410 348 427 296 427 _c
266 427 240 421 218 411 _c
196 401 176 385 159 363 _c
117 363 _l
117 729 _l
503 729 _l
_cl}_e}_d
/six{{636 0 67 -13 573 742 _sc
327 34 _m
373 34 408 50 433 84 _c
457 118 470 166 470 230 _c
470 293 457 341 433 375 _c
408 409 373 426 327 426 _c
280 426 244 409 220 377 _c
196 344 184 297 184 236 _c
184 171 196 121 221 86 _c
245 51 281 34 327 34 _c
168 401 _m
190 425 215 444 243 456 _c
271 468 302 474 338 474 _c
410 474 468 452 510 408 _c
552 364 573 305 573 230 _c
}_e{573 156 550 97 505 53 _c
459 9 399 -13 323 -13 _c
241 -13 177 17 133 78 _c
89 139 67 227 67 341 _c
67 468 93 567 145 637 _c
197 707 271 742 367 742 _c
393 742 420 739 448 735 _c
476 730 505 723 535 713 _c
535 593 _l
480 593 _l
476 625 463 650 442 668 _c
421 685 393 694 357 694 _c
293 694 246 670 215 622 _c
184 574 168 500 168 401 _c
_cl}_e}_d
/seven{636 0 84 0 564 729 _sc
564 679 _m
279 0 _l
206 0 _l
478 649 _l
141 649 _l
141 559 _l
84 559 _l
84 729 _l
564 729 _l
564 679 _l
_cl}_d
/eight{{636 0 67 -13 569 742 _sc
466 199 _m
466 251 453 291 427 320 _c
401 349 364 364 318 364 _c
271 364 235 349 209 320 _c
183 291 170 251 170 199 _c
170 147 183 106 209 77 _c
235 48 271 34 318 34 _c
364 34 401 48 427 77 _c
453 106 466 147 466 199 _c
446 553 _m
446 597 434 632 412 657 _c
389 681 358 694 318 694 _c
278 694 246 681 224 657 _c
201 632 190 597 190 553 _c
}_e{190 508 201 473 224 449 _c
246 424 278 412 318 412 _c
358 412 389 424 412 449 _c
434 473 428 453 393 388 _c
448 380 491 360 522 327 _c
553 293 569 251 569 199 _c
569 131 547 78 504 42 _c
460 5 398 -13 318 -13 _c
237 -13 175 5 132 42 _c
88 78 67 131 67 199 _c
67 251 82 293 113 327 _c
144 360 187 380 243 388 _c
193 396 156 415 130 444 _c
}_e{104 472 91 509 91 553 _c
91 611 111 657 151 691 _c
191 725 247 742 318 742 _c
388 742 444 725 484 691 _c
524 657 545 611 545 553 _c
545 509 531 472 505 444 _c
479 415 459 451 446 553 _c
_cl}_e}_d
/nine{{636 0 63 -13 569 742 _sc
468 327 _m
446 302 420 284 392 272 _c
364 260 332 254 297 254 _c
224 254 167 275 125 319 _c
83 363 63 422 63 498 _c
63 572 85 631 131 675 _c
176 719 237 742 313 742 _c
395 742 459 711 503 650 _c
547 588 569 501 569 387 _c
569 259 542 161 490 91 _c
438 21 364 -13 269 -13 _c
243 -13 216 -10 188 -6 _c
160 -2 131 5 101 15 _c
101 136 _l
}_e{156 136 _l
160 103 172 78 194 60 _c
215 42 243 34 279 34 _c
342 34 389 57 420 105 _c
450 153 466 227 468 327 _c
309 694 _m
263 694 227 677 203 643 _c
178 609 166 561 166 498 _c
166 434 178 386 203 352 _c
227 318 263 302 309 302 _c
355 302 390 318 415 351 _c
439 383 452 430 452 492 _c
452 556 439 606 415 641 _c
390 676 355 694 309 694 _c
_cl}_e}_d
/greater{838 0 106 46 732 581 _sc
106 498 _m
106 581 _l
732 354 _l
732 273 _l
106 46 _l
106 129 _l
613 313 _l
106 498 _l
_cl}_d
/F{694 0 55 0 652 729 _sc
55 0 _m
55 52 _l
148 52 _l
148 677 _l
55 677 _l
55 729 _l
652 729 _l
652 567 _l
592 567 _l
592 669 _l
247 669 _l
247 425 _l
496 425 _l
496 516 _l
556 516 _l
556 274 _l
496 274 _l
496 365 _l
247 365 _l
247 52 _l
364 52 _l
364 0 _l
55 0 _l
_cl}_d
/H{{872 0 55 0 817 729 _sc
55 0 _m
55 52 _l
148 52 _l
148 677 _l
55 677 _l
55 729 _l
340 729 _l
340 677 _l
247 677 _l
247 425 _l
625 425 _l
625 677 _l
532 677 _l
532 729 _l
817 729 _l
817 677 _l
724 677 _l
724 52 _l
817 52 _l
817 0 _l
532 0 _l
532 52 _l
625 52 _l
625 365 _l
247 365 _l
247 52 _l
340 52 _l
340 0 _l
55 0 _l
_cl}_e}_d
/bracketleft{390 0 86 -131 313 760 _sc
86 760 _m
313 760 _l
313 708 _l
179 708 _l
179 -79 _l
313 -79 _l
313 -131 _l
86 -131 _l
86 760 _l
_cl}_d
/bracketright{390 0 77 -131 304 760 _sc
304 760 _m
304 -131 _l
77 -131 _l
77 -79 _l
211 -79 _l
211 708 _l
77 708 _l
77 760 _l
304 760 _l
_cl}_d
/e{{592 0 50 -13 542 533 _sc
542 250 _m
155 250 _l
155 246 _l
155 176 168 123 194 87 _c
220 51 259 34 311 34 _c
350 34 382 44 408 65 _c
433 85 451 116 461 157 _c
533 157 _l
519 100 492 57 454 29 _c
415 1 364 -13 302 -13 _c
226 -13 165 11 119 61 _c
73 111 50 177 50 260 _c
50 342 72 408 118 458 _c
163 508 222 533 296 533 _c
374 533 435 508 477 460 _c
}_e{519 412 540 342 542 250 _c
436 302 _m
434 362 421 408 397 439 _c
373 469 340 485 296 485 _c
254 485 222 469 198 438 _c
174 407 160 362 155 302 _c
436 302 _l
_cl}_e}_d
/minus{838 0 106 274 732 353 _sc
106 353 _m
732 353 _l
732 274 _l
106 274 _l
106 353 _l
_cl}_d
end readonly def

/BuildGlyph
 {exch begin
 CharStrings exch
 2 copy known not{pop /.notdef}if
 true 3 1 roll get exec
 end}_d

/BuildChar {
 1 index /Encoding get exch get
 1 index /BuildGlyph get exec
}_d

FontName currentdict end definefont pop
end
%%EndProlog
mpldict begin
18 252 translate
576 288 0 0 clipbox
gsave
0 0 m
576 0 l
576 288 l
0 288 l
cl
1.000 setgray
fill
grestore
gsave
72 28.8 m
518.4 28.8 l
518.4 259.2 l
72 259.2 l
cl
1.000 setgray
fill
grestore
1.500 setlinewidth
1 setlinejoin
2 setlinecap
[] 0 setdash
0.196 0.804 0.196 setrgbcolor
gsave
446.4 230.4 72 28.8 clipbox
-151.2 -55.9705 m
-1 20.2881 m
14.1333 27.9715 l
96.8 69.9425 l
179.467 111.914 l
262.133 153.885 l
344.8 195.856 l
427.467 237.827 l
510.133 279.798 l
528.259 289 l
stroke
grestore
0 setlinecap
[6 6] 0 setdash
0.294 0.000 0.510 setrgbcolor
gsave
446.4 230.4 72 28.8 clipbox
-151.2 -0.314317 m
-1 58.7635 m
14.1333 64.7159 l
96.8 97.231 l
179.467 129.746 l
262.133 162.261 l
344.8 194.776 l
427.467 227.291 l
510.133 259.807 l
577 286.107 l
stroke
grestore
[1 3] 0 setdash
1.000 0.271 0.000 setrgbcolor
gsave
446.4 230.4 72 28.8 clipbox
-151.2 68.8952 m
-1 107.589 m
14.1333 111.487 l
96.8 132.783 l
179.467 154.079 l
262.133 175.375 l
344.8 196.671 l
427.467 217.968 l
510.133 239.264 l
577 256.489 l
stroke
grestore
/p0_0 {
newpath
translate
192.507 85.3787 m
192.507 147.259 l
} bind def
/p0_1 {
newpath
translate
274.783 131.133 m
274.783 199.128 l
} bind def
/p0_2 {
newpath
translate
377.218 173.257 m
377.218 246.4 l
} bind def
3.000 setlinewidth
[] 0 setdash
0.196 0.804 0.196 setrgbcolor
gsave
446.4 230.4 72 28.8 clipbox
0 0 p0_0
stroke
grestore
gsave
446.4 230.4 72 28.8 clipbox
0 0 p0_1
stroke
grestore
gsave
446.4 230.4 72 28.8 clipbox
0 0 p0_2
stroke
grestore
/p1_0 {
newpath
translate
192.507 113.699 m
192.507 160.515 l
} bind def
/p1_1 {
newpath
translate
274.783 138.253 m
274.783 187.364 l
} bind def
/p1_2 {
newpath
translate
377.218 183.305 m
377.218 236.352 l
} bind def
2.000 setlinewidth
0.294 0.000 0.510 setrgbcolor
gsave
446.4 230.4 72 28.8 clipbox
0 0 p1_0
stroke
grestore
gsave
446.4 230.4 72 28.8 clipbox
0 0 p1_1
stroke
grestore
gsave
446.4 230.4 72 28.8 clipbox
0 0 p1_2
stroke
grestore
/p2_0 {
newpath
translate
192.507 143.338 m
192.507 181.785 l
} bind def
/p2_1 {
newpath
translate
274.783 149.727 m
274.783 188.628 l
} bind def
/p2_2 {
newpath
translate
377.218 189.053 m
377.218 230.604 l
} bind def
1.000 setlinewidth
1.000 0.271 0.000 setrgbcolor
gsave
446.4 230.4 72 28.8 clipbox
0 0 p2_0
stroke
grestore
gsave
446.4 230.4 72 28.8 clipbox
0 0 p2_1
stroke
grestore
gsave
446.4 230.4 72 28.8 clipbox
0 0 p2_2
stroke
grestore
0.500 setlinewidth
0.196 0.804 0.196 setrgbcolor
gsave
446.4 230.4 72 28.8 clipbox
/o {
gsave
newpath
translate
0.5 setlinewidth
1 setlinejoin
0 setlinecap
7 -4.28626e-16 m
-7 4.28626e-16 l
gsave
0.196 0.804 0.196 setrgbcolor
fill
grestore
stroke
grestore
} bind def
192.507 85.3787 o
274.783 131.133 o
377.218 173.257 o
grestore
gsave
446.4 230.4 72 28.8 clipbox
/o {
gsave
newpath
translate
0.5 setlinewidth
1 setlinejoin
0 setlinecap
7 -4.28626e-16 m
-7 4.28626e-16 l
gsave
0.196 0.804 0.196 setrgbcolor
fill
grestore
stroke
grestore
} bind def
192.507 147.259 o
274.783 199.128 o
377.218 246.4 o
grestore
0.294 0.000 0.510 setrgbcolor
gsave
446.4 230.4 72 28.8 clipbox
/o {
gsave
newpath
translate
0.5 setlinewidth
1 setlinejoin
0 setlinecap
7 -4.28626e-16 m
-7 4.28626e-16 l
gsave
0.294 0.000 0.510 setrgbcolor
fill
grestore
stroke
grestore
} bind def
192.507 113.699 o
274.783 138.253 o
377.218 183.305 o
grestore
gsave
446.4 230.4 72 28.8 clipbox
/o {
gsave
newpath
translate
0.5 setlinewidth
1 setlinejoin
0 setlinecap
7 -4.28626e-16 m
-7 4.28626e-16 l
gsave
0.294 0.000 0.510 setrgbcolor
fill
grestore
stroke
grestore
} bind def
192.507 160.515 o
274.783 187.364 o
377.218 236.352 o
grestore
1.000 0.271 0.000 setrgbcolor
gsave
446.4 230.4 72 28.8 clipbox
/o {
gsave
newpath
translate
0.5 setlinewidth
1 setlinejoin
0 setlinecap
7 -4.28626e-16 m
-7 4.28626e-16 l
gsave
1.000 0.271 0.000 setrgbcolor
fill
grestore
stroke
grestore
} bind def
192.507 143.338 o
274.783 149.727 o
377.218 189.053 o
grestore
gsave
446.4 230.4 72 28.8 clipbox
/o {
gsave
newpath
translate
0.5 setlinewidth
1 setlinejoin
0 setlinecap
7 -4.28626e-16 m
-7 4.28626e-16 l
gsave
1.000 0.271 0.000 setrgbcolor
fill
grestore
stroke
grestore
} bind def
192.507 181.785 o
274.783 188.628 o
377.218 230.604 o
grestore
1.000 setlinewidth
0.000 setgray
gsave
/o {
gsave
newpath
translate
1.0 setlinewidth
1 setlinejoin
0 setlinecap
0 0 m
0 5 l
gsave
0.000 setgray
fill
grestore
stroke
grestore
} bind def
72 28.8 o
grestore
gsave
/o {
gsave
newpath
translate
1.0 setlinewidth
1 setlinejoin
0 setlinecap
0 0 m
0 -5 l
gsave
0.000 setgray
fill
grestore
stroke
grestore
} bind def
72 259.2 o
grestore
/BitstreamVeraSerif-Roman findfont
12.000 scalefont
setfont
gsave
58.523438 15.721875 translate
0.000000 rotate
0.000000 0.171875 m /minus glyphshow
10.054688 0.171875 m /two glyphshow
17.689453 0.171875 m /period glyphshow
21.503906 0.171875 m /five glyphshow
grestore
gsave
/o {
gsave
newpath
translate
1.0 setlinewidth
1 setlinejoin
0 setlinecap
0 0 m
0 5 l
gsave
0.000 setgray
fill
grestore
stroke
grestore
} bind def
146.4 28.8 o
grestore
gsave
/o {
gsave
newpath
translate
1.0 setlinewidth
1 setlinejoin
0 setlinecap
0 0 m
0 -5 l
gsave
0.000 setgray
fill
grestore
stroke
grestore
} bind def
146.4 259.2 o
grestore
gsave
132.853125 15.721875 translate
0.000000 rotate
0.000000 0.171875 m /minus glyphshow
10.054688 0.171875 m /two glyphshow
17.689453 0.171875 m /period glyphshow
21.503906 0.171875 m /zero glyphshow
grestore
gsave
/o {
gsave
newpath
translate
1.0 setlinewidth
1 setlinejoin
0 setlinecap
0 0 m
0 5 l
gsave
0.000 setgray
fill
grestore
stroke
grestore
} bind def
220.8 28.8 o
grestore
gsave
/o {
gsave
newpath
translate
1.0 setlinewidth
1 setlinejoin
0 setlinecap
0 0 m
0 -5 l
gsave
0.000 setgray
fill
grestore
stroke
grestore
} bind def
220.8 259.2 o
grestore
gsave
207.323437 15.721875 translate
0.000000 rotate
0.000000 0.171875 m /minus glyphshow
10.054688 0.171875 m /one glyphshow
17.689453 0.171875 m /period glyphshow
21.503906 0.171875 m /five glyphshow
grestore
gsave
/o {
gsave
newpath
translate
1.0 setlinewidth
1 setlinejoin
0 setlinecap
0 0 m
0 5 l
gsave
0.000 setgray
fill
grestore
stroke
grestore
} bind def
295.2 28.8 o
grestore
gsave
/o {
gsave
newpath
translate
1.0 setlinewidth
1 setlinejoin
0 setlinecap
0 0 m
0 -5 l
gsave
0.000 setgray
fill
grestore
stroke
grestore
} bind def
295.2 259.2 o
grestore
gsave
281.653125 15.721875 translate
0.000000 rotate
0.000000 0.171875 m /minus glyphshow
10.054688 0.171875 m /one glyphshow
17.689453 0.171875 m /period glyphshow
21.503906 0.171875 m /zero glyphshow
grestore
gsave
/o {
gsave
newpath
translate
1.0 setlinewidth
1 setlinejoin
0 setlinecap
0 0 m
0 5 l
gsave
0.000 setgray
fill
grestore
stroke
grestore
} bind def
369.6 28.8 o
grestore
gsave
/o {
gsave
newpath
translate
1.0 setlinewidth
1 setlinejoin
0 setlinecap
0 0 m
0 -5 l
gsave
0.000 setgray
fill
grestore
stroke
grestore
} bind def
369.6 259.2 o
grestore
gsave
356.123437 15.721875 translate
0.000000 rotate
0.000000 0.171875 m /minus glyphshow
10.054688 0.171875 m /zero glyphshow
17.689453 0.171875 m /period glyphshow
21.503906 0.171875 m /five glyphshow
grestore
gsave
/o {
gsave
newpath
translate
1.0 setlinewidth
1 setlinejoin
0 setlinecap
0 0 m
0 5 l
gsave
0.000 setgray
fill
grestore
stroke
grestore
} bind def
444 28.8 o
grestore
gsave
/o {
gsave
newpath
translate
1.0 setlinewidth
1 setlinejoin
0 setlinecap
0 0 m
0 -5 l
gsave
0.000 setgray
fill
grestore
stroke
grestore
} bind def
444 259.2 o
grestore
gsave
435.250000 15.721875 translate
0.000000 rotate
0.000000 0.171875 m /zero glyphshow
7.634766 0.171875 m /period glyphshow
11.449219 0.171875 m /zero glyphshow
grestore
gsave
/o {
gsave
newpath
translate
1.0 setlinewidth
1 setlinejoin
0 setlinecap
0 0 m
0 5 l
gsave
0.000 setgray
fill
grestore
stroke
grestore
} bind def
518.4 28.8 o
grestore
gsave
/o {
gsave
newpath
translate
1.0 setlinewidth
1 setlinejoin
0 setlinecap
0 0 m
0 -5 l
gsave
0.000 setgray
fill
grestore
stroke
grestore
} bind def
518.4 259.2 o
grestore
gsave
509.720312 15.721875 translate
0.000000 rotate
0.000000 0.171875 m /zero glyphshow
7.634766 0.171875 m /period glyphshow
11.449219 0.171875 m /five glyphshow
grestore
gsave
276.879687 0.018750 translate
0.000000 rotate
0.000000 1.578125 m /bracketleft glyphshow
4.681641 1.578125 m /F glyphshow
12.382812 1.578125 m /e glyphshow
19.484375 1.578125 m /slash glyphshow
23.527344 1.578125 m /H glyphshow
33.992188 1.578125 m /bracketright glyphshow
grestore
gsave
/o {
gsave
newpath
translate
1.0 setlinewidth
1 setlinejoin
0 setlinecap
0 0 m
5 0 l
gsave
0.000 setgray
fill
grestore
stroke
grestore
} bind def
72 45.2571 o
grestore
/BitstreamVeraSerif-Roman findfont
13.000 scalefont
setfont
gsave
49.187500 40.335268 translate
0.000000 rotate
0.000000 0.187500 m /zero glyphshow
8.270996 0.187500 m /period glyphshow
12.403320 0.187500 m /five glyphshow
grestore
gsave
/o {
gsave
newpath
translate
1.0 setlinewidth
1 setlinejoin
0 setlinecap
0 0 m
5 0 l
gsave
0.000 setgray
fill
grestore
stroke
grestore
} bind def
72 78.1714 o
grestore
gsave
49.000000 73.249554 translate
0.000000 rotate
0.000000 0.187500 m /zero glyphshow
8.270996 0.187500 m /period glyphshow
12.403320 0.187500 m /six glyphshow
grestore
gsave
/o {
gsave
newpath
translate
1.0 setlinewidth
1 setlinejoin
0 setlinecap
0 0 m
5 0 l
gsave
0.000 setgray
fill
grestore
stroke
grestore
} bind def
72 111.086 o
grestore
gsave
49.125000 106.163839 translate
0.000000 rotate
0.000000 0.187500 m /zero glyphshow
8.270996 0.187500 m /period glyphshow
12.403320 0.187500 m /seven glyphshow
grestore
gsave
/o {
gsave
newpath
translate
1.0 setlinewidth
1 setlinejoin
0 setlinecap
0 0 m
5 0 l
gsave
0.000 setgray
fill
grestore
stroke
grestore
} bind def
72 144 o
grestore
gsave
49.062500 139.078125 translate
0.000000 rotate
0.000000 0.187500 m /zero glyphshow
8.270996 0.187500 m /period glyphshow
12.403320 0.187500 m /eight glyphshow
grestore
gsave
/o {
gsave
newpath
translate
1.0 setlinewidth
1 setlinejoin
0 setlinecap
0 0 m
5 0 l
gsave
0.000 setgray
fill
grestore
stroke
grestore
} bind def
72 176.914 o
grestore
gsave
49.062500 171.992411 translate
0.000000 rotate
0.000000 0.187500 m /zero glyphshow
8.270996 0.187500 m /period glyphshow
12.403320 0.187500 m /nine glyphshow
grestore
gsave
/o {
gsave
newpath
translate
1.0 setlinewidth
1 setlinejoin
0 setlinecap
0 0 m
5 0 l
gsave
0.000 setgray
fill
grestore
stroke
grestore
} bind def
72 209.829 o
grestore
gsave
49.781250 204.906696 translate
0.000000 rotate
0.000000 0.187500 m /one glyphshow
8.270996 0.187500 m /period glyphshow
12.403320 0.187500 m /zero glyphshow
grestore
gsave
/o {
gsave
newpath
translate
1.0 setlinewidth
1 setlinejoin
0 setlinecap
0 0 m
5 0 l
gsave
0.000 setgray
fill
grestore
stroke
grestore
} bind def
72 242.743 o
grestore
gsave
50.765625 237.820982 translate
0.000000 rotate
0.000000 0.187500 m /one glyphshow
8.270996 0.187500 m /period glyphshow
12.403320 0.187500 m /one glyphshow
grestore
gsave
44.000000 120.500000 translate
90.000000 rotate
/Cmmi10 findfont
12.0 scalefont
setfont
0.000000 4.762688 moveto
/f glyphshow

/Cmmi10 findfont
8.4 scalefont
setfont
5.865234 1.701563 moveto
/b glyphshow

/Cmmi10 findfont
12.0 scalefont
setfont
14.176172 4.762688 moveto
/slash glyphshow

23.336719 4.762688 moveto
/f glyphshow

/Cmr10 findfont
8.4 scalefont
setfont
30.726328 10.170313 moveto
/r glyphshow

34.011680 10.170313 moveto
/i glyphshow

36.337266 10.170313 moveto
/c glyphshow

40.065586 10.170313 moveto
/h glyphshow

/Cmmi10 findfont
8.4 scalefont
setfont
29.201953 1.701563 moveto
/b glyphshow


grestore
2 setlinecap
gsave
72 259.2 m
518.4 259.2 l
stroke
grestore
gsave
518.4 28.8 m
518.4 259.2 l
stroke
grestore
gsave
72 28.8 m
518.4 28.8 l
stroke
grestore
gsave
72 28.8 m
72 259.2 l
stroke
grestore
0.500 setlinewidth
0 setlinecap
gsave
/o {
gsave
newpath
translate
0.5 setlinewidth
1 setlinejoin
0 setlinecap
0 -3.5 m
0.928211 -3.5 1.81853 -3.13122 2.47487 -2.47487 c
3.13122 -1.81853 3.5 -0.928211 3.5 0 c
3.5 0.928211 3.13122 1.81853 2.47487 2.47487 c
1.81853 3.13122 0.928211 3.5 0 3.5 c
-0.928211 3.5 -1.81853 3.13122 -2.47487 2.47487 c
-3.13122 1.81853 -3.5 0.928211 -3.5 0 c
-3.5 -0.928211 -3.13122 -1.81853 -2.47487 -2.47487 c
-1.81853 -3.13122 -0.928211 -3.5 0 -3.5 c
cl
gsave
1.000 0.271 0.000 setrgbcolor
fill
grestore
stroke
grestore
} bind def
434.8 87.05 o
grestore
gsave
451.700000 79.500000 translate
0.000000 rotate
/Cmmi10 findfont
13.0 scalefont
setfont
0.000000 3.343750 moveto
/eta glyphshow

/BitstreamVeraSerif-Roman findfont
13.0 scalefont
setfont
6.449219 3.343750 moveto
/space glyphshow

10.581543 3.343750 moveto
/greater glyphshow

21.474121 3.343750 moveto
/space glyphshow

25.606445 3.343750 moveto
/zero glyphshow

33.877441 3.343750 moveto
/period glyphshow

38.009766 3.343750 moveto
/six glyphshow

46.280762 3.343750 moveto
/five glyphshow


grestore
0 setlinejoin
gsave
/o {
gsave
newpath
translate
0.5 setlinewidth
0 setlinejoin
0 setlinecap
-4.996e-16 -6.36396 m
6.36396 0 l
3.88578e-16 6.36396 l
-6.36396 8.88178e-16 l
cl
gsave
0.294 0.000 0.510 setrgbcolor
fill
grestore
stroke
grestore
} bind def
434.8 67.55 o
grestore
gsave
451.700000 60.000000 translate
0.000000 rotate
/Cmmi10 findfont
13.0 scalefont
setfont
0.000000 3.343750 moveto
/eta glyphshow

/BitstreamVeraSerif-Roman findfont
13.0 scalefont
setfont
6.449219 3.343750 moveto
/space glyphshow

10.581543 3.343750 moveto
/greater glyphshow

21.474121 3.343750 moveto
/space glyphshow

25.606445 3.343750 moveto
/zero glyphshow

33.877441 3.343750 moveto
/period glyphshow

37.509766 3.343750 moveto
/eight glyphshow

45.780762 3.343750 moveto
/zero glyphshow


grestore
gsave
/o {
gsave
newpath
translate
0.5 setlinewidth
0 setlinejoin
0 setlinecap
-5.5 -5.5 m
5.5 -5.5 l
5.5 5.5 l
-5.5 5.5 l
cl
gsave
0.196 0.804 0.196 setrgbcolor
fill
grestore
stroke
grestore
} bind def
434.8 48.05 o
grestore
gsave
451.700000 40.500000 translate
0.000000 rotate
/Cmmi10 findfont
13.0 scalefont
setfont
0.000000 3.343750 moveto
/eta glyphshow

/BitstreamVeraSerif-Roman findfont
13.0 scalefont
setfont
6.449219 3.343750 moveto
/space glyphshow

10.581543 3.343750 moveto
/greater glyphshow

21.474121 3.343750 moveto
/space glyphshow

25.606445 3.343750 moveto
/zero glyphshow

33.877441 3.343750 moveto
/period glyphshow

38.009766 3.343750 moveto
/nine glyphshow

46.280762 3.343750 moveto
/five glyphshow


grestore
gsave
446.4 230.4 72 28.8 clipbox
/o {
gsave
newpath
translate
0.5 setlinewidth
0 setlinejoin
0 setlinecap
-5.5 -5.5 m
5.5 -5.5 l
5.5 5.5 l
-5.5 5.5 l
cl
gsave
0.196 0.804 0.196 setrgbcolor
fill
grestore
stroke
grestore
} bind def
192.507 116.319 o
274.783 165.13 o
377.218 209.829 o
grestore
gsave
446.4 230.4 72 28.8 clipbox
/o {
gsave
newpath
translate
0.5 setlinewidth
0 setlinejoin
0 setlinecap
-4.996e-16 -6.36396 m
6.36396 0 l
3.88578e-16 6.36396 l
-6.36396 8.88178e-16 l
cl
gsave
0.294 0.000 0.510 setrgbcolor
fill
grestore
stroke
grestore
} bind def
192.507 137.107 o
274.783 162.808 o
377.218 209.829 o
grestore
1 setlinejoin
gsave
446.4 230.4 72 28.8 clipbox
/o {
gsave
newpath
translate
0.5 setlinewidth
1 setlinejoin
0 setlinecap
0 -3.5 m
0.928211 -3.5 1.81853 -3.13122 2.47487 -2.47487 c
3.13122 -1.81853 3.5 -0.928211 3.5 0 c
3.5 0.928211 3.13122 1.81853 2.47487 2.47487 c
1.81853 3.13122 0.928211 3.5 0 3.5 c
-0.928211 3.5 -1.81853 3.13122 -2.47487 2.47487 c
-3.13122 1.81853 -3.5 0.928211 -3.5 0 c
-3.5 -0.928211 -3.13122 -1.81853 -2.47487 -2.47487 c
-1.81853 -3.13122 -0.928211 -3.5 0 -3.5 c
cl
gsave
1.000 0.271 0.000 setrgbcolor
fill
grestore
stroke
grestore
} bind def
192.507 162.562 o
274.783 169.177 o
377.218 209.829 o
grestore
1.000 setlinewidth
0.294 0.000 0.510 setrgbcolor
gsave
/o {
gsave
newpath
translate
1.0 setlinewidth
1 setlinejoin
0 setlinecap
0 0 m
-5 0 l
gsave
0.294 0.000 0.510 setrgbcolor
fill
grestore
stroke
grestore
} bind def
518.4 45.2571 o
grestore
gsave
522.400000 40.335268 translate
0.000000 rotate
0.000000 0.187500 m /zero glyphshow
8.270996 0.187500 m /period glyphshow
12.403320 0.187500 m /zero glyphshow
20.674316 0.187500 m /one glyphshow
28.945312 0.187500 m /six glyphshow
grestore
gsave
/o {
gsave
newpath
translate
1.0 setlinewidth
1 setlinejoin
0 setlinecap
0 0 m
-5 0 l
gsave
0.294 0.000 0.510 setrgbcolor
fill
grestore
stroke
grestore
} bind def
518.4 78.1714 o
grestore
gsave
522.400000 73.249554 translate
0.000000 rotate
0.000000 0.187500 m /zero glyphshow
8.270996 0.187500 m /period glyphshow
12.403320 0.187500 m /zero glyphshow
20.674316 0.187500 m /one glyphshow
28.945312 0.187500 m /nine glyphshow
grestore
gsave
/o {
gsave
newpath
translate
1.0 setlinewidth
1 setlinejoin
0 setlinecap
0 0 m
-5 0 l
gsave
0.294 0.000 0.510 setrgbcolor
fill
grestore
stroke
grestore
} bind def
518.4 111.086 o
grestore
gsave
522.400000 106.163839 translate
0.000000 rotate
0.000000 0.187500 m /zero glyphshow
8.270996 0.187500 m /period glyphshow
12.403320 0.187500 m /zero glyphshow
20.674316 0.187500 m /two glyphshow
28.945312 0.187500 m /three glyphshow
grestore
gsave
/o {
gsave
newpath
translate
1.0 setlinewidth
1 setlinejoin
0 setlinecap
0 0 m
-5 0 l
gsave
0.294 0.000 0.510 setrgbcolor
fill
grestore
stroke
grestore
} bind def
518.4 144 o
grestore
gsave
522.400000 139.078125 translate
0.000000 rotate
0.000000 0.187500 m /zero glyphshow
8.270996 0.187500 m /period glyphshow
12.403320 0.187500 m /zero glyphshow
20.674316 0.187500 m /two glyphshow
28.945312 0.187500 m /six glyphshow
grestore
gsave
/o {
gsave
newpath
translate
1.0 setlinewidth
1 setlinejoin
0 setlinecap
0 0 m
-5 0 l
gsave
0.294 0.000 0.510 setrgbcolor
fill
grestore
stroke
grestore
} bind def
518.4 176.914 o
grestore
gsave
522.400000 171.992411 translate
0.000000 rotate
0.000000 0.187500 m /zero glyphshow
8.270996 0.187500 m /period glyphshow
12.403320 0.187500 m /zero glyphshow
20.674316 0.187500 m /two glyphshow
28.945312 0.187500 m /nine glyphshow
grestore
gsave
/o {
gsave
newpath
translate
1.0 setlinewidth
1 setlinejoin
0 setlinecap
0 0 m
-5 0 l
gsave
0.294 0.000 0.510 setrgbcolor
fill
grestore
stroke
grestore
} bind def
518.4 209.829 o
grestore
gsave
522.400000 204.906696 translate
0.000000 rotate
0.000000 0.187500 m /zero glyphshow
8.270996 0.187500 m /period glyphshow
12.403320 0.187500 m /zero glyphshow
20.674316 0.187500 m /three glyphshow
28.945312 0.187500 m /two glyphshow
grestore
gsave
/o {
gsave
newpath
translate
1.0 setlinewidth
1 setlinejoin
0 setlinecap
0 0 m
-5 0 l
gsave
0.294 0.000 0.510 setrgbcolor
fill
grestore
stroke
grestore
} bind def
518.4 242.743 o
grestore
gsave
522.400000 237.820982 translate
0.000000 rotate
0.000000 0.187500 m /zero glyphshow
8.270996 0.187500 m /period glyphshow
12.403320 0.187500 m /zero glyphshow
20.674316 0.187500 m /three glyphshow
28.945312 0.187500 m /six glyphshow
grestore
gsave
575.931250 112.500000 translate
90.000000 rotate
/Cmmi10 findfont
12.0 scalefont
setfont
0.000000 4.000000 moveto
/f glyphshow

/Cmmi10 findfont
8.4 scalefont
setfont
5.865234 0.938875 moveto
/b glyphshow

/Cmr10 findfont
12.0 scalefont
setfont
14.176172 4.000000 moveto
/parenleft glyphshow

/Cmmi10 findfont
12.0 scalefont
setfont
18.834375 4.000000 moveto
/eta glyphshow

26.894531 4.000000 moveto
/greater glyphshow

/Cmr10 findfont
12.0 scalefont
setfont
36.329688 4.000000 moveto
/zero glyphshow

/Cmmi10 findfont
12.0 scalefont
setfont
42.329688 4.000000 moveto
/period glyphshow

/Cmr10 findfont
12.0 scalefont
setfont
45.749219 4.000000 moveto
/eight glyphshow

51.749219 4.000000 moveto
/zero glyphshow

57.749219 4.000000 moveto
/parenright glyphshow


grestore

end
showpage
