%!PS-Adobe-3.0 EPSF-3.0
%%Title: /home/hettin12/webplots/05-27-15_thesis_figures/exposure_shifts/shift_histogram.eps
%%Creator: matplotlib version 1.2.x, http://matplotlib.sourceforge.net/
%%CreationDate: Wed Jun  3 11:17:34 2015
%%Orientation: portrait
%%BoundingBox: 18 252 594 540
%%EndComments
%%BeginProlog
/mpldict 8 dict def
mpldict begin
/m { moveto } bind def
/l { lineto } bind def
/r { rlineto } bind def
/c { curveto } bind def
/cl { closepath } bind def
/box {
m
1 index 0 r
0 exch r
neg 0 r
cl
} bind def
/clipbox {
box
clip
newpath
} bind def
%!PS-Adobe-3.0 Resource-Font
%%Title: Bitstream Vera Serif
%%Copyright: Copyright (c) 2003 by Bitstream, Inc. All Rights Reserved.
%%Creator: Converted from TrueType to type 3 by PPR
25 dict begin
/_d{bind def}bind def
/_m{moveto}_d
/_l{lineto}_d
/_cl{closepath eofill}_d
/_c{curveto}_d
/_sc{7 -1 roll{setcachedevice}{pop pop pop pop pop pop}ifelse}_d
/_e{exec}_d
/FontName /BitstreamVeraSerif-Roman def
/PaintType 0 def
/FontMatrix[.001 0 0 .001 0 0]def
/FontBBox[-183 -236 1287 928]def
/FontType 3 def
/Encoding [ /space /parenleft /parenright /slash /zero /one /two /three /four /five /E /N /O /S /a /c /e /f /i /k /m /o /p /r /s /t /u /x /y /minus ] def
/FontInfo 10 dict dup begin
/FamilyName (Bitstream Vera Serif) def
/FullName (Bitstream Vera Serif) def
/Notice (Copyright (c) 2003 by Bitstream, Inc. All Rights Reserved. Bitstream Vera is a trademark of Bitstream, Inc.) def
/Weight (Roman) def
/Version (Release 1.10) def
/ItalicAngle 0.0 def
/isFixedPitch false def
/UnderlinePosition -213 def
/UnderlineThickness 133 def
end readonly def
/CharStrings 30 dict dup begin
/space{318 0 0 0 0 0 _sc
}_d
/parenleft{390 0 79 -155 319 760 _sc
319 -155 _m
239 -119 179 -63 139 13 _c
99 89 79 186 79 302 _c
79 418 99 514 139 591 _c
179 668 239 724 319 760 _c
319 712 _l
269 677 233 628 211 566 _c
189 503 178 415 178 302 _c
178 188 189 100 211 38 _c
233 -24 269 -72 319 -107 _c
319 -155 _l
_cl}_d
/parenright{390 0 71 -155 311 760 _sc
71 -155 _m
71 -107 _l
121 -72 157 -24 179 38 _c
201 100 212 188 212 302 _c
212 415 201 503 179 566 _c
157 628 121 677 71 712 _c
71 760 _l
150 724 210 668 250 591 _c
290 514 311 418 311 302 _c
311 186 290 89 250 13 _c
210 -63 150 -119 71 -155 _c
_cl}_d
/slash{337 0 0 -92 337 729 _sc
259 729 _m
337 729 _l
78 -92 _l
0 -92 _l
259 729 _l
_cl}_d
/zero{636 0 66 -13 570 742 _sc
318 34 _m
368 34 405 61 430 116 _c
454 170 467 253 467 364 _c
467 474 454 557 430 612 _c
405 666 368 694 318 694 _c
268 694 230 666 206 612 _c
181 557 169 474 169 364 _c
169 253 181 170 206 116 _c
230 61 268 34 318 34 _c
318 -13 _m
238 -13 176 20 132 86 _c
88 152 66 244 66 364 _c
66 483 88 576 132 642 _c
176 708 238 742 318 742 _c
397 742 459 708 503 642 _c
547 576 570 483 570 364 _c
570 244 547 152 503 86 _c
459 20 397 -13 318 -13 _c
_cl}_d
/one{636 0 122 0 494 742 _sc
142 0 _m
142 52 _l
269 52 _l
269 658 _l
122 563 _l
122 627 _l
300 742 _l
367 742 _l
367 52 _l
494 52 _l
494 0 _l
142 0 _l
_cl}_d
/two{{636 0 68 0 538 742 _sc
128 555 _m
73 555 _l
73 685 _l
107 703 142 717 178 727 _c
213 737 248 742 282 742 _c
358 742 418 723 462 687 _c
506 650 528 600 528 537 _c
528 465 478 380 378 281 _c
370 273 365 268 361 264 _c
177 80 _l
481 80 _l
481 170 _l
538 170 _l
538 0 _l
68 0 _l
68 53 _l
289 274 _l
337 322 372 367 393 408 _c
414 449 425 492 425 537 _c
}_e{425 586 412 624 386 652 _c
360 680 325 694 281 694 _c
234 694 198 682 173 659 _c
147 636 132 601 128 555 _c
_cl}_e}_d
/three{{636 0 76 -13 562 742 _sc
97 698 _m
135 712 171 723 206 731 _c
241 738 274 742 305 742 _c
376 742 432 726 472 696 _c
512 665 532 622 532 568 _c
532 524 518 487 490 458 _c
462 428 423 408 373 398 _c
433 389 479 367 512 332 _c
545 297 562 252 562 197 _c
562 129 539 77 493 41 _c
447 5 382 -13 296 -13 _c
258 -13 220 -9 184 -1 _c
148 6 112 18 76 35 _c
76 177 _l
}_e{131 177 _l
134 129 150 94 178 70 _c
206 46 246 34 298 34 _c
348 34 387 48 416 77 _c
444 106 459 146 459 196 _c
459 253 444 296 414 326 _c
384 355 341 370 284 370 _c
238 370 _l
238 420 _l
262 420 _l
319 420 362 431 390 455 _c
418 479 433 514 433 562 _c
433 604 421 637 398 660 _c
374 682 341 694 297 694 _c
253 694 218 683 194 662 _c
170 641 156 610 152 570 _c
}_e{97 570 _l
97 698 _l
_cl}_e}_d
/four{636 0 31 0 586 742 _sc
349 247 _m
349 635 _l
100 247 _l
349 247 _l
564 0 _m
232 0 _l
232 52 _l
349 52 _l
349 195 _l
31 195 _l
31 248 _l
350 742 _l
447 742 _l
447 247 _l
586 247 _l
586 195 _l
447 195 _l
447 52 _l
564 52 _l
564 0 _l
_cl}_d
/five{{636 0 85 -13 559 729 _sc
503 729 _m
503 649 _l
169 649 _l
169 440 _l
185 452 205 460 228 466 _c
250 472 276 475 304 475 _c
382 475 444 453 490 409 _c
536 365 559 306 559 231 _c
559 153 536 93 490 51 _c
444 8 379 -13 296 -13 _c
262 -13 228 -9 193 -1 _c
157 6 121 18 85 35 _c
85 177 _l
140 177 _l
143 130 158 94 184 70 _c
210 46 248 34 296 34 _c
}_e{347 34 386 51 414 85 _c
442 119 456 167 456 231 _c
456 294 442 342 415 376 _c
387 410 348 427 296 427 _c
266 427 240 421 218 411 _c
196 401 176 385 159 363 _c
117 363 _l
117 729 _l
503 729 _l
_cl}_e}_d
/E{730 0 55 0 650 729 _sc
55 0 _m
55 52 _l
148 52 _l
148 677 _l
55 677 _l
55 729 _l
642 729 _l
642 567 _l
582 567 _l
582 669 _l
247 669 _l
247 425 _l
486 425 _l
486 516 _l
546 516 _l
546 274 _l
486 274 _l
486 365 _l
247 365 _l
247 60 _l
590 60 _l
590 162 _l
650 162 _l
650 0 _l
55 0 _l
_cl}_d
/N{875 0 49 -13 831 729 _sc
49 0 _m
49 52 _l
147 52 _l
147 677 _l
49 677 _l
49 729 _l
236 729 _l
673 154 _l
673 677 _l
575 677 _l
575 729 _l
831 729 _l
831 677 _l
733 677 _l
733 -13 _l
674 -13 _l
207 600 _l
207 52 _l
305 52 _l
305 0 _l
49 0 _l
_cl}_d
/O{{820 0 56 -13 764 742 _sc
410 38 _m
490 38 550 65 591 120 _c
631 175 652 256 652 364 _c
652 471 631 552 591 607 _c
550 662 490 690 410 690 _c
330 690 269 662 229 607 _c
188 552 168 471 168 364 _c
168 256 188 175 229 120 _c
269 65 330 38 410 38 _c
410 -13 _m
360 -13 315 -5 273 11 _c
231 27 195 50 164 82 _c
127 118 100 160 82 206 _c
64 252 56 304 56 364 _c
}_e{56 422 64 475 82 521 _c
100 567 127 609 164 646 _c
196 678 232 702 273 718 _c
314 734 360 742 410 742 _c
516 742 601 707 666 638 _c
731 568 764 477 764 364 _c
764 305 755 252 737 206 _c
719 159 692 118 656 82 _c
624 50 587 26 546 10 _c
505 -5 460 -13 410 -13 _c
_cl}_e}_d
/S{{685 0 84 -13 612 742 _sc
93 35 _m
93 201 _l
149 201 _l
150 145 166 104 197 78 _c
227 51 274 38 336 38 _c
394 38 438 49 468 72 _c
498 95 514 129 514 173 _c
514 208 504 235 486 254 _c
468 272 429 291 370 309 _c
274 338 _l
204 359 154 385 126 417 _c
98 448 84 491 84 547 _c
84 609 106 657 150 691 _c
194 725 255 742 335 742 _c
369 742 406 738 446 731 _c
}_e{486 723 529 713 575 699 _c
575 544 _l
520 544 _l
514 595 497 632 468 655 _c
439 678 395 690 337 690 _c
285 690 246 679 219 658 _c
192 637 179 607 179 567 _c
179 532 189 505 209 485 _c
229 465 272 445 338 426 _c
428 399 _l
494 379 541 353 569 323 _c
597 292 612 251 612 199 _c
612 128 589 75 544 40 _c
498 4 431 -13 342 -13 _c
302 -13 261 -9 219 -1 _c
}_e{177 6 135 18 93 35 _c
_cl}_e}_d
/a{{596 0 50 -13 568 533 _sc
398 163 _m
398 273 _l
282 273 _l
237 273 204 263 182 244 _c
160 224 150 195 150 156 _c
150 120 161 91 183 70 _c
205 48 235 38 273 38 _c
310 38 340 49 363 72 _c
386 95 398 125 398 163 _c
488 324 _m
488 52 _l
568 52 _l
568 0 _l
398 0 _l
398 56 _l
378 32 355 14 329 3 _c
303 -7 272 -13 238 -13 _c
180 -13 134 2 100 32 _c
}_e{66 62 50 104 50 156 _c
50 209 69 250 108 280 _c
146 310 201 325 272 325 _c
398 325 _l
398 361 _l
398 400 386 430 362 452 _c
338 474 304 485 261 485 _c
225 485 197 476 176 460 _c
154 444 141 420 136 388 _c
90 388 _l
90 493 _l
121 506 151 516 181 523 _c
210 529 239 533 267 533 _c
339 533 393 515 431 479 _c
469 443 488 392 488 324 _c
_cl}_e}_d
/c{{560 0 50 -13 514 533 _sc
514 156 _m
501 100 477 58 441 30 _c
405 1 358 -13 301 -13 _c
225 -13 165 11 119 61 _c
73 111 50 177 50 260 _c
50 342 73 408 119 458 _c
165 508 225 533 301 533 _c
333 533 366 529 399 521 _c
431 513 464 502 497 487 _c
497 354 _l
445 354 _l
438 399 423 432 400 453 _c
377 474 344 485 302 485 _c
253 485 216 466 192 428 _c
}_e{167 390 155 334 155 260 _c
155 184 167 128 192 90 _c
216 52 253 34 302 34 _c
340 34 371 44 394 64 _c
417 84 433 115 442 156 _c
514 156 _l
_cl}_e}_d
/e{{592 0 50 -13 542 533 _sc
542 250 _m
155 250 _l
155 246 _l
155 176 168 123 194 87 _c
220 51 259 34 311 34 _c
350 34 382 44 408 65 _c
433 85 451 116 461 157 _c
533 157 _l
519 100 492 57 454 29 _c
415 1 364 -13 302 -13 _c
226 -13 165 11 119 61 _c
73 111 50 177 50 260 _c
50 342 72 408 118 458 _c
163 508 222 533 296 533 _c
374 533 435 508 477 460 _c
}_e{519 412 540 342 542 250 _c
436 302 _m
434 362 421 408 397 439 _c
373 469 340 485 296 485 _c
254 485 222 469 198 438 _c
174 407 160 362 155 302 _c
436 302 _l
_cl}_e}_d
/f{{370 0 36 0 430 760 _sc
430 637 _m
383 637 _l
382 661 375 680 362 693 _c
348 705 329 712 303 712 _c
269 712 246 702 232 684 _c
218 666 212 633 212 586 _c
212 519 _l
357 519 _l
357 467 _l
212 467 _l
212 52 _l
327 52 _l
327 0 _l
36 0 _l
36 52 _l
122 52 _l
122 467 _l
36 467 _l
36 519 _l
122 519 _l
122 584 _l
122 642 137 685 167 715 _c
}_e{197 745 241 760 300 760 _c
322 760 343 758 365 754 _c
387 750 408 744 430 736 _c
430 637 _l
_cl}_e}_d
/i{320 0 36 0 297 736 _sc
97 680 _m
97 695 102 708 113 719 _c
124 730 137 736 153 736 _c
167 736 180 730 191 719 _c
202 708 208 695 208 680 _c
208 664 202 651 192 641 _c
181 630 168 625 153 625 _c
137 625 124 630 113 641 _c
102 651 97 664 97 680 _c
212 52 _m
297 52 _l
297 0 _l
36 0 _l
36 52 _l
122 52 _l
122 467 _l
36 467 _l
36 519 _l
212 519 _l
212 52 _l
_cl}_d
/k{{606 0 29 0 613 760 _sc
286 0 _m
34 0 _l
34 52 _l
115 52 _l
115 708 _l
29 708 _l
29 760 _l
205 760 _l
205 265 _l
424 467 _l
349 467 _l
349 519 _l
584 519 _l
584 467 _l
495 467 _l
341 324 _l
538 52 _l
613 52 _l
613 0 _l
357 0 _l
357 52 _l
431 52 _l
276 265 _l
205 199 _l
205 52 _l
286 52 _l
286 0 _l
_cl}_e}_d
/m{{948 0 36 0 921 533 _sc
518 418 _m
535 456 557 484 584 504 _c
611 523 642 533 678 533 _c
732 533 773 516 800 482 _c
826 448 840 398 840 330 _c
840 52 _l
921 52 _l
921 0 _l
672 0 _l
672 52 _l
750 52 _l
750 320 _l
750 372 742 410 726 433 _c
710 455 685 467 649 467 _c
609 467 578 451 557 421 _c
536 391 526 347 526 289 _c
526 52 _l
604 52 _l
604 0 _l
358 0 _l
}_e{358 52 _l
436 52 _l
436 323 _l
436 375 428 412 412 434 _c
396 456 371 467 335 467 _c
295 467 264 451 243 421 _c
222 391 212 347 212 289 _c
212 52 _l
290 52 _l
290 0 _l
41 0 _l
41 52 _l
122 52 _l
122 468 _l
36 468 _l
36 519 _l
212 519 _l
212 427 _l
228 461 249 488 275 506 _c
301 524 330 533 363 533 _c
403 533 436 523 463 503 _c
}_e{490 483 508 454 518 418 _c
_cl}_e}_d
/o{602 0 50 -13 552 533 _sc
301 34 _m
349 34 385 53 410 91 _c
434 129 447 185 447 260 _c
447 334 434 390 410 428 _c
385 466 349 485 301 485 _c
253 485 216 466 192 428 _c
167 390 155 334 155 260 _c
155 185 167 129 192 91 _c
216 53 253 34 301 34 _c
301 -13 _m
225 -13 165 11 119 61 _c
73 111 50 177 50 260 _c
50 342 72 408 118 458 _c
164 508 225 533 301 533 _c
377 533 437 508 483 458 _c
529 408 552 342 552 260 _c
552 177 529 111 483 61 _c
437 11 377 -13 301 -13 _c
_cl}_d
/p{{640 0 29 -207 590 533 _sc
205 285 _m
205 234 _l
205 171 217 123 241 91 _c
265 58 299 42 345 42 _c
391 42 425 60 449 97 _c
473 133 485 188 485 260 _c
485 332 473 386 449 422 _c
425 458 391 477 345 477 _c
299 477 265 460 241 427 _c
217 394 205 347 205 285 _c
115 467 _m
29 467 _l
29 519 _l
205 519 _l
205 438 _l
222 470 244 494 272 510 _c
299 525 333 533 373 533 _c
}_e{437 533 489 507 529 457 _c
569 407 590 341 590 260 _c
590 178 569 112 529 62 _c
489 12 437 -13 373 -13 _c
333 -13 299 -5 272 9 _c
244 24 222 48 205 81 _c
205 -155 _l
290 -155 _l
290 -207 _l
29 -207 _l
29 -155 _l
115 -155 _l
115 467 _l
_cl}_e}_d
/r{478 0 36 0 478 533 _sc
478 520 _m
478 390 _l
426 390 _l
424 416 417 435 405 448 _c
392 460 373 467 349 467 _c
305 467 271 451 247 421 _c
223 390 212 346 212 289 _c
212 52 _l
316 52 _l
316 0 _l
41 0 _l
41 52 _l
122 52 _l
122 468 _l
36 468 _l
36 519 _l
212 519 _l
212 427 _l
229 463 251 489 279 507 _c
307 524 341 533 381 533 _c
395 533 411 531 427 529 _c
443 527 460 524 478 520 _c
_cl}_d
/s{{513 0 56 -13 462 533 _sc
56 29 _m
56 150 _l
108 150 _l
109 111 121 82 144 63 _c
167 43 201 34 246 34 _c
286 34 317 41 338 57 _c
359 72 370 94 370 123 _c
370 145 362 164 347 178 _c
331 192 299 207 249 223 _c
184 245 _l
139 259 107 277 87 299 _c
67 320 57 347 57 381 _c
57 428 74 465 109 492 _c
144 519 192 533 254 533 _c
281 533 310 529 340 522 _c
}_e{370 515 402 505 434 491 _c
434 378 _l
382 378 _l
380 411 369 437 347 456 _c
325 475 295 485 257 485 _c
219 485 190 478 171 465 _c
151 451 142 431 142 405 _c
142 383 149 365 164 352 _c
178 339 208 326 252 312 _c
323 290 _l
372 274 407 255 429 232 _c
451 209 462 180 462 144 _c
462 94 443 56 405 28 _c
367 0 316 -13 250 -13 _c
216 -13 184 -9 152 -3 _c
}_e{120 3 88 14 56 29 _c
_cl}_e}_d
/t{402 0 29 -13 394 680 _sc
108 467 _m
29 467 _l
29 519 _l
108 519 _l
108 680 _l
198 680 _l
198 519 _l
367 519 _l
367 467 _l
198 467 _l
198 137 _l
198 93 202 64 211 52 _c
219 40 235 34 258 34 _c
281 34 298 41 309 55 _c
319 69 325 91 326 122 _c
394 122 _l
391 74 378 40 355 19 _c
332 -2 297 -13 250 -13 _c
198 -13 161 -1 140 21 _c
118 43 108 82 108 137 _c
108 467 _l
_cl}_d
/u{{644 0 27 -13 607 519 _sc
354 519 _m
522 519 _l
522 52 _l
607 52 _l
607 0 _l
432 0 _l
432 92 _l
415 57 393 31 367 13 _c
341 -4 310 -13 276 -13 _c
218 -13 175 3 148 35 _c
121 67 108 119 108 189 _c
108 467 _l
27 467 _l
27 519 _l
198 519 _l
198 217 _l
198 153 205 110 221 87 _c
237 63 264 52 304 52 _c
346 52 377 67 399 98 _c
421 128 432 173 432 231 _c
}_e{432 467 _l
354 467 _l
354 519 _l
_cl}_e}_d
/x{{564 0 12 0 552 519 _sc
291 317 _m
400 467 _l
330 467 _l
330 519 _l
530 519 _l
530 467 _l
461 467 _l
322 275 _l
484 52 _l
552 52 _l
552 0 _l
312 0 _l
312 52 _l
378 52 _l
265 207 _l
152 52 _l
219 52 _l
219 0 _l
22 0 _l
22 52 _l
91 52 _l
234 249 _l
76 467 _l
12 467 _l
12 519 _l
244 519 _l
244 467 _l
182 467 _l
291 317 _l
_cl}_e}_d
/y{{565 0 -2 -221 562 519 _sc
216 -94 _m
250 -8 _l
56 467 _l
-2 467 _l
-2 519 _l
236 519 _l
236 467 _l
153 467 _l
299 110 _l
445 467 _l
367 467 _l
367 519 _l
562 519 _l
562 467 _l
504 467 _l
266 -116 _l
250 -156 232 -184 212 -199 _c
192 -213 164 -221 128 -221 _c
112 -221 97 -219 81 -217 _c
65 -214 48 -210 32 -206 _c
32 -107 _l
78 -107 _l
80 -129 85 -144 95 -154 _c
}_e{104 -164 118 -169 138 -169 _c
156 -169 170 -164 181 -154 _c
192 -144 204 -124 216 -94 _c
_cl}_e}_d
/minus{838 0 106 274 732 353 _sc
106 353 _m
732 353 _l
732 274 _l
106 274 _l
106 353 _l
_cl}_d
end readonly def

/BuildGlyph
 {exch begin
 CharStrings exch
 2 copy known not{pop /.notdef}if
 true 3 1 roll get exec
 end}_d

/BuildChar {
 1 index /Encoding get exch get
 1 index /BuildGlyph get exec
}_d

FontName currentdict end definefont pop
end
%%EndProlog
mpldict begin
18 252 translate
576 288 0 0 clipbox
gsave
0 0 m
576 0 l
576 288 l
0 288 l
cl
1.000 setgray
fill
grestore
gsave
44.6355 35.4122 m
560.571 35.4122 l
560.571 271.109 l
44.6355 271.109 l
cl
1.000 setgray
fill
grestore
1.000 setlinewidth
1 setlinejoin
2 setlinecap
[] 0 setdash
0.000 setgray
gsave
515.9 235.7 44.64 35.41 clipbox
44.6355 -5428.09 m
57.5339 -5428.09 l
57.5339 -5428.09 l
44.6355 -5428.09 l
cl
gsave
0.118 0.565 1.000 setrgbcolor
fill
grestore
stroke
grestore
gsave
515.9 235.7 44.64 35.41 clipbox
57.5339 -5428.09 m
70.4322 -5428.09 l
70.4322 -5428.09 l
57.5339 -5428.09 l
cl
gsave
0.118 0.565 1.000 setrgbcolor
fill
grestore
stroke
grestore
gsave
515.9 235.7 44.64 35.41 clipbox
70.4322 -5428.09 m
83.3306 -5428.09 l
83.3306 -5428.09 l
70.4322 -5428.09 l
cl
gsave
0.118 0.565 1.000 setrgbcolor
fill
grestore
stroke
grestore
gsave
515.9 235.7 44.64 35.41 clipbox
83.3306 -5428.09 m
96.229 -5428.09 l
96.229 -5428.09 l
83.3306 -5428.09 l
cl
gsave
0.118 0.565 1.000 setrgbcolor
fill
grestore
stroke
grestore
gsave
515.9 235.7 44.64 35.41 clipbox
96.229 -5428.09 m
109.127 -5428.09 l
109.127 51.9086 l
96.229 51.9086 l
cl
gsave
0.118 0.565 1.000 setrgbcolor
fill
grestore
stroke
grestore
gsave
515.9 235.7 44.64 35.41 clipbox
109.127 -5428.09 m
122.026 -5428.09 l
122.026 51.9086 l
109.127 51.9086 l
cl
gsave
0.118 0.565 1.000 setrgbcolor
fill
grestore
stroke
grestore
gsave
515.9 235.7 44.64 35.41 clipbox
122.026 -5428.09 m
134.924 -5428.09 l
134.924 -5428.09 l
122.026 -5428.09 l
cl
gsave
0.118 0.565 1.000 setrgbcolor
fill
grestore
stroke
grestore
gsave
515.9 235.7 44.64 35.41 clipbox
134.924 -5428.09 m
147.823 -5428.09 l
147.823 51.9086 l
134.924 51.9086 l
cl
gsave
0.118 0.565 1.000 setrgbcolor
fill
grestore
stroke
grestore
gsave
515.9 235.7 44.64 35.41 clipbox
147.823 -5428.09 m
160.721 -5428.09 l
160.721 51.9086 l
147.823 51.9086 l
cl
gsave
0.118 0.565 1.000 setrgbcolor
fill
grestore
stroke
grestore
gsave
515.9 235.7 44.64 35.41 clipbox
160.721 -5428.09 m
173.619 -5428.09 l
173.619 68.4051 l
160.721 68.4051 l
cl
gsave
0.118 0.565 1.000 setrgbcolor
fill
grestore
stroke
grestore
gsave
515.9 235.7 44.64 35.41 clipbox
173.619 -5428.09 m
186.518 -5428.09 l
186.518 94.5513 l
173.619 94.5513 l
cl
gsave
0.118 0.565 1.000 setrgbcolor
fill
grestore
stroke
grestore
gsave
515.9 235.7 44.64 35.41 clipbox
186.518 -5428.09 m
199.416 -5428.09 l
199.416 101.398 l
186.518 101.398 l
cl
gsave
0.118 0.565 1.000 setrgbcolor
fill
grestore
stroke
grestore
gsave
515.9 235.7 44.64 35.41 clipbox
199.416 -5428.09 m
212.314 -5428.09 l
212.314 117.894 l
199.416 117.894 l
cl
gsave
0.118 0.565 1.000 setrgbcolor
fill
grestore
stroke
grestore
gsave
515.9 235.7 44.64 35.41 clipbox
212.314 -5428.09 m
225.213 -5428.09 l
225.213 137.846 l
212.314 137.846 l
cl
gsave
0.118 0.565 1.000 setrgbcolor
fill
grestore
stroke
grestore
gsave
515.9 235.7 44.64 35.41 clipbox
225.213 -5428.09 m
238.111 -5428.09 l
238.111 153.69 l
225.213 153.69 l
cl
gsave
0.118 0.565 1.000 setrgbcolor
fill
grestore
stroke
grestore
gsave
515.9 235.7 44.64 35.41 clipbox
238.111 -5428.09 m
251.01 -5428.09 l
251.01 176.659 l
238.111 176.659 l
cl
gsave
0.118 0.565 1.000 setrgbcolor
fill
grestore
stroke
grestore
gsave
515.9 235.7 44.64 35.41 clipbox
251.01 -5428.09 m
263.908 -5428.09 l
263.908 194.679 l
251.01 194.679 l
cl
gsave
0.118 0.565 1.000 setrgbcolor
fill
grestore
stroke
grestore
gsave
515.9 235.7 44.64 35.41 clipbox
263.908 -5428.09 m
276.806 -5428.09 l
276.806 211.205 l
263.908 211.205 l
cl
gsave
0.118 0.565 1.000 setrgbcolor
fill
grestore
stroke
grestore
gsave
515.9 235.7 44.64 35.41 clipbox
276.806 -5428.09 m
289.705 -5428.09 l
289.705 225.135 l
276.806 225.135 l
cl
gsave
0.118 0.565 1.000 setrgbcolor
fill
grestore
stroke
grestore
gsave
515.9 235.7 44.64 35.41 clipbox
289.705 -5428.09 m
302.603 -5428.09 l
302.603 234.626 l
289.705 234.626 l
cl
gsave
0.118 0.565 1.000 setrgbcolor
fill
grestore
stroke
grestore
gsave
515.9 235.7 44.64 35.41 clipbox
302.603 -5428.09 m
315.501 -5428.09 l
315.501 234.692 l
302.603 234.692 l
cl
gsave
0.118 0.565 1.000 setrgbcolor
fill
grestore
stroke
grestore
gsave
515.9 235.7 44.64 35.41 clipbox
315.501 -5428.09 m
328.4 -5428.09 l
328.4 225.119 l
315.501 225.119 l
cl
gsave
0.118 0.565 1.000 setrgbcolor
fill
grestore
stroke
grestore
gsave
515.9 235.7 44.64 35.41 clipbox
328.4 -5428.09 m
341.298 -5428.09 l
341.298 209.84 l
328.4 209.84 l
cl
gsave
0.118 0.565 1.000 setrgbcolor
fill
grestore
stroke
grestore
gsave
515.9 235.7 44.64 35.41 clipbox
341.298 -5428.09 m
354.197 -5428.09 l
354.197 191.728 l
341.298 191.728 l
cl
gsave
0.118 0.565 1.000 setrgbcolor
fill
grestore
stroke
grestore
gsave
515.9 235.7 44.64 35.41 clipbox
354.197 -5428.09 m
367.095 -5428.09 l
367.095 176.909 l
354.197 176.909 l
cl
gsave
0.118 0.565 1.000 setrgbcolor
fill
grestore
stroke
grestore
gsave
515.9 235.7 44.64 35.41 clipbox
367.095 -5428.09 m
379.993 -5428.09 l
379.993 158.194 l
367.095 158.194 l
cl
gsave
0.118 0.565 1.000 setrgbcolor
fill
grestore
stroke
grestore
gsave
515.9 235.7 44.64 35.41 clipbox
379.993 -5428.09 m
392.892 -5428.09 l
392.892 139.099 l
379.993 139.099 l
cl
gsave
0.118 0.565 1.000 setrgbcolor
fill
grestore
stroke
grestore
gsave
515.9 235.7 44.64 35.41 clipbox
392.892 -5428.09 m
405.79 -5428.09 l
405.79 129.449 l
392.892 129.449 l
cl
gsave
0.118 0.565 1.000 setrgbcolor
fill
grestore
stroke
grestore
gsave
515.9 235.7 44.64 35.41 clipbox
405.79 -5428.09 m
418.688 -5428.09 l
418.688 120.698 l
405.79 120.698 l
cl
gsave
0.118 0.565 1.000 setrgbcolor
fill
grestore
stroke
grestore
gsave
515.9 235.7 44.64 35.41 clipbox
418.688 -5428.09 m
431.587 -5428.09 l
431.587 98.22 l
418.688 98.22 l
cl
gsave
0.118 0.565 1.000 setrgbcolor
fill
grestore
stroke
grestore
gsave
515.9 235.7 44.64 35.41 clipbox
431.587 -5428.09 m
444.485 -5428.09 l
444.485 90.2122 l
431.587 90.2122 l
cl
gsave
0.118 0.565 1.000 setrgbcolor
fill
grestore
stroke
grestore
gsave
515.9 235.7 44.64 35.41 clipbox
444.485 -5428.09 m
457.384 -5428.09 l
457.384 68.4051 l
444.485 68.4051 l
cl
gsave
0.118 0.565 1.000 setrgbcolor
fill
grestore
stroke
grestore
gsave
515.9 235.7 44.64 35.41 clipbox
457.384 -5428.09 m
470.282 -5428.09 l
470.282 78.0549 l
457.384 78.0549 l
cl
gsave
0.118 0.565 1.000 setrgbcolor
fill
grestore
stroke
grestore
gsave
515.9 235.7 44.64 35.41 clipbox
470.282 -5428.09 m
483.18 -5428.09 l
483.18 51.9086 l
470.282 51.9086 l
cl
gsave
0.118 0.565 1.000 setrgbcolor
fill
grestore
stroke
grestore
gsave
515.9 235.7 44.64 35.41 clipbox
483.18 -5428.09 m
496.079 -5428.09 l
496.079 -5428.09 l
483.18 -5428.09 l
cl
gsave
0.118 0.565 1.000 setrgbcolor
fill
grestore
stroke
grestore
gsave
515.9 235.7 44.64 35.41 clipbox
496.079 -5428.09 m
508.977 -5428.09 l
508.977 51.9086 l
496.079 51.9086 l
cl
gsave
0.118 0.565 1.000 setrgbcolor
fill
grestore
stroke
grestore
gsave
515.9 235.7 44.64 35.41 clipbox
508.977 -5428.09 m
521.875 -5428.09 l
521.875 51.9086 l
508.977 51.9086 l
cl
gsave
0.118 0.565 1.000 setrgbcolor
fill
grestore
stroke
grestore
gsave
515.9 235.7 44.64 35.41 clipbox
521.875 -5428.09 m
534.774 -5428.09 l
534.774 -5428.09 l
521.875 -5428.09 l
cl
gsave
0.118 0.565 1.000 setrgbcolor
fill
grestore
stroke
grestore
gsave
515.9 235.7 44.64 35.41 clipbox
534.774 -5428.09 m
547.672 -5428.09 l
547.672 -5428.09 l
534.774 -5428.09 l
cl
gsave
0.118 0.565 1.000 setrgbcolor
fill
grestore
stroke
grestore
gsave
515.9 235.7 44.64 35.41 clipbox
547.672 -5428.09 m
560.571 -5428.09 l
560.571 -5428.09 l
547.672 -5428.09 l
cl
gsave
0.118 0.565 1.000 setrgbcolor
fill
grestore
stroke
grestore
0 setlinecap
gsave
/o {
gsave
newpath
translate
1.0 setlinewidth
1 setlinejoin
0 setlinecap
0 0 m
0 5 l
gsave
0.000 setgray
fill
grestore
stroke
grestore
} bind def
44.6355 35.4122 o
grestore
gsave
/o {
gsave
newpath
translate
1.0 setlinewidth
1 setlinejoin
0 setlinecap
0 0 m
0 -5 l
gsave
0.000 setgray
fill
grestore
stroke
grestore
} bind def
44.6355 271.109 o
grestore
/BitstreamVeraSerif-Roman findfont
10.000 scalefont
setfont
gsave
34.947985 23.849687 translate
0.000000 rotate
0.000000 0.140625 m /minus glyphshow
8.378906 0.140625 m /two glyphshow
14.741211 0.140625 m /zero glyphshow
grestore
gsave
/o {
gsave
newpath
translate
1.0 setlinewidth
1 setlinejoin
0 setlinecap
0 0 m
0 5 l
gsave
0.000 setgray
fill
grestore
stroke
grestore
} bind def
109.127 35.4122 o
grestore
gsave
/o {
gsave
newpath
translate
1.0 setlinewidth
1 setlinejoin
0 setlinecap
0 0 m
0 -5 l
gsave
0.000 setgray
fill
grestore
stroke
grestore
} bind def
109.127 271.109 o
grestore
gsave
99.494565 23.849687 translate
0.000000 rotate
0.000000 0.140625 m /minus glyphshow
8.378906 0.140625 m /one glyphshow
14.741211 0.140625 m /five glyphshow
grestore
gsave
/o {
gsave
newpath
translate
1.0 setlinewidth
1 setlinejoin
0 setlinecap
0 0 m
0 5 l
gsave
0.000 setgray
fill
grestore
stroke
grestore
} bind def
173.619 35.4122 o
grestore
gsave
/o {
gsave
newpath
translate
1.0 setlinewidth
1 setlinejoin
0 setlinecap
0 0 m
0 -5 l
gsave
0.000 setgray
fill
grestore
stroke
grestore
} bind def
173.619 271.109 o
grestore
gsave
163.931770 23.849687 translate
0.000000 rotate
0.000000 0.140625 m /minus glyphshow
8.378906 0.140625 m /one glyphshow
14.741211 0.140625 m /zero glyphshow
grestore
gsave
/o {
gsave
newpath
translate
1.0 setlinewidth
1 setlinejoin
0 setlinecap
0 0 m
0 5 l
gsave
0.000 setgray
fill
grestore
stroke
grestore
} bind def
238.111 35.4122 o
grestore
gsave
/o {
gsave
newpath
translate
1.0 setlinewidth
1 setlinejoin
0 setlinecap
0 0 m
0 -5 l
gsave
0.000 setgray
fill
grestore
stroke
grestore
} bind def
238.111 271.109 o
grestore
gsave
231.658037 23.974687 translate
0.000000 rotate
0.000000 0.140625 m /minus glyphshow
8.378906 0.140625 m /five glyphshow
grestore
gsave
/o {
gsave
newpath
translate
1.0 setlinewidth
1 setlinejoin
0 setlinecap
0 0 m
0 5 l
gsave
0.000 setgray
fill
grestore
stroke
grestore
} bind def
302.603 35.4122 o
grestore
gsave
/o {
gsave
newpath
translate
1.0 setlinewidth
1 setlinejoin
0 setlinecap
0 0 m
0 -5 l
gsave
0.000 setgray
fill
grestore
stroke
grestore
} bind def
302.603 271.109 o
grestore
gsave
300.079617 23.849687 translate
0.000000 rotate
0.000000 0.140625 m /zero glyphshow
grestore
gsave
/o {
gsave
newpath
translate
1.0 setlinewidth
1 setlinejoin
0 setlinecap
0 0 m
0 5 l
gsave
0.000 setgray
fill
grestore
stroke
grestore
} bind def
367.095 35.4122 o
grestore
gsave
/o {
gsave
newpath
translate
1.0 setlinewidth
1 setlinejoin
0 setlinecap
0 0 m
0 -5 l
gsave
0.000 setgray
fill
grestore
stroke
grestore
} bind def
367.095 271.109 o
grestore
gsave
364.719947 23.974687 translate
0.000000 rotate
0.000000 0.140625 m /five glyphshow
grestore
gsave
/o {
gsave
newpath
translate
1.0 setlinewidth
1 setlinejoin
0 setlinecap
0 0 m
0 5 l
gsave
0.000 setgray
fill
grestore
stroke
grestore
} bind def
431.587 35.4122 o
grestore
gsave
/o {
gsave
newpath
translate
1.0 setlinewidth
1 setlinejoin
0 setlinecap
0 0 m
0 -5 l
gsave
0.000 setgray
fill
grestore
stroke
grestore
} bind def
431.587 271.109 o
grestore
gsave
426.164965 23.849687 translate
0.000000 rotate
0.000000 0.140625 m /one glyphshow
6.362305 0.140625 m /zero glyphshow
grestore
gsave
/o {
gsave
newpath
translate
1.0 setlinewidth
1 setlinejoin
0 setlinecap
0 0 m
0 5 l
gsave
0.000 setgray
fill
grestore
stroke
grestore
} bind def
496.079 35.4122 o
grestore
gsave
/o {
gsave
newpath
translate
1.0 setlinewidth
1 setlinejoin
0 setlinecap
0 0 m
0 -5 l
gsave
0.000 setgray
fill
grestore
stroke
grestore
} bind def
496.079 271.109 o
grestore
gsave
490.711545 23.849687 translate
0.000000 rotate
0.000000 0.140625 m /one glyphshow
6.362305 0.140625 m /five glyphshow
grestore
gsave
/o {
gsave
newpath
translate
1.0 setlinewidth
1 setlinejoin
0 setlinecap
0 0 m
0 5 l
gsave
0.000 setgray
fill
grestore
stroke
grestore
} bind def
560.571 35.4122 o
grestore
gsave
/o {
gsave
newpath
translate
1.0 setlinewidth
1 setlinejoin
0 setlinecap
0 0 m
0 -5 l
gsave
0.000 setgray
fill
grestore
stroke
grestore
} bind def
560.571 271.109 o
grestore
gsave
554.883125 23.849687 translate
0.000000 rotate
0.000000 0.140625 m /two glyphshow
6.362305 0.140625 m /zero glyphshow
grestore
gsave
215.181180 9.037187 translate
0.000000 rotate
0.000000 2.218750 m /S glyphshow
6.850586 2.218750 m /y glyphshow
12.500000 2.218750 m /s glyphshow
17.631836 2.218750 m /t glyphshow
21.650391 2.218750 m /e glyphshow
27.568359 2.218750 m /m glyphshow
37.050781 2.218750 m /a glyphshow
43.012695 2.218750 m /t glyphshow
47.031250 2.218750 m /i glyphshow
50.229492 2.218750 m /c glyphshow
55.830078 2.218750 m /space glyphshow
59.008789 2.218750 m /E glyphshow
66.308594 2.218750 m /x glyphshow
71.948242 2.218750 m /p glyphshow
78.349609 2.218750 m /o glyphshow
84.370117 2.218750 m /s glyphshow
89.501953 2.218750 m /u glyphshow
95.942383 2.218750 m /r glyphshow
100.722656 2.218750 m /e glyphshow
106.640625 2.218750 m /space glyphshow
109.819336 2.218750 m /O glyphshow
118.017578 2.218750 m /f glyphshow
121.718750 2.218750 m /f glyphshow
125.419922 2.218750 m /s glyphshow
130.551758 2.218750 m /e glyphshow
136.469727 2.218750 m /t glyphshow
140.488281 2.218750 m /space glyphshow
143.666992 2.218750 m /parenleft glyphshow
147.568359 2.218750 m /k glyphshow
153.627930 2.218750 m /m glyphshow
163.110352 2.218750 m /slash glyphshow
166.479492 2.218750 m /s glyphshow
171.611328 2.218750 m /parenright glyphshow
grestore
gsave
/o {
gsave
newpath
translate
1.0 setlinewidth
1 setlinejoin
0 setlinecap
0 0 m
5 0 l
gsave
0.000 setgray
fill
grestore
stroke
grestore
} bind def
44.6355 51.9086 o
grestore
gsave
/o {
gsave
newpath
translate
1.0 setlinewidth
1 setlinejoin
0 setlinecap
0 0 m
-5 0 l
gsave
0.000 setgray
fill
grestore
stroke
grestore
} bind def
560.571 51.9086 o
grestore
gsave
20.635485 45.908629 translate
0.000000 rotate
/BitstreamVeraSerif-Roman findfont
10.0 scalefont
setfont
0.000000 1.821875 moveto
/one glyphshow

6.362305 1.821875 moveto
/zero glyphshow

/BitstreamVeraSerif-Roman findfont
7.0 scalefont
setfont
12.724609 6.804688 moveto
/zero glyphshow


grestore
gsave
/o {
gsave
newpath
translate
1.0 setlinewidth
1 setlinejoin
0 setlinecap
0 0 m
5 0 l
gsave
0.000 setgray
fill
grestore
stroke
grestore
} bind def
44.6355 106.709 o
grestore
gsave
/o {
gsave
newpath
translate
1.0 setlinewidth
1 setlinejoin
0 setlinecap
0 0 m
-5 0 l
gsave
0.000 setgray
fill
grestore
stroke
grestore
} bind def
560.571 106.709 o
grestore
gsave
20.635485 100.708620 translate
0.000000 rotate
/BitstreamVeraSerif-Roman findfont
10.0 scalefont
setfont
0.000000 1.821875 moveto
/one glyphshow

6.362305 1.821875 moveto
/zero glyphshow

/BitstreamVeraSerif-Roman findfont
7.0 scalefont
setfont
12.724609 6.804688 moveto
/one glyphshow


grestore
gsave
/o {
gsave
newpath
translate
1.0 setlinewidth
1 setlinejoin
0 setlinecap
0 0 m
5 0 l
gsave
0.000 setgray
fill
grestore
stroke
grestore
} bind def
44.6355 161.509 o
grestore
gsave
/o {
gsave
newpath
translate
1.0 setlinewidth
1 setlinejoin
0 setlinecap
0 0 m
-5 0 l
gsave
0.000 setgray
fill
grestore
stroke
grestore
} bind def
560.571 161.509 o
grestore
gsave
20.635485 155.508611 translate
0.000000 rotate
/BitstreamVeraSerif-Roman findfont
10.0 scalefont
setfont
0.000000 1.821875 moveto
/one glyphshow

6.362305 1.821875 moveto
/zero glyphshow

/BitstreamVeraSerif-Roman findfont
7.0 scalefont
setfont
12.724609 6.804688 moveto
/two glyphshow


grestore
gsave
/o {
gsave
newpath
translate
1.0 setlinewidth
1 setlinejoin
0 setlinecap
0 0 m
5 0 l
gsave
0.000 setgray
fill
grestore
stroke
grestore
} bind def
44.6355 216.309 o
grestore
gsave
/o {
gsave
newpath
translate
1.0 setlinewidth
1 setlinejoin
0 setlinecap
0 0 m
-5 0 l
gsave
0.000 setgray
fill
grestore
stroke
grestore
} bind def
560.571 216.309 o
grestore
gsave
20.635485 210.308602 translate
0.000000 rotate
/BitstreamVeraSerif-Roman findfont
10.0 scalefont
setfont
0.000000 1.821875 moveto
/one glyphshow

6.362305 1.821875 moveto
/zero glyphshow

/BitstreamVeraSerif-Roman findfont
7.0 scalefont
setfont
12.724609 6.804688 moveto
/three glyphshow


grestore
gsave
/o {
gsave
newpath
translate
1.0 setlinewidth
1 setlinejoin
0 setlinecap
0 0 m
5 0 l
gsave
0.000 setgray
fill
grestore
stroke
grestore
} bind def
44.6355 271.109 o
grestore
gsave
/o {
gsave
newpath
translate
1.0 setlinewidth
1 setlinejoin
0 setlinecap
0 0 m
-5 0 l
gsave
0.000 setgray
fill
grestore
stroke
grestore
} bind def
560.571 271.109 o
grestore
gsave
20.635485 265.108594 translate
0.000000 rotate
/BitstreamVeraSerif-Roman findfont
10.0 scalefont
setfont
0.000000 1.821875 moveto
/one glyphshow

6.362305 1.821875 moveto
/zero glyphshow

/BitstreamVeraSerif-Roman findfont
7.0 scalefont
setfont
12.724609 6.804688 moveto
/four glyphshow


grestore
0.500 setlinewidth
gsave
/o {
gsave
newpath
translate
0.5 setlinewidth
1 setlinejoin
0 setlinecap
0 0 m
3 0 l
gsave
0.000 setgray
fill
grestore
stroke
grestore
} bind def
44.6355 35.4122 o
grestore
gsave
/o {
gsave
newpath
translate
0.5 setlinewidth
1 setlinejoin
0 setlinecap
0 0 m
-3 0 l
gsave
0.000 setgray
fill
grestore
stroke
grestore
} bind def
560.571 35.4122 o
grestore
gsave
/o {
gsave
newpath
translate
0.5 setlinewidth
1 setlinejoin
0 setlinecap
0 0 m
3 0 l
gsave
0.000 setgray
fill
grestore
stroke
grestore
} bind def
44.6355 39.7513 o
grestore
gsave
/o {
gsave
newpath
translate
0.5 setlinewidth
1 setlinejoin
0 setlinecap
0 0 m
-3 0 l
gsave
0.000 setgray
fill
grestore
stroke
grestore
} bind def
560.571 39.7513 o
grestore
gsave
/o {
gsave
newpath
translate
0.5 setlinewidth
1 setlinejoin
0 setlinecap
0 0 m
3 0 l
gsave
0.000 setgray
fill
grestore
stroke
grestore
} bind def
44.6355 43.42 o
grestore
gsave
/o {
gsave
newpath
translate
0.5 setlinewidth
1 setlinejoin
0 setlinecap
0 0 m
-3 0 l
gsave
0.000 setgray
fill
grestore
stroke
grestore
} bind def
560.571 43.42 o
grestore
gsave
/o {
gsave
newpath
translate
0.5 setlinewidth
1 setlinejoin
0 setlinecap
0 0 m
3 0 l
gsave
0.000 setgray
fill
grestore
stroke
grestore
} bind def
44.6355 46.598 o
grestore
gsave
/o {
gsave
newpath
translate
0.5 setlinewidth
1 setlinejoin
0 setlinecap
0 0 m
-3 0 l
gsave
0.000 setgray
fill
grestore
stroke
grestore
} bind def
560.571 46.598 o
grestore
gsave
/o {
gsave
newpath
translate
0.5 setlinewidth
1 setlinejoin
0 setlinecap
0 0 m
3 0 l
gsave
0.000 setgray
fill
grestore
stroke
grestore
} bind def
44.6355 49.4011 o
grestore
gsave
/o {
gsave
newpath
translate
0.5 setlinewidth
1 setlinejoin
0 setlinecap
0 0 m
-3 0 l
gsave
0.000 setgray
fill
grestore
stroke
grestore
} bind def
560.571 49.4011 o
grestore
gsave
/o {
gsave
newpath
translate
0.5 setlinewidth
1 setlinejoin
0 setlinecap
0 0 m
3 0 l
gsave
0.000 setgray
fill
grestore
stroke
grestore
} bind def
44.6355 68.4051 o
grestore
gsave
/o {
gsave
newpath
translate
0.5 setlinewidth
1 setlinejoin
0 setlinecap
0 0 m
-3 0 l
gsave
0.000 setgray
fill
grestore
stroke
grestore
} bind def
560.571 68.4051 o
grestore
gsave
/o {
gsave
newpath
translate
0.5 setlinewidth
1 setlinejoin
0 setlinecap
0 0 m
3 0 l
gsave
0.000 setgray
fill
grestore
stroke
grestore
} bind def
44.6355 78.0549 o
grestore
gsave
/o {
gsave
newpath
translate
0.5 setlinewidth
1 setlinejoin
0 setlinecap
0 0 m
-3 0 l
gsave
0.000 setgray
fill
grestore
stroke
grestore
} bind def
560.571 78.0549 o
grestore
gsave
/o {
gsave
newpath
translate
0.5 setlinewidth
1 setlinejoin
0 setlinecap
0 0 m
3 0 l
gsave
0.000 setgray
fill
grestore
stroke
grestore
} bind def
44.6355 84.9015 o
grestore
gsave
/o {
gsave
newpath
translate
0.5 setlinewidth
1 setlinejoin
0 setlinecap
0 0 m
-3 0 l
gsave
0.000 setgray
fill
grestore
stroke
grestore
} bind def
560.571 84.9015 o
grestore
gsave
/o {
gsave
newpath
translate
0.5 setlinewidth
1 setlinejoin
0 setlinecap
0 0 m
3 0 l
gsave
0.000 setgray
fill
grestore
stroke
grestore
} bind def
44.6355 90.2122 o
grestore
gsave
/o {
gsave
newpath
translate
0.5 setlinewidth
1 setlinejoin
0 setlinecap
0 0 m
-3 0 l
gsave
0.000 setgray
fill
grestore
stroke
grestore
} bind def
560.571 90.2122 o
grestore
gsave
/o {
gsave
newpath
translate
0.5 setlinewidth
1 setlinejoin
0 setlinecap
0 0 m
3 0 l
gsave
0.000 setgray
fill
grestore
stroke
grestore
} bind def
44.6355 94.5513 o
grestore
gsave
/o {
gsave
newpath
translate
0.5 setlinewidth
1 setlinejoin
0 setlinecap
0 0 m
-3 0 l
gsave
0.000 setgray
fill
grestore
stroke
grestore
} bind def
560.571 94.5513 o
grestore
gsave
/o {
gsave
newpath
translate
0.5 setlinewidth
1 setlinejoin
0 setlinecap
0 0 m
3 0 l
gsave
0.000 setgray
fill
grestore
stroke
grestore
} bind def
44.6355 98.22 o
grestore
gsave
/o {
gsave
newpath
translate
0.5 setlinewidth
1 setlinejoin
0 setlinecap
0 0 m
-3 0 l
gsave
0.000 setgray
fill
grestore
stroke
grestore
} bind def
560.571 98.22 o
grestore
gsave
/o {
gsave
newpath
translate
0.5 setlinewidth
1 setlinejoin
0 setlinecap
0 0 m
3 0 l
gsave
0.000 setgray
fill
grestore
stroke
grestore
} bind def
44.6355 101.398 o
grestore
gsave
/o {
gsave
newpath
translate
0.5 setlinewidth
1 setlinejoin
0 setlinecap
0 0 m
-3 0 l
gsave
0.000 setgray
fill
grestore
stroke
grestore
} bind def
560.571 101.398 o
grestore
gsave
/o {
gsave
newpath
translate
0.5 setlinewidth
1 setlinejoin
0 setlinecap
0 0 m
3 0 l
gsave
0.000 setgray
fill
grestore
stroke
grestore
} bind def
44.6355 104.201 o
grestore
gsave
/o {
gsave
newpath
translate
0.5 setlinewidth
1 setlinejoin
0 setlinecap
0 0 m
-3 0 l
gsave
0.000 setgray
fill
grestore
stroke
grestore
} bind def
560.571 104.201 o
grestore
gsave
/o {
gsave
newpath
translate
0.5 setlinewidth
1 setlinejoin
0 setlinecap
0 0 m
3 0 l
gsave
0.000 setgray
fill
grestore
stroke
grestore
} bind def
44.6355 123.205 o
grestore
gsave
/o {
gsave
newpath
translate
0.5 setlinewidth
1 setlinejoin
0 setlinecap
0 0 m
-3 0 l
gsave
0.000 setgray
fill
grestore
stroke
grestore
} bind def
560.571 123.205 o
grestore
gsave
/o {
gsave
newpath
translate
0.5 setlinewidth
1 setlinejoin
0 setlinecap
0 0 m
3 0 l
gsave
0.000 setgray
fill
grestore
stroke
grestore
} bind def
44.6355 132.855 o
grestore
gsave
/o {
gsave
newpath
translate
0.5 setlinewidth
1 setlinejoin
0 setlinecap
0 0 m
-3 0 l
gsave
0.000 setgray
fill
grestore
stroke
grestore
} bind def
560.571 132.855 o
grestore
gsave
/o {
gsave
newpath
translate
0.5 setlinewidth
1 setlinejoin
0 setlinecap
0 0 m
3 0 l
gsave
0.000 setgray
fill
grestore
stroke
grestore
} bind def
44.6355 139.702 o
grestore
gsave
/o {
gsave
newpath
translate
0.5 setlinewidth
1 setlinejoin
0 setlinecap
0 0 m
-3 0 l
gsave
0.000 setgray
fill
grestore
stroke
grestore
} bind def
560.571 139.702 o
grestore
gsave
/o {
gsave
newpath
translate
0.5 setlinewidth
1 setlinejoin
0 setlinecap
0 0 m
3 0 l
gsave
0.000 setgray
fill
grestore
stroke
grestore
} bind def
44.6355 145.012 o
grestore
gsave
/o {
gsave
newpath
translate
0.5 setlinewidth
1 setlinejoin
0 setlinecap
0 0 m
-3 0 l
gsave
0.000 setgray
fill
grestore
stroke
grestore
} bind def
560.571 145.012 o
grestore
gsave
/o {
gsave
newpath
translate
0.5 setlinewidth
1 setlinejoin
0 setlinecap
0 0 m
3 0 l
gsave
0.000 setgray
fill
grestore
stroke
grestore
} bind def
44.6355 149.351 o
grestore
gsave
/o {
gsave
newpath
translate
0.5 setlinewidth
1 setlinejoin
0 setlinecap
0 0 m
-3 0 l
gsave
0.000 setgray
fill
grestore
stroke
grestore
} bind def
560.571 149.351 o
grestore
gsave
/o {
gsave
newpath
translate
0.5 setlinewidth
1 setlinejoin
0 setlinecap
0 0 m
3 0 l
gsave
0.000 setgray
fill
grestore
stroke
grestore
} bind def
44.6355 153.02 o
grestore
gsave
/o {
gsave
newpath
translate
0.5 setlinewidth
1 setlinejoin
0 setlinecap
0 0 m
-3 0 l
gsave
0.000 setgray
fill
grestore
stroke
grestore
} bind def
560.571 153.02 o
grestore
gsave
/o {
gsave
newpath
translate
0.5 setlinewidth
1 setlinejoin
0 setlinecap
0 0 m
3 0 l
gsave
0.000 setgray
fill
grestore
stroke
grestore
} bind def
44.6355 156.198 o
grestore
gsave
/o {
gsave
newpath
translate
0.5 setlinewidth
1 setlinejoin
0 setlinecap
0 0 m
-3 0 l
gsave
0.000 setgray
fill
grestore
stroke
grestore
} bind def
560.571 156.198 o
grestore
gsave
/o {
gsave
newpath
translate
0.5 setlinewidth
1 setlinejoin
0 setlinecap
0 0 m
3 0 l
gsave
0.000 setgray
fill
grestore
stroke
grestore
} bind def
44.6355 159.001 o
grestore
gsave
/o {
gsave
newpath
translate
0.5 setlinewidth
1 setlinejoin
0 setlinecap
0 0 m
-3 0 l
gsave
0.000 setgray
fill
grestore
stroke
grestore
} bind def
560.571 159.001 o
grestore
gsave
/o {
gsave
newpath
translate
0.5 setlinewidth
1 setlinejoin
0 setlinecap
0 0 m
3 0 l
gsave
0.000 setgray
fill
grestore
stroke
grestore
} bind def
44.6355 178.005 o
grestore
gsave
/o {
gsave
newpath
translate
0.5 setlinewidth
1 setlinejoin
0 setlinecap
0 0 m
-3 0 l
gsave
0.000 setgray
fill
grestore
stroke
grestore
} bind def
560.571 178.005 o
grestore
gsave
/o {
gsave
newpath
translate
0.5 setlinewidth
1 setlinejoin
0 setlinecap
0 0 m
3 0 l
gsave
0.000 setgray
fill
grestore
stroke
grestore
} bind def
44.6355 187.655 o
grestore
gsave
/o {
gsave
newpath
translate
0.5 setlinewidth
1 setlinejoin
0 setlinecap
0 0 m
-3 0 l
gsave
0.000 setgray
fill
grestore
stroke
grestore
} bind def
560.571 187.655 o
grestore
gsave
/o {
gsave
newpath
translate
0.5 setlinewidth
1 setlinejoin
0 setlinecap
0 0 m
3 0 l
gsave
0.000 setgray
fill
grestore
stroke
grestore
} bind def
44.6355 194.501 o
grestore
gsave
/o {
gsave
newpath
translate
0.5 setlinewidth
1 setlinejoin
0 setlinecap
0 0 m
-3 0 l
gsave
0.000 setgray
fill
grestore
stroke
grestore
} bind def
560.571 194.501 o
grestore
gsave
/o {
gsave
newpath
translate
0.5 setlinewidth
1 setlinejoin
0 setlinecap
0 0 m
3 0 l
gsave
0.000 setgray
fill
grestore
stroke
grestore
} bind def
44.6355 199.812 o
grestore
gsave
/o {
gsave
newpath
translate
0.5 setlinewidth
1 setlinejoin
0 setlinecap
0 0 m
-3 0 l
gsave
0.000 setgray
fill
grestore
stroke
grestore
} bind def
560.571 199.812 o
grestore
gsave
/o {
gsave
newpath
translate
0.5 setlinewidth
1 setlinejoin
0 setlinecap
0 0 m
3 0 l
gsave
0.000 setgray
fill
grestore
stroke
grestore
} bind def
44.6355 204.151 o
grestore
gsave
/o {
gsave
newpath
translate
0.5 setlinewidth
1 setlinejoin
0 setlinecap
0 0 m
-3 0 l
gsave
0.000 setgray
fill
grestore
stroke
grestore
} bind def
560.571 204.151 o
grestore
gsave
/o {
gsave
newpath
translate
0.5 setlinewidth
1 setlinejoin
0 setlinecap
0 0 m
3 0 l
gsave
0.000 setgray
fill
grestore
stroke
grestore
} bind def
44.6355 207.82 o
grestore
gsave
/o {
gsave
newpath
translate
0.5 setlinewidth
1 setlinejoin
0 setlinecap
0 0 m
-3 0 l
gsave
0.000 setgray
fill
grestore
stroke
grestore
} bind def
560.571 207.82 o
grestore
gsave
/o {
gsave
newpath
translate
0.5 setlinewidth
1 setlinejoin
0 setlinecap
0 0 m
3 0 l
gsave
0.000 setgray
fill
grestore
stroke
grestore
} bind def
44.6355 210.998 o
grestore
gsave
/o {
gsave
newpath
translate
0.5 setlinewidth
1 setlinejoin
0 setlinecap
0 0 m
-3 0 l
gsave
0.000 setgray
fill
grestore
stroke
grestore
} bind def
560.571 210.998 o
grestore
gsave
/o {
gsave
newpath
translate
0.5 setlinewidth
1 setlinejoin
0 setlinecap
0 0 m
3 0 l
gsave
0.000 setgray
fill
grestore
stroke
grestore
} bind def
44.6355 213.801 o
grestore
gsave
/o {
gsave
newpath
translate
0.5 setlinewidth
1 setlinejoin
0 setlinecap
0 0 m
-3 0 l
gsave
0.000 setgray
fill
grestore
stroke
grestore
} bind def
560.571 213.801 o
grestore
gsave
/o {
gsave
newpath
translate
0.5 setlinewidth
1 setlinejoin
0 setlinecap
0 0 m
3 0 l
gsave
0.000 setgray
fill
grestore
stroke
grestore
} bind def
44.6355 232.805 o
grestore
gsave
/o {
gsave
newpath
translate
0.5 setlinewidth
1 setlinejoin
0 setlinecap
0 0 m
-3 0 l
gsave
0.000 setgray
fill
grestore
stroke
grestore
} bind def
560.571 232.805 o
grestore
gsave
/o {
gsave
newpath
translate
0.5 setlinewidth
1 setlinejoin
0 setlinecap
0 0 m
3 0 l
gsave
0.000 setgray
fill
grestore
stroke
grestore
} bind def
44.6355 242.455 o
grestore
gsave
/o {
gsave
newpath
translate
0.5 setlinewidth
1 setlinejoin
0 setlinecap
0 0 m
-3 0 l
gsave
0.000 setgray
fill
grestore
stroke
grestore
} bind def
560.571 242.455 o
grestore
gsave
/o {
gsave
newpath
translate
0.5 setlinewidth
1 setlinejoin
0 setlinecap
0 0 m
3 0 l
gsave
0.000 setgray
fill
grestore
stroke
grestore
} bind def
44.6355 249.301 o
grestore
gsave
/o {
gsave
newpath
translate
0.5 setlinewidth
1 setlinejoin
0 setlinecap
0 0 m
-3 0 l
gsave
0.000 setgray
fill
grestore
stroke
grestore
} bind def
560.571 249.301 o
grestore
gsave
/o {
gsave
newpath
translate
0.5 setlinewidth
1 setlinejoin
0 setlinecap
0 0 m
3 0 l
gsave
0.000 setgray
fill
grestore
stroke
grestore
} bind def
44.6355 254.612 o
grestore
gsave
/o {
gsave
newpath
translate
0.5 setlinewidth
1 setlinejoin
0 setlinecap
0 0 m
-3 0 l
gsave
0.000 setgray
fill
grestore
stroke
grestore
} bind def
560.571 254.612 o
grestore
gsave
/o {
gsave
newpath
translate
0.5 setlinewidth
1 setlinejoin
0 setlinecap
0 0 m
3 0 l
gsave
0.000 setgray
fill
grestore
stroke
grestore
} bind def
44.6355 258.951 o
grestore
gsave
/o {
gsave
newpath
translate
0.5 setlinewidth
1 setlinejoin
0 setlinecap
0 0 m
-3 0 l
gsave
0.000 setgray
fill
grestore
stroke
grestore
} bind def
560.571 258.951 o
grestore
gsave
/o {
gsave
newpath
translate
0.5 setlinewidth
1 setlinejoin
0 setlinecap
0 0 m
3 0 l
gsave
0.000 setgray
fill
grestore
stroke
grestore
} bind def
44.6355 262.62 o
grestore
gsave
/o {
gsave
newpath
translate
0.5 setlinewidth
1 setlinejoin
0 setlinecap
0 0 m
-3 0 l
gsave
0.000 setgray
fill
grestore
stroke
grestore
} bind def
560.571 262.62 o
grestore
gsave
/o {
gsave
newpath
translate
0.5 setlinewidth
1 setlinejoin
0 setlinecap
0 0 m
3 0 l
gsave
0.000 setgray
fill
grestore
stroke
grestore
} bind def
44.6355 265.798 o
grestore
gsave
/o {
gsave
newpath
translate
0.5 setlinewidth
1 setlinejoin
0 setlinecap
0 0 m
-3 0 l
gsave
0.000 setgray
fill
grestore
stroke
grestore
} bind def
560.571 265.798 o
grestore
gsave
/o {
gsave
newpath
translate
0.5 setlinewidth
1 setlinejoin
0 setlinecap
0 0 m
3 0 l
gsave
0.000 setgray
fill
grestore
stroke
grestore
} bind def
44.6355 268.601 o
grestore
gsave
/o {
gsave
newpath
translate
0.5 setlinewidth
1 setlinejoin
0 setlinecap
0 0 m
-3 0 l
gsave
0.000 setgray
fill
grestore
stroke
grestore
} bind def
560.571 268.601 o
grestore
gsave
15.635485 149.346328 translate
90.000000 rotate
0.000000 0.140625 m /N glyphshow
grestore
1.000 setlinewidth
2 setlinecap
gsave
44.6355 271.109 m
560.571 271.109 l
stroke
grestore
gsave
560.571 35.4122 m
560.571 271.109 l
stroke
grestore
gsave
44.6355 35.4122 m
560.571 35.4122 l
stroke
grestore
gsave
44.6355 35.4122 m
44.6355 271.109 l
stroke
grestore

end
showpage
