%!PS-Adobe-3.0 EPSF-3.0
%%Title: /home/hettin12/webplots/05-27-15_thesis_figures/fDwarf_template_spectrum/fDwarf_template_spectrum_big.eps
%%Creator: matplotlib version 1.2.x, http://matplotlib.sourceforge.net/
%%CreationDate: Thu Jul  9 15:05:23 2015
%%Orientation: portrait
%%BoundingBox: -54 216 666 576
%%EndComments
%%BeginProlog
/mpldict 10 dict def
mpldict begin
/m { moveto } bind def
/l { lineto } bind def
/r { rlineto } bind def
/c { curveto } bind def
/cl { closepath } bind def
/box {
m
1 index 0 r
0 exch r
neg 0 r
cl
} bind def
/clipbox {
box
clip
newpath
} bind def
%!PS-Adobe-3.0 Resource-Font
%%Title: cmmi10
%%Copyright: Copyright (C) 1994, Basil K. Malyshev. All Rights Reserved.012BaKoMa Fonts Collection, Level-B.
%%Creator: Converted from TrueType to type 3 by PPR
25 dict begin
/_d{bind def}bind def
/_m{moveto}_d
/_l{lineto}_d
/_cl{closepath eofill}_d
/_c{curveto}_d
/_sc{7 -1 roll{setcachedevice}{pop pop pop pop pop pop}ifelse}_d
/_e{exec}_d
/FontName /Cmmi10 def
/PaintType 0 def
/FontMatrix[.001 0 0 .001 0 0]def
/FontBBox[-34 -250 1048 750]def
/FontType 3 def
/Encoding [ /alpha /gamma /beta /delta ] def
/FontInfo 10 dict dup begin
/FamilyName (cmmi10) def
/FullName (cmmi10) def
/Notice (Copyright (C) 1994, Basil K. Malyshev. All Rights Reserved.012BaKoMa Fonts Collection, Level-B. ) def
/Weight (Regular) def
/Version (1.1/12-Nov-94) def
/ItalicAngle 0.0 def
/isFixedPitch false def
/UnderlinePosition -133 def
/UnderlineThickness 20 def
end readonly def
/CharStrings 4 dict dup begin
/alpha{{639 0 40 -10 602 442 _sc
201 -10 _m
169 -10 141 -2 117 12 _c
92 26 73 46 60 72 _c
46 97 40 126 40 158 _c
40 203 52 248 78 292 _c
103 336 136 372 178 400 _c
220 428 264 442 310 442 _c
344 442 373 433 399 415 _c
425 397 444 374 458 344 _c
471 314 478 283 478 250 _c
479 183 _l
501 214 521 247 537 281 _c
553 315 565 351 573 387 _c
574 391 577 393 581 393 _c
}_e{593 393 _l
599 393 602 390 602 384 _c
602 383 601 382 601 381 _c
593 350 583 320 571 292 _c
559 264 546 236 530 210 _c
514 184 497 160 479 139 _c
479 56 488 15 508 15 _c
520 15 530 18 538 26 _c
546 33 553 42 559 53 _c
565 63 569 69 571 70 _c
583 70 _l
588 70 591 66 591 60 _c
591 43 581 27 562 12 _c
543 -2 524 -10 506 -10 _c
482 -10 462 -2 446 13 _c
}_e{430 28 419 48 413 73 _c
381 46 347 25 311 11 _c
275 -3 238 -10 201 -10 _c
203 15 _m
274 15 342 44 408 103 _c
408 107 407 111 407 117 _c
406 123 406 126 406 127 _c
406 235 _l
406 355 373 416 308 416 _c
269 416 235 399 206 366 _c
176 332 154 292 139 246 _c
124 200 117 157 117 119 _c
117 90 124 65 139 45 _c
154 25 175 15 203 15 _c
_cl}_e}_d
/gamma{{517 0 16 -215 542 442 _sc
295 -195 _m
295 -179 298 -157 305 -129 _c
311 -100 319 -70 329 -38 _c
339 -6 347 20 354 41 _c
356 74 358 99 358 116 _c
358 159 353 199 345 236 _c
337 273 321 304 297 329 _c
273 353 241 366 199 366 _c
177 366 155 361 133 352 _c
111 342 92 329 76 312 _c
60 295 50 276 44 255 _c
42 251 40 249 36 249 _c
24 249 _l
18 249 16 252 16 258 _c
}_e{16 261 _l
23 291 36 320 55 348 _c
74 376 97 398 125 416 _c
153 433 182 442 213 442 _c
244 442 271 431 294 410 _c
316 388 334 361 348 329 _c
362 297 372 264 378 231 _c
384 197 387 166 387 137 _c
421 228 458 314 500 396 _c
515 428 _l
517 430 519 431 522 431 _c
534 431 _l
539 431 542 428 542 422 _c
542 420 541 418 540 416 _c
525 385 _l
495 327 469 268 445 209 _c
}_e{421 150 400 93 383 38 _c
380 15 375 -15 368 -54 _c
360 -92 351 -128 341 -162 _c
331 -196 320 -213 310 -215 _c
300 -215 295 -208 295 -195 _c
_cl}_e}_d
/beta{{565 0 19 -193 589 705 _sc
27 -193 _m
25 -193 23 -191 21 -189 _c
19 -187 19 -185 19 -183 _c
173 434 _l
181 467 194 499 211 531 _c
228 562 249 591 275 618 _c
300 644 328 665 359 681 _c
389 697 422 705 457 705 _c
481 705 504 699 524 688 _c
544 677 559 662 571 642 _c
583 622 589 600 589 576 _c
589 552 584 530 575 508 _c
566 486 553 466 537 447 _c
521 428 503 413 485 402 _c
}_e{495 395 505 386 513 376 _c
521 365 528 354 534 342 _c
539 330 543 318 546 304 _c
549 290 551 276 551 264 _c
551 230 543 196 529 163 _c
514 129 494 99 469 72 _c
443 45 414 24 382 9 _c
349 -6 316 -14 282 -14 _c
244 -14 211 -4 181 16 _c
151 36 130 63 119 99 _c
47 -187 _l
47 -191 44 -193 39 -193 _c
27 -193 _l
284 12 _m
314 12 341 21 365 41 _c
}_e{389 61 409 86 425 116 _c
441 146 453 177 461 211 _c
469 244 474 274 474 302 _c
474 336 464 362 445 382 _c
422 373 400 369 378 369 _c
325 369 299 378 299 396 _c
299 419 329 431 389 431 _c
410 431 430 427 448 421 _c
462 432 475 448 487 470 _c
499 491 508 513 514 537 _c
520 560 523 582 523 603 _c
523 625 517 643 505 657 _c
493 671 477 679 455 679 _c
}_e{414 679 376 666 341 641 _c
306 616 277 584 253 546 _c
229 508 211 468 201 428 _c
146 207 _l
142 191 140 174 139 156 _c
139 114 152 79 180 52 _c
207 25 242 12 284 12 _c
329 399 _m
339 396 355 395 379 395 _c
390 395 401 397 413 401 _c
412 401 411 402 409 402 _c
401 404 394 405 386 405 _c
356 405 337 403 329 399 _c
_cl}_e}_d
/delta{{444 0 40 -14 451 713 _sc
200 -14 _m
177 -14 156 -9 136 -1 _c
116 7 98 19 84 35 _c
69 51 58 70 51 90 _c
43 110 40 131 40 155 _c
40 196 49 236 69 276 _c
89 315 116 349 150 378 _c
184 406 221 426 261 436 _c
241 472 226 503 216 529 _c
206 555 201 582 201 610 _c
201 630 205 647 215 663 _c
224 679 237 691 254 700 _c
270 708 289 713 310 713 _c
}_e{330 713 369 706 428 693 _c
443 689 451 680 451 666 _c
451 654 447 644 439 635 _c
431 626 421 622 410 622 _c
402 622 394 623 388 627 _c
381 631 371 637 357 647 _c
343 657 330 664 319 669 _c
308 674 297 677 285 677 _c
271 677 259 672 248 664 _c
237 656 232 645 232 632 _c
232 610 241 586 260 559 _c
278 531 305 496 340 453 _c
379 403 399 347 399 287 _c
}_e{399 257 394 224 386 190 _c
377 155 364 122 348 91 _c
332 60 311 35 285 15 _c
259 -4 231 -14 200 -14 _c
202 12 _m
228 12 250 25 269 52 _c
287 79 301 111 311 149 _c
321 186 326 217 326 243 _c
326 293 308 349 274 411 _c
238 401 208 380 183 349 _c
157 318 138 282 125 242 _c
112 201 106 162 106 126 _c
106 94 114 67 131 45 _c
147 23 171 12 202 12 _c
_cl}_e}_d
end readonly def

/BuildGlyph
 {exch begin
 CharStrings exch
 2 copy known not{pop /.notdef}if
 true 3 1 roll get exec
 end}_d

/BuildChar {
 1 index /Encoding get exch get
 1 index /BuildGlyph get exec
}_d

FontName currentdict end definefont pop
%!PS-Adobe-3.0 Resource-Font
%%Title: STIXGeneral-Regular
%%Copyright: Copyright (c) 2001-2010 by the STI Pub Companies, consisting of the American Chemical Society, the American Institute of Physics, the American Mathematical Society, the American Physical Society, Elsevier, Inc., and The Institute of Electrical and Electronic Engineers, Inc. Portions copyright (c) 1998-2003 by MicroPress, Inc. Portions copyright (c) 1990 by Elsevier, Inc. All rights reserved.
%%Creator: Converted from TrueType to type 3 by PPR
25 dict begin
/_d{bind def}bind def
/_m{moveto}_d
/_l{lineto}_d
/_cl{closepath eofill}_d
/_c{curveto}_d
/_sc{7 -1 roll{setcachedevice}{pop pop pop pop pop pop}ifelse}_d
/_e{exec}_d
/FontName /STIXGeneral-Regular def
/PaintType 0 def
/FontMatrix[.001 0 0 .001 0 0]def
/FontBBox[-970 -443 2000 1023]def
/FontType 3 def
/Encoding [ /uni212B ] def
/FontInfo 10 dict dup begin
/FamilyName (STIXGeneral) def
/FullName (STIXGeneral-Regular) def
/Notice (Copyright (c) 2001-2010 by the STI Pub Companies, consisting of the American Chemical Society, the American Institute of Physics, the American Mathematical Society, the American Physical Society, Elsevier, Inc., and The Institute of Electrical and Electronic Engineers, Inc. Portions copyright (c) 1998-2003 by MicroPress, Inc. Portions copyright (c) 1990 by Elsevier, Inc. All rights reserved. STIX Fonts(TM) is a trademark of The Institute of Electrical and Electronics Engineers, Inc.) def
/Weight (Regular) def
/Version (Version 1.0.0) def
/ItalicAngle 0.0 def
/isFixedPitch false def
/UnderlinePosition -75 def
/UnderlineThickness 50 def
end readonly def
/CharStrings 1 dict dup begin
/uni212B{{722 0 15 0 707 871 _sc
141 186 _m
346 673 _l
321 675 300 686 284 705 _c
268 723 260 746 260 772 _c
260 799 269 822 289 842 _c
309 861 333 871 361 871 _c
387 871 410 861 430 841 _c
449 821 459 798 459 771 _c
459 745 450 722 433 704 _c
415 685 394 674 368 672 _c
613 111 _l
627 76 640 53 652 41 _c
664 29 682 21 707 19 _c
707 0 _l
452 0 _l
452 19 _l
}_e{478 19 497 22 507 28 _c
516 32 521 40 521 52 _c
521 69 514 92 502 122 _c
461 216 _l
199 216 _l
153 102 _l
147 86 144 72 144 60 _c
144 44 149 34 160 28 _c
171 22 189 19 214 19 _c
214 0 _l
15 0 _l
15 19 _l
43 21 63 31 76 49 _c
88 67 110 112 141 186 _c
425 772 _m
425 790 418 805 405 818 _c
392 830 376 837 358 837 _c
}_e{340 837 325 830 313 817 _c
300 804 294 789 294 772 _c
294 753 300 737 313 725 _c
325 712 340 706 358 706 _c
376 706 392 712 405 725 _c
418 737 425 753 425 772 _c
447 257 _m
331 532 _l
216 257 _l
447 257 _l
_cl}_e}_d
end readonly def

/BuildGlyph
 {exch begin
 CharStrings exch
 2 copy known not{pop /.notdef}if
 true 3 1 roll get exec
 end}_d

/BuildChar {
 1 index /Encoding get exch get
 1 index /BuildGlyph get exec
}_d

FontName currentdict end definefont pop
%!PS-Adobe-3.0 Resource-Font
%%Title: Bitstream Vera Serif
%%Copyright: Copyright (c) 2003 by Bitstream, Inc. All Rights Reserved.
%%Creator: Converted from TrueType to type 3 by PPR
25 dict begin
/_d{bind def}bind def
/_m{moveto}_d
/_l{lineto}_d
/_cl{closepath eofill}_d
/_c{curveto}_d
/_sc{7 -1 roll{setcachedevice}{pop pop pop pop pop pop}ifelse}_d
/_e{exec}_d
/FontName /BitstreamVeraSerif-Roman def
/PaintType 0 def
/FontMatrix[.001 0 0 .001 0 0]def
/FontBBox[-183 -236 1287 928]def
/FontType 3 def
/Encoding [ /space /parenleft /parenright /period /zero /one /two /three /four /five /six /seven /eight /nine /C /F /H /K /N /W /a /d /e /g /h /i /l /m /n /o /r /t /u /v /x /z ] def
/FontInfo 10 dict dup begin
/FamilyName (Bitstream Vera Serif) def
/FullName (Bitstream Vera Serif) def
/Notice (Copyright (c) 2003 by Bitstream, Inc. All Rights Reserved. Bitstream Vera is a trademark of Bitstream, Inc.) def
/Weight (Roman) def
/Version (Release 1.10) def
/ItalicAngle 0.0 def
/isFixedPitch false def
/UnderlinePosition -213 def
/UnderlineThickness 133 def
end readonly def
/CharStrings 36 dict dup begin
/space{318 0 0 0 0 0 _sc
}_d
/parenleft{390 0 79 -155 319 760 _sc
319 -155 _m
239 -119 179 -63 139 13 _c
99 89 79 186 79 302 _c
79 418 99 514 139 591 _c
179 668 239 724 319 760 _c
319 712 _l
269 677 233 628 211 566 _c
189 503 178 415 178 302 _c
178 188 189 100 211 38 _c
233 -24 269 -72 319 -107 _c
319 -155 _l
_cl}_d
/parenright{390 0 71 -155 311 760 _sc
71 -155 _m
71 -107 _l
121 -72 157 -24 179 38 _c
201 100 212 188 212 302 _c
212 415 201 503 179 566 _c
157 628 121 677 71 712 _c
71 760 _l
150 724 210 668 250 591 _c
290 514 311 418 311 302 _c
311 186 290 89 250 13 _c
210 -63 150 -119 71 -155 _c
_cl}_d
/period{318 0 94 -13 224 116 _sc
94 51 _m
94 69 100 84 112 97 _c
124 109 140 116 159 116 _c
177 116 192 109 205 97 _c
217 84 224 69 224 51 _c
224 33 217 17 205 5 _c
192 -7 177 -13 159 -13 _c
140 -13 124 -7 112 5 _c
100 17 94 32 94 51 _c
_cl}_d
/zero{636 0 66 -13 570 742 _sc
318 34 _m
368 34 405 61 430 116 _c
454 170 467 253 467 364 _c
467 474 454 557 430 612 _c
405 666 368 694 318 694 _c
268 694 230 666 206 612 _c
181 557 169 474 169 364 _c
169 253 181 170 206 116 _c
230 61 268 34 318 34 _c
318 -13 _m
238 -13 176 20 132 86 _c
88 152 66 244 66 364 _c
66 483 88 576 132 642 _c
176 708 238 742 318 742 _c
397 742 459 708 503 642 _c
547 576 570 483 570 364 _c
570 244 547 152 503 86 _c
459 20 397 -13 318 -13 _c
_cl}_d
/one{636 0 122 0 494 742 _sc
142 0 _m
142 52 _l
269 52 _l
269 658 _l
122 563 _l
122 627 _l
300 742 _l
367 742 _l
367 52 _l
494 52 _l
494 0 _l
142 0 _l
_cl}_d
/two{{636 0 68 0 538 742 _sc
128 555 _m
73 555 _l
73 685 _l
107 703 142 717 178 727 _c
213 737 248 742 282 742 _c
358 742 418 723 462 687 _c
506 650 528 600 528 537 _c
528 465 478 380 378 281 _c
370 273 365 268 361 264 _c
177 80 _l
481 80 _l
481 170 _l
538 170 _l
538 0 _l
68 0 _l
68 53 _l
289 274 _l
337 322 372 367 393 408 _c
414 449 425 492 425 537 _c
}_e{425 586 412 624 386 652 _c
360 680 325 694 281 694 _c
234 694 198 682 173 659 _c
147 636 132 601 128 555 _c
_cl}_e}_d
/three{{636 0 76 -13 562 742 _sc
97 698 _m
135 712 171 723 206 731 _c
241 738 274 742 305 742 _c
376 742 432 726 472 696 _c
512 665 532 622 532 568 _c
532 524 518 487 490 458 _c
462 428 423 408 373 398 _c
433 389 479 367 512 332 _c
545 297 562 252 562 197 _c
562 129 539 77 493 41 _c
447 5 382 -13 296 -13 _c
258 -13 220 -9 184 -1 _c
148 6 112 18 76 35 _c
76 177 _l
}_e{131 177 _l
134 129 150 94 178 70 _c
206 46 246 34 298 34 _c
348 34 387 48 416 77 _c
444 106 459 146 459 196 _c
459 253 444 296 414 326 _c
384 355 341 370 284 370 _c
238 370 _l
238 420 _l
262 420 _l
319 420 362 431 390 455 _c
418 479 433 514 433 562 _c
433 604 421 637 398 660 _c
374 682 341 694 297 694 _c
253 694 218 683 194 662 _c
170 641 156 610 152 570 _c
}_e{97 570 _l
97 698 _l
_cl}_e}_d
/four{636 0 31 0 586 742 _sc
349 247 _m
349 635 _l
100 247 _l
349 247 _l
564 0 _m
232 0 _l
232 52 _l
349 52 _l
349 195 _l
31 195 _l
31 248 _l
350 742 _l
447 742 _l
447 247 _l
586 247 _l
586 195 _l
447 195 _l
447 52 _l
564 52 _l
564 0 _l
_cl}_d
/five{{636 0 85 -13 559 729 _sc
503 729 _m
503 649 _l
169 649 _l
169 440 _l
185 452 205 460 228 466 _c
250 472 276 475 304 475 _c
382 475 444 453 490 409 _c
536 365 559 306 559 231 _c
559 153 536 93 490 51 _c
444 8 379 -13 296 -13 _c
262 -13 228 -9 193 -1 _c
157 6 121 18 85 35 _c
85 177 _l
140 177 _l
143 130 158 94 184 70 _c
210 46 248 34 296 34 _c
}_e{347 34 386 51 414 85 _c
442 119 456 167 456 231 _c
456 294 442 342 415 376 _c
387 410 348 427 296 427 _c
266 427 240 421 218 411 _c
196 401 176 385 159 363 _c
117 363 _l
117 729 _l
503 729 _l
_cl}_e}_d
/six{{636 0 67 -13 573 742 _sc
327 34 _m
373 34 408 50 433 84 _c
457 118 470 166 470 230 _c
470 293 457 341 433 375 _c
408 409 373 426 327 426 _c
280 426 244 409 220 377 _c
196 344 184 297 184 236 _c
184 171 196 121 221 86 _c
245 51 281 34 327 34 _c
168 401 _m
190 425 215 444 243 456 _c
271 468 302 474 338 474 _c
410 474 468 452 510 408 _c
552 364 573 305 573 230 _c
}_e{573 156 550 97 505 53 _c
459 9 399 -13 323 -13 _c
241 -13 177 17 133 78 _c
89 139 67 227 67 341 _c
67 468 93 567 145 637 _c
197 707 271 742 367 742 _c
393 742 420 739 448 735 _c
476 730 505 723 535 713 _c
535 593 _l
480 593 _l
476 625 463 650 442 668 _c
421 685 393 694 357 694 _c
293 694 246 670 215 622 _c
184 574 168 500 168 401 _c
_cl}_e}_d
/seven{636 0 84 0 564 729 _sc
564 679 _m
279 0 _l
206 0 _l
478 649 _l
141 649 _l
141 559 _l
84 559 _l
84 729 _l
564 729 _l
564 679 _l
_cl}_d
/eight{{636 0 67 -13 569 742 _sc
466 199 _m
466 251 453 291 427 320 _c
401 349 364 364 318 364 _c
271 364 235 349 209 320 _c
183 291 170 251 170 199 _c
170 147 183 106 209 77 _c
235 48 271 34 318 34 _c
364 34 401 48 427 77 _c
453 106 466 147 466 199 _c
446 553 _m
446 597 434 632 412 657 _c
389 681 358 694 318 694 _c
278 694 246 681 224 657 _c
201 632 190 597 190 553 _c
}_e{190 508 201 473 224 449 _c
246 424 278 412 318 412 _c
358 412 389 424 412 449 _c
434 473 428 453 393 388 _c
448 380 491 360 522 327 _c
553 293 569 251 569 199 _c
569 131 547 78 504 42 _c
460 5 398 -13 318 -13 _c
237 -13 175 5 132 42 _c
88 78 67 131 67 199 _c
67 251 82 293 113 327 _c
144 360 187 380 243 388 _c
193 396 156 415 130 444 _c
}_e{104 472 91 509 91 553 _c
91 611 111 657 151 691 _c
191 725 247 742 318 742 _c
388 742 444 725 484 691 _c
524 657 545 611 545 553 _c
545 509 531 472 505 444 _c
479 415 459 451 446 553 _c
_cl}_e}_d
/nine{{636 0 63 -13 569 742 _sc
468 327 _m
446 302 420 284 392 272 _c
364 260 332 254 297 254 _c
224 254 167 275 125 319 _c
83 363 63 422 63 498 _c
63 572 85 631 131 675 _c
176 719 237 742 313 742 _c
395 742 459 711 503 650 _c
547 588 569 501 569 387 _c
569 259 542 161 490 91 _c
438 21 364 -13 269 -13 _c
243 -13 216 -10 188 -6 _c
160 -2 131 5 101 15 _c
101 136 _l
}_e{156 136 _l
160 103 172 78 194 60 _c
215 42 243 34 279 34 _c
342 34 389 57 420 105 _c
450 153 466 227 468 327 _c
309 694 _m
263 694 227 677 203 643 _c
178 609 166 561 166 498 _c
166 434 178 386 203 352 _c
227 318 263 302 309 302 _c
355 302 390 318 415 351 _c
439 383 452 430 452 492 _c
452 556 439 606 415 641 _c
390 676 355 694 309 694 _c
_cl}_e}_d
/C{{765 0 56 -13 705 742 _sc
705 193 _m
683 125 647 73 597 39 _c
546 4 482 -13 405 -13 _c
357 -13 312 -5 272 11 _c
231 27 195 50 164 82 _c
127 118 100 160 82 206 _c
64 252 56 305 56 364 _c
56 477 88 568 154 638 _c
219 707 305 742 413 742 _c
453 742 495 736 540 726 _c
584 716 633 700 685 679 _c
685 511 _l
630 511 _l
618 572 593 617 557 646 _c
}_e{521 675 470 690 405 690 _c
327 690 268 662 228 607 _c
188 551 168 470 168 364 _c
168 257 188 176 228 121 _c
268 65 327 38 405 38 _c
459 38 503 51 539 77 _c
574 103 599 141 615 193 _c
705 193 _l
_cl}_e}_d
/F{694 0 55 0 652 729 _sc
55 0 _m
55 52 _l
148 52 _l
148 677 _l
55 677 _l
55 729 _l
652 729 _l
652 567 _l
592 567 _l
592 669 _l
247 669 _l
247 425 _l
496 425 _l
496 516 _l
556 516 _l
556 274 _l
496 274 _l
496 365 _l
247 365 _l
247 52 _l
364 52 _l
364 0 _l
55 0 _l
_cl}_d
/H{{872 0 55 0 817 729 _sc
55 0 _m
55 52 _l
148 52 _l
148 677 _l
55 677 _l
55 729 _l
340 729 _l
340 677 _l
247 677 _l
247 425 _l
625 425 _l
625 677 _l
532 677 _l
532 729 _l
817 729 _l
817 677 _l
724 677 _l
724 52 _l
817 52 _l
817 0 _l
532 0 _l
532 52 _l
625 52 _l
625 365 _l
247 365 _l
247 52 _l
340 52 _l
340 0 _l
55 0 _l
_cl}_e}_d
/K{747 0 55 0 762 729 _sc
55 0 _m
55 52 _l
148 52 _l
148 677 _l
55 677 _l
55 729 _l
340 729 _l
340 677 _l
247 677 _l
247 401 _l
561 677 _l
482 677 _l
482 729 _l
724 729 _l
724 677 _l
642 677 _l
329 402 _l
679 52 _l
762 52 _l
762 0 _l
593 0 _l
247 346 _l
247 52 _l
340 52 _l
340 0 _l
55 0 _l
_cl}_d
/N{875 0 49 -13 831 729 _sc
49 0 _m
49 52 _l
147 52 _l
147 677 _l
49 677 _l
49 729 _l
236 729 _l
673 154 _l
673 677 _l
575 677 _l
575 729 _l
831 729 _l
831 677 _l
733 677 _l
733 -13 _l
674 -13 _l
207 600 _l
207 52 _l
305 52 _l
305 0 _l
49 0 _l
_cl}_d
/W{1028 0 5 0 1025 729 _sc
762 0 _m
682 0 _l
515 593 _l
348 0 _l
268 0 _l
77 677 _l
5 677 _l
5 729 _l
271 729 _l
271 677 _l
180 677 _l
332 138 _l
498 729 _l
577 729 _l
746 132 _l
899 677 _l
815 677 _l
815 729 _l
1025 729 _l
1025 677 _l
953 677 _l
762 0 _l
_cl}_d
/a{{596 0 50 -13 568 533 _sc
398 163 _m
398 273 _l
282 273 _l
237 273 204 263 182 244 _c
160 224 150 195 150 156 _c
150 120 161 91 183 70 _c
205 48 235 38 273 38 _c
310 38 340 49 363 72 _c
386 95 398 125 398 163 _c
488 324 _m
488 52 _l
568 52 _l
568 0 _l
398 0 _l
398 56 _l
378 32 355 14 329 3 _c
303 -7 272 -13 238 -13 _c
180 -13 134 2 100 32 _c
}_e{66 62 50 104 50 156 _c
50 209 69 250 108 280 _c
146 310 201 325 272 325 _c
398 325 _l
398 361 _l
398 400 386 430 362 452 _c
338 474 304 485 261 485 _c
225 485 197 476 176 460 _c
154 444 141 420 136 388 _c
90 388 _l
90 493 _l
121 506 151 516 181 523 _c
210 529 239 533 267 533 _c
339 533 393 515 431 479 _c
469 443 488 392 488 324 _c
_cl}_e}_d
/d{{640 0 50 -13 611 760 _sc
525 52 _m
611 52 _l
611 0 _l
435 0 _l
435 81 _l
417 48 395 24 368 9 _c
340 -5 307 -13 267 -13 _c
203 -13 150 12 110 62 _c
70 112 50 178 50 260 _c
50 341 70 407 110 457 _c
150 507 203 533 267 533 _c
307 533 340 525 368 510 _c
395 494 417 470 435 438 _c
435 708 _l
350 708 _l
350 760 _l
525 760 _l
525 52 _l
435 234 _m
435 285 _l
}_e{435 347 423 394 399 427 _c
375 460 340 477 295 477 _c
249 477 214 458 190 422 _c
166 386 155 332 155 260 _c
155 188 166 133 190 97 _c
214 60 249 42 295 42 _c
340 42 375 58 399 91 _c
423 123 435 171 435 234 _c
_cl}_e}_d
/e{{592 0 50 -13 542 533 _sc
542 250 _m
155 250 _l
155 246 _l
155 176 168 123 194 87 _c
220 51 259 34 311 34 _c
350 34 382 44 408 65 _c
433 85 451 116 461 157 _c
533 157 _l
519 100 492 57 454 29 _c
415 1 364 -13 302 -13 _c
226 -13 165 11 119 61 _c
73 111 50 177 50 260 _c
50 342 72 408 118 458 _c
163 508 222 533 296 533 _c
374 533 435 508 477 460 _c
}_e{519 412 540 342 542 250 _c
436 302 _m
434 362 421 408 397 439 _c
373 469 340 485 296 485 _c
254 485 222 469 198 438 _c
174 407 160 362 155 302 _c
436 302 _l
_cl}_e}_d
/g{{640 0 50 -221 611 533 _sc
525 467 _m
525 11 _l
525 -63 504 -120 463 -160 _c
422 -200 364 -221 288 -221 _c
254 -221 221 -218 190 -212 _c
158 -206 128 -196 100 -184 _c
100 -75 _l
147 -75 _l
153 -109 166 -133 188 -149 _c
210 -165 241 -173 282 -173 _c
334 -173 373 -158 398 -128 _c
422 -98 435 -51 435 11 _c
435 81 _l
417 48 395 24 368 9 _c
340 -5 307 -13 267 -13 _c
203 -13 150 12 110 62 _c
}_e{70 112 50 178 50 260 _c
50 341 70 407 110 457 _c
150 507 203 533 267 533 _c
307 533 340 525 368 510 _c
395 494 417 470 435 438 _c
435 519 _l
611 519 _l
611 467 _l
525 467 _l
435 285 _m
435 347 423 394 399 427 _c
375 460 340 477 295 477 _c
249 477 214 458 190 422 _c
166 386 155 332 155 260 _c
155 188 166 133 190 97 _c
214 60 249 42 295 42 _c
}_e{340 42 375 58 399 91 _c
423 123 435 171 435 234 _c
435 285 _l
_cl}_e}_d
/h{{644 0 36 0 616 760 _sc
41 0 _m
41 52 _l
122 52 _l
122 708 _l
36 708 _l
36 760 _l
212 760 _l
212 427 _l
228 461 250 488 276 506 _c
302 524 333 533 369 533 _c
426 533 468 516 495 484 _c
522 451 536 400 536 330 _c
536 52 _l
616 52 _l
616 0 _l
368 0 _l
368 52 _l
446 52 _l
446 302 _l
446 365 438 408 422 432 _c
406 455 379 467 340 467 _c
}_e{298 467 266 451 244 421 _c
222 391 212 347 212 289 _c
212 52 _l
290 52 _l
290 0 _l
41 0 _l
_cl}_e}_d
/i{320 0 36 0 297 736 _sc
97 680 _m
97 695 102 708 113 719 _c
124 730 137 736 153 736 _c
167 736 180 730 191 719 _c
202 708 208 695 208 680 _c
208 664 202 651 192 641 _c
181 630 168 625 153 625 _c
137 625 124 630 113 641 _c
102 651 97 664 97 680 _c
212 52 _m
297 52 _l
297 0 _l
36 0 _l
36 52 _l
122 52 _l
122 467 _l
36 467 _l
36 519 _l
212 519 _l
212 52 _l
_cl}_d
/l{320 0 29 0 290 760 _sc
205 52 _m
290 52 _l
290 0 _l
29 0 _l
29 52 _l
115 52 _l
115 708 _l
29 708 _l
29 760 _l
205 760 _l
205 52 _l
_cl}_d
/m{{948 0 36 0 921 533 _sc
518 418 _m
535 456 557 484 584 504 _c
611 523 642 533 678 533 _c
732 533 773 516 800 482 _c
826 448 840 398 840 330 _c
840 52 _l
921 52 _l
921 0 _l
672 0 _l
672 52 _l
750 52 _l
750 320 _l
750 372 742 410 726 433 _c
710 455 685 467 649 467 _c
609 467 578 451 557 421 _c
536 391 526 347 526 289 _c
526 52 _l
604 52 _l
604 0 _l
358 0 _l
}_e{358 52 _l
436 52 _l
436 323 _l
436 375 428 412 412 434 _c
396 456 371 467 335 467 _c
295 467 264 451 243 421 _c
222 391 212 347 212 289 _c
212 52 _l
290 52 _l
290 0 _l
41 0 _l
41 52 _l
122 52 _l
122 468 _l
36 468 _l
36 519 _l
212 519 _l
212 427 _l
228 461 249 488 275 506 _c
301 524 330 533 363 533 _c
403 533 436 523 463 503 _c
}_e{490 483 508 454 518 418 _c
_cl}_e}_d
/n{{644 0 36 0 616 533 _sc
41 0 _m
41 52 _l
122 52 _l
122 467 _l
36 467 _l
36 519 _l
212 519 _l
212 427 _l
228 461 250 488 276 506 _c
302 524 333 533 369 533 _c
426 533 468 516 495 484 _c
522 451 536 400 536 330 _c
536 52 _l
616 52 _l
616 0 _l
368 0 _l
368 52 _l
446 52 _l
446 302 _l
446 365 438 408 422 432 _c
406 456 379 468 340 468 _c
}_e{298 468 266 452 244 422 _c
222 391 212 347 212 289 _c
212 52 _l
290 52 _l
290 0 _l
41 0 _l
_cl}_e}_d
/o{602 0 50 -13 552 533 _sc
301 34 _m
349 34 385 53 410 91 _c
434 129 447 185 447 260 _c
447 334 434 390 410 428 _c
385 466 349 485 301 485 _c
253 485 216 466 192 428 _c
167 390 155 334 155 260 _c
155 185 167 129 192 91 _c
216 53 253 34 301 34 _c
301 -13 _m
225 -13 165 11 119 61 _c
73 111 50 177 50 260 _c
50 342 72 408 118 458 _c
164 508 225 533 301 533 _c
377 533 437 508 483 458 _c
529 408 552 342 552 260 _c
552 177 529 111 483 61 _c
437 11 377 -13 301 -13 _c
_cl}_d
/r{478 0 36 0 478 533 _sc
478 520 _m
478 390 _l
426 390 _l
424 416 417 435 405 448 _c
392 460 373 467 349 467 _c
305 467 271 451 247 421 _c
223 390 212 346 212 289 _c
212 52 _l
316 52 _l
316 0 _l
41 0 _l
41 52 _l
122 52 _l
122 468 _l
36 468 _l
36 519 _l
212 519 _l
212 427 _l
229 463 251 489 279 507 _c
307 524 341 533 381 533 _c
395 533 411 531 427 529 _c
443 527 460 524 478 520 _c
_cl}_d
/t{402 0 29 -13 394 680 _sc
108 467 _m
29 467 _l
29 519 _l
108 519 _l
108 680 _l
198 680 _l
198 519 _l
367 519 _l
367 467 _l
198 467 _l
198 137 _l
198 93 202 64 211 52 _c
219 40 235 34 258 34 _c
281 34 298 41 309 55 _c
319 69 325 91 326 122 _c
394 122 _l
391 74 378 40 355 19 _c
332 -2 297 -13 250 -13 _c
198 -13 161 -1 140 21 _c
118 43 108 82 108 137 _c
108 467 _l
_cl}_d
/u{{644 0 27 -13 607 519 _sc
354 519 _m
522 519 _l
522 52 _l
607 52 _l
607 0 _l
432 0 _l
432 92 _l
415 57 393 31 367 13 _c
341 -4 310 -13 276 -13 _c
218 -13 175 3 148 35 _c
121 67 108 119 108 189 _c
108 467 _l
27 467 _l
27 519 _l
198 519 _l
198 217 _l
198 153 205 110 221 87 _c
237 63 264 52 304 52 _c
346 52 377 67 399 98 _c
421 128 432 173 432 231 _c
}_e{432 467 _l
354 467 _l
354 519 _l
_cl}_e}_d
/v{565 0 -2 0 562 519 _sc
247 0 _m
56 467 _l
-2 467 _l
-2 519 _l
236 519 _l
236 467 _l
153 467 _l
299 110 _l
445 467 _l
367 467 _l
367 519 _l
562 519 _l
562 467 _l
504 467 _l
313 0 _l
247 0 _l
_cl}_d
/x{{564 0 12 0 552 519 _sc
291 317 _m
400 467 _l
330 467 _l
330 519 _l
530 519 _l
530 467 _l
461 467 _l
322 275 _l
484 52 _l
552 52 _l
552 0 _l
312 0 _l
312 52 _l
378 52 _l
265 207 _l
152 52 _l
219 52 _l
219 0 _l
22 0 _l
22 52 _l
91 52 _l
234 249 _l
76 467 _l
12 467 _l
12 519 _l
244 519 _l
244 467 _l
182 467 _l
291 317 _l
_cl}_e}_d
/z{527 0 40 0 490 519 _sc
40 0 _m
40 42 _l
365 467 _l
108 467 _l
108 377 _l
56 377 _l
56 519 _l
481 519 _l
481 477 _l
156 52 _l
438 52 _l
438 146 _l
490 146 _l
490 0 _l
40 0 _l
_cl}_d
end readonly def

/BuildGlyph
 {exch begin
 CharStrings exch
 2 copy known not{pop /.notdef}if
 true 3 1 roll get exec
 end}_d

/BuildChar {
 1 index /Encoding get exch get
 1 index /BuildGlyph get exec
}_d

FontName currentdict end definefont pop
end
%%EndProlog
mpldict begin
-54 216 translate
720 360 0 0 clipbox
gsave
0 0 m
720 0 l
720 360 l
0 360 l
cl
1.000 setgray
fill
grestore
gsave
37.8292 205.868 m
704.08 205.868 l
704.08 344.263 l
37.8292 344.263 l
cl
1.000 setgray
fill
grestore
0.500 setlinewidth
1 setlinejoin
0 setlinecap
[6 6] 0 setdash
0.000 setgray
gsave
666.3 138.4 37.83 205.9 clipbox
378.13 205.868 m
378.13 344.263 l
stroke
grestore
gsave
666.3 138.4 37.83 205.9 clipbox
189.148 205.868 m
189.148 344.263 l
stroke
grestore
1.000 setlinewidth
2 setlinecap
[] 0 setdash
0.118 0.565 1.000 setrgbcolor
gsave
666.3 138.4 37.83 205.9 clipbox
72.8414 301.983 m
72.9384 300.039 l
73.0354 302.152 l
73.2294 315.388 l
73.3264 311.98 l
73.5206 294.819 l
73.7149 308.278 l
73.812 308.223 l
74.1037 287.485 l
74.2009 287.929 l
74.2982 287.289 l
74.4928 284.035 l
74.5902 285.013 l
74.6875 280.501 l
74.9797 256.956 l
75.1747 251.748 l
76.2484 308.153 l
76.3461 308.894 l
76.5417 317.89 l
76.6395 317.516 l
76.8352 311.601 l
77.1289 321.336 l
77.2268 320.375 l
77.5208 311.143 l
77.6188 311.691 l
77.815 298.887 l
77.9131 299.111 l
78.2075 323.762 l
78.3057 323.777 l
78.6004 319.193 l
78.8953 322.866 l
78.9937 320.82 l
79.2889 299.288 l
79.3873 300.986 l
79.6828 316.541 l
79.9784 297.225 l
80.1756 312.593 l
80.2743 309.997 l
80.4716 301.039 l
80.5703 299.037 l
80.8666 273.628 l
81.1631 256.525 l
81.5587 293.719 l
81.7566 295.903 l
82.0537 306.312 l
82.2519 303.756 l
82.5493 310.771 l
82.9462 299.4 l
83.0455 300.687 l
83.3434 318.625 l
83.4428 318.496 l
83.6416 322.327 l
83.741 321.012 l
83.94 315.846 l
84.0395 316.731 l
84.139 316.204 l
84.637 307.552 l
84.7366 308.132 l
85.0358 312.559 l
85.2353 304.031 l
85.6346 266.643 l
86.1343 210.191 l
86.3344 237.616 l
86.7347 293.161 l
86.935 301.091 l
87.0352 301.716 l
87.2357 298.993 l
87.5365 312.743 l
87.7372 306.999 l
87.938 312.84 l
88.0384 312.814 l
88.2393 309.41 l
88.4403 313.819 l
88.6414 303.78 l
88.742 305.694 l
88.9432 311.677 l
89.5474 272.977 l
89.9507 212.608 l
90.0516 215.336 l
90.7584 294.818 l
91.264 315.505 l
91.3651 314.025 l
91.5676 311.051 l
91.7701 314.54 l
91.9727 313.758 l
92.2768 319.75 l
92.3782 319.341 l
92.6826 325.682 l
92.9872 318.443 l
93.1904 313.07 l
93.6987 326.017 l
93.8004 326.719 l
94.1058 310.617 l
94.4113 325.034 l
94.7171 325.764 l
95.0231 323.914 l
95.2272 325.264 l
95.4314 322.992 l
95.6357 328.962 l
95.7379 328.317 l
95.9423 326.264 l
96.1468 322.951 l
96.2491 323.092 l
96.4538 329.663 l
96.5562 329.366 l
96.9659 313.232 l
97.0684 314.205 l
97.2734 317.415 l
97.6838 331.546 l
97.7864 330.282 l
97.9918 324.105 l
98.1973 327.052 l
98.3 323.123 l
98.5056 304.272 l
98.6085 308.922 l
98.8142 326.741 l
99.02 327.877 l
99.123 327.817 l
99.5351 319.614 l
99.6381 319.963 l
99.7412 319.14 l
99.8444 316.927 l
99.9475 317.324 l
100.154 326.179 l
100.257 325.565 l
100.567 310.474 l
100.774 319.721 l
100.877 317.441 l
100.98 318.517 l
101.187 325.512 l
101.394 313.37 l
101.497 314.628 l
101.705 322.17 l
101.912 313.326 l
102.119 306.456 l
102.534 323.273 l
102.845 313.473 l
102.949 314.576 l
103.261 322.801 l
103.365 322.325 l
103.572 318.448 l
103.78 315.278 l
103.885 314.724 l
104.301 300.709 l
104.509 287.013 l
104.718 259.373 l
104.822 260.361 l
105.239 303.653 l
105.552 309.152 l
105.761 312.306 l
106.18 319.386 l
106.389 322.903 l
106.703 314.974 l
106.912 317.515 l
107.017 316.948 l
107.122 318.154 l
107.331 321.78 l
107.646 317.25 l
107.751 318.244 l
107.856 320.437 l
107.961 319.679 l
108.171 312.052 l
108.276 312.564 l
108.696 323.618 l
109.012 327.298 l
109.117 325.909 l
109.433 311.893 l
109.749 323.867 l
110.066 320.253 l
110.277 321.889 l
110.382 320.803 l
110.593 314.617 l
110.699 314.65 l
111.439 322.759 l
111.756 324.789 l
111.862 323.853 l
112.074 318.137 l
112.286 322.59 l
112.392 319.453 l
112.604 307.767 l
112.71 307.724 l
113.028 315.399 l
113.241 314.031 l
113.453 320.236 l
113.559 319.131 l
113.772 315.199 l
113.985 318.464 l
114.091 317.828 l
114.304 310.759 l
114.623 319.915 l
114.73 318.92 l
114.943 324.667 l
115.263 316.885 l
115.476 309.808 l
115.583 310.092 l
115.796 314.42 l
115.903 313.37 l
116.544 320.97 l
116.651 320.851 l
116.758 319.49 l
116.865 319.93 l
117.079 323.83 l
117.187 322.719 l
117.508 312.998 l
117.722 318.606 l
118.044 321.88 l
118.259 316.994 l
118.474 304.26 l
118.581 294.402 l
118.688 294.747 l
119.011 322.546 l
119.118 322.652 l
119.441 314.958 l
119.549 314.939 l
119.764 312.766 l
119.98 314.345 l
120.087 315.248 l
120.303 319.662 l
120.411 318.771 l
120.519 319.215 l
120.626 320.493 l
121.166 311.501 l
121.274 311.015 l
121.49 320.811 l
121.598 319.519 l
121.707 315.641 l
121.815 316.263 l
122.031 322.294 l
122.139 319.382 l
122.356 309.021 l
122.464 310.461 l
122.681 321.979 l
122.898 323.331 l
123.006 322.789 l
123.223 318.067 l
123.331 317.808 l
123.44 314.288 l
123.657 304.58 l
123.874 310.971 l
123.983 311.291 l
124.309 322.589 l
124.853 314.811 l
125.071 316.046 l
125.289 312.443 l
125.397 311.513 l
125.615 301.395 l
125.725 301.672 l
125.943 313.79 l
126.052 313.682 l
126.27 311.152 l
126.379 310.219 l
126.598 299.236 l
126.816 291.596 l
127.363 301.218 l
127.473 298.849 l
127.692 290.2 l
127.801 292.497 l
128.02 301.01 l
128.459 309.64 l
128.678 321.877 l
128.788 321.453 l
129.337 311.466 l
129.557 298.66 l
129.667 299.399 l
129.997 316.364 l
130.217 312.939 l
130.327 312.869 l
130.437 312.563 l
130.657 308.838 l
130.878 294.098 l
131.319 257.672 l
131.76 299.477 l
132.092 310.874 l
132.202 313.495 l
132.313 312.812 l
132.534 300.797 l
132.645 303.809 l
132.866 314.157 l
133.198 317.941 l
133.309 316.111 l
133.42 316.298 l
133.642 321.326 l
133.752 321.117 l
133.863 321.438 l
133.974 322.814 l
134.085 322.015 l
134.307 316.165 l
134.529 317.168 l
134.64 317.613 l
134.751 318.923 l
134.863 318.213 l
135.085 309.621 l
135.196 311.128 l
135.419 320.265 l
135.53 320.88 l
135.753 320.463 l
135.864 316.273 l
136.087 298.695 l
136.198 302.222 l
136.421 315.354 l
136.533 315.976 l
136.756 315.734 l
136.867 316.083 l
137.091 318.536 l
137.314 311.888 l
137.426 313.936 l
137.649 320.915 l
137.985 312.088 l
138.208 317.789 l
138.432 310.27 l
138.656 316.968 l
138.768 315.537 l
138.88 315.871 l
139.217 322.994 l
139.329 322.742 l
139.665 310.53 l
139.89 315.867 l
140.115 323.126 l
140.227 321.683 l
140.452 317.968 l
140.564 318.684 l
140.677 318.109 l
140.789 316.615 l
140.902 316.814 l
141.127 319.678 l
141.352 317.678 l
141.465 318.495 l
141.577 316.763 l
141.803 310.369 l
142.254 323.091 l
142.367 321.075 l
142.706 309.615 l
143.044 319.865 l
143.157 318.321 l
143.271 318.448 l
143.384 318.396 l
143.497 317.295 l
143.723 319.029 l
144.063 307.806 l
144.289 313.556 l
144.403 313.015 l
144.516 313.464 l
144.629 313.439 l
144.743 312.849 l
145.083 317.1 l
145.31 315.917 l
145.537 311.815 l
145.651 312.641 l
145.992 321.104 l
146.105 321.645 l
146.333 318.606 l
146.56 321.705 l
146.674 319.616 l
146.902 308.814 l
147.016 309.005 l
147.358 320.363 l
147.472 321.211 l
147.586 320.157 l
147.814 314.048 l
147.928 314.322 l
148.157 319.26 l
148.499 316.287 l
148.842 320.792 l
148.957 319.642 l
149.185 316.197 l
149.529 323.073 l
149.643 322.796 l
149.872 319.859 l
149.987 319.965 l
150.216 322.324 l
150.446 320.351 l
150.675 318.313 l
150.905 318.755 l
151.019 318.259 l
151.134 318.45 l
151.249 319.126 l
151.364 318.455 l
151.594 316.441 l
151.709 316.763 l
151.939 313.892 l
152.169 310.512 l
152.284 310.945 l
152.515 314.293 l
152.63 312.533 l
152.86 307.792 l
153.322 321.512 l
153.552 318.577 l
153.783 319.901 l
154.014 317.339 l
154.13 317.445 l
154.245 316.874 l
154.477 308.609 l
154.592 310.614 l
154.824 316.481 l
155.055 311.909 l
155.171 312.461 l
155.518 319.553 l
155.75 321.741 l
155.866 321.362 l
156.098 316.123 l
156.214 316.549 l
156.562 321.704 l
156.678 321.623 l
157.027 315.283 l
157.26 321.277 l
157.492 320.42 l
157.608 320.29 l
157.725 319.446 l
158.074 315.02 l
158.307 314.043 l
158.54 316.249 l
158.773 318.435 l
158.89 318.451 l
159.007 317.958 l
159.24 315.827 l
159.59 318.974 l
159.707 318.671 l
159.941 318.995 l
160.292 316.846 l
160.526 317.79 l
161.111 321.218 l
161.228 320.744 l
161.463 318.841 l
161.58 319.084 l
161.697 319.715 l
161.814 319.475 l
162.166 317.454 l
162.284 317.524 l
162.519 320.647 l
162.636 320.862 l
162.754 320.433 l
162.989 319.116 l
163.106 319.929 l
163.224 319.501 l
163.342 317.899 l
163.459 318.301 l
163.577 320.044 l
163.695 319.82 l
163.813 318.596 l
163.93 318.737 l
164.048 319.32 l
164.284 317.547 l
164.402 317.839 l
164.756 320.703 l
164.992 319.603 l
165.346 314.753 l
165.464 315.578 l
165.7 319.015 l
165.937 318.725 l
166.292 316.331 l
166.529 319.228 l
166.765 322.124 l
167.358 318.302 l
167.595 311.153 l
167.714 312.112 l
167.951 317.907 l
168.07 318.784 l
168.189 318.649 l
168.307 318.995 l
168.545 321.395 l
168.664 320.627 l
168.902 316.946 l
169.14 318.028 l
169.497 320.216 l
169.616 320.078 l
169.854 320.389 l
169.973 320.169 l
170.212 318.463 l
170.331 318.754 l
170.57 320.841 l
170.808 321.288 l
171.405 315.158 l
171.525 312.012 l
171.645 313.456 l
171.884 318.34 l
172.123 315.101 l
172.243 315.78 l
172.602 320.377 l
172.842 317.416 l
173.201 321.055 l
173.441 321.529 l
173.681 320.535 l
173.921 321.95 l
174.041 321.818 l
174.402 317.352 l
174.642 317.455 l
174.762 317.884 l
175.003 319.468 l
175.123 318.982 l
175.244 317.317 l
175.364 317.437 l
175.605 320.611 l
175.846 319.748 l
176.087 320.748 l
176.328 320.169 l
176.449 320.224 l
176.57 320.098 l
176.811 320.764 l
176.932 320.199 l
177.294 317.423 l
177.415 317.298 l
177.536 317.668 l
177.778 319.9 l
177.899 319.845 l
178.262 315.059 l
178.625 316.504 l
178.989 319.447 l
179.232 317.719 l
179.596 320.431 l
179.717 320.377 l
179.838 320.547 l
180.081 318.638 l
180.203 319.116 l
180.324 319.079 l
180.446 317.88 l
180.689 317.995 l
180.933 316.481 l
181.176 317.03 l
181.785 321.152 l
181.907 320.808 l
182.273 317.878 l
182.639 319.47 l
182.883 316.981 l
183.005 317.35 l
183.25 318.403 l
183.494 318.204 l
183.616 318.476 l
183.983 319.915 l
184.106 320.194 l
184.596 319.93 l
184.718 319.048 l
184.963 314.395 l
185.331 318.969 l
185.577 317.049 l
185.822 317.124 l
185.945 317.257 l
186.068 317.72 l
186.191 317.737 l
186.56 316.493 l
186.806 314.414 l
187.052 315.014 l
187.175 314.929 l
187.298 315.441 l
187.421 315.435 l
187.791 311.762 l
187.914 312.217 l
188.038 311.801 l
188.284 307.813 l
188.778 293.726 l
189.149 255.348 l
189.643 299.307 l
189.89 306.489 l
190.014 307.631 l
190.262 302.281 l
190.386 304.512 l
190.633 311.708 l
190.757 311.856 l
190.881 310.741 l
191.005 310.677 l
191.253 315.747 l
191.874 312.878 l
192.122 313.707 l
192.247 312.11 l
192.371 308.305 l
192.495 308.032 l
192.868 319.784 l
192.993 320.002 l
193.117 319.963 l
193.242 319.356 l
193.491 317.784 l
193.615 318.056 l
193.865 315.663 l
194.114 319.834 l
194.239 319.826 l
194.613 314.142 l
195.113 320.272 l
195.238 319.887 l
195.613 307.78 l
195.738 309.036 l
195.988 313.649 l
196.113 312.587 l
196.489 319.603 l
196.739 320.257 l
196.864 320.123 l
196.99 318.32 l
197.241 312.852 l
197.492 317.29 l
197.743 312.152 l
198.245 320.641 l
198.371 320.315 l
198.622 318.563 l
198.874 320.391 l
199.377 319.571 l
199.503 319.737 l
199.629 316.21 l
199.755 308.912 l
199.881 308.265 l
200.133 320.669 l
200.259 320.752 l
200.511 320.434 l
200.89 317.284 l
201.016 317.644 l
201.142 317.615 l
201.395 318.667 l
201.774 320.432 l
201.901 320.287 l
202.28 316.716 l
202.407 314.71 l
202.66 308.259 l
202.787 309.074 l
203.167 318.715 l
203.294 318.372 l
203.548 315.33 l
204.055 318.39 l
204.182 319.146 l
204.436 316.005 l
204.691 313.597 l
204.945 315.836 l
205.199 309.35 l
205.327 310.246 l
205.581 318.136 l
205.709 316.789 l
205.963 311.083 l
206.091 310.494 l
206.346 313.383 l
206.601 309.497 l
206.856 315.207 l
206.984 314.787 l
207.111 315.219 l
207.367 316.977 l
207.622 314.617 l
207.878 317.104 l
208.006 317.312 l
208.262 319.02 l
208.518 313.754 l
208.774 315.282 l
208.902 312.95 l
209.158 307.136 l
209.543 319.131 l
209.671 319.788 l
209.799 318.48 l
210.056 313.804 l
210.184 313.509 l
210.312 314.536 l
210.569 319.191 l
210.698 319.545 l
210.826 319.503 l
211.341 320.615 l
211.469 320.654 l
211.727 315.54 l
211.856 315.727 l
211.984 317.175 l
212.113 316.768 l
212.242 317.355 l
212.371 318.606 l
212.629 316.885 l
212.887 317.053 l
213.016 318.103 l
213.145 318.188 l
213.403 310.781 l
214.178 319.595 l
214.307 319.334 l
214.437 319.52 l
214.566 319.276 l
214.696 319.512 l
214.954 321.092 l
215.084 320.618 l
215.343 315.915 l
215.473 313.277 l
215.602 313.815 l
215.861 319.997 l
215.991 320.247 l
216.121 319.77 l
216.251 318.868 l
216.51 314.965 l
216.77 315.477 l
217.16 320.289 l
217.29 319.587 l
217.42 319.624 l
217.68 320.997 l
217.94 319.355 l
218.461 314.636 l
218.722 315.912 l
218.852 315.585 l
219.113 317.058 l
219.374 315.867 l
219.635 317.507 l
220.027 311.136 l
220.157 313.239 l
220.288 313.46 l
220.419 312.871 l
220.68 317.178 l
220.942 315.141 l
221.203 316.368 l
221.465 315.046 l
221.727 315.359 l
222.121 318.505 l
222.252 318.456 l
222.383 317.827 l
222.645 315.766 l
222.777 316.153 l
222.908 311.538 l
223.17 295.327 l
223.433 307.249 l
223.565 302.889 l
223.696 294.736 l
223.828 300.317 l
224.091 317.578 l
224.354 318.485 l
224.485 318.165 l
224.617 316.803 l
225.012 294.645 l
225.276 314.274 l
225.54 312.834 l
225.672 313.512 l
225.936 309.735 l
226.068 312.179 l
226.2 312.403 l
226.332 312.354 l
226.86 317.151 l
227.389 310.327 l
227.522 311.241 l
227.654 310.833 l
227.786 311.758 l
228.051 317.803 l
228.184 319.01 l
228.316 317.724 l
228.581 312.57 l
229.112 319.799 l
229.245 319.565 l
229.377 318.718 l
229.51 315.521 l
229.776 305.664 l
230.042 315.893 l
230.175 316.914 l
230.441 312.282 l
230.574 312.802 l
230.973 318.654 l
231.239 319.109 l
231.506 317.873 l
231.772 319.749 l
232.306 317.003 l
232.439 316.987 l
232.573 318.251 l
232.706 318.048 l
232.84 317.367 l
233.241 320.723 l
233.374 320.158 l
234.043 308.088 l
234.311 312.029 l
234.579 305.728 l
234.847 315.491 l
235.115 313.726 l
235.249 315.344 l
235.517 320.311 l
235.786 316.77 l
236.054 313.982 l
236.457 321.17 l
236.592 320.906 l
236.861 321.523 l
237.264 320.694 l
237.399 319.137 l
237.668 315.269 l
237.938 318.87 l
238.072 317.818 l
238.207 318.408 l
238.342 320.34 l
238.477 320.609 l
238.612 319.513 l
238.747 319.412 l
239.017 321.256 l
239.151 321.197 l
239.422 320.25 l
239.692 315.649 l
239.827 316.743 l
240.097 320.401 l
240.233 319.967 l
240.368 318.306 l
240.503 315.199 l
240.639 314.977 l
240.774 315.557 l
241.045 307.056 l
241.316 318.434 l
241.451 318.439 l
241.587 318.217 l
241.722 318.903 l
242.129 317.156 l
242.401 313.364 l
242.672 318.707 l
242.808 318.493 l
242.944 317.459 l
243.08 317.344 l
243.352 316.034 l
243.624 319.17 l
243.76 318.855 l
243.896 319.261 l
244.168 320.595 l
244.441 320.411 l
244.577 319.925 l
244.986 315.341 l
245.122 314.964 l
245.395 315.737 l
245.531 314.728 l
245.804 310.961 l
246.214 319.469 l
246.351 319.6 l
246.487 319.293 l
247.034 315.515 l
247.171 315.641 l
247.445 319.21 l
247.582 318.964 l
248.13 315.528 l
248.267 315.769 l
248.404 316.94 l
248.678 312.615 l
248.953 316.171 l
249.09 316.608 l
249.228 316.585 l
249.502 309.883 l
249.64 310.867 l
249.914 315.793 l
250.052 313.396 l
250.19 313.363 l
250.465 316.902 l
250.602 315.036 l
250.74 315.414 l
250.878 317.416 l
251.015 317.691 l
251.153 317.299 l
251.291 317.501 l
251.429 317.18 l
251.704 313.854 l
251.98 318.76 l
252.256 312.644 l
252.532 317.071 l
252.808 313.548 l
253.361 319.616 l
253.638 319.472 l
253.776 318.85 l
254.191 311.643 l
254.468 318.837 l
254.607 319.39 l
254.745 319.327 l
254.884 318.433 l
255.161 311.661 l
255.578 319.67 l
255.716 319.081 l
255.994 314.612 l
256.272 317.698 l
256.411 317.926 l
256.689 319.206 l
256.828 319.123 l
256.967 318.638 l
257.245 316.838 l
257.523 311.444 l
257.802 317.673 l
258.081 317.073 l
258.359 318.982 l
258.499 318.784 l
258.778 316.734 l
259.057 318.557 l
259.196 318.606 l
259.336 318.199 l
259.476 318.315 l
259.615 318.048 l
259.755 316.483 l
259.895 316.822 l
260.035 318.282 l
260.314 315.969 l
260.594 318.214 l
260.874 315.837 l
261.154 318.333 l
261.294 317.935 l
261.574 316.645 l
261.855 319.011 l
262.135 319.495 l
262.275 319.542 l
262.696 319.164 l
262.837 318.422 l
263.258 311.571 l
263.539 318.688 l
263.68 318.858 l
263.961 316.425 l
264.102 317.168 l
264.243 318.607 l
264.524 319.064 l
264.665 319.069 l
264.947 317.42 l
265.652 319.304 l
265.793 319.154 l
265.934 318.607 l
266.075 317.585 l
266.216 317.423 l
266.499 318.463 l
266.781 318.241 l
267.347 316.474 l
267.489 316.722 l
267.63 316.629 l
267.772 315.459 l
267.913 315.653 l
268.055 315.256 l
268.196 314.19 l
268.48 316.822 l
268.622 317.309 l
268.905 318.622 l
269.189 316.778 l
269.473 317.568 l
269.899 310.411 l
270.325 316.333 l
270.609 313.768 l
270.752 316.058 l
270.894 315.603 l
271.036 313.698 l
271.178 314.419 l
271.321 313.746 l
271.463 312.177 l
271.891 318.897 l
272.176 318.796 l
272.461 318.91 l
272.604 318.71 l
272.889 311.992 l
273.032 313.155 l
273.317 317.651 l
273.46 317.836 l
273.603 318.223 l
273.746 317.071 l
273.889 314.997 l
274.032 315.538 l
274.318 318.246 l
274.604 318.759 l
274.747 318.459 l
275.034 317.392 l
275.177 317.259 l
275.32 316.505 l
275.463 316.44 l
275.607 316.881 l
275.75 316.541 l
275.894 316.82 l
276.037 317.487 l
276.18 317.616 l
276.467 318.292 l
276.755 317.457 l
277.042 317.833 l
277.761 312.752 l
277.905 315.463 l
278.049 315.692 l
278.192 315.285 l
278.48 317.214 l
278.769 316.573 l
279.057 317.708 l
279.201 318.257 l
279.345 318.243 l
279.489 317.532 l
279.634 317.391 l
279.778 317.826 l
280.067 317.611 l
280.211 316.948 l
280.355 315.513 l
280.5 315.199 l
280.644 315.826 l
280.789 315.652 l
280.933 314.916 l
281.078 315.459 l
281.367 317.311 l
281.512 317.578 l
281.657 317.517 l
281.946 317.965 l
282.236 317.26 l
282.381 316.357 l
282.526 316.17 l
282.671 317.141 l
282.816 316.926 l
283.396 312.635 l
283.541 313.436 l
283.832 317.038 l
284.122 317.442 l
284.267 317.444 l
284.413 317.662 l
284.704 318.352 l
284.994 318.482 l
285.14 318.422 l
285.286 318.195 l
285.577 318.347 l
285.868 317.579 l
286.16 318.428 l
286.743 318.278 l
287.035 318.009 l
287.327 318.219 l
287.619 317.35 l
287.911 318.013 l
288.204 315.335 l
288.35 315.702 l
288.643 318.094 l
288.789 318.229 l
288.935 317.966 l
289.228 315.746 l
289.375 316.089 l
289.668 318.364 l
289.961 318.364 l
290.108 318.075 l
290.401 317.204 l
290.548 317.155 l
290.695 317.277 l
290.841 317.709 l
290.988 317.507 l
291.282 315.505 l
291.429 315.691 l
291.576 316.178 l
291.723 316.13 l
292.164 317.421 l
292.459 316.678 l
292.606 316.812 l
292.9 317.572 l
293.195 316.856 l
293.49 318.065 l
293.637 318.148 l
293.785 317.831 l
294.08 317.016 l
294.671 317.97 l
294.818 318.114 l
294.966 317.889 l
295.262 317.067 l
295.558 318.317 l
295.853 318.298 l
296.149 318.341 l
296.742 318.283 l
297.483 318.075 l
297.78 318.085 l
297.929 318.219 l
298.226 318.106 l
298.523 317.782 l
298.82 317.539 l
298.969 317.632 l
299.117 317.211 l
299.415 315.845 l
299.564 315.776 l
299.862 313.506 l
300.159 316.273 l
300.308 316.15 l
300.756 317.429 l
300.905 317.378 l
301.203 317.911 l
301.502 317.923 l
301.95 317.765 l
302.099 317.797 l
302.398 317.494 l
302.996 316.232 l
303.146 312.191 l
303.445 299.102 l
303.745 312.336 l
304.044 302.703 l
304.194 305.85 l
304.494 315.838 l
304.794 317.365 l
304.944 317.538 l
305.094 317.258 l
305.244 317.323 l
305.394 317.711 l
305.695 317.64 l
305.845 317.276 l
306.146 315.379 l
306.446 316.962 l
306.898 317.383 l
307.048 317.234 l
307.199 317.368 l
307.35 317.71 l
307.5 317.6 l
307.802 315.81 l
307.952 316.111 l
308.103 317.197 l
308.254 317.262 l
308.405 317.143 l
308.707 318.292 l
308.857 318.166 l
309.159 317.096 l
309.311 317.15 l
309.462 317.401 l
309.613 317.297 l
309.915 315.664 l
310.218 317.132 l
310.369 317.202 l
310.672 317.773 l
310.974 317.358 l
311.429 318.314 l
311.58 318.302 l
312.035 317.639 l
312.339 318.031 l
312.491 318.243 l
312.642 318.174 l
313.098 316.803 l
313.402 317.995 l
313.554 318.049 l
313.858 316.068 l
314.01 316.098 l
314.467 317.535 l
314.619 317.411 l
314.771 317.532 l
314.924 317.963 l
315.076 317.988 l
315.381 317.117 l
315.686 317.534 l
315.991 316.635 l
316.144 317.007 l
316.296 316.879 l
316.602 315.46 l
316.907 316.887 l
317.213 316.405 l
317.519 316.414 l
317.672 316.08 l
317.978 314.843 l
318.284 315.107 l
318.897 317.213 l
319.203 317.707 l
319.51 317.858 l
319.97 317.882 l
320.278 317.358 l
321.046 318.074 l
321.2 318.087 l
321.507 317.594 l
321.815 316.85 l
321.969 317.102 l
322.277 317.931 l
322.431 317.872 l
322.585 317.523 l
322.893 315.415 l
323.356 317.845 l
323.974 317.782 l
324.437 316.409 l
324.746 317.472 l
325.055 317.128 l
325.21 317.203 l
325.365 317.409 l
325.52 317.423 l
325.829 317.313 l
326.294 317.841 l
326.604 317.935 l
326.759 316.929 l
327.069 313.421 l
327.379 317.312 l
327.535 317.455 l
327.69 317.372 l
328.001 317.488 l
328.311 317.299 l
328.622 317.078 l
328.778 317.202 l
328.933 316.218 l
329.244 313.153 l
329.556 316.386 l
329.711 316.615 l
330.023 316.436 l
330.179 316.418 l
330.335 316.524 l
330.491 316.245 l
330.803 311.354 l
330.959 311.648 l
331.115 313.601 l
331.271 313.837 l
331.427 313.667 l
331.739 316.147 l
331.895 315.962 l
332.052 315.511 l
332.208 315.672 l
332.521 316.648 l
332.99 315.668 l
333.146 316.197 l
333.303 315.853 l
333.616 311.771 l
333.773 312.671 l
334.086 316.26 l
334.4 314.313 l
334.557 314.642 l
334.87 317.175 l
335.184 317.138 l
335.812 317.829 l
335.97 317.881 l
336.127 317.745 l
336.599 316.747 l
336.913 314.755 l
337.386 317.293 l
337.543 317.347 l
337.858 316.751 l
338.016 316.823 l
338.489 317.413 l
338.804 317.691 l
338.962 317.687 l
339.12 317.314 l
339.436 316.23 l
339.752 316.832 l
339.91 316.489 l
340.068 316.438 l
340.384 317.489 l
340.701 317.445 l
340.859 317.224 l
341.334 314.191 l
341.651 316.542 l
341.81 316.555 l
342.127 315.369 l
342.444 316.139 l
342.602 315.762 l
342.92 313.658 l
343.079 313.976 l
343.396 316.296 l
343.873 314.111 l
344.509 317.082 l
344.828 317.868 l
344.987 317.652 l
345.146 317.701 l
345.305 317.926 l
345.624 317.237 l
345.784 317.497 l
346.102 318.104 l
346.421 317.506 l
346.741 316.922 l
347.06 317.504 l
347.22 317.367 l
347.379 317.486 l
347.539 317.787 l
347.699 317.594 l
348.019 316.889 l
348.339 317.304 l
348.819 316.648 l
349.139 315.098 l
349.299 315.707 l
349.62 317.693 l
349.78 317.689 l
350.101 317.251 l
350.261 317.257 l
350.422 316.936 l
350.904 314.963 l
351.064 315.288 l
351.385 316.757 l
351.546 316.944 l
351.868 317.759 l
352.35 317.454 l
352.511 317.33 l
352.672 316.737 l
352.994 314.888 l
353.478 316.932 l
353.639 316.77 l
354.123 315.947 l
354.284 316.289 l
354.607 317.317 l
354.768 317.149 l
355.091 316.711 l
355.253 316.724 l
355.738 316.185 l
355.899 316.319 l
356.385 317.096 l
356.547 316.967 l
356.709 316.575 l
356.87 316.499 l
357.194 317.393 l
357.356 317.477 l
357.843 317.061 l
358.492 317.589 l
358.817 317.773 l
358.979 317.596 l
359.304 315.543 l
359.466 315.869 l
359.629 317.089 l
359.792 316.923 l
359.954 315.342 l
360.117 314.978 l
360.442 317.635 l
360.605 317.452 l
360.931 315.972 l
361.094 315.89 l
361.257 315.679 l
361.42 315.715 l
361.746 316.534 l
361.909 316.459 l
362.072 316.247 l
362.398 315.057 l
362.888 317.437 l
363.051 317.391 l
363.215 316.893 l
363.542 315.08 l
364.032 317 l
364.36 314.091 l
364.523 314.721 l
364.851 317.477 l
365.178 317.381 l
365.67 315.536 l
365.834 316.627 l
365.998 316.88 l
366.326 315.135 l
366.655 316.841 l
366.983 313.825 l
367.147 314.607 l
367.476 317.354 l
367.805 316.33 l
367.969 315.826 l
368.134 315.955 l
368.792 317.021 l
368.957 316.812 l
369.122 316.353 l
369.286 316.262 l
369.781 317.258 l
369.946 317.034 l
370.111 316.3 l
370.606 310.438 l
370.771 311.382 l
371.101 315.389 l
371.432 317.212 l
371.597 317.559 l
371.763 317.59 l
372.424 317.091 l
372.59 316.612 l
372.921 314.63 l
373.087 314.406 l
373.584 316.268 l
373.75 316.308 l
374.247 315.805 l
374.413 316.016 l
374.579 316.015 l
375.077 315.324 l
375.41 315.365 l
375.576 315.231 l
375.908 314.364 l
376.408 311.759 l
376.574 312.031 l
376.74 311.765 l
377.074 309.487 l
377.407 305.131 l
377.573 301.855 l
377.74 295.411 l
378.074 267.904 l
378.241 269.559 l
378.574 297.481 l
378.908 305.738 l
379.242 309.551 l
380.078 313.968 l
380.58 314.663 l
380.747 314.707 l
381.082 315.41 l
381.25 314.959 l
381.417 313.672 l
381.585 313.535 l
381.92 315.852 l
382.256 316.334 l
382.424 316.623 l
382.591 316.565 l
382.927 316.287 l
383.263 316.234 l
383.599 316.688 l
383.767 316.673 l
384.608 317.168 l
384.945 317.159 l
385.282 317.075 l
385.619 317.049 l
386.124 316.055 l
386.462 317.104 l
386.631 317.143 l
386.799 317.019 l
387.137 316.226 l
387.644 317.337 l
388.151 317.267 l
388.489 317.243 l
388.828 317.236 l
388.997 316.989 l
389.336 316.039 l
389.844 317.111 l
390.353 317.244 l
390.522 317.238 l
391.031 315.353 l
391.371 317.251 l
391.711 317.429 l
392.731 317.308 l
393.072 317.049 l
393.412 317.363 l
393.582 317.271 l
393.923 316.87 l
394.264 316.735 l
394.605 316.965 l
395.117 316.359 l
395.288 315.72 l
395.459 315.976 l
395.8 317.112 l
396.142 317.302 l
396.313 317.232 l
396.826 317.484 l
397.168 317.341 l
397.34 317.373 l
398.196 317.027 l
398.539 317.074 l
398.882 316.265 l
399.054 316.406 l
399.397 316.999 l
399.74 316.865 l
400.256 317.167 l
400.428 317.137 l
400.6 316.893 l
400.944 316.159 l
401.288 316.685 l
401.46 316.681 l
401.804 317.042 l
402.149 317.055 l
403.011 316.696 l
403.356 316.994 l
403.701 316.864 l
404.047 316.71 l
405.257 316.889 l
405.776 316.787 l
406.296 317.073 l
406.469 317.059 l
406.816 316.903 l
407.163 317.178 l
407.336 317.134 l
407.683 316.763 l
408.204 317.204 l
408.378 317.079 l
409.247 315.473 l
409.595 316.632 l
409.769 316.81 l
410.291 316.783 l
410.64 315.783 l
410.989 315.668 l
411.337 316.252 l
411.861 317.57 l
412.21 316.55 l
412.384 316.593 l
412.734 317.134 l
413.433 316.868 l
413.783 317.209 l
414.308 317.044 l
414.658 317.248 l
415.184 317.192 l
415.359 317.165 l
415.71 316.941 l
416.237 317.125 l
416.412 317.344 l
416.763 317.218 l
416.939 316.928 l
417.115 316.326 l
417.291 316.152 l
417.642 316.758 l
417.994 316.738 l
418.346 316.21 l
418.698 316.468 l
419.05 315.83 l
419.227 315.515 l
419.403 315.709 l
419.755 316.412 l
420.108 316.302 l
420.461 315.323 l
420.638 315.605 l
420.991 316.545 l
421.344 316.304 l
421.521 316.382 l
421.874 316.855 l
422.228 316.736 l
422.582 316.448 l
423.29 317.625 l
423.468 317.58 l
423.822 317.752 l
423.999 317.15 l
424.177 316.087 l
424.354 315.91 l
424.709 317.268 l
424.886 317.392 l
425.419 316.697 l
425.597 316.639 l
425.952 316.801 l
426.13 317.007 l
426.308 316.934 l
426.664 315.871 l
426.842 316.126 l
427.02 315.98 l
427.198 315.518 l
427.376 315.586 l
427.732 316.654 l
428.267 315.933 l
428.445 315.286 l
428.623 315.312 l
428.802 316.228 l
428.98 316.521 l
429.337 315.536 l
429.694 316.001 l
429.873 316.139 l
430.23 316.863 l
430.767 315.905 l
430.946 316.053 l
431.482 317.1 l
431.841 317.355 l
432.02 317.227 l
432.557 316.398 l
432.737 316.309 l
433.095 316.682 l
433.454 316.475 l
433.634 316.77 l
433.813 316.847 l
434.172 316.162 l
434.352 316.268 l
434.891 317.23 l
435.071 317.368 l
435.431 317.126 l
435.791 317.118 l
436.151 316.487 l
436.511 316.51 l
436.691 316.321 l
436.872 316.421 l
437.052 316.663 l
437.232 316.696 l
437.413 316.571 l
438.496 316.683 l
438.857 316.465 l
439.219 316.062 l
439.942 316.249 l
440.123 315.785 l
440.304 315.674 l
440.666 316.862 l
440.847 316.745 l
441.21 315.751 l
441.391 316.011 l
441.754 317.027 l
442.117 317.103 l
442.661 317.005 l
442.843 316.461 l
443.024 314.921 l
443.206 314.374 l
443.57 316.617 l
444.115 317.456 l
444.479 316.832 l
444.661 316.364 l
445.025 313.878 l
445.39 316.243 l
445.572 316.439 l
446.666 314.753 l
446.849 314.955 l
447.031 315.514 l
447.214 315.08 l
447.396 313.614 l
447.579 313.768 l
447.945 315.861 l
448.31 314.947 l
448.493 315.405 l
448.676 316.248 l
448.859 316.393 l
449.042 315.628 l
449.225 315.683 l
449.408 316.099 l
449.775 314.032 l
449.958 314.959 l
450.141 315.302 l
450.325 315.246 l
450.691 316.021 l
451.058 315.807 l
451.242 315.583 l
451.425 315.009 l
451.609 314.936 l
452.344 317.428 l
452.528 317.701 l
452.895 316.86 l
453.079 317.192 l
453.263 317.235 l
453.447 317.04 l
454 315.845 l
454.184 315.962 l
454.552 315.538 l
454.737 315.534 l
454.921 315.733 l
455.29 316.428 l
455.659 315.017 l
455.844 315.401 l
456.028 316.295 l
456.398 316.88 l
456.582 317.399 l
456.767 317.481 l
457.322 316.37 l
457.692 316.238 l
458.062 315.304 l
458.247 315.887 l
458.432 316.076 l
458.803 313.197 l
458.988 313.529 l
459.73 316.956 l
460.101 316.573 l
460.472 316.121 l
460.843 315.372 l
461.029 315.328 l
461.215 315.598 l
461.587 316.72 l
461.959 316.745 l
462.145 316.417 l
462.331 316.453 l
462.517 317.094 l
462.703 316.619 l
462.889 315.796 l
463.075 316.287 l
463.448 317.637 l
464.007 317.914 l
464.38 317.582 l
464.94 317.476 l
465.313 317.751 l
465.5 317.399 l
465.687 317.288 l
465.874 317.429 l
466.248 317.038 l
466.435 317.33 l
466.622 317.35 l
466.996 316.518 l
467.745 317.43 l
468.12 317.147 l
468.307 317.014 l
468.495 317.029 l
468.682 317.254 l
468.87 317.246 l
469.433 315.91 l
469.808 314.541 l
469.996 314.991 l
470.184 315.787 l
470.56 315.756 l
470.748 316.27 l
470.936 316.386 l
471.124 316.247 l
471.312 316.457 l
471.5 316.329 l
472.065 314.37 l
472.253 313.897 l
472.63 315.048 l
472.819 314.498 l
473.007 314.692 l
473.196 315.538 l
473.384 315.294 l
473.573 313.977 l
473.761 313.673 l
474.139 316.085 l
474.328 316.231 l
474.706 315.908 l
475.272 316.243 l
475.462 316.026 l
476.218 314.144 l
476.408 314.623 l
476.786 315.815 l
477.165 316.019 l
477.544 316.084 l
477.734 315.857 l
477.923 315.038 l
478.113 314.784 l
478.493 316.142 l
479.252 316.079 l
479.632 315.905 l
480.012 316.181 l
480.202 316.046 l
480.963 316.159 l
481.344 315.451 l
481.725 314.236 l
482.106 316.214 l
482.488 316.333 l
483.06 315.836 l
483.442 314.066 l
483.633 314.781 l
483.824 316.088 l
484.206 316.63 l
484.397 316.719 l
484.97 316.116 l
485.353 316.499 l
485.736 315.615 l
486.502 316.892 l
487.077 316.767 l
487.461 316.526 l
487.844 316.958 l
488.036 316.888 l
488.42 315.966 l
488.805 316.64 l
489.189 316.826 l
489.573 316.903 l
489.766 316.579 l
489.958 316.728 l
490.151 317.099 l
490.343 316.717 l
490.536 316.841 l
490.728 317.5 l
490.921 317.664 l
491.306 316.822 l
491.692 315.528 l
492.077 317.093 l
492.27 317.244 l
492.463 316.878 l
492.656 316.059 l
492.849 314.628 l
493.042 314.539 l
493.429 317.011 l
493.622 317.761 l
493.815 317.783 l
494.009 317.448 l
494.395 316.109 l
494.589 316.091 l
494.782 316.343 l
495.169 314.805 l
495.363 315.371 l
495.944 318.231 l
496.138 318.172 l
497.108 316.789 l
497.302 316.363 l
497.496 316.306 l
497.884 315.712 l
498.078 315.872 l
498.273 315.582 l
498.467 315.817 l
498.661 316.389 l
499.245 315.664 l
499.829 313.16 l
500.023 313.201 l
500.218 313.482 l
500.413 311.818 l
500.608 311.585 l
500.997 316.402 l
501.192 316.48 l
501.582 317.365 l
501.777 317.339 l
502.168 316.181 l
502.363 316.218 l
502.558 316.835 l
502.754 317.027 l
503.144 316.642 l
503.34 316.011 l
503.535 315.786 l
503.926 316.698 l
504.318 314.579 l
504.709 317.001 l
505.101 316.957 l
505.297 316.815 l
505.689 316.364 l
506.081 316.027 l
506.473 316.765 l
506.866 316.204 l
507.258 316.222 l
507.455 315.75 l
507.651 315.809 l
507.847 316.379 l
508.241 316.543 l
508.634 316.663 l
508.831 316.531 l
509.224 315.19 l
509.421 315.716 l
509.618 315.657 l
509.815 315.183 l
510.209 316.691 l
510.603 316.506 l
510.997 316.585 l
511.392 316.315 l
511.984 316.491 l
512.181 315.741 l
512.577 312.644 l
512.774 312.918 l
513.169 315.771 l
513.367 315.312 l
513.565 315.576 l
513.763 316.37 l
513.961 316.575 l
514.357 316.004 l
514.753 317.514 l
514.951 317.347 l
515.347 315.472 l
515.545 315.525 l
515.942 316.601 l
516.14 316.692 l
516.537 316.451 l
516.736 316.198 l
516.934 316.351 l
517.332 316.955 l
517.53 317.157 l
517.928 317.864 l
518.326 316.89 l
518.723 316.779 l
519.122 315.076 l
519.321 315.343 l
519.918 317.038 l
520.118 317.224 l
520.516 316.751 l
520.716 316.853 l
520.915 316.749 l
521.115 316.776 l
521.314 317.449 l
521.514 317.614 l
521.713 317.109 l
521.913 317.087 l
522.113 317.259 l
522.712 316.659 l
523.112 316.964 l
523.312 317.036 l
523.512 316.915 l
524.113 316.169 l
524.313 316.437 l
525.516 316.831 l
526.117 315.065 l
526.318 315.245 l
526.519 315.895 l
526.72 315.98 l
526.921 315.927 l
527.322 316.534 l
527.523 316.278 l
527.724 316.329 l
528.127 317.376 l
528.328 316.851 l
528.529 315.65 l
528.73 315.276 l
528.931 315.988 l
529.133 316.275 l
529.334 315.885 l
529.737 315.753 l
529.939 315.356 l
530.14 314.686 l
530.342 314.984 l
530.544 315.555 l
530.745 315.063 l
530.947 315.491 l
531.149 316.481 l
531.351 315.788 l
531.553 314.313 l
531.755 314.28 l
532.159 317.047 l
532.563 316.694 l
532.765 316.675 l
533.372 315.755 l
533.574 316.16 l
533.777 316.868 l
533.979 316.866 l
534.384 316.355 l
534.587 316.45 l
534.992 317.055 l
535.398 317.436 l
535.6 317.258 l
536.006 316.684 l
536.412 316.969 l
536.818 317.967 l
537.022 317.843 l
537.428 315.708 l
537.631 314.505 l
537.835 315.114 l
538.038 316.377 l
538.241 316.641 l
538.648 316.147 l
539.056 316.567 l
539.871 316.967 l
540.278 316.763 l
540.482 316.928 l
540.89 315.733 l
541.299 316.718 l
541.707 316.349 l
542.116 316.851 l
542.32 316.784 l
542.524 316.387 l
542.729 315.278 l
542.933 314.814 l
543.343 316.961 l
543.547 317.281 l
543.752 317.067 l
543.957 317.026 l
544.571 317.812 l
544.776 317.687 l
544.981 317.36 l
545.186 317.272 l
545.596 316.76 l
546.417 317.236 l
546.828 316.946 l
547.239 315.591 l
547.65 316.943 l
547.856 316.831 l
548.267 316.077 l
548.679 315.744 l
549.09 317.155 l
549.296 317.112 l
549.915 316.511 l
550.121 316.372 l
550.327 316.033 l
550.533 316.153 l
550.739 316.617 l
551.359 316.244 l
551.565 315.907 l
551.772 316.084 l
552.185 316.904 l
552.392 316.872 l
552.598 316.488 l
552.805 316.436 l
553.012 316.58 l
553.84 315.77 l
554.461 314.695 l
554.668 314.64 l
554.875 314.886 l
555.29 315.838 l
555.497 315.859 l
555.705 315.642 l
555.912 315.643 l
556.12 315.84 l
556.535 316.507 l
556.743 316.615 l
557.158 317.317 l
557.366 316.986 l
557.782 316.107 l
557.99 314.697 l
558.198 314.553 l
558.614 317.337 l
558.822 317.608 l
559.03 317.129 l
559.238 314.872 l
559.447 313.971 l
559.655 316.16 l
559.863 316.868 l
560.072 316.268 l
560.489 317.613 l
560.697 317.458 l
561.323 315.553 l
561.532 315.804 l
561.741 317.153 l
561.95 316.825 l
562.159 314.858 l
562.368 314.662 l
562.577 316.055 l
562.786 316.3 l
562.995 315.601 l
563.413 313.57 l
563.622 314.116 l
564.041 316.236 l
564.46 316.865 l
564.669 317.51 l
564.879 317.771 l
565.298 315.944 l
565.508 316.294 l
565.717 317.601 l
565.927 317.82 l
566.137 317.524 l
566.347 317.497 l
566.557 317.725 l
566.767 317.605 l
566.977 317.322 l
567.817 317.516 l
568.238 317.142 l
568.448 317.035 l
568.659 317.169 l
569.08 316.791 l
569.501 316.091 l
569.711 315.997 l
570.133 316.794 l
570.344 316.862 l
570.554 316.764 l
570.765 316.88 l
571.187 317.975 l
571.398 317.449 l
571.82 315.9 l
572.031 315.447 l
572.665 316.603 l
572.877 316.132 l
573.088 316.208 l
573.511 316.708 l
573.723 316.437 l
573.934 315.096 l
574.146 314.498 l
574.358 315.398 l
574.569 315.357 l
574.781 314.766 l
574.993 314.712 l
575.205 315.544 l
575.417 315.882 l
575.841 316.147 l
576.477 317.018 l
576.689 317.142 l
576.902 317.015 l
577.114 317.021 l
577.326 316.5 l
577.539 315.661 l
577.751 315.38 l
578.389 315.584 l
578.602 315.631 l
578.814 316.042 l
579.027 316.015 l
579.453 315.449 l
579.666 315.802 l
580.092 317.143 l
580.305 316.675 l
580.518 315.497 l
580.731 313.687 l
580.944 313.827 l
581.158 315.842 l
581.371 316.601 l
581.584 316.705 l
582.011 318.183 l
582.225 317.723 l
582.652 316.295 l
583.079 316.029 l
583.507 316.244 l
583.72 316.666 l
583.934 316.658 l
584.148 316.203 l
584.362 316.202 l
584.576 316.512 l
584.79 316.571 l
585.004 316.767 l
585.433 318.088 l
585.647 317.684 l
586.076 315.156 l
586.29 314.943 l
586.934 316.015 l
587.363 314.092 l
587.793 317.429 l
588.008 317.666 l
588.437 316.965 l
588.867 316.945 l
589.298 317.857 l
589.513 316.96 l
589.728 314.951 l
589.943 314.975 l
590.158 316.235 l
590.374 316.784 l
590.589 316.928 l
591.451 316.881 l
591.883 317.057 l
592.099 317.066 l
592.314 317.193 l
592.53 316.939 l
592.746 312.716 l
592.962 302.362 l
593.178 300.661 l
593.61 315.078 l
593.826 316.537 l
594.043 316.841 l
594.475 316.317 l
594.908 314.39 l
595.341 316.665 l
595.774 317.025 l
596.207 316.329 l
596.641 316.48 l
596.858 316.202 l
597.075 315.265 l
597.292 313.471 l
597.509 309.533 l
597.943 281.275 l
598.16 288.417 l
598.377 305.145 l
598.594 312.526 l
598.812 314.676 l
599.029 315.442 l
599.246 315.614 l
599.464 314.938 l
599.681 314.869 l
600.116 316.815 l
600.552 317.147 l
600.769 317.185 l
601.423 316.993 l
601.859 317.262 l
602.077 317.153 l
602.513 316.321 l
603.168 316.884 l
604.26 314.077 l
604.916 316.119 l
605.354 316.433 l
605.572 315.941 l
605.791 315.914 l
606.229 317.107 l
606.448 317.313 l
606.667 317.139 l
606.887 317.158 l
607.325 317.945 l
607.544 317.918 l
608.422 317.328 l
609.3 316.761 l
609.74 315.007 l
609.96 315.443 l
610.18 316.28 l
610.4 316.001 l
610.62 314.914 l
610.84 311.852 l
611.28 286.561 l
611.5 292.856 l
611.72 306.909 l
611.941 312.224 l
612.161 313.946 l
612.381 314.552 l
612.602 314.417 l
612.822 314.853 l
613.043 315.594 l
613.264 315.637 l
613.705 316.408 l
613.926 315.711 l
614.146 313.622 l
614.367 313.844 l
614.588 316.105 l
614.809 316.476 l
615.03 316.499 l
615.251 316.772 l
615.472 316.642 l
615.915 317.113 l
616.136 317.231 l
616.357 317.031 l
616.8 315.713 l
617.243 316.431 l
617.465 316.19 l
617.686 316.456 l
617.908 317.047 l
618.13 317.1 l
618.351 316.658 l
618.573 315.702 l
618.795 315.711 l
619.017 316.461 l
619.239 315.848 l
619.461 314.35 l
619.683 314.669 l
619.905 315.466 l
620.35 314.154 l
620.572 314.256 l
620.794 313.18 l
621.017 311.282 l
621.239 310.51 l
622.129 317.814 l
622.352 317.741 l
622.575 316.475 l
622.797 316.955 l
623.02 317.966 l
623.243 317.35 l
623.466 316.248 l
623.689 315.921 l
624.135 318.19 l
624.581 316.858 l
624.805 316.819 l
625.028 317.093 l
625.251 317.111 l
625.922 315.733 l
626.369 316.951 l
626.816 316.983 l
627.04 315.31 l
627.264 311.09 l
627.488 311.148 l
627.712 315.571 l
627.935 317.195 l
628.159 317.146 l
628.384 317.227 l
628.608 317.179 l
628.832 317.351 l
629.056 317.071 l
629.28 317.031 l
629.505 318.153 l
629.729 318.29 l
630.178 317.332 l
630.402 317.585 l
630.627 317.22 l
630.852 316.031 l
631.076 315.893 l
631.301 316.334 l
631.526 316.36 l
631.751 316.202 l
632.2 316.401 l
633.101 312.695 l
633.551 308.992 l
633.776 310.076 l
634.227 313.594 l
634.453 314.611 l
634.678 314.959 l
635.129 315.348 l
635.355 315.693 l
635.581 316.315 l
636.032 318.776 l
636.258 318.535 l
636.71 316.426 l
636.936 316.066 l
637.388 316.788 l
637.614 316.934 l
638.067 318.253 l
638.52 317.034 l
638.746 316.439 l
638.972 314.883 l
639.199 315.319 l
639.426 317.494 l
639.652 318.543 l
639.879 318.562 l
640.332 316.43 l
640.786 312.483 l
641.24 314.777 l
641.467 314.993 l
641.694 315.886 l
641.921 315.917 l
642.376 313.983 l
642.603 312.917 l
642.831 313.335 l
643.058 314.112 l
643.286 314.475 l
643.741 316.627 l
643.968 316.274 l
644.196 315.18 l
644.424 314.909 l
644.651 314.883 l
645.107 313.376 l
645.335 313.095 l
645.791 314.346 l
646.019 314.251 l
646.247 314.304 l
646.704 316.081 l
646.932 315.836 l
647.617 312.921 l
647.846 313.445 l
648.074 314.917 l
648.303 314.76 l
648.76 312.183 l
648.989 312.486 l
649.218 313.289 l
649.447 312.193 l
650.363 302.202 l
650.592 302.73 l
651.051 308.467 l
651.28 309.979 l
651.739 314.436 l
651.968 315.124 l
652.198 314.787 l
652.657 315.46 l
652.886 316.153 l
653.116 316.379 l
653.346 315.933 l
653.576 315.851 l
653.806 316.183 l
654.266 315.31 l
654.496 315.167 l
654.726 315.307 l
654.956 315.782 l
655.186 315.881 l
655.647 309.593 l
655.877 311.014 l
656.107 314.433 l
656.338 315.712 l
656.568 316.294 l
656.799 316.088 l
657.03 315.674 l
657.491 311.834 l
657.722 312.433 l
657.953 314.114 l
658.183 314.256 l
658.645 309.946 l
658.876 311.431 l
659.107 311.842 l
659.339 309.341 l
659.57 310.531 l
660.032 313.47 l
660.264 313.584 l
660.495 312.979 l
660.727 313.198 l
660.958 312.665 l
661.19 311.328 l
661.653 313.647 l
661.885 313.094 l
662.348 314.788 l
662.812 313.967 l
663.044 313.094 l
663.276 312.798 l
663.508 312.876 l
663.74 312.394 l
663.973 312.997 l
664.205 314.388 l
664.437 314.251 l
664.67 313.68 l
664.902 313.455 l
665.134 312.828 l
665.367 311.636 l
665.6 311.331 l
666.298 314.002 l
666.53 313.831 l
666.763 313.977 l
666.996 313.956 l
667.462 313.359 l
668.161 310.574 l
668.628 311.795 l
668.861 311.987 l
669.095 311.792 l
669.328 312.177 l
669.562 313.126 l
670.029 313.664 l
670.262 313.617 l
670.496 313.053 l
670.73 313.462 l
671.197 314.663 l
671.431 315.027 l
671.431 315.027 l
stroke
grestore
0.196 0.804 0.196 setrgbcolor
gsave
666.3 138.4 37.83 205.9 clipbox
72.8414 301.983 m
72.9384 300.039 l
73.0354 302.152 l
73.2294 315.388 l
73.3264 311.98 l
73.5206 294.819 l
73.7149 308.278 l
73.812 308.223 l
74.1037 287.485 l
74.2009 287.929 l
74.2982 287.289 l
74.4928 284.035 l
74.5902 285.013 l
74.6875 280.501 l
74.9797 256.956 l
75.1747 251.748 l
76.2484 308.153 l
76.3461 308.894 l
76.5417 317.89 l
76.6395 317.516 l
76.8352 311.601 l
77.1289 321.336 l
77.2268 320.375 l
77.5208 311.143 l
77.6188 311.691 l
77.815 298.887 l
77.9131 299.111 l
78.2075 323.762 l
78.3057 323.777 l
78.6004 319.193 l
78.8953 322.866 l
78.9937 320.82 l
79.2889 299.288 l
79.3873 300.986 l
79.6828 316.541 l
79.9784 297.225 l
80.1756 312.593 l
80.2743 309.997 l
80.4716 301.039 l
80.5703 299.037 l
80.8666 273.628 l
81.1631 256.525 l
81.5587 293.719 l
81.7566 295.903 l
82.0537 306.312 l
82.2519 303.756 l
82.5493 310.771 l
82.9462 299.4 l
83.0455 300.687 l
83.3434 318.625 l
83.4428 318.496 l
83.6416 322.327 l
83.741 321.012 l
83.94 315.846 l
84.0395 316.731 l
84.139 316.204 l
84.637 307.552 l
84.7366 308.132 l
85.0358 312.559 l
85.2353 304.031 l
85.6346 266.643 l
86.1343 210.191 l
86.3344 237.616 l
86.7347 293.161 l
86.935 301.091 l
87.0352 301.716 l
87.2357 298.993 l
87.5365 312.743 l
87.7372 306.999 l
87.938 312.84 l
88.0384 312.814 l
88.2393 309.41 l
88.4403 313.819 l
88.6414 303.78 l
88.742 305.694 l
88.9432 311.677 l
89.5474 272.977 l
89.9507 212.608 l
90.0516 215.336 l
90.7584 294.818 l
91.264 315.505 l
91.3651 314.025 l
91.5676 311.051 l
91.7701 314.54 l
91.9727 313.758 l
92.2768 319.75 l
92.3782 319.341 l
92.6826 325.682 l
92.9872 318.443 l
93.1904 313.07 l
93.6987 326.017 l
93.8004 326.719 l
94.1058 310.617 l
94.4113 325.034 l
94.7171 325.764 l
95.0231 323.914 l
95.2272 325.264 l
95.4314 322.992 l
95.6357 328.962 l
95.7379 328.317 l
95.9423 326.264 l
96.1468 322.951 l
96.2491 323.092 l
96.4538 329.663 l
96.5562 329.366 l
96.9659 313.232 l
97.0684 314.205 l
97.2734 317.415 l
97.6838 331.546 l
97.7864 330.282 l
97.9918 324.105 l
98.1973 327.052 l
98.3 323.123 l
98.5056 304.272 l
98.6085 308.922 l
98.8142 326.741 l
99.02 327.877 l
99.123 327.817 l
99.5351 319.614 l
99.6381 319.963 l
99.7412 319.14 l
99.8444 316.927 l
99.9475 317.324 l
100.154 326.179 l
100.257 325.565 l
100.567 310.474 l
100.774 319.721 l
100.877 317.441 l
100.98 318.517 l
101.187 325.512 l
101.394 313.37 l
101.497 314.628 l
101.705 322.17 l
101.912 313.326 l
102.119 306.456 l
102.534 323.273 l
102.845 313.473 l
102.949 314.576 l
103.261 322.801 l
103.365 322.325 l
103.572 318.448 l
103.78 315.278 l
103.885 314.724 l
104.301 300.709 l
104.509 287.013 l
104.718 259.373 l
104.822 260.361 l
105.239 303.653 l
105.552 309.152 l
105.761 312.306 l
106.18 319.386 l
106.389 322.903 l
106.703 314.974 l
106.912 317.515 l
107.017 316.948 l
107.122 318.154 l
107.331 321.78 l
107.646 317.25 l
107.751 318.244 l
107.856 320.437 l
107.961 319.679 l
108.171 312.052 l
108.276 312.564 l
108.696 323.618 l
109.012 327.298 l
109.117 325.909 l
109.433 311.893 l
109.749 323.867 l
110.066 320.253 l
110.277 321.889 l
110.382 320.803 l
110.593 314.617 l
110.699 314.65 l
111.439 322.759 l
111.756 324.789 l
111.862 323.853 l
112.074 318.137 l
112.286 322.59 l
112.392 319.453 l
112.604 307.767 l
112.71 307.724 l
113.028 315.399 l
113.241 314.031 l
113.453 320.236 l
113.559 319.131 l
113.772 315.199 l
113.985 318.464 l
114.091 317.828 l
114.304 310.759 l
114.623 319.915 l
114.73 318.92 l
114.943 324.667 l
115.263 316.885 l
115.476 309.808 l
115.583 310.092 l
115.796 314.42 l
115.903 313.37 l
116.544 320.97 l
116.651 320.851 l
116.758 319.49 l
116.865 319.93 l
117.079 323.83 l
117.187 322.719 l
117.508 312.998 l
117.722 318.606 l
118.044 321.88 l
118.259 316.994 l
118.474 304.26 l
118.581 294.402 l
118.688 294.747 l
119.011 322.546 l
119.118 322.652 l
119.441 314.958 l
119.549 314.939 l
119.764 312.766 l
119.98 314.345 l
120.087 315.248 l
120.303 319.662 l
120.411 318.771 l
120.519 319.215 l
120.626 320.493 l
121.166 311.501 l
121.274 311.015 l
121.49 320.811 l
121.598 319.519 l
121.707 315.641 l
121.815 316.263 l
122.031 322.294 l
122.139 319.382 l
122.356 309.021 l
122.464 310.461 l
122.681 321.979 l
122.898 323.331 l
123.006 322.789 l
123.223 318.067 l
123.331 317.808 l
123.44 314.288 l
123.657 304.58 l
123.874 310.971 l
123.983 311.291 l
124.309 322.589 l
124.853 314.811 l
125.071 316.046 l
125.289 312.443 l
125.397 311.513 l
125.615 301.395 l
125.725 301.672 l
125.943 313.79 l
126.052 313.682 l
126.27 311.152 l
126.379 310.219 l
126.598 299.236 l
126.816 291.596 l
127.363 301.218 l
127.473 298.849 l
127.692 290.2 l
127.801 292.497 l
128.02 301.01 l
128.459 309.64 l
128.678 321.877 l
128.788 321.453 l
129.337 311.466 l
129.557 298.66 l
129.667 299.399 l
129.997 316.364 l
130.217 312.939 l
130.327 312.869 l
130.437 312.563 l
130.657 308.838 l
130.878 294.098 l
131.319 257.672 l
131.76 299.477 l
132.092 310.874 l
132.202 313.495 l
132.313 312.812 l
132.534 300.797 l
132.645 303.809 l
132.866 314.157 l
133.198 317.941 l
133.309 316.111 l
133.42 316.298 l
133.642 321.326 l
133.752 321.117 l
133.863 321.438 l
133.974 322.814 l
134.085 322.015 l
134.307 316.165 l
134.529 317.168 l
134.64 317.613 l
134.751 318.923 l
134.863 318.213 l
135.085 309.621 l
135.085 309.621 l
stroke
grestore
0 setlinecap
0.000 setgray
gsave
/o {
gsave
newpath
translate
1.0 setlinewidth
1 setlinejoin
0 setlinecap
0 0 m
0 5 l
gsave
0.000 setgray
fill
grestore
stroke
grestore
} bind def
93.3502 205.868 o
grestore
gsave
/o {
gsave
newpath
translate
1.0 setlinewidth
1 setlinejoin
0 setlinecap
0 0 m
0 -5 l
gsave
0.000 setgray
fill
grestore
stroke
grestore
} bind def
93.3502 344.263 o
grestore
/BitstreamVeraSerif-Roman findfont
10.000 scalefont
setfont
gsave
81.115781 194.305882 translate
0.000000 rotate
0.000000 0.140625 m /four glyphshow
6.362305 0.140625 m /zero glyphshow
12.724609 0.140625 m /zero glyphshow
19.086914 0.140625 m /zero glyphshow
grestore
gsave
/o {
gsave
newpath
translate
1.0 setlinewidth
1 setlinejoin
0 setlinecap
0 0 m
0 5 l
gsave
0.000 setgray
fill
grestore
stroke
grestore
} bind def
204.392 205.868 o
grestore
gsave
/o {
gsave
newpath
translate
1.0 setlinewidth
1 setlinejoin
0 setlinecap
0 0 m
0 -5 l
gsave
0.000 setgray
fill
grestore
stroke
grestore
} bind def
204.392 344.263 o
grestore
gsave
192.423219 194.305882 translate
0.000000 rotate
0.000000 0.140625 m /five glyphshow
6.362305 0.140625 m /zero glyphshow
12.724609 0.140625 m /zero glyphshow
19.086914 0.140625 m /zero glyphshow
grestore
gsave
/o {
gsave
newpath
translate
1.0 setlinewidth
1 setlinejoin
0 setlinecap
0 0 m
0 5 l
gsave
0.000 setgray
fill
grestore
stroke
grestore
} bind def
315.434 205.868 o
grestore
gsave
/o {
gsave
newpath
translate
1.0 setlinewidth
1 setlinejoin
0 setlinecap
0 0 m
0 -5 l
gsave
0.000 setgray
fill
grestore
stroke
grestore
} bind def
315.434 344.263 o
grestore
gsave
303.379094 194.305882 translate
0.000000 rotate
0.000000 0.140625 m /six glyphshow
6.362305 0.140625 m /zero glyphshow
12.724609 0.140625 m /zero glyphshow
19.086914 0.140625 m /zero glyphshow
grestore
gsave
/o {
gsave
newpath
translate
1.0 setlinewidth
1 setlinejoin
0 setlinecap
0 0 m
0 5 l
gsave
0.000 setgray
fill
grestore
stroke
grestore
} bind def
426.476 205.868 o
grestore
gsave
/o {
gsave
newpath
translate
1.0 setlinewidth
1 setlinejoin
0 setlinecap
0 0 m
0 -5 l
gsave
0.000 setgray
fill
grestore
stroke
grestore
} bind def
426.476 344.263 o
grestore
gsave
414.506844 194.305882 translate
0.000000 rotate
0.000000 0.140625 m /seven glyphshow
6.362305 0.140625 m /zero glyphshow
12.724609 0.140625 m /zero glyphshow
19.086914 0.140625 m /zero glyphshow
grestore
gsave
/o {
gsave
newpath
translate
1.0 setlinewidth
1 setlinejoin
0 setlinecap
0 0 m
0 5 l
gsave
0.000 setgray
fill
grestore
stroke
grestore
} bind def
537.517 205.868 o
grestore
gsave
/o {
gsave
newpath
translate
1.0 setlinewidth
1 setlinejoin
0 setlinecap
0 0 m
0 -5 l
gsave
0.000 setgray
fill
grestore
stroke
grestore
} bind def
537.517 344.263 o
grestore
gsave
525.462719 194.305882 translate
0.000000 rotate
0.000000 0.140625 m /eight glyphshow
6.362305 0.140625 m /zero glyphshow
12.724609 0.140625 m /zero glyphshow
19.086914 0.140625 m /zero glyphshow
grestore
gsave
/o {
gsave
newpath
translate
1.0 setlinewidth
1 setlinejoin
0 setlinecap
0 0 m
0 5 l
gsave
0.000 setgray
fill
grestore
stroke
grestore
} bind def
648.559 205.868 o
grestore
gsave
/o {
gsave
newpath
translate
1.0 setlinewidth
1 setlinejoin
0 setlinecap
0 0 m
0 -5 l
gsave
0.000 setgray
fill
grestore
stroke
grestore
} bind def
648.559 344.263 o
grestore
gsave
636.481094 194.305882 translate
0.000000 rotate
0.000000 0.140625 m /nine glyphshow
6.362305 0.140625 m /zero glyphshow
12.724609 0.140625 m /zero glyphshow
19.086914 0.140625 m /zero glyphshow
grestore
gsave
/o {
gsave
newpath
translate
1.0 setlinewidth
1 setlinejoin
0 setlinecap
0 0 m
5 0 l
gsave
0.000 setgray
fill
grestore
stroke
grestore
} bind def
37.8292 205.868 o
grestore
gsave
/o {
gsave
newpath
translate
1.0 setlinewidth
1 setlinejoin
0 setlinecap
0 0 m
-5 0 l
gsave
0.000 setgray
fill
grestore
stroke
grestore
} bind def
704.08 205.868 o
grestore
gsave
19.563625 202.087132 translate
0.000000 rotate
0.000000 0.140625 m /zero glyphshow
6.362305 0.140625 m /period glyphshow
9.541016 0.140625 m /two glyphshow
grestore
gsave
/o {
gsave
newpath
translate
1.0 setlinewidth
1 setlinejoin
0 setlinecap
0 0 m
5 0 l
gsave
0.000 setgray
fill
grestore
stroke
grestore
} bind def
37.8292 233.547 o
grestore
gsave
/o {
gsave
newpath
translate
1.0 setlinewidth
1 setlinejoin
0 setlinecap
0 0 m
-5 0 l
gsave
0.000 setgray
fill
grestore
stroke
grestore
} bind def
704.08 233.547 o
grestore
gsave
19.079250 229.766103 translate
0.000000 rotate
0.000000 0.140625 m /zero glyphshow
6.362305 0.140625 m /period glyphshow
9.541016 0.140625 m /four glyphshow
grestore
gsave
/o {
gsave
newpath
translate
1.0 setlinewidth
1 setlinejoin
0 setlinecap
0 0 m
5 0 l
gsave
0.000 setgray
fill
grestore
stroke
grestore
} bind def
37.8292 261.226 o
grestore
gsave
/o {
gsave
newpath
translate
1.0 setlinewidth
1 setlinejoin
0 setlinecap
0 0 m
-5 0 l
gsave
0.000 setgray
fill
grestore
stroke
grestore
} bind def
704.08 261.226 o
grestore
gsave
19.204250 257.445074 translate
0.000000 rotate
0.000000 0.140625 m /zero glyphshow
6.362305 0.140625 m /period glyphshow
9.541016 0.140625 m /six glyphshow
grestore
gsave
/o {
gsave
newpath
translate
1.0 setlinewidth
1 setlinejoin
0 setlinecap
0 0 m
5 0 l
gsave
0.000 setgray
fill
grestore
stroke
grestore
} bind def
37.8292 288.905 o
grestore
gsave
/o {
gsave
newpath
translate
1.0 setlinewidth
1 setlinejoin
0 setlinecap
0 0 m
-5 0 l
gsave
0.000 setgray
fill
grestore
stroke
grestore
} bind def
704.08 288.905 o
grestore
gsave
19.251125 285.124044 translate
0.000000 rotate
0.000000 0.140625 m /zero glyphshow
6.362305 0.140625 m /period glyphshow
9.541016 0.140625 m /eight glyphshow
grestore
gsave
/o {
gsave
newpath
translate
1.0 setlinewidth
1 setlinejoin
0 setlinecap
0 0 m
5 0 l
gsave
0.000 setgray
fill
grestore
stroke
grestore
} bind def
37.8292 316.584 o
grestore
gsave
/o {
gsave
newpath
translate
1.0 setlinewidth
1 setlinejoin
0 setlinecap
0 0 m
-5 0 l
gsave
0.000 setgray
fill
grestore
stroke
grestore
} bind def
704.08 316.584 o
grestore
gsave
19.798000 312.803015 translate
0.000000 rotate
0.000000 0.140625 m /one glyphshow
6.362305 0.140625 m /period glyphshow
9.541016 0.140625 m /zero glyphshow
grestore
gsave
/o {
gsave
newpath
translate
1.0 setlinewidth
1 setlinejoin
0 setlinecap
0 0 m
5 0 l
gsave
0.000 setgray
fill
grestore
stroke
grestore
} bind def
37.8292 344.263 o
grestore
gsave
/o {
gsave
newpath
translate
1.0 setlinewidth
1 setlinejoin
0 setlinecap
0 0 m
-5 0 l
gsave
0.000 setgray
fill
grestore
stroke
grestore
} bind def
704.08 344.263 o
grestore
gsave
20.126125 340.481985 translate
0.000000 rotate
0.000000 0.140625 m /one glyphshow
6.362305 0.140625 m /period glyphshow
9.541016 0.140625 m /two glyphshow
grestore
gsave
14.079250 232.925184 translate
90.000000 rotate
0.000000 0.140625 m /N glyphshow
8.750000 0.140625 m /o glyphshow
14.770508 0.140625 m /r glyphshow
19.550781 0.140625 m /m glyphshow
29.033203 0.140625 m /a glyphshow
34.995117 0.140625 m /l glyphshow
38.193359 0.140625 m /i glyphshow
41.391602 0.140625 m /z glyphshow
46.660156 0.140625 m /e glyphshow
52.578125 0.140625 m /d glyphshow
58.979492 0.140625 m /space glyphshow
62.158203 0.140625 m /F glyphshow
69.096680 0.140625 m /l glyphshow
72.294922 0.140625 m /u glyphshow
78.735352 0.140625 m /x glyphshow
grestore
2 setlinecap
gsave
37.8293 344.263 m
704.08 344.263 l
stroke
grestore
gsave
704.08 205.868 m
704.08 344.263 l
stroke
grestore
gsave
37.8293 205.868 m
704.08 205.868 l
stroke
grestore
gsave
37.8292 205.868 m
37.8292 344.263 l
stroke
grestore
gsave
384.279705 232.547353 translate
0.000000 rotate
/BitstreamVeraSerif-Roman findfont
9.0 scalefont
setfont
0.000000 1.437500 moveto
/H glyphshow

/Cmmi10 findfont
9.0 scalefont
setfont
7.848633 1.437500 moveto
/alpha glyphshow


grestore
gsave
195.508624 231.547353 translate
0.000000 rotate
/BitstreamVeraSerif-Roman findfont
9.0 scalefont
setfont
0.000000 2.437500 moveto
/H glyphshow

/Cmmi10 findfont
9.0 scalefont
setfont
7.848633 2.437500 moveto
/beta glyphshow


grestore
gsave
37.8292 36.648 m
704.08 36.648 l
704.08 175.043 l
37.8292 175.043 l
cl
1.000 setgray
fill
grestore
0.500 setlinewidth
0 setlinecap
[6 6] 0 setdash
gsave
666.3 138.4 37.83 36.65 clipbox
639.676 36.648 m
639.676 175.043 l
stroke
grestore
gsave
666.3 138.4 37.83 36.65 clipbox
374.397 36.648 m
374.397 175.043 l
stroke
grestore
gsave
666.3 138.4 37.83 36.65 clipbox
226.489 36.648 m
226.489 175.043 l
stroke
grestore
gsave
666.3 138.4 37.83 36.65 clipbox
187.625 36.648 m
187.625 175.043 l
stroke
grestore
1.000 setlinewidth
2 setlinecap
[] 0 setdash
0.196 0.804 0.196 setrgbcolor
gsave
666.3 138.4 37.83 36.65 clipbox
54.8253 132.763 m
55.795 130.818 l
56.7648 132.932 l
57.7349 140.095 l
58.7052 146.168 l
59.6758 142.759 l
60.6465 132.203 l
61.6175 125.598 l
62.5887 130.284 l
63.5601 139.057 l
64.5317 139.002 l
66.4757 120.963 l
67.448 118.264 l
68.4205 118.709 l
69.3933 118.069 l
70.3663 115.331 l
71.3395 114.815 l
72.3129 115.792 l
73.2865 111.281 l
74.2604 101.294 l
75.2345 92.6796 l
77.1833 83.2235 l
78.1581 82.528 l
79.1331 87.9614 l
80.1083 92.3846 l
81.0837 94.6282 l
82.0593 98.7697 l
83.0352 105.493 l
84.9876 122.82 l
85.9642 131.448 l
86.9409 136.317 l
87.9179 138.154 l
89.8726 139.673 l
90.8502 143.638 l
91.8281 148.67 l
92.8062 148.295 l
93.7846 143.623 l
94.7631 142.381 l
96.7209 151.338 l
97.7001 152.115 l
98.6796 151.155 l
99.6593 147.531 l
100.639 142.914 l
101.619 141.923 l
102.6 142.471 l
103.58 137.616 l
104.561 129.667 l
105.542 129.891 l
107.505 149.977 l
108.486 154.541 l
109.468 154.557 l
110.451 152.262 l
111.433 150.261 l
112.416 149.972 l
114.381 153.621 l
115.365 153.645 l
116.348 151.6 l
117.332 145.674 l
118.316 136.767 l
119.3 130.068 l
120.284 131.765 l
121.269 139.817 l
122.254 146.435 l
123.239 147.32 l
124.224 140.061 l
125.21 130.088 l
126.196 128.005 l
128.168 143.373 l
129.154 140.776 l
130.141 134.785 l
131.128 131.818 l
132.115 129.817 l
133.102 123.302 l
134.09 113.073 l
137.054 88.0513 l
138.042 87.3045 l
139.031 98.0314 l
140.02 112.615 l
141.009 121.215 l
141.998 124.498 l
143.978 126.682 l
144.968 130.311 l
145.958 134.647 l
146.948 137.091 l
147.939 136.021 l
148.93 134.536 l
149.921 136.733 l
150.913 140.65 l
151.904 141.551 l
154.881 133.638 l
155.873 130.18 l
156.866 131.467 l
158.852 147.191 l
159.846 149.405 l
160.839 149.276 l
161.833 150.752 l
162.827 153.107 l
163.822 151.791 l
164.816 147.812 l
165.811 146.626 l
166.806 147.511 l
167.801 146.983 l
168.797 144.919 l
169.793 143.41 l
170.789 141.594 l
171.785 139.07 l
172.781 138.332 l
173.778 138.911 l
174.775 140.858 l
175.772 143.16 l
176.769 143.339 l
177.767 140.349 l
178.764 134.81 l
179.762 127.459 l
180.761 118.397 l
182.758 97.4227 l
183.757 84.3812 l
185.755 52.6822 l
186.755 41.6198 l
187.755 40.9709 l
188.755 51.4464 l
191.756 100.592 l
192.757 113.583 l
193.758 123.94 l
194.76 129.67 l
195.762 131.871 l
196.763 132.496 l
197.766 130.852 l
198.768 129.773 l
199.771 134.3 l
200.773 141.677 l
201.776 143.522 l
202.78 139.838 l
203.783 137.779 l
204.787 140.099 l
205.791 143.619 l
206.795 143.594 l
207.8 140.512 l
208.804 140.19 l
209.809 143.771 l
210.814 144.599 l
211.819 139.063 l
212.825 134.559 l
213.831 136.473 l
214.837 141.412 l
215.843 142.457 l
216.85 136.314 l
217.856 126.519 l
218.863 119.233 l
219.871 116.267 l
220.878 112.68 l
221.886 103.757 l
222.893 89.1089 l
224.91 52.6476 l
225.918 43.3871 l
226.927 46.1157 l
227.936 58.8954 l
229.955 90.9193 l
230.965 102.154 l
232.985 119.38 l
233.995 125.597 l
236.017 133.228 l
238.039 143.963 l
239.051 146.285 l
240.063 144.805 l
241.075 142.353 l
242.087 141.831 l
244.112 145.319 l
245.125 144.857 l
246.138 144.538 l
247.152 147.237 l
248.165 150.458 l
249.179 150.529 l
250.193 150.121 l
251.208 152.529 l
252.222 155.724 l
253.237 156.462 l
254.252 154.485 l
255.268 151.677 l
256.283 149.223 l
257.299 146.015 l
258.315 143.85 l
259.331 146.749 l
260.347 152.573 l
261.364 155.546 l
262.381 155.628 l
263.398 156.796 l
264.416 157.499 l
265.433 152.445 l
266.451 144.354 l
267.469 141.397 l
268.487 146.468 l
269.506 153.124 l
270.525 155.813 l
273.582 156.544 l
274.602 155.916 l
275.622 154.776 l
276.642 154.694 l
277.663 155.773 l
278.683 156.044 l
279.704 154.207 l
280.725 153.771 l
281.747 156.942 l
282.768 159.742 l
283.79 159.096 l
284.812 157.415 l
285.834 157.044 l
286.857 155.964 l
287.88 153.731 l
288.903 153.871 l
289.926 157.488 l
290.949 160.443 l
291.973 160.146 l
292.997 156.516 l
294.021 150.306 l
295.045 145.362 l
296.07 144.012 l
298.12 146.053 l
299.145 148.195 l
300.171 151.658 l
302.223 160.533 l
303.249 162.326 l
304.275 161.061 l
305.302 157.457 l
306.329 154.885 l
307.356 156.061 l
308.384 157.832 l
309.411 153.903 l
310.439 142.784 l
311.468 135.051 l
312.496 139.702 l
313.525 151.173 l
314.553 157.521 l
315.582 158.017 l
316.612 158.657 l
317.641 158.597 l
318.671 156.32 l
319.701 153.643 l
320.731 151.355 l
321.762 150.394 l
322.793 150.743 l
323.824 149.92 l
324.855 147.707 l
325.886 148.104 l
327.95 156.959 l
328.982 156.344 l
330.014 149.239 l
331.047 141.263 l
332.08 141.254 l
333.113 147.75 l
334.146 150.501 l
335.18 148.221 l
336.214 149.297 l
337.248 154.585 l
338.282 156.291 l
340.351 144.15 l
341.386 145.407 l
342.422 150.914 l
343.457 152.95 l
344.493 150.038 l
346.565 138.099 l
347.601 137.235 l
348.638 141.991 l
349.675 148.156 l
350.712 152.629 l
351.749 154.053 l
352.787 151.462 l
353.825 146.91 l
354.863 144.253 l
355.901 145.355 l
357.978 152.299 l
359.017 153.58 l
360.057 153.105 l
361.096 151.63 l
363.176 146.862 l
364.216 146.058 l
365.257 145.504 l
366.297 142.636 l
367.338 138.395 l
369.421 131.489 l
370.462 126.561 l
371.504 117.792 l
372.546 103.087 l
373.589 90.1527 l
374.631 91.1403 l
376.717 119.885 l
377.761 129.33 l
378.804 134.433 l
379.848 137.133 l
380.892 138.784 l
382.981 141.136 l
384.025 143.085 l
385.07 145.462 l
386.116 147.362 l
388.207 150.166 l
389.253 152.187 l
390.299 153.683 l
391.345 151.478 l
392.392 147.113 l
393.439 145.754 l
394.486 147.533 l
395.533 148.294 l
396.581 147.727 l
397.629 148.934 l
398.677 151.507 l
399.725 152.56 l
400.774 151.437 l
401.823 149.119 l
402.872 148.03 l
403.921 149.023 l
404.971 151.216 l
406.02 150.459 l
407.07 146.067 l
408.121 142.832 l
409.171 143.344 l
410.222 146.746 l
411.273 150.653 l
412.324 153.375 l
413.376 154.397 l
414.427 155.83 l
415.479 157.733 l
416.531 158.078 l
417.584 156.689 l
418.637 152.023 l
419.689 144.967 l
420.743 142.673 l
421.796 147.736 l
422.85 153.45 l
423.904 154.647 l
424.958 153.545 l
426.012 151.856 l
427.067 151.033 l
428.121 151.693 l
429.177 152.669 l
430.232 151.583 l
431.287 148.006 l
432.343 145.396 l
433.399 145.43 l
434.456 146.781 l
435.512 147.417 l
436.569 148.86 l
437.626 151.303 l
438.683 152.507 l
439.741 152.943 l
440.798 153.538 l
441.856 154.445 l
443.973 155.568 l
445.032 154.633 l
446.091 150.935 l
447.15 148.917 l
449.269 153.37 l
450.329 150.233 l
451.389 143.641 l
452.449 138.546 l
453.51 138.503 l
455.632 145.521 l
456.693 146.178 l
457.755 144.993 l
458.817 144.811 l
460.941 151.015 l
462.004 149.91 l
463.067 146.878 l
464.13 145.979 l
465.193 147.495 l
466.257 149.244 l
467.321 148.608 l
468.385 144.355 l
469.449 141.538 l
470.513 145.217 l
471.578 150.385 l
472.643 150.695 l
473.709 149.7 l
474.774 152.251 l
475.84 155.446 l
476.906 153.345 l
477.972 149.268 l
479.039 147.664 l
480.105 144.841 l
481.172 140.588 l
482.239 140.872 l
483.307 144.753 l
484.375 145.2 l
485.443 144.15 l
486.511 145.641 l
487.579 147.756 l
488.648 148.694 l
489.717 149.424 l
491.855 151.749 l
492.925 151.631 l
493.995 150.269 l
495.065 150.71 l
496.136 152.963 l
497.206 154.61 l
498.277 153.499 l
500.42 143.852 l
501.491 143.777 l
502.563 147.426 l
503.635 149.386 l
504.708 150.269 l
505.78 151.971 l
506.853 152.66 l
507.926 150.931 l
508.999 147.774 l
510.073 143.576 l
511.147 135.04 l
512.221 125.181 l
513.295 125.527 l
515.445 149.716 l
516.52 153.326 l
517.595 153.432 l
518.671 150.632 l
519.746 146.633 l
520.822 145.738 l
521.899 145.719 l
522.975 143.974 l
524.052 143.546 l
525.129 145.094 l
526.206 145.125 l
527.284 146.027 l
528.362 149.126 l
529.44 150.442 l
530.518 149.551 l
531.597 149.995 l
532.675 151.273 l
533.754 149.036 l
534.834 144.598 l
535.913 142.933 l
536.993 143.476 l
538.073 142.281 l
539.153 141.794 l
541.314 151.591 l
542.395 150.299 l
543.476 146.42 l
544.558 147.042 l
545.64 151.361 l
546.722 153.073 l
547.804 150.162 l
548.886 144.248 l
549.969 139.801 l
551.052 141.24 l
552.135 147.763 l
553.219 152.759 l
554.302 153.863 l
555.386 154.111 l
556.471 153.568 l
557.555 151.025 l
558.64 148.847 l
559.725 148.587 l
560.81 145.068 l
561.895 137.702 l
562.981 135.36 l
564.067 139.332 l
565.153 141.75 l
566.24 142.071 l
567.326 145.994 l
568.413 151.287 l
569.5 153.369 l
570.588 151.527 l
571.676 148.467 l
572.763 146.711 l
573.852 145.758 l
574.94 145.59 l
576.029 146.726 l
577.118 146.826 l
578.207 144.501 l
579.296 143.223 l
580.386 142.292 l
581.476 137.622 l
582.566 132.175 l
583.657 132.451 l
584.747 139.053 l
585.838 144.57 l
586.929 144.462 l
588.021 142.52 l
589.112 141.931 l
590.204 140.999 l
591.297 137.036 l
593.482 123.551 l
594.575 122.375 l
595.668 124.274 l
596.761 125.159 l
597.855 127.154 l
598.949 130.591 l
600.043 131.998 l
601.137 129.629 l
602.232 124.5 l
603.327 120.98 l
604.422 123.277 l
605.518 128.541 l
606.613 131.79 l
607.709 133.59 l
608.805 134.577 l
609.902 135.786 l
610.998 140.42 l
612.095 148.059 l
613.193 152.657 l
614.29 152.232 l
616.486 148.668 l
618.682 145.988 l
619.781 142.245 l
620.88 135.247 l
621.979 129.44 l
623.079 130.179 l
625.278 145.137 l
626.378 147.144 l
628.58 143.719 l
629.681 143.649 l
630.782 143.343 l
631.883 141.895 l
632.985 139.618 l
634.087 134.181 l
635.189 124.878 l
636.292 114.55 l
638.497 89.683 l
639.6 88.4511 l
641.808 116.605 l
642.912 124.342 l
645.12 135.933 l
646.225 139.315 l
647.33 141.653 l
648.435 144.275 l
649.541 143.592 l
650.647 137.032 l
651.753 131.577 l
652.859 134.588 l
653.965 141.448 l
655.072 144.936 l
656.179 146.478 l
657.286 148.607 l
658.394 148.721 l
659.502 146.89 l
660.61 147.078 l
661.718 150.05 l
662.827 152.105 l
663.935 151.896 l
665.045 152.217 l
666.154 153.594 l
667.263 152.795 l
668.373 149.207 l
669.483 146.945 l
670.594 147.275 l
671.704 147.948 l
672.815 148.392 l
673.926 149.703 l
675.037 148.992 l
676.149 144.425 l
677.261 140.4 l
677.261 140.4 l
stroke
grestore
0 setlinecap
0.000 setgray
gsave
/o {
gsave
newpath
translate
1.0 setlinewidth
1 setlinejoin
0 setlinecap
0 0 m
0 5 l
gsave
0.000 setgray
fill
grestore
stroke
grestore
} bind def
37.8293 36.648 o
grestore
gsave
/o {
gsave
newpath
translate
1.0 setlinewidth
1 setlinejoin
0 setlinecap
0 0 m
0 -5 l
gsave
0.000 setgray
fill
grestore
stroke
grestore
} bind def
37.8293 175.043 o
grestore
gsave
25.821437 25.085500 translate
0.000000 rotate
0.000000 0.140625 m /three glyphshow
6.362305 0.140625 m /eight glyphshow
12.724609 0.140625 m /zero glyphshow
19.086914 0.140625 m /zero glyphshow
grestore
gsave
/o {
gsave
newpath
translate
1.0 setlinewidth
1 setlinejoin
0 setlinecap
0 0 m
0 5 l
gsave
0.000 setgray
fill
grestore
stroke
grestore
} bind def
148.871 36.648 o
grestore
gsave
/o {
gsave
newpath
translate
1.0 setlinewidth
1 setlinejoin
0 setlinecap
0 0 m
0 -5 l
gsave
0.000 setgray
fill
grestore
stroke
grestore
} bind def
148.871 175.043 o
grestore
gsave
136.863250 25.085500 translate
0.000000 rotate
0.000000 0.140625 m /three glyphshow
6.362305 0.140625 m /nine glyphshow
12.724609 0.140625 m /zero glyphshow
19.086914 0.140625 m /zero glyphshow
grestore
gsave
/o {
gsave
newpath
translate
1.0 setlinewidth
1 setlinejoin
0 setlinecap
0 0 m
0 5 l
gsave
0.000 setgray
fill
grestore
stroke
grestore
} bind def
259.913 36.648 o
grestore
gsave
/o {
gsave
newpath
translate
1.0 setlinewidth
1 setlinejoin
0 setlinecap
0 0 m
0 -5 l
gsave
0.000 setgray
fill
grestore
stroke
grestore
} bind def
259.913 175.043 o
grestore
gsave
247.678500 25.085500 translate
0.000000 rotate
0.000000 0.140625 m /four glyphshow
6.362305 0.140625 m /zero glyphshow
12.724609 0.140625 m /zero glyphshow
19.086914 0.140625 m /zero glyphshow
grestore
gsave
/o {
gsave
newpath
translate
1.0 setlinewidth
1 setlinejoin
0 setlinecap
0 0 m
0 5 l
gsave
0.000 setgray
fill
grestore
stroke
grestore
} bind def
370.955 36.648 o
grestore
gsave
/o {
gsave
newpath
translate
1.0 setlinewidth
1 setlinejoin
0 setlinecap
0 0 m
0 -5 l
gsave
0.000 setgray
fill
grestore
stroke
grestore
} bind def
370.955 175.043 o
grestore
gsave
358.720312 25.085500 translate
0.000000 rotate
0.000000 0.140625 m /four glyphshow
6.362305 0.140625 m /one glyphshow
12.724609 0.140625 m /zero glyphshow
19.086914 0.140625 m /zero glyphshow
grestore
gsave
/o {
gsave
newpath
translate
1.0 setlinewidth
1 setlinejoin
0 setlinecap
0 0 m
0 5 l
gsave
0.000 setgray
fill
grestore
stroke
grestore
} bind def
481.997 36.648 o
grestore
gsave
/o {
gsave
newpath
translate
1.0 setlinewidth
1 setlinejoin
0 setlinecap
0 0 m
0 -5 l
gsave
0.000 setgray
fill
grestore
stroke
grestore
} bind def
481.997 175.043 o
grestore
gsave
469.762125 25.085500 translate
0.000000 rotate
0.000000 0.140625 m /four glyphshow
6.362305 0.140625 m /two glyphshow
12.724609 0.140625 m /zero glyphshow
19.086914 0.140625 m /zero glyphshow
grestore
gsave
/o {
gsave
newpath
translate
1.0 setlinewidth
1 setlinejoin
0 setlinecap
0 0 m
0 5 l
gsave
0.000 setgray
fill
grestore
stroke
grestore
} bind def
593.038 36.648 o
grestore
gsave
/o {
gsave
newpath
translate
1.0 setlinewidth
1 setlinejoin
0 setlinecap
0 0 m
0 -5 l
gsave
0.000 setgray
fill
grestore
stroke
grestore
} bind def
593.038 175.043 o
grestore
gsave
580.803937 25.085500 translate
0.000000 rotate
0.000000 0.140625 m /four glyphshow
6.362305 0.140625 m /three glyphshow
12.724609 0.140625 m /zero glyphshow
19.086914 0.140625 m /zero glyphshow
grestore
gsave
/o {
gsave
newpath
translate
1.0 setlinewidth
1 setlinejoin
0 setlinecap
0 0 m
0 5 l
gsave
0.000 setgray
fill
grestore
stroke
grestore
} bind def
704.08 36.648 o
grestore
gsave
/o {
gsave
newpath
translate
1.0 setlinewidth
1 setlinejoin
0 setlinecap
0 0 m
0 -5 l
gsave
0.000 setgray
fill
grestore
stroke
grestore
} bind def
704.08 175.043 o
grestore
gsave
691.845750 25.085500 translate
0.000000 rotate
0.000000 0.140625 m /four glyphshow
6.362305 0.140625 m /four glyphshow
12.724609 0.140625 m /zero glyphshow
19.086914 0.140625 m /zero glyphshow
grestore
gsave
331.454687 8.085500 translate
0.000000 rotate
/BitstreamVeraSerif-Roman findfont
10.0 scalefont
setfont
0.000000 3.296875 moveto
/W glyphshow

10.278320 3.296875 moveto
/a glyphshow

16.240234 3.296875 moveto
/v glyphshow

21.889648 3.296875 moveto
/e glyphshow

27.807617 3.296875 moveto
/l glyphshow

31.005859 3.296875 moveto
/e glyphshow

36.923828 3.296875 moveto
/n glyphshow

43.364258 3.296875 moveto
/g glyphshow

49.765625 3.296875 moveto
/t glyphshow

53.784180 3.296875 moveto
/h glyphshow

60.224609 3.296875 moveto
/space glyphshow

63.403320 3.296875 moveto
/parenleft glyphshow

/STIXGeneral-Regular findfont
10.0 scalefont
setfont
67.304688 3.296875 moveto
/uni212B glyphshow

/BitstreamVeraSerif-Roman findfont
10.0 scalefont
setfont
74.524673 3.296875 moveto
/parenright glyphshow


grestore
gsave
/o {
gsave
newpath
translate
1.0 setlinewidth
1 setlinejoin
0 setlinecap
0 0 m
5 0 l
gsave
0.000 setgray
fill
grestore
stroke
grestore
} bind def
37.8292 36.648 o
grestore
gsave
/o {
gsave
newpath
translate
1.0 setlinewidth
1 setlinejoin
0 setlinecap
0 0 m
-5 0 l
gsave
0.000 setgray
fill
grestore
stroke
grestore
} bind def
704.08 36.648 o
grestore
gsave
19.563625 32.866750 translate
0.000000 rotate
0.000000 0.140625 m /zero glyphshow
6.362305 0.140625 m /period glyphshow
9.541016 0.140625 m /two glyphshow
grestore
gsave
/o {
gsave
newpath
translate
1.0 setlinewidth
1 setlinejoin
0 setlinecap
0 0 m
5 0 l
gsave
0.000 setgray
fill
grestore
stroke
grestore
} bind def
37.8292 64.327 o
grestore
gsave
/o {
gsave
newpath
translate
1.0 setlinewidth
1 setlinejoin
0 setlinecap
0 0 m
-5 0 l
gsave
0.000 setgray
fill
grestore
stroke
grestore
} bind def
704.08 64.327 o
grestore
gsave
19.079250 60.545721 translate
0.000000 rotate
0.000000 0.140625 m /zero glyphshow
6.362305 0.140625 m /period glyphshow
9.541016 0.140625 m /four glyphshow
grestore
gsave
/o {
gsave
newpath
translate
1.0 setlinewidth
1 setlinejoin
0 setlinecap
0 0 m
5 0 l
gsave
0.000 setgray
fill
grestore
stroke
grestore
} bind def
37.8292 92.0059 o
grestore
gsave
/o {
gsave
newpath
translate
1.0 setlinewidth
1 setlinejoin
0 setlinecap
0 0 m
-5 0 l
gsave
0.000 setgray
fill
grestore
stroke
grestore
} bind def
704.08 92.0059 o
grestore
gsave
19.204250 88.224691 translate
0.000000 rotate
0.000000 0.140625 m /zero glyphshow
6.362305 0.140625 m /period glyphshow
9.541016 0.140625 m /six glyphshow
grestore
gsave
/o {
gsave
newpath
translate
1.0 setlinewidth
1 setlinejoin
0 setlinecap
0 0 m
5 0 l
gsave
0.000 setgray
fill
grestore
stroke
grestore
} bind def
37.8292 119.685 o
grestore
gsave
/o {
gsave
newpath
translate
1.0 setlinewidth
1 setlinejoin
0 setlinecap
0 0 m
-5 0 l
gsave
0.000 setgray
fill
grestore
stroke
grestore
} bind def
704.08 119.685 o
grestore
gsave
19.251125 115.903662 translate
0.000000 rotate
0.000000 0.140625 m /zero glyphshow
6.362305 0.140625 m /period glyphshow
9.541016 0.140625 m /eight glyphshow
grestore
gsave
/o {
gsave
newpath
translate
1.0 setlinewidth
1 setlinejoin
0 setlinecap
0 0 m
5 0 l
gsave
0.000 setgray
fill
grestore
stroke
grestore
} bind def
37.8292 147.364 o
grestore
gsave
/o {
gsave
newpath
translate
1.0 setlinewidth
1 setlinejoin
0 setlinecap
0 0 m
-5 0 l
gsave
0.000 setgray
fill
grestore
stroke
grestore
} bind def
704.08 147.364 o
grestore
gsave
19.798000 143.582632 translate
0.000000 rotate
0.000000 0.140625 m /one glyphshow
6.362305 0.140625 m /period glyphshow
9.541016 0.140625 m /zero glyphshow
grestore
gsave
/o {
gsave
newpath
translate
1.0 setlinewidth
1 setlinejoin
0 setlinecap
0 0 m
5 0 l
gsave
0.000 setgray
fill
grestore
stroke
grestore
} bind def
37.8292 175.043 o
grestore
gsave
/o {
gsave
newpath
translate
1.0 setlinewidth
1 setlinejoin
0 setlinecap
0 0 m
-5 0 l
gsave
0.000 setgray
fill
grestore
stroke
grestore
} bind def
704.08 175.043 o
grestore
gsave
20.126125 171.261603 translate
0.000000 rotate
0.000000 0.140625 m /one glyphshow
6.362305 0.140625 m /period glyphshow
9.541016 0.140625 m /two glyphshow
grestore
gsave
14.079250 63.704801 translate
90.000000 rotate
0.000000 0.140625 m /N glyphshow
8.750000 0.140625 m /o glyphshow
14.770508 0.140625 m /r glyphshow
19.550781 0.140625 m /m glyphshow
29.033203 0.140625 m /a glyphshow
34.995117 0.140625 m /l glyphshow
38.193359 0.140625 m /i glyphshow
41.391602 0.140625 m /z glyphshow
46.660156 0.140625 m /e glyphshow
52.578125 0.140625 m /d glyphshow
58.979492 0.140625 m /space glyphshow
62.158203 0.140625 m /F glyphshow
69.096680 0.140625 m /l glyphshow
72.294922 0.140625 m /u glyphshow
78.735352 0.140625 m /x glyphshow
grestore
2 setlinecap
gsave
37.8293 175.043 m
704.08 175.043 l
stroke
grestore
gsave
704.08 36.648 m
704.08 175.043 l
stroke
grestore
gsave
37.8293 36.648 m
704.08 36.648 l
stroke
grestore
gsave
37.8292 36.648 m
37.8292 175.043 l
stroke
grestore
gsave
650.780055 62.326971 translate
0.000000 rotate
/BitstreamVeraSerif-Roman findfont
9.0 scalefont
setfont
0.000000 2.437500 moveto
/H glyphshow

/Cmmi10 findfont
9.0 scalefont
setfont
7.848633 2.437500 moveto
/gamma glyphshow


grestore
gsave
385.390123 63.326971 translate
0.000000 rotate
/BitstreamVeraSerif-Roman findfont
9.0 scalefont
setfont
0.000000 1.437500 moveto
/H glyphshow

/Cmmi10 findfont
9.0 scalefont
setfont
7.848633 1.437500 moveto
/delta glyphshow


grestore
/BitstreamVeraSerif-Roman findfont
9.000 scalefont
setfont
gsave
237.704512 64.201971 translate
0.000000 rotate
0.000000 0.125000 m /C glyphshow
6.886230 0.125000 m /a glyphshow
12.251953 0.125000 m /space glyphshow
15.112793 0.125000 m /H glyphshow
grestore
gsave
196.063833 64.201971 translate
0.000000 rotate
0.000000 0.125000 m /C glyphshow
6.886230 0.125000 m /a glyphshow
12.251953 0.125000 m /space glyphshow
15.112793 0.125000 m /K glyphshow
grestore

end
showpage
