%!PS-Adobe-3.0 EPSF-3.0
%%Title: /home/hettin12/webplots/05-27-15_thesis_figures/errors/-1.75/30.0_MAD.eps
%%Creator: matplotlib version 1.2.x, http://matplotlib.sourceforge.net/
%%CreationDate: Mon Jun  1 19:14:56 2015
%%Orientation: portrait
%%BoundingBox: 90 252 522 540
%%EndComments
%%BeginProlog
/mpldict 9 dict def
mpldict begin
/m { moveto } bind def
/l { lineto } bind def
/r { rlineto } bind def
/c { curveto } bind def
/cl { closepath } bind def
/box {
m
1 index 0 r
0 exch r
neg 0 r
cl
} bind def
/clipbox {
box
clip
newpath
} bind def
%!PS-Adobe-3.0 Resource-Font
%%Title: cmmi10
%%Copyright: Copyright (C) 1994, Basil K. Malyshev. All Rights Reserved.012BaKoMa Fonts Collection, Level-B.
%%Creator: Converted from TrueType to type 3 by PPR
25 dict begin
/_d{bind def}bind def
/_m{moveto}_d
/_l{lineto}_d
/_cl{closepath eofill}_d
/_c{curveto}_d
/_sc{7 -1 roll{setcachedevice}{pop pop pop pop pop pop}ifelse}_d
/_e{exec}_d
/FontName /Cmmi10 def
/PaintType 0 def
/FontMatrix[.001 0 0 .001 0 0]def
/FontBBox[-34 -250 1048 750]def
/FontType 3 def
/Encoding [ /o /V ] def
/FontInfo 10 dict dup begin
/FamilyName (cmmi10) def
/FullName (cmmi10) def
/Notice (Copyright (C) 1994, Basil K. Malyshev. All Rights Reserved.012BaKoMa Fonts Collection, Level-B. ) def
/Weight (Regular) def
/Version (1.1/12-Nov-94) def
/ItalicAngle 0.0 def
/isFixedPitch false def
/UnderlinePosition -133 def
/UnderlineThickness 20 def
end readonly def
/CharStrings 2 dict dup begin
/o{{484 0 40 -10 471 442 _sc
201 -10 _m
169 -10 141 -2 117 12 _c
92 26 73 46 60 72 _c
46 97 40 126 40 158 _c
40 203 52 248 78 292 _c
103 336 136 372 178 400 _c
220 428 264 442 310 442 _c
334 442 356 437 376 429 _c
395 421 412 409 426 394 _c
440 378 451 360 459 340 _c
467 319 471 297 471 273 _c
471 238 463 204 449 170 _c
434 136 414 106 389 78 _c
}_e{363 50 334 29 301 13 _c
268 -2 235 -10 201 -10 _c
203 15 _m
233 15 260 25 284 45 _c
308 65 329 91 345 122 _c
361 152 373 185 381 219 _c
389 253 394 284 394 312 _c
394 340 386 365 372 385 _c
358 405 336 416 308 416 _c
269 416 235 399 206 366 _c
176 332 154 292 139 246 _c
124 200 117 157 117 119 _c
117 90 124 65 139 45 _c
154 25 175 15 203 15 _c
_cl}_e}_d
/V{{583 0 55 -21 769 683 _sc
220 -10 _m
140 626 _l
135 640 110 648 65 648 _c
58 648 55 652 55 661 _c
56 668 58 673 60 677 _c
62 681 66 683 72 683 _c
316 683 _l
319 683 321 681 323 679 _c
325 676 326 673 326 670 _c
323 655 319 648 313 648 _c
261 648 233 639 230 621 _c
296 98 _l
604 590 _l
610 600 613 609 613 616 _c
613 628 607 636 597 641 _c
586 645 574 648 560 648 _c
}_e{553 648 550 652 550 661 _c
551 666 552 670 553 673 _c
554 676 556 678 558 680 _c
560 682 563 683 567 683 _c
760 683 _l
766 683 769 678 769 670 _c
766 655 762 648 756 648 _c
706 648 666 626 638 582 _c
636 580 635 580 635 580 _c
266 -10 _l
261 -17 255 -21 247 -21 _c
233 -21 _l
225 -21 221 -17 220 -10 _c
_cl}_e}_d
end readonly def

/BuildGlyph
 {exch begin
 CharStrings exch
 2 copy known not{pop /.notdef}if
 true 3 1 roll get exec
 end}_d

/BuildChar {
 1 index /Encoding get exch get
 1 index /BuildGlyph get exec
}_d

FontName currentdict end definefont pop
%!PS-Adobe-3.0 Resource-Font
%%Title: Bitstream Vera Serif
%%Copyright: Copyright (c) 2003 by Bitstream, Inc. All Rights Reserved.
%%Creator: Converted from TrueType to type 3 by PPR
25 dict begin
/_d{bind def}bind def
/_m{moveto}_d
/_l{lineto}_d
/_cl{closepath eofill}_d
/_c{curveto}_d
/_sc{7 -1 roll{setcachedevice}{pop pop pop pop pop pop}ifelse}_d
/_e{exec}_d
/FontName /BitstreamVeraSerif-Roman def
/PaintType 0 def
/FontMatrix[.001 0 0 .001 0 0]def
/FontBBox[-183 -236 1287 928]def
/FontType 3 def
/Encoding [ /space /parenleft /parenright /hyphen /period /slash /zero /one /two /three /four /five /six /seven /eight /nine /N /R /T /V /a /k /l /m /o /s /t /minus ] def
/FontInfo 10 dict dup begin
/FamilyName (Bitstream Vera Serif) def
/FullName (Bitstream Vera Serif) def
/Notice (Copyright (c) 2003 by Bitstream, Inc. All Rights Reserved. Bitstream Vera is a trademark of Bitstream, Inc.) def
/Weight (Roman) def
/Version (Release 1.10) def
/ItalicAngle 0.0 def
/isFixedPitch false def
/UnderlinePosition -213 def
/UnderlineThickness 133 def
end readonly def
/CharStrings 28 dict dup begin
/space{318 0 0 0 0 0 _sc
}_d
/parenleft{390 0 79 -155 319 760 _sc
319 -155 _m
239 -119 179 -63 139 13 _c
99 89 79 186 79 302 _c
79 418 99 514 139 591 _c
179 668 239 724 319 760 _c
319 712 _l
269 677 233 628 211 566 _c
189 503 178 415 178 302 _c
178 188 189 100 211 38 _c
233 -24 269 -72 319 -107 _c
319 -155 _l
_cl}_d
/parenright{390 0 71 -155 311 760 _sc
71 -155 _m
71 -107 _l
121 -72 157 -24 179 38 _c
201 100 212 188 212 302 _c
212 415 201 503 179 566 _c
157 628 121 677 71 712 _c
71 760 _l
150 724 210 668 250 591 _c
290 514 311 418 311 302 _c
311 186 290 89 250 13 _c
210 -63 150 -119 71 -155 _c
_cl}_d
/hyphen{338 0 44 230 294 306 _sc
44 306 _m
294 306 _l
294 230 _l
44 230 _l
44 306 _l
_cl}_d
/period{318 0 94 -13 224 116 _sc
94 51 _m
94 69 100 84 112 97 _c
124 109 140 116 159 116 _c
177 116 192 109 205 97 _c
217 84 224 69 224 51 _c
224 33 217 17 205 5 _c
192 -7 177 -13 159 -13 _c
140 -13 124 -7 112 5 _c
100 17 94 32 94 51 _c
_cl}_d
/slash{337 0 0 -92 337 729 _sc
259 729 _m
337 729 _l
78 -92 _l
0 -92 _l
259 729 _l
_cl}_d
/zero{636 0 66 -13 570 742 _sc
318 34 _m
368 34 405 61 430 116 _c
454 170 467 253 467 364 _c
467 474 454 557 430 612 _c
405 666 368 694 318 694 _c
268 694 230 666 206 612 _c
181 557 169 474 169 364 _c
169 253 181 170 206 116 _c
230 61 268 34 318 34 _c
318 -13 _m
238 -13 176 20 132 86 _c
88 152 66 244 66 364 _c
66 483 88 576 132 642 _c
176 708 238 742 318 742 _c
397 742 459 708 503 642 _c
547 576 570 483 570 364 _c
570 244 547 152 503 86 _c
459 20 397 -13 318 -13 _c
_cl}_d
/one{636 0 122 0 494 742 _sc
142 0 _m
142 52 _l
269 52 _l
269 658 _l
122 563 _l
122 627 _l
300 742 _l
367 742 _l
367 52 _l
494 52 _l
494 0 _l
142 0 _l
_cl}_d
/two{{636 0 68 0 538 742 _sc
128 555 _m
73 555 _l
73 685 _l
107 703 142 717 178 727 _c
213 737 248 742 282 742 _c
358 742 418 723 462 687 _c
506 650 528 600 528 537 _c
528 465 478 380 378 281 _c
370 273 365 268 361 264 _c
177 80 _l
481 80 _l
481 170 _l
538 170 _l
538 0 _l
68 0 _l
68 53 _l
289 274 _l
337 322 372 367 393 408 _c
414 449 425 492 425 537 _c
}_e{425 586 412 624 386 652 _c
360 680 325 694 281 694 _c
234 694 198 682 173 659 _c
147 636 132 601 128 555 _c
_cl}_e}_d
/three{{636 0 76 -13 562 742 _sc
97 698 _m
135 712 171 723 206 731 _c
241 738 274 742 305 742 _c
376 742 432 726 472 696 _c
512 665 532 622 532 568 _c
532 524 518 487 490 458 _c
462 428 423 408 373 398 _c
433 389 479 367 512 332 _c
545 297 562 252 562 197 _c
562 129 539 77 493 41 _c
447 5 382 -13 296 -13 _c
258 -13 220 -9 184 -1 _c
148 6 112 18 76 35 _c
76 177 _l
}_e{131 177 _l
134 129 150 94 178 70 _c
206 46 246 34 298 34 _c
348 34 387 48 416 77 _c
444 106 459 146 459 196 _c
459 253 444 296 414 326 _c
384 355 341 370 284 370 _c
238 370 _l
238 420 _l
262 420 _l
319 420 362 431 390 455 _c
418 479 433 514 433 562 _c
433 604 421 637 398 660 _c
374 682 341 694 297 694 _c
253 694 218 683 194 662 _c
170 641 156 610 152 570 _c
}_e{97 570 _l
97 698 _l
_cl}_e}_d
/four{636 0 31 0 586 742 _sc
349 247 _m
349 635 _l
100 247 _l
349 247 _l
564 0 _m
232 0 _l
232 52 _l
349 52 _l
349 195 _l
31 195 _l
31 248 _l
350 742 _l
447 742 _l
447 247 _l
586 247 _l
586 195 _l
447 195 _l
447 52 _l
564 52 _l
564 0 _l
_cl}_d
/five{{636 0 85 -13 559 729 _sc
503 729 _m
503 649 _l
169 649 _l
169 440 _l
185 452 205 460 228 466 _c
250 472 276 475 304 475 _c
382 475 444 453 490 409 _c
536 365 559 306 559 231 _c
559 153 536 93 490 51 _c
444 8 379 -13 296 -13 _c
262 -13 228 -9 193 -1 _c
157 6 121 18 85 35 _c
85 177 _l
140 177 _l
143 130 158 94 184 70 _c
210 46 248 34 296 34 _c
}_e{347 34 386 51 414 85 _c
442 119 456 167 456 231 _c
456 294 442 342 415 376 _c
387 410 348 427 296 427 _c
266 427 240 421 218 411 _c
196 401 176 385 159 363 _c
117 363 _l
117 729 _l
503 729 _l
_cl}_e}_d
/six{{636 0 67 -13 573 742 _sc
327 34 _m
373 34 408 50 433 84 _c
457 118 470 166 470 230 _c
470 293 457 341 433 375 _c
408 409 373 426 327 426 _c
280 426 244 409 220 377 _c
196 344 184 297 184 236 _c
184 171 196 121 221 86 _c
245 51 281 34 327 34 _c
168 401 _m
190 425 215 444 243 456 _c
271 468 302 474 338 474 _c
410 474 468 452 510 408 _c
552 364 573 305 573 230 _c
}_e{573 156 550 97 505 53 _c
459 9 399 -13 323 -13 _c
241 -13 177 17 133 78 _c
89 139 67 227 67 341 _c
67 468 93 567 145 637 _c
197 707 271 742 367 742 _c
393 742 420 739 448 735 _c
476 730 505 723 535 713 _c
535 593 _l
480 593 _l
476 625 463 650 442 668 _c
421 685 393 694 357 694 _c
293 694 246 670 215 622 _c
184 574 168 500 168 401 _c
_cl}_e}_d
/seven{636 0 84 0 564 729 _sc
564 679 _m
279 0 _l
206 0 _l
478 649 _l
141 649 _l
141 559 _l
84 559 _l
84 729 _l
564 729 _l
564 679 _l
_cl}_d
/eight{{636 0 67 -13 569 742 _sc
466 199 _m
466 251 453 291 427 320 _c
401 349 364 364 318 364 _c
271 364 235 349 209 320 _c
183 291 170 251 170 199 _c
170 147 183 106 209 77 _c
235 48 271 34 318 34 _c
364 34 401 48 427 77 _c
453 106 466 147 466 199 _c
446 553 _m
446 597 434 632 412 657 _c
389 681 358 694 318 694 _c
278 694 246 681 224 657 _c
201 632 190 597 190 553 _c
}_e{190 508 201 473 224 449 _c
246 424 278 412 318 412 _c
358 412 389 424 412 449 _c
434 473 428 453 393 388 _c
448 380 491 360 522 327 _c
553 293 569 251 569 199 _c
569 131 547 78 504 42 _c
460 5 398 -13 318 -13 _c
237 -13 175 5 132 42 _c
88 78 67 131 67 199 _c
67 251 82 293 113 327 _c
144 360 187 380 243 388 _c
193 396 156 415 130 444 _c
}_e{104 472 91 509 91 553 _c
91 611 111 657 151 691 _c
191 725 247 742 318 742 _c
388 742 444 725 484 691 _c
524 657 545 611 545 553 _c
545 509 531 472 505 444 _c
479 415 459 451 446 553 _c
_cl}_e}_d
/nine{{636 0 63 -13 569 742 _sc
468 327 _m
446 302 420 284 392 272 _c
364 260 332 254 297 254 _c
224 254 167 275 125 319 _c
83 363 63 422 63 498 _c
63 572 85 631 131 675 _c
176 719 237 742 313 742 _c
395 742 459 711 503 650 _c
547 588 569 501 569 387 _c
569 259 542 161 490 91 _c
438 21 364 -13 269 -13 _c
243 -13 216 -10 188 -6 _c
160 -2 131 5 101 15 _c
101 136 _l
}_e{156 136 _l
160 103 172 78 194 60 _c
215 42 243 34 279 34 _c
342 34 389 57 420 105 _c
450 153 466 227 468 327 _c
309 694 _m
263 694 227 677 203 643 _c
178 609 166 561 166 498 _c
166 434 178 386 203 352 _c
227 318 263 302 309 302 _c
355 302 390 318 415 351 _c
439 383 452 430 452 492 _c
452 556 439 606 415 641 _c
390 676 355 694 309 694 _c
_cl}_e}_d
/N{875 0 49 -13 831 729 _sc
49 0 _m
49 52 _l
147 52 _l
147 677 _l
49 677 _l
49 729 _l
236 729 _l
673 154 _l
673 677 _l
575 677 _l
575 729 _l
831 729 _l
831 677 _l
733 677 _l
733 -13 _l
674 -13 _l
207 600 _l
207 52 _l
305 52 _l
305 0 _l
49 0 _l
_cl}_d
/R{{753 0 55 0 777 729 _sc
479 362 _m
501 356 521 345 538 330 _c
554 315 569 294 582 268 _c
688 52 _l
777 52 _l
777 0 _l
605 0 _l
491 232 _l
469 276 449 305 431 319 _c
413 332 388 339 356 339 _c
247 339 _l
247 52 _l
350 52 _l
350 0 _l
55 0 _l
55 52 _l
148 52 _l
148 677 _l
55 677 _l
55 729 _l
425 729 _l
495 729 550 712 589 678 _c
}_e{627 644 647 596 647 534 _c
647 484 633 444 605 416 _c
577 387 535 369 479 362 _c
247 391 _m
391 391 _l
440 391 476 402 500 426 _c
523 449 535 485 535 534 _c
535 582 523 618 500 642 _c
476 665 440 677 391 677 _c
247 677 _l
247 391 _l
_cl}_e}_d
/T{667 0 10 0 657 729 _sc
191 0 _m
191 52 _l
284 52 _l
284 671 _l
70 671 _l
70 557 _l
10 557 _l
10 729 _l
657 729 _l
657 557 _l
597 557 _l
597 671 _l
383 671 _l
383 52 _l
476 52 _l
476 0 _l
191 0 _l
_cl}_d
/V{722 0 -9 0 737 729 _sc
175 677 _m
390 117 _l
605 677 _l
523 677 _l
523 729 _l
737 729 _l
737 677 _l
666 677 _l
406 0 _l
322 0 _l
63 677 _l
-9 677 _l
-9 729 _l
256 729 _l
256 677 _l
175 677 _l
_cl}_d
/a{{596 0 50 -13 568 533 _sc
398 163 _m
398 273 _l
282 273 _l
237 273 204 263 182 244 _c
160 224 150 195 150 156 _c
150 120 161 91 183 70 _c
205 48 235 38 273 38 _c
310 38 340 49 363 72 _c
386 95 398 125 398 163 _c
488 324 _m
488 52 _l
568 52 _l
568 0 _l
398 0 _l
398 56 _l
378 32 355 14 329 3 _c
303 -7 272 -13 238 -13 _c
180 -13 134 2 100 32 _c
}_e{66 62 50 104 50 156 _c
50 209 69 250 108 280 _c
146 310 201 325 272 325 _c
398 325 _l
398 361 _l
398 400 386 430 362 452 _c
338 474 304 485 261 485 _c
225 485 197 476 176 460 _c
154 444 141 420 136 388 _c
90 388 _l
90 493 _l
121 506 151 516 181 523 _c
210 529 239 533 267 533 _c
339 533 393 515 431 479 _c
469 443 488 392 488 324 _c
_cl}_e}_d
/k{{606 0 29 0 613 760 _sc
286 0 _m
34 0 _l
34 52 _l
115 52 _l
115 708 _l
29 708 _l
29 760 _l
205 760 _l
205 265 _l
424 467 _l
349 467 _l
349 519 _l
584 519 _l
584 467 _l
495 467 _l
341 324 _l
538 52 _l
613 52 _l
613 0 _l
357 0 _l
357 52 _l
431 52 _l
276 265 _l
205 199 _l
205 52 _l
286 52 _l
286 0 _l
_cl}_e}_d
/l{320 0 29 0 290 760 _sc
205 52 _m
290 52 _l
290 0 _l
29 0 _l
29 52 _l
115 52 _l
115 708 _l
29 708 _l
29 760 _l
205 760 _l
205 52 _l
_cl}_d
/m{{948 0 36 0 921 533 _sc
518 418 _m
535 456 557 484 584 504 _c
611 523 642 533 678 533 _c
732 533 773 516 800 482 _c
826 448 840 398 840 330 _c
840 52 _l
921 52 _l
921 0 _l
672 0 _l
672 52 _l
750 52 _l
750 320 _l
750 372 742 410 726 433 _c
710 455 685 467 649 467 _c
609 467 578 451 557 421 _c
536 391 526 347 526 289 _c
526 52 _l
604 52 _l
604 0 _l
358 0 _l
}_e{358 52 _l
436 52 _l
436 323 _l
436 375 428 412 412 434 _c
396 456 371 467 335 467 _c
295 467 264 451 243 421 _c
222 391 212 347 212 289 _c
212 52 _l
290 52 _l
290 0 _l
41 0 _l
41 52 _l
122 52 _l
122 468 _l
36 468 _l
36 519 _l
212 519 _l
212 427 _l
228 461 249 488 275 506 _c
301 524 330 533 363 533 _c
403 533 436 523 463 503 _c
}_e{490 483 508 454 518 418 _c
_cl}_e}_d
/o{602 0 50 -13 552 533 _sc
301 34 _m
349 34 385 53 410 91 _c
434 129 447 185 447 260 _c
447 334 434 390 410 428 _c
385 466 349 485 301 485 _c
253 485 216 466 192 428 _c
167 390 155 334 155 260 _c
155 185 167 129 192 91 _c
216 53 253 34 301 34 _c
301 -13 _m
225 -13 165 11 119 61 _c
73 111 50 177 50 260 _c
50 342 72 408 118 458 _c
164 508 225 533 301 533 _c
377 533 437 508 483 458 _c
529 408 552 342 552 260 _c
552 177 529 111 483 61 _c
437 11 377 -13 301 -13 _c
_cl}_d
/s{{513 0 56 -13 462 533 _sc
56 29 _m
56 150 _l
108 150 _l
109 111 121 82 144 63 _c
167 43 201 34 246 34 _c
286 34 317 41 338 57 _c
359 72 370 94 370 123 _c
370 145 362 164 347 178 _c
331 192 299 207 249 223 _c
184 245 _l
139 259 107 277 87 299 _c
67 320 57 347 57 381 _c
57 428 74 465 109 492 _c
144 519 192 533 254 533 _c
281 533 310 529 340 522 _c
}_e{370 515 402 505 434 491 _c
434 378 _l
382 378 _l
380 411 369 437 347 456 _c
325 475 295 485 257 485 _c
219 485 190 478 171 465 _c
151 451 142 431 142 405 _c
142 383 149 365 164 352 _c
178 339 208 326 252 312 _c
323 290 _l
372 274 407 255 429 232 _c
451 209 462 180 462 144 _c
462 94 443 56 405 28 _c
367 0 316 -13 250 -13 _c
216 -13 184 -9 152 -3 _c
}_e{120 3 88 14 56 29 _c
_cl}_e}_d
/t{402 0 29 -13 394 680 _sc
108 467 _m
29 467 _l
29 519 _l
108 519 _l
108 680 _l
198 680 _l
198 519 _l
367 519 _l
367 467 _l
198 467 _l
198 137 _l
198 93 202 64 211 52 _c
219 40 235 34 258 34 _c
281 34 298 41 309 55 _c
319 69 325 91 326 122 _c
394 122 _l
391 74 378 40 355 19 _c
332 -2 297 -13 250 -13 _c
198 -13 161 -1 140 21 _c
118 43 108 82 108 137 _c
108 467 _l
_cl}_d
/minus{838 0 106 274 732 353 _sc
106 353 _m
732 353 _l
732 274 _l
106 274 _l
106 353 _l
_cl}_d
end readonly def

/BuildGlyph
 {exch begin
 CharStrings exch
 2 copy known not{pop /.notdef}if
 true 3 1 roll get exec
 end}_d

/BuildChar {
 1 index /Encoding get exch get
 1 index /BuildGlyph get exec
}_d

FontName currentdict end definefont pop
end
%%EndProlog
mpldict begin
90 252 translate
432 288 0 0 clipbox
gsave
0 0 m
432 0 l
432 288 l
0 288 l
cl
1.000 setgray
fill
grestore
gsave
48.0122 40.1709 m
416.346 40.1709 l
416.346 274.68 l
48.0122 274.68 l
cl
1.000 setgray
fill
grestore
1.000 setlinewidth
1 setlinejoin
2 setlinecap
[] 0 setdash
0.000 setgray
gsave
368.3 234.5 48.01 40.17 clipbox
48.0122 40.1709 m
57.2205 40.1709 l
57.2205 40.1709 l
48.0122 40.1709 l
cl
gsave
0.118 0.565 1.000 setrgbcolor
fill
grestore
stroke
grestore
gsave
368.3 234.5 48.01 40.17 clipbox
57.2205 40.1709 m
66.4289 40.1709 l
66.4289 40.1709 l
57.2205 40.1709 l
cl
gsave
0.118 0.565 1.000 setrgbcolor
fill
grestore
stroke
grestore
gsave
368.3 234.5 48.01 40.17 clipbox
66.4289 40.1709 m
75.6372 40.1709 l
75.6372 40.5371 l
66.4289 40.5371 l
cl
gsave
0.118 0.565 1.000 setrgbcolor
fill
grestore
stroke
grestore
gsave
368.3 234.5 48.01 40.17 clipbox
75.6372 40.1709 m
84.8455 40.1709 l
84.8455 40.1709 l
75.6372 40.1709 l
cl
gsave
0.118 0.565 1.000 setrgbcolor
fill
grestore
stroke
grestore
gsave
368.3 234.5 48.01 40.17 clipbox
84.8455 40.1709 m
94.0539 40.1709 l
94.0539 40.5371 l
84.8455 40.5371 l
cl
gsave
0.118 0.565 1.000 setrgbcolor
fill
grestore
stroke
grestore
gsave
368.3 234.5 48.01 40.17 clipbox
94.0539 40.1709 m
103.262 40.1709 l
103.262 40.1709 l
94.0539 40.1709 l
cl
gsave
0.118 0.565 1.000 setrgbcolor
fill
grestore
stroke
grestore
gsave
368.3 234.5 48.01 40.17 clipbox
103.262 40.1709 m
112.471 40.1709 l
112.471 40.1709 l
103.262 40.1709 l
cl
gsave
0.118 0.565 1.000 setrgbcolor
fill
grestore
stroke
grestore
gsave
368.3 234.5 48.01 40.17 clipbox
112.471 40.1709 m
121.679 40.1709 l
121.679 40.5371 l
112.471 40.5371 l
cl
gsave
0.118 0.565 1.000 setrgbcolor
fill
grestore
stroke
grestore
gsave
368.3 234.5 48.01 40.17 clipbox
121.679 40.1709 m
130.887 40.1709 l
130.887 40.1709 l
121.679 40.1709 l
cl
gsave
0.118 0.565 1.000 setrgbcolor
fill
grestore
stroke
grestore
gsave
368.3 234.5 48.01 40.17 clipbox
130.887 40.1709 m
140.096 40.1709 l
140.096 40.5371 l
130.887 40.5371 l
cl
gsave
0.118 0.565 1.000 setrgbcolor
fill
grestore
stroke
grestore
gsave
368.3 234.5 48.01 40.17 clipbox
140.096 40.1709 m
149.304 40.1709 l
149.304 40.1709 l
140.096 40.1709 l
cl
gsave
0.118 0.565 1.000 setrgbcolor
fill
grestore
stroke
grestore
gsave
368.3 234.5 48.01 40.17 clipbox
149.304 40.1709 m
158.512 40.1709 l
158.512 42.7341 l
149.304 42.7341 l
cl
gsave
0.118 0.565 1.000 setrgbcolor
fill
grestore
stroke
grestore
gsave
368.3 234.5 48.01 40.17 clipbox
158.512 40.1709 m
167.721 40.1709 l
167.721 42.3679 l
158.512 42.3679 l
cl
gsave
0.118 0.565 1.000 setrgbcolor
fill
grestore
stroke
grestore
gsave
368.3 234.5 48.01 40.17 clipbox
167.721 40.1709 m
176.929 40.1709 l
176.929 47.1281 l
167.721 47.1281 l
cl
gsave
0.118 0.565 1.000 setrgbcolor
fill
grestore
stroke
grestore
gsave
368.3 234.5 48.01 40.17 clipbox
176.929 40.1709 m
186.137 40.1709 l
186.137 56.2824 l
176.929 56.2824 l
cl
gsave
0.118 0.565 1.000 setrgbcolor
fill
grestore
stroke
grestore
gsave
368.3 234.5 48.01 40.17 clipbox
186.137 40.1709 m
195.346 40.1709 l
195.346 67.9998 l
186.137 67.9998 l
cl
gsave
0.118 0.565 1.000 setrgbcolor
fill
grestore
stroke
grestore
gsave
368.3 234.5 48.01 40.17 clipbox
195.346 40.1709 m
204.554 40.1709 l
204.554 114.869 l
195.346 114.869 l
cl
gsave
0.118 0.565 1.000 setrgbcolor
fill
grestore
stroke
grestore
gsave
368.3 234.5 48.01 40.17 clipbox
204.554 40.1709 m
213.762 40.1709 l
213.762 155.148 l
204.554 155.148 l
cl
gsave
0.118 0.565 1.000 setrgbcolor
fill
grestore
stroke
grestore
gsave
368.3 234.5 48.01 40.17 clipbox
213.762 40.1709 m
222.971 40.1709 l
222.971 218.495 l
213.762 218.495 l
cl
gsave
0.118 0.565 1.000 setrgbcolor
fill
grestore
stroke
grestore
gsave
368.3 234.5 48.01 40.17 clipbox
222.971 40.1709 m
232.179 40.1709 l
232.179 266.097 l
222.971 266.097 l
cl
gsave
0.118 0.565 1.000 setrgbcolor
fill
grestore
stroke
grestore
gsave
368.3 234.5 48.01 40.17 clipbox
232.179 40.1709 m
241.387 40.1709 l
241.387 273.054 l
232.179 273.054 l
cl
gsave
0.118 0.565 1.000 setrgbcolor
fill
grestore
stroke
grestore
gsave
368.3 234.5 48.01 40.17 clipbox
241.387 40.1709 m
250.596 40.1709 l
250.596 217.397 l
241.387 217.397 l
cl
gsave
0.118 0.565 1.000 setrgbcolor
fill
grestore
stroke
grestore
gsave
368.3 234.5 48.01 40.17 clipbox
250.596 40.1709 m
259.804 40.1709 l
259.804 152.219 l
250.596 152.219 l
cl
gsave
0.118 0.565 1.000 setrgbcolor
fill
grestore
stroke
grestore
gsave
368.3 234.5 48.01 40.17 clipbox
259.804 40.1709 m
269.012 40.1709 l
269.012 107.18 l
259.804 107.18 l
cl
gsave
0.118 0.565 1.000 setrgbcolor
fill
grestore
stroke
grestore
gsave
368.3 234.5 48.01 40.17 clipbox
269.012 40.1709 m
278.221 40.1709 l
278.221 75.3231 l
269.012 75.3231 l
cl
gsave
0.118 0.565 1.000 setrgbcolor
fill
grestore
stroke
grestore
gsave
368.3 234.5 48.01 40.17 clipbox
278.221 40.1709 m
287.429 40.1709 l
287.429 52.9868 l
278.221 52.9868 l
cl
gsave
0.118 0.565 1.000 setrgbcolor
fill
grestore
stroke
grestore
gsave
368.3 234.5 48.01 40.17 clipbox
287.429 40.1709 m
296.637 40.1709 l
296.637 47.1281 l
287.429 47.1281 l
cl
gsave
0.118 0.565 1.000 setrgbcolor
fill
grestore
stroke
grestore
gsave
368.3 234.5 48.01 40.17 clipbox
296.637 40.1709 m
305.846 40.1709 l
305.846 43.1003 l
296.637 43.1003 l
cl
gsave
0.118 0.565 1.000 setrgbcolor
fill
grestore
stroke
grestore
gsave
368.3 234.5 48.01 40.17 clipbox
305.846 40.1709 m
315.054 40.1709 l
315.054 42.0018 l
305.846 42.0018 l
cl
gsave
0.118 0.565 1.000 setrgbcolor
fill
grestore
stroke
grestore
gsave
368.3 234.5 48.01 40.17 clipbox
315.054 40.1709 m
324.262 40.1709 l
324.262 40.9033 l
315.054 40.9033 l
cl
gsave
0.118 0.565 1.000 setrgbcolor
fill
grestore
stroke
grestore
gsave
368.3 234.5 48.01 40.17 clipbox
324.262 40.1709 m
333.471 40.1709 l
333.471 40.9033 l
324.262 40.9033 l
cl
gsave
0.118 0.565 1.000 setrgbcolor
fill
grestore
stroke
grestore
gsave
368.3 234.5 48.01 40.17 clipbox
333.471 40.1709 m
342.679 40.1709 l
342.679 40.1709 l
333.471 40.1709 l
cl
gsave
0.118 0.565 1.000 setrgbcolor
fill
grestore
stroke
grestore
gsave
368.3 234.5 48.01 40.17 clipbox
342.679 40.1709 m
351.887 40.1709 l
351.887 40.1709 l
342.679 40.1709 l
cl
gsave
0.118 0.565 1.000 setrgbcolor
fill
grestore
stroke
grestore
gsave
368.3 234.5 48.01 40.17 clipbox
351.887 40.1709 m
361.096 40.1709 l
361.096 40.5371 l
351.887 40.5371 l
cl
gsave
0.118 0.565 1.000 setrgbcolor
fill
grestore
stroke
grestore
gsave
368.3 234.5 48.01 40.17 clipbox
361.096 40.1709 m
370.304 40.1709 l
370.304 40.9033 l
361.096 40.9033 l
cl
gsave
0.118 0.565 1.000 setrgbcolor
fill
grestore
stroke
grestore
gsave
368.3 234.5 48.01 40.17 clipbox
370.304 40.1709 m
379.512 40.1709 l
379.512 40.1709 l
370.304 40.1709 l
cl
gsave
0.118 0.565 1.000 setrgbcolor
fill
grestore
stroke
grestore
gsave
368.3 234.5 48.01 40.17 clipbox
379.512 40.1709 m
388.721 40.1709 l
388.721 40.1709 l
379.512 40.1709 l
cl
gsave
0.118 0.565 1.000 setrgbcolor
fill
grestore
stroke
grestore
gsave
368.3 234.5 48.01 40.17 clipbox
388.721 40.1709 m
397.929 40.1709 l
397.929 40.1709 l
388.721 40.1709 l
cl
gsave
0.118 0.565 1.000 setrgbcolor
fill
grestore
stroke
grestore
gsave
368.3 234.5 48.01 40.17 clipbox
397.929 40.1709 m
407.137 40.1709 l
407.137 40.1709 l
397.929 40.1709 l
cl
gsave
0.118 0.565 1.000 setrgbcolor
fill
grestore
stroke
grestore
gsave
368.3 234.5 48.01 40.17 clipbox
407.137 40.1709 m
416.346 40.1709 l
416.346 40.5371 l
407.137 40.5371 l
cl
gsave
0.118 0.565 1.000 setrgbcolor
fill
grestore
stroke
grestore
2.000 setlinewidth
1.000 0.000 0.000 setrgbcolor
gsave
368.3 234.5 48.01 40.17 clipbox
48.0122 40.1709 m
51.6955 40.1709 l
55.3789 40.1709 l
59.0622 40.1709 l
62.7455 40.1709 l
66.4289 40.1709 l
70.1122 40.1709 l
73.7955 40.1709 l
77.4789 40.1709 l
81.1622 40.1709 l
84.8455 40.1709 l
88.5289 40.1709 l
92.2122 40.1709 l
95.8955 40.1709 l
99.5789 40.1709 l
103.262 40.1709 l
106.946 40.1709 l
110.629 40.1709 l
114.312 40.171 l
117.996 40.171 l
121.679 40.1711 l
125.362 40.1714 l
129.046 40.172 l
132.729 40.1734 l
136.412 40.1765 l
140.096 40.1834 l
143.779 40.1979 l
147.462 40.2274 l
151.146 40.2855 l
154.829 40.3961 l
158.512 40.5998 l
162.196 40.9625 l
165.879 41.5868 l
169.562 42.6252 l
173.246 44.2934 l
176.929 46.8811 l
180.612 50.7554 l
184.296 56.3499 l
187.979 64.1362 l
191.662 74.5713 l
195.346 88.0222 l
199.029 104.673 l
202.712 124.427 l
206.396 146.826 l
210.079 171.002 l
213.762 195.692 l
217.446 219.32 l
221.129 240.154 l
224.812 256.502 l
228.496 266.946 l
232.179 270.538 l
235.862 266.946 l
239.546 256.502 l
243.229 240.154 l
246.912 219.32 l
250.596 195.692 l
254.279 171.002 l
257.962 146.826 l
261.646 124.427 l
265.329 104.673 l
269.012 88.0222 l
272.696 74.5713 l
276.379 64.1362 l
280.062 56.3499 l
283.746 50.7554 l
287.429 46.8811 l
291.112 44.2934 l
294.796 42.6252 l
298.479 41.5868 l
302.162 40.9625 l
305.846 40.5998 l
309.529 40.3961 l
313.212 40.2855 l
316.896 40.2274 l
320.579 40.1979 l
324.262 40.1834 l
327.946 40.1765 l
331.629 40.1734 l
335.312 40.172 l
338.996 40.1714 l
342.679 40.1711 l
346.362 40.171 l
350.046 40.171 l
353.729 40.1709 l
357.412 40.1709 l
361.096 40.1709 l
364.779 40.1709 l
368.462 40.1709 l
372.146 40.1709 l
375.829 40.1709 l
379.512 40.1709 l
383.196 40.1709 l
386.879 40.1709 l
390.562 40.1709 l
394.246 40.1709 l
397.929 40.1709 l
401.612 40.1709 l
405.296 40.1709 l
408.979 40.1709 l
412.662 40.1709 l
416.346 40.1709 l
stroke
grestore
1.000 setlinewidth
0 setlinecap
0.000 setgray
gsave
/o {
gsave
newpath
translate
1.0 setlinewidth
1 setlinejoin
0 setlinecap
0 0 m
0 5 l
gsave
0.000 setgray
fill
grestore
stroke
grestore
} bind def
48.0122 40.1709 o
grestore
gsave
/o {
gsave
newpath
translate
1.0 setlinewidth
1 setlinejoin
0 setlinecap
0 0 m
0 -5 l
gsave
0.000 setgray
fill
grestore
stroke
grestore
} bind def
48.0122 274.68 o
grestore
/BitstreamVeraSerif-Roman findfont
10.000 scalefont
setfont
gsave
38.324688 28.608438 translate
0.000000 rotate
0.000000 0.140625 m /minus glyphshow
8.378906 0.140625 m /four glyphshow
14.741211 0.140625 m /zero glyphshow
grestore
gsave
/o {
gsave
newpath
translate
1.0 setlinewidth
1 setlinejoin
0 setlinecap
0 0 m
0 5 l
gsave
0.000 setgray
fill
grestore
stroke
grestore
} bind def
94.0539 40.1709 o
grestore
gsave
/o {
gsave
newpath
translate
1.0 setlinewidth
1 setlinejoin
0 setlinecap
0 0 m
0 -5 l
gsave
0.000 setgray
fill
grestore
stroke
grestore
} bind def
94.0539 274.68 o
grestore
gsave
84.366367 28.608438 translate
0.000000 rotate
0.000000 0.140625 m /minus glyphshow
8.378906 0.140625 m /three glyphshow
14.741211 0.140625 m /zero glyphshow
grestore
gsave
/o {
gsave
newpath
translate
1.0 setlinewidth
1 setlinejoin
0 setlinecap
0 0 m
0 5 l
gsave
0.000 setgray
fill
grestore
stroke
grestore
} bind def
140.096 40.1709 o
grestore
gsave
/o {
gsave
newpath
translate
1.0 setlinewidth
1 setlinejoin
0 setlinecap
0 0 m
0 -5 l
gsave
0.000 setgray
fill
grestore
stroke
grestore
} bind def
140.096 274.68 o
grestore
gsave
130.408047 28.608438 translate
0.000000 rotate
0.000000 0.140625 m /minus glyphshow
8.378906 0.140625 m /two glyphshow
14.741211 0.140625 m /zero glyphshow
grestore
gsave
/o {
gsave
newpath
translate
1.0 setlinewidth
1 setlinejoin
0 setlinecap
0 0 m
0 5 l
gsave
0.000 setgray
fill
grestore
stroke
grestore
} bind def
186.137 40.1709 o
grestore
gsave
/o {
gsave
newpath
translate
1.0 setlinewidth
1 setlinejoin
0 setlinecap
0 0 m
0 -5 l
gsave
0.000 setgray
fill
grestore
stroke
grestore
} bind def
186.137 274.68 o
grestore
gsave
176.449727 28.608438 translate
0.000000 rotate
0.000000 0.140625 m /minus glyphshow
8.378906 0.140625 m /one glyphshow
14.741211 0.140625 m /zero glyphshow
grestore
gsave
/o {
gsave
newpath
translate
1.0 setlinewidth
1 setlinejoin
0 setlinecap
0 0 m
0 5 l
gsave
0.000 setgray
fill
grestore
stroke
grestore
} bind def
232.179 40.1709 o
grestore
gsave
/o {
gsave
newpath
translate
1.0 setlinewidth
1 setlinejoin
0 setlinecap
0 0 m
0 -5 l
gsave
0.000 setgray
fill
grestore
stroke
grestore
} bind def
232.179 274.68 o
grestore
gsave
229.655469 28.608438 translate
0.000000 rotate
0.000000 0.140625 m /zero glyphshow
grestore
gsave
/o {
gsave
newpath
translate
1.0 setlinewidth
1 setlinejoin
0 setlinecap
0 0 m
0 5 l
gsave
0.000 setgray
fill
grestore
stroke
grestore
} bind def
278.221 40.1709 o
grestore
gsave
/o {
gsave
newpath
translate
1.0 setlinewidth
1 setlinejoin
0 setlinecap
0 0 m
0 -5 l
gsave
0.000 setgray
fill
grestore
stroke
grestore
} bind def
278.221 274.68 o
grestore
gsave
272.798711 28.608438 translate
0.000000 rotate
0.000000 0.140625 m /one glyphshow
6.362305 0.140625 m /zero glyphshow
grestore
gsave
/o {
gsave
newpath
translate
1.0 setlinewidth
1 setlinejoin
0 setlinecap
0 0 m
0 5 l
gsave
0.000 setgray
fill
grestore
stroke
grestore
} bind def
324.262 40.1709 o
grestore
gsave
/o {
gsave
newpath
translate
1.0 setlinewidth
1 setlinejoin
0 setlinecap
0 0 m
0 -5 l
gsave
0.000 setgray
fill
grestore
stroke
grestore
} bind def
324.262 274.68 o
grestore
gsave
318.574766 28.608438 translate
0.000000 rotate
0.000000 0.140625 m /two glyphshow
6.362305 0.140625 m /zero glyphshow
grestore
gsave
/o {
gsave
newpath
translate
1.0 setlinewidth
1 setlinejoin
0 setlinecap
0 0 m
0 5 l
gsave
0.000 setgray
fill
grestore
stroke
grestore
} bind def
370.304 40.1709 o
grestore
gsave
/o {
gsave
newpath
translate
1.0 setlinewidth
1 setlinejoin
0 setlinecap
0 0 m
0 -5 l
gsave
0.000 setgray
fill
grestore
stroke
grestore
} bind def
370.304 274.68 o
grestore
gsave
364.655508 28.608438 translate
0.000000 rotate
0.000000 0.140625 m /three glyphshow
6.362305 0.140625 m /zero glyphshow
grestore
gsave
/o {
gsave
newpath
translate
1.0 setlinewidth
1 setlinejoin
0 setlinecap
0 0 m
0 5 l
gsave
0.000 setgray
fill
grestore
stroke
grestore
} bind def
416.346 40.1709 o
grestore
gsave
/o {
gsave
newpath
translate
1.0 setlinewidth
1 setlinejoin
0 setlinecap
0 0 m
0 -5 l
gsave
0.000 setgray
fill
grestore
stroke
grestore
} bind def
416.346 274.68 o
grestore
gsave
410.470625 28.608438 translate
0.000000 rotate
0.000000 0.140625 m /four glyphshow
6.362305 0.140625 m /zero glyphshow
grestore
gsave
196.678906 12.608438 translate
0.000000 rotate
/BitstreamVeraSerif-Roman findfont
10.0 scalefont
setfont
0.000000 3.406250 moveto
/R glyphshow

7.529297 3.406250 moveto
/V glyphshow

14.750977 3.406250 moveto
/space glyphshow

17.929688 3.406250 moveto
/hyphen glyphshow

21.308594 3.406250 moveto
/space glyphshow

/Cmmi10 findfont
10.0 scalefont
setfont
24.487305 3.406250 moveto
/V glyphshow

/Cmmi10 findfont
7.0 scalefont
setfont
30.317383 0.855313 moveto
/o glyphshow

/BitstreamVeraSerif-Roman findfont
10.0 scalefont
setfont
35.156250 3.406250 moveto
/space glyphshow

38.334961 3.406250 moveto
/parenleft glyphshow

42.236328 3.406250 moveto
/k glyphshow

48.295898 3.406250 moveto
/m glyphshow

57.778320 3.406250 moveto
/slash glyphshow

61.147461 3.406250 moveto
/s glyphshow

66.279297 3.406250 moveto
/parenright glyphshow


grestore
gsave
/o {
gsave
newpath
translate
1.0 setlinewidth
1 setlinejoin
0 setlinecap
0 0 m
5 0 l
gsave
0.000 setgray
fill
grestore
stroke
grestore
} bind def
48.0122 40.1709 o
grestore
gsave
/o {
gsave
newpath
translate
1.0 setlinewidth
1 setlinejoin
0 setlinecap
0 0 m
-5 0 l
gsave
0.000 setgray
fill
grestore
stroke
grestore
} bind def
416.346 40.1709 o
grestore
gsave
23.059063 36.389688 translate
0.000000 rotate
0.000000 0.140625 m /zero glyphshow
6.362305 0.140625 m /period glyphshow
9.541016 0.140625 m /zero glyphshow
15.903320 0.140625 m /zero glyphshow
grestore
gsave
/o {
gsave
newpath
translate
1.0 setlinewidth
1 setlinejoin
0 setlinecap
0 0 m
5 0 l
gsave
0.000 setgray
fill
grestore
stroke
grestore
} bind def
48.0122 66.2275 o
grestore
gsave
/o {
gsave
newpath
translate
1.0 setlinewidth
1 setlinejoin
0 setlinecap
0 0 m
-5 0 l
gsave
0.000 setgray
fill
grestore
stroke
grestore
} bind def
416.346 66.2275 o
grestore
gsave
23.824688 62.446250 translate
0.000000 rotate
0.000000 0.140625 m /zero glyphshow
6.362305 0.140625 m /period glyphshow
9.541016 0.140625 m /zero glyphshow
15.903320 0.140625 m /one glyphshow
grestore
gsave
/o {
gsave
newpath
translate
1.0 setlinewidth
1 setlinejoin
0 setlinecap
0 0 m
5 0 l
gsave
0.000 setgray
fill
grestore
stroke
grestore
} bind def
48.0122 92.2841 o
grestore
gsave
/o {
gsave
newpath
translate
1.0 setlinewidth
1 setlinejoin
0 setlinecap
0 0 m
-5 0 l
gsave
0.000 setgray
fill
grestore
stroke
grestore
} bind def
416.346 92.2841 o
grestore
gsave
23.387188 88.502813 translate
0.000000 rotate
0.000000 0.140625 m /zero glyphshow
6.362305 0.140625 m /period glyphshow
9.541016 0.140625 m /zero glyphshow
15.903320 0.140625 m /two glyphshow
grestore
gsave
/o {
gsave
newpath
translate
1.0 setlinewidth
1 setlinejoin
0 setlinecap
0 0 m
5 0 l
gsave
0.000 setgray
fill
grestore
stroke
grestore
} bind def
48.0122 118.341 o
grestore
gsave
/o {
gsave
newpath
translate
1.0 setlinewidth
1 setlinejoin
0 setlinecap
0 0 m
-5 0 l
gsave
0.000 setgray
fill
grestore
stroke
grestore
} bind def
416.346 118.341 o
grestore
gsave
23.137188 114.559375 translate
0.000000 rotate
0.000000 0.140625 m /zero glyphshow
6.362305 0.140625 m /period glyphshow
9.541016 0.140625 m /zero glyphshow
15.903320 0.140625 m /three glyphshow
grestore
gsave
/o {
gsave
newpath
translate
1.0 setlinewidth
1 setlinejoin
0 setlinecap
0 0 m
5 0 l
gsave
0.000 setgray
fill
grestore
stroke
grestore
} bind def
48.0122 144.397 o
grestore
gsave
/o {
gsave
newpath
translate
1.0 setlinewidth
1 setlinejoin
0 setlinecap
0 0 m
-5 0 l
gsave
0.000 setgray
fill
grestore
stroke
grestore
} bind def
416.346 144.397 o
grestore
gsave
22.902813 140.615938 translate
0.000000 rotate
0.000000 0.140625 m /zero glyphshow
6.362305 0.140625 m /period glyphshow
9.541016 0.140625 m /zero glyphshow
15.903320 0.140625 m /four glyphshow
grestore
gsave
/o {
gsave
newpath
translate
1.0 setlinewidth
1 setlinejoin
0 setlinecap
0 0 m
5 0 l
gsave
0.000 setgray
fill
grestore
stroke
grestore
} bind def
48.0122 170.454 o
grestore
gsave
/o {
gsave
newpath
translate
1.0 setlinewidth
1 setlinejoin
0 setlinecap
0 0 m
-5 0 l
gsave
0.000 setgray
fill
grestore
stroke
grestore
} bind def
416.346 170.454 o
grestore
gsave
23.168438 166.672500 translate
0.000000 rotate
0.000000 0.140625 m /zero glyphshow
6.362305 0.140625 m /period glyphshow
9.541016 0.140625 m /zero glyphshow
15.903320 0.140625 m /five glyphshow
grestore
gsave
/o {
gsave
newpath
translate
1.0 setlinewidth
1 setlinejoin
0 setlinecap
0 0 m
5 0 l
gsave
0.000 setgray
fill
grestore
stroke
grestore
} bind def
48.0122 196.51 o
grestore
gsave
/o {
gsave
newpath
translate
1.0 setlinewidth
1 setlinejoin
0 setlinecap
0 0 m
-5 0 l
gsave
0.000 setgray
fill
grestore
stroke
grestore
} bind def
416.346 196.51 o
grestore
gsave
23.027813 192.729063 translate
0.000000 rotate
0.000000 0.140625 m /zero glyphshow
6.362305 0.140625 m /period glyphshow
9.541016 0.140625 m /zero glyphshow
15.903320 0.140625 m /six glyphshow
grestore
gsave
/o {
gsave
newpath
translate
1.0 setlinewidth
1 setlinejoin
0 setlinecap
0 0 m
5 0 l
gsave
0.000 setgray
fill
grestore
stroke
grestore
} bind def
48.0122 222.567 o
grestore
gsave
/o {
gsave
newpath
translate
1.0 setlinewidth
1 setlinejoin
0 setlinecap
0 0 m
-5 0 l
gsave
0.000 setgray
fill
grestore
stroke
grestore
} bind def
416.346 222.567 o
grestore
gsave
23.121563 218.785625 translate
0.000000 rotate
0.000000 0.140625 m /zero glyphshow
6.362305 0.140625 m /period glyphshow
9.541016 0.140625 m /zero glyphshow
15.903320 0.140625 m /seven glyphshow
grestore
gsave
/o {
gsave
newpath
translate
1.0 setlinewidth
1 setlinejoin
0 setlinecap
0 0 m
5 0 l
gsave
0.000 setgray
fill
grestore
stroke
grestore
} bind def
48.0122 248.623 o
grestore
gsave
/o {
gsave
newpath
translate
1.0 setlinewidth
1 setlinejoin
0 setlinecap
0 0 m
-5 0 l
gsave
0.000 setgray
fill
grestore
stroke
grestore
} bind def
416.346 248.623 o
grestore
gsave
23.074688 244.842188 translate
0.000000 rotate
0.000000 0.140625 m /zero glyphshow
6.362305 0.140625 m /period glyphshow
9.541016 0.140625 m /zero glyphshow
15.903320 0.140625 m /eight glyphshow
grestore
gsave
/o {
gsave
newpath
translate
1.0 setlinewidth
1 setlinejoin
0 setlinecap
0 0 m
5 0 l
gsave
0.000 setgray
fill
grestore
stroke
grestore
} bind def
48.0122 274.68 o
grestore
gsave
/o {
gsave
newpath
translate
1.0 setlinewidth
1 setlinejoin
0 setlinecap
0 0 m
-5 0 l
gsave
0.000 setgray
fill
grestore
stroke
grestore
} bind def
416.346 274.68 o
grestore
gsave
23.074688 270.898750 translate
0.000000 rotate
0.000000 0.140625 m /zero glyphshow
6.362305 0.140625 m /period glyphshow
9.541016 0.140625 m /zero glyphshow
15.903320 0.140625 m /nine glyphshow
grestore
gsave
17.902812 135.761406 translate
90.000000 rotate
0.000000 0.921875 m /N glyphshow
8.750000 0.921875 m /space glyphshow
11.928711 0.921875 m /slash glyphshow
15.297852 0.921875 m /space glyphshow
18.476562 0.921875 m /T glyphshow
24.396484 0.921875 m /o glyphshow
30.416992 0.921875 m /t glyphshow
34.435547 0.921875 m /a glyphshow
40.397461 0.921875 m /l glyphshow
grestore
2 setlinecap
gsave
48.0122 274.68 m
416.346 274.68 l
stroke
grestore
gsave
416.346 40.1709 m
416.346 274.68 l
stroke
grestore
gsave
48.0122 40.1709 m
416.346 40.1709 l
stroke
grestore
gsave
48.0122 40.1709 m
48.0122 274.68 l
stroke
grestore

end
showpage
