%!PS-Adobe-3.0 EPSF-3.0
%%Title: /home/hettin12/webplots/03-20-15_shift_run/sample_stats/feh_plus_deltaT/feh_plus_deltaT_big.eps
%%Creator: matplotlib version 1.2.x, http://matplotlib.sourceforge.net/
%%CreationDate: Wed Apr  1 19:36:31 2015
%%Orientation: portrait
%%BoundingBox: 54 309 558 482
%%EndComments
%%BeginProlog
/mpldict 10 dict def
mpldict begin
/m { moveto } bind def
/l { lineto } bind def
/r { rlineto } bind def
/c { curveto } bind def
/cl { closepath } bind def
/box {
m
1 index 0 r
0 exch r
neg 0 r
cl
} bind def
/clipbox {
box
clip
newpath
} bind def
%!PS-Adobe-3.0 Resource-Font
%%Title: cmr10
%%Copyright: Copyright (C) 1994, Basil K. Malyshev. All Rights Reserved.012BaKoMa Fonts Collection, Level-B.
%%Creator: Converted from TrueType to type 3 by PPR
25 dict begin
/_d{bind def}bind def
/_m{moveto}_d
/_l{lineto}_d
/_cl{closepath eofill}_d
/_c{curveto}_d
/_sc{7 -1 roll{setcachedevice}{pop pop pop pop pop pop}ifelse}_d
/_e{exec}_d
/FontName /Cmr10 def
/PaintType 0 def
/FontMatrix[.001 0 0 .001 0 0]def
/FontBBox[-44 -250 1009 750]def
/FontType 3 def
/Encoding [ /Delta ] def
/FontInfo 10 dict dup begin
/FamilyName (cmr10) def
/FullName (cmr10) def
/Notice (Copyright (C) 1994, Basil K. Malyshev. All Rights Reserved.012BaKoMa Fonts Collection, Level-B. ) def
/Weight (Regular) def
/Version (1.1/12-Nov-94) def
/ItalicAngle 0.0 def
/isFixedPitch false def
/UnderlinePosition -133 def
/UnderlineThickness 20 def
end readonly def
/CharStrings 1 dict dup begin
/Delta{833 0 46 0 786 716 _sc
54 0 _m
48 0 46 2 46 8 _c
46 8 46 9 46 9 _c
46 9 47 10 47 11 _c
391 705 _l
394 712 400 716 409 716 _c
423 716 _l
432 716 438 712 441 705 _c
785 11 _l
785 10 786 9 786 9 _c
786 9 786 8 786 8 _c
786 2 783 0 778 0 _c
54 0 _l
120 80 _m
647 80 _l
384 611 _l
120 80 _l
_cl}_d
end readonly def

/BuildGlyph
 {exch begin
 CharStrings exch
 2 copy known not{pop /.notdef}if
 true 3 1 roll get exec
 end}_d

/BuildChar {
 1 index /Encoding get exch get
 1 index /BuildGlyph get exec
}_d

FontName currentdict end definefont pop
%!PS-Adobe-3.0 Resource-Font
%%Title: cmmi10
%%Copyright: Copyright (C) 1994, Basil K. Malyshev. All Rights Reserved.012BaKoMa Fonts Collection, Level-B.
%%Creator: Converted from TrueType to type 3 by PPR
25 dict begin
/_d{bind def}bind def
/_m{moveto}_d
/_l{lineto}_d
/_cl{closepath eofill}_d
/_c{curveto}_d
/_sc{7 -1 roll{setcachedevice}{pop pop pop pop pop pop}ifelse}_d
/_e{exec}_d
/FontName /Cmmi10 def
/PaintType 0 def
/FontMatrix[.001 0 0 .001 0 0]def
/FontBBox[-34 -250 1048 750]def
/FontType 3 def
/Encoding [ /t ] def
/FontInfo 10 dict dup begin
/FamilyName (cmmi10) def
/FullName (cmmi10) def
/Notice (Copyright (C) 1994, Basil K. Malyshev. All Rights Reserved.012BaKoMa Fonts Collection, Level-B. ) def
/Weight (Regular) def
/Version (1.1/12-Nov-94) def
/ItalicAngle 0.0 def
/isFixedPitch false def
/UnderlinePosition -133 def
/UnderlineThickness 20 def
end readonly def
/CharStrings 1 dict dup begin
/t{{361 0 22 -10 330 626 _sc
62 81 _m
62 91 63 100 65 109 _c
137 396 _l
32 396 _l
25 396 22 400 22 409 _c
24 423 29 431 35 431 _c
146 431 _l
186 594 _l
188 602 193 610 201 616 _c
209 622 218 626 228 626 _c
236 626 243 623 249 618 _c
255 613 258 606 258 598 _c
258 596 257 594 257 593 _c
257 592 257 591 257 590 _c
217 431 _l
320 431 _l
326 431 330 426 330 418 _c
}_e{330 416 329 414 328 410 _c
327 406 326 402 324 400 _c
322 397 320 396 317 396 _c
208 396 _l
136 107 _l
131 88 129 72 129 58 _c
129 29 138 15 158 15 _c
187 15 213 28 236 56 _c
258 84 276 114 288 147 _c
290 151 293 153 296 153 _c
308 153 _l
310 153 312 152 314 150 _c
316 148 317 146 317 144 _c
317 142 316 141 316 141 _c
301 101 280 65 252 35 _c
}_e{224 5 192 -10 156 -10 _c
129 -10 107 -1 89 15 _c
71 32 62 54 62 81 _c
_cl}_e}_d
end readonly def

/BuildGlyph
 {exch begin
 CharStrings exch
 2 copy known not{pop /.notdef}if
 true 3 1 roll get exec
 end}_d

/BuildChar {
 1 index /Encoding get exch get
 1 index /BuildGlyph get exec
}_d

FontName currentdict end definefont pop
%!PS-Adobe-3.0 Resource-Font
%%Title: Bitstream Vera Serif
%%Copyright: Copyright (c) 2003 by Bitstream, Inc. All Rights Reserved.
%%Creator: Converted from TrueType to type 3 by PPR
25 dict begin
/_d{bind def}bind def
/_m{moveto}_d
/_l{lineto}_d
/_cl{closepath eofill}_d
/_c{curveto}_d
/_sc{7 -1 roll{setcachedevice}{pop pop pop pop pop pop}ifelse}_d
/_e{exec}_d
/FontName /BitstreamVeraSerif-Roman def
/PaintType 0 def
/FontMatrix[.001 0 0 .001 0 0]def
/FontBBox[-183 -236 1287 928]def
/FontType 3 def
/Encoding [ /space /parenleft /parenright /hyphen /slash /zero /one /two /three /four /five /six /seven /eight /nine /F /H /I /M /N /P /R /bracketleft /bracketright /a /c /d /e /g /h /i /l /m /n /o /r /s /t /y /minus ] def
/FontInfo 10 dict dup begin
/FamilyName (Bitstream Vera Serif) def
/FullName (Bitstream Vera Serif) def
/Notice (Copyright (c) 2003 by Bitstream, Inc. All Rights Reserved. Bitstream Vera is a trademark of Bitstream, Inc.) def
/Weight (Roman) def
/Version (Release 1.10) def
/ItalicAngle 0.0 def
/isFixedPitch false def
/UnderlinePosition -213 def
/UnderlineThickness 133 def
end readonly def
/CharStrings 40 dict dup begin
/space{318 0 0 0 0 0 _sc
}_d
/parenleft{390 0 79 -155 319 760 _sc
319 -155 _m
239 -119 179 -63 139 13 _c
99 89 79 186 79 302 _c
79 418 99 514 139 591 _c
179 668 239 724 319 760 _c
319 712 _l
269 677 233 628 211 566 _c
189 503 178 415 178 302 _c
178 188 189 100 211 38 _c
233 -24 269 -72 319 -107 _c
319 -155 _l
_cl}_d
/parenright{390 0 71 -155 311 760 _sc
71 -155 _m
71 -107 _l
121 -72 157 -24 179 38 _c
201 100 212 188 212 302 _c
212 415 201 503 179 566 _c
157 628 121 677 71 712 _c
71 760 _l
150 724 210 668 250 591 _c
290 514 311 418 311 302 _c
311 186 290 89 250 13 _c
210 -63 150 -119 71 -155 _c
_cl}_d
/hyphen{338 0 44 230 294 306 _sc
44 306 _m
294 306 _l
294 230 _l
44 230 _l
44 306 _l
_cl}_d
/slash{337 0 0 -92 337 729 _sc
259 729 _m
337 729 _l
78 -92 _l
0 -92 _l
259 729 _l
_cl}_d
/zero{636 0 66 -13 570 742 _sc
318 34 _m
368 34 405 61 430 116 _c
454 170 467 253 467 364 _c
467 474 454 557 430 612 _c
405 666 368 694 318 694 _c
268 694 230 666 206 612 _c
181 557 169 474 169 364 _c
169 253 181 170 206 116 _c
230 61 268 34 318 34 _c
318 -13 _m
238 -13 176 20 132 86 _c
88 152 66 244 66 364 _c
66 483 88 576 132 642 _c
176 708 238 742 318 742 _c
397 742 459 708 503 642 _c
547 576 570 483 570 364 _c
570 244 547 152 503 86 _c
459 20 397 -13 318 -13 _c
_cl}_d
/one{636 0 122 0 494 742 _sc
142 0 _m
142 52 _l
269 52 _l
269 658 _l
122 563 _l
122 627 _l
300 742 _l
367 742 _l
367 52 _l
494 52 _l
494 0 _l
142 0 _l
_cl}_d
/two{{636 0 68 0 538 742 _sc
128 555 _m
73 555 _l
73 685 _l
107 703 142 717 178 727 _c
213 737 248 742 282 742 _c
358 742 418 723 462 687 _c
506 650 528 600 528 537 _c
528 465 478 380 378 281 _c
370 273 365 268 361 264 _c
177 80 _l
481 80 _l
481 170 _l
538 170 _l
538 0 _l
68 0 _l
68 53 _l
289 274 _l
337 322 372 367 393 408 _c
414 449 425 492 425 537 _c
}_e{425 586 412 624 386 652 _c
360 680 325 694 281 694 _c
234 694 198 682 173 659 _c
147 636 132 601 128 555 _c
_cl}_e}_d
/three{{636 0 76 -13 562 742 _sc
97 698 _m
135 712 171 723 206 731 _c
241 738 274 742 305 742 _c
376 742 432 726 472 696 _c
512 665 532 622 532 568 _c
532 524 518 487 490 458 _c
462 428 423 408 373 398 _c
433 389 479 367 512 332 _c
545 297 562 252 562 197 _c
562 129 539 77 493 41 _c
447 5 382 -13 296 -13 _c
258 -13 220 -9 184 -1 _c
148 6 112 18 76 35 _c
76 177 _l
}_e{131 177 _l
134 129 150 94 178 70 _c
206 46 246 34 298 34 _c
348 34 387 48 416 77 _c
444 106 459 146 459 196 _c
459 253 444 296 414 326 _c
384 355 341 370 284 370 _c
238 370 _l
238 420 _l
262 420 _l
319 420 362 431 390 455 _c
418 479 433 514 433 562 _c
433 604 421 637 398 660 _c
374 682 341 694 297 694 _c
253 694 218 683 194 662 _c
170 641 156 610 152 570 _c
}_e{97 570 _l
97 698 _l
_cl}_e}_d
/four{636 0 31 0 586 742 _sc
349 247 _m
349 635 _l
100 247 _l
349 247 _l
564 0 _m
232 0 _l
232 52 _l
349 52 _l
349 195 _l
31 195 _l
31 248 _l
350 742 _l
447 742 _l
447 247 _l
586 247 _l
586 195 _l
447 195 _l
447 52 _l
564 52 _l
564 0 _l
_cl}_d
/five{{636 0 85 -13 559 729 _sc
503 729 _m
503 649 _l
169 649 _l
169 440 _l
185 452 205 460 228 466 _c
250 472 276 475 304 475 _c
382 475 444 453 490 409 _c
536 365 559 306 559 231 _c
559 153 536 93 490 51 _c
444 8 379 -13 296 -13 _c
262 -13 228 -9 193 -1 _c
157 6 121 18 85 35 _c
85 177 _l
140 177 _l
143 130 158 94 184 70 _c
210 46 248 34 296 34 _c
}_e{347 34 386 51 414 85 _c
442 119 456 167 456 231 _c
456 294 442 342 415 376 _c
387 410 348 427 296 427 _c
266 427 240 421 218 411 _c
196 401 176 385 159 363 _c
117 363 _l
117 729 _l
503 729 _l
_cl}_e}_d
/six{{636 0 67 -13 573 742 _sc
327 34 _m
373 34 408 50 433 84 _c
457 118 470 166 470 230 _c
470 293 457 341 433 375 _c
408 409 373 426 327 426 _c
280 426 244 409 220 377 _c
196 344 184 297 184 236 _c
184 171 196 121 221 86 _c
245 51 281 34 327 34 _c
168 401 _m
190 425 215 444 243 456 _c
271 468 302 474 338 474 _c
410 474 468 452 510 408 _c
552 364 573 305 573 230 _c
}_e{573 156 550 97 505 53 _c
459 9 399 -13 323 -13 _c
241 -13 177 17 133 78 _c
89 139 67 227 67 341 _c
67 468 93 567 145 637 _c
197 707 271 742 367 742 _c
393 742 420 739 448 735 _c
476 730 505 723 535 713 _c
535 593 _l
480 593 _l
476 625 463 650 442 668 _c
421 685 393 694 357 694 _c
293 694 246 670 215 622 _c
184 574 168 500 168 401 _c
_cl}_e}_d
/seven{636 0 84 0 564 729 _sc
564 679 _m
279 0 _l
206 0 _l
478 649 _l
141 649 _l
141 559 _l
84 559 _l
84 729 _l
564 729 _l
564 679 _l
_cl}_d
/eight{{636 0 67 -13 569 742 _sc
466 199 _m
466 251 453 291 427 320 _c
401 349 364 364 318 364 _c
271 364 235 349 209 320 _c
183 291 170 251 170 199 _c
170 147 183 106 209 77 _c
235 48 271 34 318 34 _c
364 34 401 48 427 77 _c
453 106 466 147 466 199 _c
446 553 _m
446 597 434 632 412 657 _c
389 681 358 694 318 694 _c
278 694 246 681 224 657 _c
201 632 190 597 190 553 _c
}_e{190 508 201 473 224 449 _c
246 424 278 412 318 412 _c
358 412 389 424 412 449 _c
434 473 428 453 393 388 _c
448 380 491 360 522 327 _c
553 293 569 251 569 199 _c
569 131 547 78 504 42 _c
460 5 398 -13 318 -13 _c
237 -13 175 5 132 42 _c
88 78 67 131 67 199 _c
67 251 82 293 113 327 _c
144 360 187 380 243 388 _c
193 396 156 415 130 444 _c
}_e{104 472 91 509 91 553 _c
91 611 111 657 151 691 _c
191 725 247 742 318 742 _c
388 742 444 725 484 691 _c
524 657 545 611 545 553 _c
545 509 531 472 505 444 _c
479 415 459 451 446 553 _c
_cl}_e}_d
/nine{{636 0 63 -13 569 742 _sc
468 327 _m
446 302 420 284 392 272 _c
364 260 332 254 297 254 _c
224 254 167 275 125 319 _c
83 363 63 422 63 498 _c
63 572 85 631 131 675 _c
176 719 237 742 313 742 _c
395 742 459 711 503 650 _c
547 588 569 501 569 387 _c
569 259 542 161 490 91 _c
438 21 364 -13 269 -13 _c
243 -13 216 -10 188 -6 _c
160 -2 131 5 101 15 _c
101 136 _l
}_e{156 136 _l
160 103 172 78 194 60 _c
215 42 243 34 279 34 _c
342 34 389 57 420 105 _c
450 153 466 227 468 327 _c
309 694 _m
263 694 227 677 203 643 _c
178 609 166 561 166 498 _c
166 434 178 386 203 352 _c
227 318 263 302 309 302 _c
355 302 390 318 415 351 _c
439 383 452 430 452 492 _c
452 556 439 606 415 641 _c
390 676 355 694 309 694 _c
_cl}_e}_d
/F{694 0 55 0 652 729 _sc
55 0 _m
55 52 _l
148 52 _l
148 677 _l
55 677 _l
55 729 _l
652 729 _l
652 567 _l
592 567 _l
592 669 _l
247 669 _l
247 425 _l
496 425 _l
496 516 _l
556 516 _l
556 274 _l
496 274 _l
496 365 _l
247 365 _l
247 52 _l
364 52 _l
364 0 _l
55 0 _l
_cl}_d
/H{{872 0 55 0 817 729 _sc
55 0 _m
55 52 _l
148 52 _l
148 677 _l
55 677 _l
55 729 _l
340 729 _l
340 677 _l
247 677 _l
247 425 _l
625 425 _l
625 677 _l
532 677 _l
532 729 _l
817 729 _l
817 677 _l
724 677 _l
724 52 _l
817 52 _l
817 0 _l
532 0 _l
532 52 _l
625 52 _l
625 365 _l
247 365 _l
247 52 _l
340 52 _l
340 0 _l
55 0 _l
_cl}_e}_d
/I{395 0 55 0 340 729 _sc
247 52 _m
340 52 _l
340 0 _l
55 0 _l
55 52 _l
148 52 _l
148 677 _l
55 677 _l
55 729 _l
340 729 _l
340 677 _l
247 677 _l
247 52 _l
_cl}_d
/M{1024 0 50 0 973 729 _sc
55 0 _m
55 52 _l
148 52 _l
148 677 _l
50 677 _l
50 729 _l
262 729 _l
518 210 _l
774 729 _l
973 729 _l
973 677 _l
876 677 _l
876 52 _l
969 52 _l
969 0 _l
684 0 _l
684 52 _l
777 52 _l
777 615 _l
527 107 _l
458 107 _l
208 615 _l
208 52 _l
301 52 _l
301 0 _l
55 0 _l
_cl}_d
/N{875 0 49 -13 831 729 _sc
49 0 _m
49 52 _l
147 52 _l
147 677 _l
49 677 _l
49 729 _l
236 729 _l
673 154 _l
673 677 _l
575 677 _l
575 729 _l
831 729 _l
831 677 _l
733 677 _l
733 -13 _l
674 -13 _l
207 600 _l
207 52 _l
305 52 _l
305 0 _l
49 0 _l
_cl}_d
/P{{673 0 55 0 637 729 _sc
247 371 _m
376 371 _l
424 371 461 384 487 410 _c
512 436 525 474 525 524 _c
525 574 512 612 487 638 _c
461 664 424 677 376 677 _c
247 677 _l
247 371 _l
55 0 _m
55 52 _l
148 52 _l
148 677 _l
55 677 _l
55 729 _l
400 729 _l
472 729 530 710 573 673 _c
615 636 637 586 637 524 _c
637 461 615 411 573 374 _c
530 337 472 319 400 319 _c
247 319 _l
}_e{247 52 _l
360 52 _l
360 0 _l
55 0 _l
_cl}_e}_d
/R{{753 0 55 0 777 729 _sc
479 362 _m
501 356 521 345 538 330 _c
554 315 569 294 582 268 _c
688 52 _l
777 52 _l
777 0 _l
605 0 _l
491 232 _l
469 276 449 305 431 319 _c
413 332 388 339 356 339 _c
247 339 _l
247 52 _l
350 52 _l
350 0 _l
55 0 _l
55 52 _l
148 52 _l
148 677 _l
55 677 _l
55 729 _l
425 729 _l
495 729 550 712 589 678 _c
}_e{627 644 647 596 647 534 _c
647 484 633 444 605 416 _c
577 387 535 369 479 362 _c
247 391 _m
391 391 _l
440 391 476 402 500 426 _c
523 449 535 485 535 534 _c
535 582 523 618 500 642 _c
476 665 440 677 391 677 _c
247 677 _l
247 391 _l
_cl}_e}_d
/bracketleft{390 0 86 -131 313 760 _sc
86 760 _m
313 760 _l
313 708 _l
179 708 _l
179 -79 _l
313 -79 _l
313 -131 _l
86 -131 _l
86 760 _l
_cl}_d
/bracketright{390 0 77 -131 304 760 _sc
304 760 _m
304 -131 _l
77 -131 _l
77 -79 _l
211 -79 _l
211 708 _l
77 708 _l
77 760 _l
304 760 _l
_cl}_d
/a{{596 0 50 -13 568 533 _sc
398 163 _m
398 273 _l
282 273 _l
237 273 204 263 182 244 _c
160 224 150 195 150 156 _c
150 120 161 91 183 70 _c
205 48 235 38 273 38 _c
310 38 340 49 363 72 _c
386 95 398 125 398 163 _c
488 324 _m
488 52 _l
568 52 _l
568 0 _l
398 0 _l
398 56 _l
378 32 355 14 329 3 _c
303 -7 272 -13 238 -13 _c
180 -13 134 2 100 32 _c
}_e{66 62 50 104 50 156 _c
50 209 69 250 108 280 _c
146 310 201 325 272 325 _c
398 325 _l
398 361 _l
398 400 386 430 362 452 _c
338 474 304 485 261 485 _c
225 485 197 476 176 460 _c
154 444 141 420 136 388 _c
90 388 _l
90 493 _l
121 506 151 516 181 523 _c
210 529 239 533 267 533 _c
339 533 393 515 431 479 _c
469 443 488 392 488 324 _c
_cl}_e}_d
/c{{560 0 50 -13 514 533 _sc
514 156 _m
501 100 477 58 441 30 _c
405 1 358 -13 301 -13 _c
225 -13 165 11 119 61 _c
73 111 50 177 50 260 _c
50 342 73 408 119 458 _c
165 508 225 533 301 533 _c
333 533 366 529 399 521 _c
431 513 464 502 497 487 _c
497 354 _l
445 354 _l
438 399 423 432 400 453 _c
377 474 344 485 302 485 _c
253 485 216 466 192 428 _c
}_e{167 390 155 334 155 260 _c
155 184 167 128 192 90 _c
216 52 253 34 302 34 _c
340 34 371 44 394 64 _c
417 84 433 115 442 156 _c
514 156 _l
_cl}_e}_d
/d{{640 0 50 -13 611 760 _sc
525 52 _m
611 52 _l
611 0 _l
435 0 _l
435 81 _l
417 48 395 24 368 9 _c
340 -5 307 -13 267 -13 _c
203 -13 150 12 110 62 _c
70 112 50 178 50 260 _c
50 341 70 407 110 457 _c
150 507 203 533 267 533 _c
307 533 340 525 368 510 _c
395 494 417 470 435 438 _c
435 708 _l
350 708 _l
350 760 _l
525 760 _l
525 52 _l
435 234 _m
435 285 _l
}_e{435 347 423 394 399 427 _c
375 460 340 477 295 477 _c
249 477 214 458 190 422 _c
166 386 155 332 155 260 _c
155 188 166 133 190 97 _c
214 60 249 42 295 42 _c
340 42 375 58 399 91 _c
423 123 435 171 435 234 _c
_cl}_e}_d
/e{{592 0 50 -13 542 533 _sc
542 250 _m
155 250 _l
155 246 _l
155 176 168 123 194 87 _c
220 51 259 34 311 34 _c
350 34 382 44 408 65 _c
433 85 451 116 461 157 _c
533 157 _l
519 100 492 57 454 29 _c
415 1 364 -13 302 -13 _c
226 -13 165 11 119 61 _c
73 111 50 177 50 260 _c
50 342 72 408 118 458 _c
163 508 222 533 296 533 _c
374 533 435 508 477 460 _c
}_e{519 412 540 342 542 250 _c
436 302 _m
434 362 421 408 397 439 _c
373 469 340 485 296 485 _c
254 485 222 469 198 438 _c
174 407 160 362 155 302 _c
436 302 _l
_cl}_e}_d
/g{{640 0 50 -221 611 533 _sc
525 467 _m
525 11 _l
525 -63 504 -120 463 -160 _c
422 -200 364 -221 288 -221 _c
254 -221 221 -218 190 -212 _c
158 -206 128 -196 100 -184 _c
100 -75 _l
147 -75 _l
153 -109 166 -133 188 -149 _c
210 -165 241 -173 282 -173 _c
334 -173 373 -158 398 -128 _c
422 -98 435 -51 435 11 _c
435 81 _l
417 48 395 24 368 9 _c
340 -5 307 -13 267 -13 _c
203 -13 150 12 110 62 _c
}_e{70 112 50 178 50 260 _c
50 341 70 407 110 457 _c
150 507 203 533 267 533 _c
307 533 340 525 368 510 _c
395 494 417 470 435 438 _c
435 519 _l
611 519 _l
611 467 _l
525 467 _l
435 285 _m
435 347 423 394 399 427 _c
375 460 340 477 295 477 _c
249 477 214 458 190 422 _c
166 386 155 332 155 260 _c
155 188 166 133 190 97 _c
214 60 249 42 295 42 _c
}_e{340 42 375 58 399 91 _c
423 123 435 171 435 234 _c
435 285 _l
_cl}_e}_d
/h{{644 0 36 0 616 760 _sc
41 0 _m
41 52 _l
122 52 _l
122 708 _l
36 708 _l
36 760 _l
212 760 _l
212 427 _l
228 461 250 488 276 506 _c
302 524 333 533 369 533 _c
426 533 468 516 495 484 _c
522 451 536 400 536 330 _c
536 52 _l
616 52 _l
616 0 _l
368 0 _l
368 52 _l
446 52 _l
446 302 _l
446 365 438 408 422 432 _c
406 455 379 467 340 467 _c
}_e{298 467 266 451 244 421 _c
222 391 212 347 212 289 _c
212 52 _l
290 52 _l
290 0 _l
41 0 _l
_cl}_e}_d
/i{320 0 36 0 297 736 _sc
97 680 _m
97 695 102 708 113 719 _c
124 730 137 736 153 736 _c
167 736 180 730 191 719 _c
202 708 208 695 208 680 _c
208 664 202 651 192 641 _c
181 630 168 625 153 625 _c
137 625 124 630 113 641 _c
102 651 97 664 97 680 _c
212 52 _m
297 52 _l
297 0 _l
36 0 _l
36 52 _l
122 52 _l
122 467 _l
36 467 _l
36 519 _l
212 519 _l
212 52 _l
_cl}_d
/l{320 0 29 0 290 760 _sc
205 52 _m
290 52 _l
290 0 _l
29 0 _l
29 52 _l
115 52 _l
115 708 _l
29 708 _l
29 760 _l
205 760 _l
205 52 _l
_cl}_d
/m{{948 0 36 0 921 533 _sc
518 418 _m
535 456 557 484 584 504 _c
611 523 642 533 678 533 _c
732 533 773 516 800 482 _c
826 448 840 398 840 330 _c
840 52 _l
921 52 _l
921 0 _l
672 0 _l
672 52 _l
750 52 _l
750 320 _l
750 372 742 410 726 433 _c
710 455 685 467 649 467 _c
609 467 578 451 557 421 _c
536 391 526 347 526 289 _c
526 52 _l
604 52 _l
604 0 _l
358 0 _l
}_e{358 52 _l
436 52 _l
436 323 _l
436 375 428 412 412 434 _c
396 456 371 467 335 467 _c
295 467 264 451 243 421 _c
222 391 212 347 212 289 _c
212 52 _l
290 52 _l
290 0 _l
41 0 _l
41 52 _l
122 52 _l
122 468 _l
36 468 _l
36 519 _l
212 519 _l
212 427 _l
228 461 249 488 275 506 _c
301 524 330 533 363 533 _c
403 533 436 523 463 503 _c
}_e{490 483 508 454 518 418 _c
_cl}_e}_d
/n{{644 0 36 0 616 533 _sc
41 0 _m
41 52 _l
122 52 _l
122 467 _l
36 467 _l
36 519 _l
212 519 _l
212 427 _l
228 461 250 488 276 506 _c
302 524 333 533 369 533 _c
426 533 468 516 495 484 _c
522 451 536 400 536 330 _c
536 52 _l
616 52 _l
616 0 _l
368 0 _l
368 52 _l
446 52 _l
446 302 _l
446 365 438 408 422 432 _c
406 456 379 468 340 468 _c
}_e{298 468 266 452 244 422 _c
222 391 212 347 212 289 _c
212 52 _l
290 52 _l
290 0 _l
41 0 _l
_cl}_e}_d
/o{602 0 50 -13 552 533 _sc
301 34 _m
349 34 385 53 410 91 _c
434 129 447 185 447 260 _c
447 334 434 390 410 428 _c
385 466 349 485 301 485 _c
253 485 216 466 192 428 _c
167 390 155 334 155 260 _c
155 185 167 129 192 91 _c
216 53 253 34 301 34 _c
301 -13 _m
225 -13 165 11 119 61 _c
73 111 50 177 50 260 _c
50 342 72 408 118 458 _c
164 508 225 533 301 533 _c
377 533 437 508 483 458 _c
529 408 552 342 552 260 _c
552 177 529 111 483 61 _c
437 11 377 -13 301 -13 _c
_cl}_d
/r{478 0 36 0 478 533 _sc
478 520 _m
478 390 _l
426 390 _l
424 416 417 435 405 448 _c
392 460 373 467 349 467 _c
305 467 271 451 247 421 _c
223 390 212 346 212 289 _c
212 52 _l
316 52 _l
316 0 _l
41 0 _l
41 52 _l
122 52 _l
122 468 _l
36 468 _l
36 519 _l
212 519 _l
212 427 _l
229 463 251 489 279 507 _c
307 524 341 533 381 533 _c
395 533 411 531 427 529 _c
443 527 460 524 478 520 _c
_cl}_d
/s{{513 0 56 -13 462 533 _sc
56 29 _m
56 150 _l
108 150 _l
109 111 121 82 144 63 _c
167 43 201 34 246 34 _c
286 34 317 41 338 57 _c
359 72 370 94 370 123 _c
370 145 362 164 347 178 _c
331 192 299 207 249 223 _c
184 245 _l
139 259 107 277 87 299 _c
67 320 57 347 57 381 _c
57 428 74 465 109 492 _c
144 519 192 533 254 533 _c
281 533 310 529 340 522 _c
}_e{370 515 402 505 434 491 _c
434 378 _l
382 378 _l
380 411 369 437 347 456 _c
325 475 295 485 257 485 _c
219 485 190 478 171 465 _c
151 451 142 431 142 405 _c
142 383 149 365 164 352 _c
178 339 208 326 252 312 _c
323 290 _l
372 274 407 255 429 232 _c
451 209 462 180 462 144 _c
462 94 443 56 405 28 _c
367 0 316 -13 250 -13 _c
216 -13 184 -9 152 -3 _c
}_e{120 3 88 14 56 29 _c
_cl}_e}_d
/t{402 0 29 -13 394 680 _sc
108 467 _m
29 467 _l
29 519 _l
108 519 _l
108 680 _l
198 680 _l
198 519 _l
367 519 _l
367 467 _l
198 467 _l
198 137 _l
198 93 202 64 211 52 _c
219 40 235 34 258 34 _c
281 34 298 41 309 55 _c
319 69 325 91 326 122 _c
394 122 _l
391 74 378 40 355 19 _c
332 -2 297 -13 250 -13 _c
198 -13 161 -1 140 21 _c
118 43 108 82 108 137 _c
108 467 _l
_cl}_d
/y{{565 0 -2 -221 562 519 _sc
216 -94 _m
250 -8 _l
56 467 _l
-2 467 _l
-2 519 _l
236 519 _l
236 467 _l
153 467 _l
299 110 _l
445 467 _l
367 467 _l
367 519 _l
562 519 _l
562 467 _l
504 467 _l
266 -116 _l
250 -156 232 -184 212 -199 _c
192 -213 164 -221 128 -221 _c
112 -221 97 -219 81 -217 _c
65 -214 48 -210 32 -206 _c
32 -107 _l
78 -107 _l
80 -129 85 -144 95 -154 _c
}_e{104 -164 118 -169 138 -169 _c
156 -169 170 -164 181 -154 _c
192 -144 204 -124 216 -94 _c
_cl}_e}_d
/minus{838 0 106 274 732 353 _sc
106 353 _m
732 353 _l
732 274 _l
106 274 _l
106 353 _l
_cl}_d
end readonly def

/BuildGlyph
 {exch begin
 CharStrings exch
 2 copy known not{pop /.notdef}if
 true 3 1 roll get exec
 end}_d

/BuildChar {
 1 index /Encoding get exch get
 1 index /BuildGlyph get exec
}_d

FontName currentdict end definefont pop
end
%%EndProlog
mpldict begin
54 309.475 translate
504 173.05 0 0 clipbox
gsave
0 0 m
504 0 l
504 173.05 l
0 173.05 l
cl
1.000 setgray
fill
grestore
gsave
22.5225 28.71 m
245.147 28.71 l
245.147 169.09 l
22.5225 169.09 l
cl
1.000 setgray
fill
grestore
5.000 setlinewidth
1 setlinejoin
2 setlinecap
[] 0 setdash
0.118 0.565 1.000 setrgbcolor
gsave
222.6 140.4 22.52 28.71 clipbox
26.2329 9.56728 m
29.9433 9.56728 l
29.9433 9.56728 l
37.3641 9.56728 l
37.3641 9.56728 l
44.7849 9.56728 l
44.7849 51.076 l
52.2058 51.076 l
52.2058 41.4718 l
59.6266 41.4718 l
59.6266 51.076 l
67.0474 51.076 l
67.0474 63.7721 l
74.4682 63.7721 l
74.4682 81.5207 l
81.889 81.5207 l
81.889 90.3329 l
89.3098 90.3329 l
89.3098 106.974 l
96.7306 106.974 l
96.7306 116.882 l
104.151 116.882 l
104.151 124.966 l
111.572 124.966 l
111.572 132.342 l
118.993 132.342 l
118.993 137.392 l
126.414 137.392 l
126.414 142.831 l
133.835 142.831 l
133.835 132.73 l
141.256 132.73 l
141.256 9.56728 l
148.676 9.56728 l
148.676 9.56728 l
156.097 9.56728 l
156.097 9.56728 l
163.518 9.56728 l
163.518 9.56728 l
170.939 9.56728 l
170.939 9.56728 l
178.36 9.56728 l
178.36 9.56728 l
185.78 9.56728 l
185.78 9.56728 l
193.201 9.56728 l
193.201 9.56728 l
200.622 9.56728 l
200.622 9.56728 l
208.043 9.56728 l
208.043 9.56728 l
215.464 9.56728 l
215.464 9.56728 l
222.884 9.56728 l
222.884 9.56728 l
230.305 9.56728 l
230.305 9.56728 l
237.726 9.56728 l
237.726 9.56728 l
241.437 9.56728 l
stroke
grestore
3.000 setlinewidth
0.000 setgray
gsave
222.6 140.4 22.52 28.71 clipbox
26.2329 9.56728 m
29.9433 9.56728 l
29.9433 9.56728 l
37.3641 9.56728 l
37.3641 9.56728 l
44.7849 9.56728 l
44.7849 9.56728 l
52.2058 9.56728 l
52.2058 9.56728 l
59.6266 9.56728 l
59.6266 9.56728 l
67.0474 9.56728 l
67.0474 9.56728 l
74.4682 9.56728 l
74.4682 9.56728 l
81.889 9.56728 l
81.889 9.56728 l
89.3098 9.56728 l
89.3098 9.56728 l
96.7306 9.56728 l
96.7306 9.56728 l
104.151 9.56728 l
104.151 9.56728 l
111.572 9.56728 l
111.572 9.56728 l
118.993 9.56728 l
118.993 9.56728 l
126.414 9.56728 l
126.414 9.56728 l
133.835 9.56728 l
133.835 135.833 l
141.256 135.833 l
141.256 141.178 l
148.676 141.178 l
148.676 135.555 l
156.097 135.555 l
156.097 131.801 l
163.518 131.801 l
163.518 136.46 l
170.939 136.46 l
170.939 73.3763 l
178.36 73.3763 l
178.36 9.56728 l
185.78 9.56728 l
185.78 9.56728 l
193.201 9.56728 l
193.201 9.56728 l
200.622 9.56728 l
200.622 9.56728 l
208.043 9.56728 l
208.043 9.56728 l
215.464 9.56728 l
215.464 9.56728 l
222.884 9.56728 l
222.884 9.56728 l
230.305 9.56728 l
230.305 9.56728 l
237.726 9.56728 l
237.726 9.56728 l
241.437 9.56728 l
stroke
grestore
1.000 setlinewidth
1.000 0.000 0.000 setrgbcolor
gsave
222.6 140.4 22.52 28.71 clipbox
26.2329 9.56728 m
29.9433 9.56728 l
29.9433 9.56728 l
37.3641 9.56728 l
37.3641 9.56728 l
44.7849 9.56728 l
44.7849 9.56728 l
52.2058 9.56728 l
52.2058 9.56728 l
59.6266 9.56728 l
59.6266 9.56728 l
67.0474 9.56728 l
67.0474 9.56728 l
74.4682 9.56728 l
74.4682 9.56728 l
81.889 9.56728 l
81.889 9.56728 l
89.3098 9.56728 l
89.3098 9.56728 l
96.7306 9.56728 l
96.7306 9.56728 l
104.151 9.56728 l
104.151 9.56728 l
111.572 9.56728 l
111.572 9.56728 l
118.993 9.56728 l
118.993 9.56728 l
126.414 9.56728 l
126.414 9.56728 l
133.835 9.56728 l
133.835 9.56728 l
141.256 9.56728 l
141.256 9.56728 l
148.676 9.56728 l
148.676 9.56728 l
156.097 9.56728 l
156.097 9.56728 l
163.518 9.56728 l
163.518 9.56728 l
170.939 9.56728 l
170.939 145.422 l
178.36 145.422 l
178.36 143.715 l
185.78 143.715 l
185.78 135.192 l
193.201 135.192 l
193.201 123.705 l
200.622 123.705 l
200.622 103.191 l
208.043 103.191 l
208.043 82.9806 l
215.464 82.9806 l
215.464 51.076 l
222.884 51.076 l
222.884 41.4718 l
230.305 41.4718 l
230.305 9.56728 l
237.726 9.56728 l
237.726 9.56728 l
241.437 9.56728 l
stroke
grestore
0 setlinecap
0.000 setgray
gsave
/o {
gsave
newpath
translate
1.0 setlinewidth
1 setlinejoin
0 setlinecap
0 0 m
0 5 l
gsave
0.000 setgray
fill
grestore
stroke
grestore
} bind def
22.5225 28.71 o
grestore
gsave
/o {
gsave
newpath
translate
1.0 setlinewidth
1 setlinejoin
0 setlinecap
0 0 m
0 -5 l
gsave
0.000 setgray
fill
grestore
stroke
grestore
} bind def
22.5225 169.09 o
grestore
/BitstreamVeraSerif-Roman findfont
8.000 scalefont
setfont
gsave
17.249062 18.772500 translate
0.000000 rotate
0.000000 0.000000 m /minus glyphshow
6.703125 0.000000 m /four glyphshow
grestore
gsave
/o {
gsave
newpath
translate
1.0 setlinewidth
1 setlinejoin
0 setlinecap
0 0 m
0 5 l
gsave
0.000 setgray
fill
grestore
stroke
grestore
} bind def
67.0474 28.71 o
grestore
gsave
/o {
gsave
newpath
translate
1.0 setlinewidth
1 setlinejoin
0 setlinecap
0 0 m
0 -5 l
gsave
0.000 setgray
fill
grestore
stroke
grestore
} bind def
67.0474 169.09 o
grestore
gsave
61.867696 18.663125 translate
0.000000 rotate
0.000000 0.109375 m /minus glyphshow
6.703125 0.109375 m /three glyphshow
grestore
gsave
/o {
gsave
newpath
translate
1.0 setlinewidth
1 setlinejoin
0 setlinecap
0 0 m
0 5 l
gsave
0.000 setgray
fill
grestore
stroke
grestore
} bind def
111.572 28.71 o
grestore
gsave
/o {
gsave
newpath
translate
1.0 setlinewidth
1 setlinejoin
0 setlinecap
0 0 m
0 -5 l
gsave
0.000 setgray
fill
grestore
stroke
grestore
} bind def
111.572 169.09 o
grestore
gsave
106.486330 18.772500 translate
0.000000 rotate
0.000000 0.000000 m /minus glyphshow
6.703125 0.000000 m /two glyphshow
grestore
gsave
/o {
gsave
newpath
translate
1.0 setlinewidth
1 setlinejoin
0 setlinecap
0 0 m
0 5 l
gsave
0.000 setgray
fill
grestore
stroke
grestore
} bind def
156.097 28.71 o
grestore
gsave
/o {
gsave
newpath
translate
1.0 setlinewidth
1 setlinejoin
0 setlinecap
0 0 m
0 -5 l
gsave
0.000 setgray
fill
grestore
stroke
grestore
} bind def
156.097 169.09 o
grestore
gsave
151.190901 18.772500 translate
0.000000 rotate
0.000000 0.000000 m /minus glyphshow
6.703125 0.000000 m /one glyphshow
grestore
gsave
/o {
gsave
newpath
translate
1.0 setlinewidth
1 setlinejoin
0 setlinecap
0 0 m
0 5 l
gsave
0.000 setgray
fill
grestore
stroke
grestore
} bind def
200.622 28.71 o
grestore
gsave
/o {
gsave
newpath
translate
1.0 setlinewidth
1 setlinejoin
0 setlinecap
0 0 m
0 -5 l
gsave
0.000 setgray
fill
grestore
stroke
grestore
} bind def
200.622 169.09 o
grestore
gsave
198.606410 18.663125 translate
0.000000 rotate
0.000000 0.109375 m /zero glyphshow
grestore
gsave
/o {
gsave
newpath
translate
1.0 setlinewidth
1 setlinejoin
0 setlinecap
0 0 m
0 5 l
gsave
0.000 setgray
fill
grestore
stroke
grestore
} bind def
245.147 28.71 o
grestore
gsave
/o {
gsave
newpath
translate
1.0 setlinewidth
1 setlinejoin
0 setlinecap
0 0 m
0 -5 l
gsave
0.000 setgray
fill
grestore
stroke
grestore
} bind def
245.147 169.09 o
grestore
gsave
243.662544 18.772500 translate
0.000000 rotate
0.000000 0.000000 m /one glyphshow
grestore
gsave
121.600334 6.522500 translate
0.000000 rotate
0.000000 1.062500 m /bracketleft glyphshow
3.121094 1.062500 m /F glyphshow
8.296875 1.062500 m /e glyphshow
13.031250 1.062500 m /slash glyphshow
15.726562 1.062500 m /H glyphshow
22.703125 1.062500 m /bracketright glyphshow
grestore
gsave
/o {
gsave
newpath
translate
1.0 setlinewidth
1 setlinejoin
0 setlinecap
0 0 m
5 0 l
gsave
0.000 setgray
fill
grestore
stroke
grestore
} bind def
22.5225 41.4718 o
grestore
gsave
/o {
gsave
newpath
translate
1.0 setlinewidth
1 setlinejoin
0 setlinecap
0 0 m
-5 0 l
gsave
0.000 setgray
fill
grestore
stroke
grestore
} bind def
245.147 41.4718 o
grestore
gsave
14.491250 38.448376 translate
0.000000 rotate
0.000000 0.109375 m /zero glyphshow
grestore
gsave
/o {
gsave
newpath
translate
1.0 setlinewidth
1 setlinejoin
0 setlinecap
0 0 m
5 0 l
gsave
0.000 setgray
fill
grestore
stroke
grestore
} bind def
22.5225 73.3763 o
grestore
gsave
/o {
gsave
newpath
translate
1.0 setlinewidth
1 setlinejoin
0 setlinecap
0 0 m
-5 0 l
gsave
0.000 setgray
fill
grestore
stroke
grestore
} bind def
245.147 73.3763 o
grestore
gsave
15.553750 70.407596 translate
0.000000 rotate
0.000000 0.000000 m /one glyphshow
grestore
gsave
/o {
gsave
newpath
translate
1.0 setlinewidth
1 setlinejoin
0 setlinecap
0 0 m
5 0 l
gsave
0.000 setgray
fill
grestore
stroke
grestore
} bind def
22.5225 105.281 o
grestore
gsave
/o {
gsave
newpath
translate
1.0 setlinewidth
1 setlinejoin
0 setlinecap
0 0 m
-5 0 l
gsave
0.000 setgray
fill
grestore
stroke
grestore
} bind def
245.147 105.281 o
grestore
gsave
14.756875 102.312128 translate
0.000000 rotate
0.000000 0.000000 m /two glyphshow
grestore
gsave
/o {
gsave
newpath
translate
1.0 setlinewidth
1 setlinejoin
0 setlinecap
0 0 m
5 0 l
gsave
0.000 setgray
fill
grestore
stroke
grestore
} bind def
22.5225 137.185 o
grestore
gsave
/o {
gsave
newpath
translate
1.0 setlinewidth
1 setlinejoin
0 setlinecap
0 0 m
-5 0 l
gsave
0.000 setgray
fill
grestore
stroke
grestore
} bind def
245.147 137.185 o
grestore
gsave
14.631875 134.161973 translate
0.000000 rotate
0.000000 0.109375 m /three glyphshow
grestore
gsave
/o {
gsave
newpath
translate
1.0 setlinewidth
1 setlinejoin
0 setlinecap
0 0 m
5 0 l
gsave
0.000 setgray
fill
grestore
stroke
grestore
} bind def
22.5225 169.09 o
grestore
gsave
/o {
gsave
newpath
translate
1.0 setlinewidth
1 setlinejoin
0 setlinecap
0 0 m
-5 0 l
gsave
0.000 setgray
fill
grestore
stroke
grestore
} bind def
245.147 169.09 o
grestore
gsave
14.085000 166.121193 translate
0.000000 rotate
0.000000 0.000000 m /four glyphshow
grestore
0.500 setlinewidth
gsave
/o {
gsave
newpath
translate
0.5 setlinewidth
1 setlinejoin
0 setlinecap
0 0 m
3 0 l
gsave
0.000 setgray
fill
grestore
stroke
grestore
} bind def
22.5225 51.0751 o
grestore
gsave
/o {
gsave
newpath
translate
0.5 setlinewidth
1 setlinejoin
0 setlinecap
0 0 m
-3 0 l
gsave
0.000 setgray
fill
grestore
stroke
grestore
} bind def
245.147 51.0751 o
grestore
gsave
/o {
gsave
newpath
translate
0.5 setlinewidth
1 setlinejoin
0 setlinecap
0 0 m
3 0 l
gsave
0.000 setgray
fill
grestore
stroke
grestore
} bind def
22.5225 56.6935 o
grestore
gsave
/o {
gsave
newpath
translate
0.5 setlinewidth
1 setlinejoin
0 setlinecap
0 0 m
-3 0 l
gsave
0.000 setgray
fill
grestore
stroke
grestore
} bind def
245.147 56.6935 o
grestore
gsave
/o {
gsave
newpath
translate
0.5 setlinewidth
1 setlinejoin
0 setlinecap
0 0 m
3 0 l
gsave
0.000 setgray
fill
grestore
stroke
grestore
} bind def
22.5225 60.6815 o
grestore
gsave
/o {
gsave
newpath
translate
0.5 setlinewidth
1 setlinejoin
0 setlinecap
0 0 m
-3 0 l
gsave
0.000 setgray
fill
grestore
stroke
grestore
} bind def
245.147 60.6815 o
grestore
gsave
/o {
gsave
newpath
translate
0.5 setlinewidth
1 setlinejoin
0 setlinecap
0 0 m
3 0 l
gsave
0.000 setgray
fill
grestore
stroke
grestore
} bind def
22.5225 63.7721 o
grestore
gsave
/o {
gsave
newpath
translate
0.5 setlinewidth
1 setlinejoin
0 setlinecap
0 0 m
-3 0 l
gsave
0.000 setgray
fill
grestore
stroke
grestore
} bind def
245.147 63.7721 o
grestore
gsave
/o {
gsave
newpath
translate
0.5 setlinewidth
1 setlinejoin
0 setlinecap
0 0 m
3 0 l
gsave
0.000 setgray
fill
grestore
stroke
grestore
} bind def
22.5225 66.2983 o
grestore
gsave
/o {
gsave
newpath
translate
0.5 setlinewidth
1 setlinejoin
0 setlinecap
0 0 m
-3 0 l
gsave
0.000 setgray
fill
grestore
stroke
grestore
} bind def
245.147 66.2983 o
grestore
gsave
/o {
gsave
newpath
translate
0.5 setlinewidth
1 setlinejoin
0 setlinecap
0 0 m
3 0 l
gsave
0.000 setgray
fill
grestore
stroke
grestore
} bind def
22.5225 68.4343 o
grestore
gsave
/o {
gsave
newpath
translate
0.5 setlinewidth
1 setlinejoin
0 setlinecap
0 0 m
-3 0 l
gsave
0.000 setgray
fill
grestore
stroke
grestore
} bind def
245.147 68.4343 o
grestore
gsave
/o {
gsave
newpath
translate
0.5 setlinewidth
1 setlinejoin
0 setlinecap
0 0 m
3 0 l
gsave
0.000 setgray
fill
grestore
stroke
grestore
} bind def
22.5225 70.2848 o
grestore
gsave
/o {
gsave
newpath
translate
0.5 setlinewidth
1 setlinejoin
0 setlinecap
0 0 m
-3 0 l
gsave
0.000 setgray
fill
grestore
stroke
grestore
} bind def
245.147 70.2848 o
grestore
gsave
/o {
gsave
newpath
translate
0.5 setlinewidth
1 setlinejoin
0 setlinecap
0 0 m
3 0 l
gsave
0.000 setgray
fill
grestore
stroke
grestore
} bind def
22.5225 71.9164 o
grestore
gsave
/o {
gsave
newpath
translate
0.5 setlinewidth
1 setlinejoin
0 setlinecap
0 0 m
-3 0 l
gsave
0.000 setgray
fill
grestore
stroke
grestore
} bind def
245.147 71.9164 o
grestore
gsave
/o {
gsave
newpath
translate
0.5 setlinewidth
1 setlinejoin
0 setlinecap
0 0 m
3 0 l
gsave
0.000 setgray
fill
grestore
stroke
grestore
} bind def
22.5225 82.9796 o
grestore
gsave
/o {
gsave
newpath
translate
0.5 setlinewidth
1 setlinejoin
0 setlinecap
0 0 m
-3 0 l
gsave
0.000 setgray
fill
grestore
stroke
grestore
} bind def
245.147 82.9796 o
grestore
gsave
/o {
gsave
newpath
translate
0.5 setlinewidth
1 setlinejoin
0 setlinecap
0 0 m
3 0 l
gsave
0.000 setgray
fill
grestore
stroke
grestore
} bind def
22.5225 88.598 o
grestore
gsave
/o {
gsave
newpath
translate
0.5 setlinewidth
1 setlinejoin
0 setlinecap
0 0 m
-3 0 l
gsave
0.000 setgray
fill
grestore
stroke
grestore
} bind def
245.147 88.598 o
grestore
gsave
/o {
gsave
newpath
translate
0.5 setlinewidth
1 setlinejoin
0 setlinecap
0 0 m
3 0 l
gsave
0.000 setgray
fill
grestore
stroke
grestore
} bind def
22.5225 92.5861 o
grestore
gsave
/o {
gsave
newpath
translate
0.5 setlinewidth
1 setlinejoin
0 setlinecap
0 0 m
-3 0 l
gsave
0.000 setgray
fill
grestore
stroke
grestore
} bind def
245.147 92.5861 o
grestore
gsave
/o {
gsave
newpath
translate
0.5 setlinewidth
1 setlinejoin
0 setlinecap
0 0 m
3 0 l
gsave
0.000 setgray
fill
grestore
stroke
grestore
} bind def
22.5225 95.6767 o
grestore
gsave
/o {
gsave
newpath
translate
0.5 setlinewidth
1 setlinejoin
0 setlinecap
0 0 m
-3 0 l
gsave
0.000 setgray
fill
grestore
stroke
grestore
} bind def
245.147 95.6767 o
grestore
gsave
/o {
gsave
newpath
translate
0.5 setlinewidth
1 setlinejoin
0 setlinecap
0 0 m
3 0 l
gsave
0.000 setgray
fill
grestore
stroke
grestore
} bind def
22.5225 98.2029 o
grestore
gsave
/o {
gsave
newpath
translate
0.5 setlinewidth
1 setlinejoin
0 setlinecap
0 0 m
-3 0 l
gsave
0.000 setgray
fill
grestore
stroke
grestore
} bind def
245.147 98.2029 o
grestore
gsave
/o {
gsave
newpath
translate
0.5 setlinewidth
1 setlinejoin
0 setlinecap
0 0 m
3 0 l
gsave
0.000 setgray
fill
grestore
stroke
grestore
} bind def
22.5225 100.339 o
grestore
gsave
/o {
gsave
newpath
translate
0.5 setlinewidth
1 setlinejoin
0 setlinecap
0 0 m
-3 0 l
gsave
0.000 setgray
fill
grestore
stroke
grestore
} bind def
245.147 100.339 o
grestore
gsave
/o {
gsave
newpath
translate
0.5 setlinewidth
1 setlinejoin
0 setlinecap
0 0 m
3 0 l
gsave
0.000 setgray
fill
grestore
stroke
grestore
} bind def
22.5225 102.189 o
grestore
gsave
/o {
gsave
newpath
translate
0.5 setlinewidth
1 setlinejoin
0 setlinecap
0 0 m
-3 0 l
gsave
0.000 setgray
fill
grestore
stroke
grestore
} bind def
245.147 102.189 o
grestore
gsave
/o {
gsave
newpath
translate
0.5 setlinewidth
1 setlinejoin
0 setlinecap
0 0 m
3 0 l
gsave
0.000 setgray
fill
grestore
stroke
grestore
} bind def
22.5225 103.821 o
grestore
gsave
/o {
gsave
newpath
translate
0.5 setlinewidth
1 setlinejoin
0 setlinecap
0 0 m
-3 0 l
gsave
0.000 setgray
fill
grestore
stroke
grestore
} bind def
245.147 103.821 o
grestore
gsave
/o {
gsave
newpath
translate
0.5 setlinewidth
1 setlinejoin
0 setlinecap
0 0 m
3 0 l
gsave
0.000 setgray
fill
grestore
stroke
grestore
} bind def
22.5225 114.884 o
grestore
gsave
/o {
gsave
newpath
translate
0.5 setlinewidth
1 setlinejoin
0 setlinecap
0 0 m
-3 0 l
gsave
0.000 setgray
fill
grestore
stroke
grestore
} bind def
245.147 114.884 o
grestore
gsave
/o {
gsave
newpath
translate
0.5 setlinewidth
1 setlinejoin
0 setlinecap
0 0 m
3 0 l
gsave
0.000 setgray
fill
grestore
stroke
grestore
} bind def
22.5225 120.503 o
grestore
gsave
/o {
gsave
newpath
translate
0.5 setlinewidth
1 setlinejoin
0 setlinecap
0 0 m
-3 0 l
gsave
0.000 setgray
fill
grestore
stroke
grestore
} bind def
245.147 120.503 o
grestore
gsave
/o {
gsave
newpath
translate
0.5 setlinewidth
1 setlinejoin
0 setlinecap
0 0 m
3 0 l
gsave
0.000 setgray
fill
grestore
stroke
grestore
} bind def
22.5225 124.491 o
grestore
gsave
/o {
gsave
newpath
translate
0.5 setlinewidth
1 setlinejoin
0 setlinecap
0 0 m
-3 0 l
gsave
0.000 setgray
fill
grestore
stroke
grestore
} bind def
245.147 124.491 o
grestore
gsave
/o {
gsave
newpath
translate
0.5 setlinewidth
1 setlinejoin
0 setlinecap
0 0 m
3 0 l
gsave
0.000 setgray
fill
grestore
stroke
grestore
} bind def
22.5225 127.581 o
grestore
gsave
/o {
gsave
newpath
translate
0.5 setlinewidth
1 setlinejoin
0 setlinecap
0 0 m
-3 0 l
gsave
0.000 setgray
fill
grestore
stroke
grestore
} bind def
245.147 127.581 o
grestore
gsave
/o {
gsave
newpath
translate
0.5 setlinewidth
1 setlinejoin
0 setlinecap
0 0 m
3 0 l
gsave
0.000 setgray
fill
grestore
stroke
grestore
} bind def
22.5225 130.107 o
grestore
gsave
/o {
gsave
newpath
translate
0.5 setlinewidth
1 setlinejoin
0 setlinecap
0 0 m
-3 0 l
gsave
0.000 setgray
fill
grestore
stroke
grestore
} bind def
245.147 130.107 o
grestore
gsave
/o {
gsave
newpath
translate
0.5 setlinewidth
1 setlinejoin
0 setlinecap
0 0 m
3 0 l
gsave
0.000 setgray
fill
grestore
stroke
grestore
} bind def
22.5225 132.243 o
grestore
gsave
/o {
gsave
newpath
translate
0.5 setlinewidth
1 setlinejoin
0 setlinecap
0 0 m
-3 0 l
gsave
0.000 setgray
fill
grestore
stroke
grestore
} bind def
245.147 132.243 o
grestore
gsave
/o {
gsave
newpath
translate
0.5 setlinewidth
1 setlinejoin
0 setlinecap
0 0 m
3 0 l
gsave
0.000 setgray
fill
grestore
stroke
grestore
} bind def
22.5225 134.094 o
grestore
gsave
/o {
gsave
newpath
translate
0.5 setlinewidth
1 setlinejoin
0 setlinecap
0 0 m
-3 0 l
gsave
0.000 setgray
fill
grestore
stroke
grestore
} bind def
245.147 134.094 o
grestore
gsave
/o {
gsave
newpath
translate
0.5 setlinewidth
1 setlinejoin
0 setlinecap
0 0 m
3 0 l
gsave
0.000 setgray
fill
grestore
stroke
grestore
} bind def
22.5225 135.725 o
grestore
gsave
/o {
gsave
newpath
translate
0.5 setlinewidth
1 setlinejoin
0 setlinecap
0 0 m
-3 0 l
gsave
0.000 setgray
fill
grestore
stroke
grestore
} bind def
245.147 135.725 o
grestore
gsave
/o {
gsave
newpath
translate
0.5 setlinewidth
1 setlinejoin
0 setlinecap
0 0 m
3 0 l
gsave
0.000 setgray
fill
grestore
stroke
grestore
} bind def
22.5225 146.789 o
grestore
gsave
/o {
gsave
newpath
translate
0.5 setlinewidth
1 setlinejoin
0 setlinecap
0 0 m
-3 0 l
gsave
0.000 setgray
fill
grestore
stroke
grestore
} bind def
245.147 146.789 o
grestore
gsave
/o {
gsave
newpath
translate
0.5 setlinewidth
1 setlinejoin
0 setlinecap
0 0 m
3 0 l
gsave
0.000 setgray
fill
grestore
stroke
grestore
} bind def
22.5225 152.407 o
grestore
gsave
/o {
gsave
newpath
translate
0.5 setlinewidth
1 setlinejoin
0 setlinecap
0 0 m
-3 0 l
gsave
0.000 setgray
fill
grestore
stroke
grestore
} bind def
245.147 152.407 o
grestore
gsave
/o {
gsave
newpath
translate
0.5 setlinewidth
1 setlinejoin
0 setlinecap
0 0 m
3 0 l
gsave
0.000 setgray
fill
grestore
stroke
grestore
} bind def
22.5225 156.395 o
grestore
gsave
/o {
gsave
newpath
translate
0.5 setlinewidth
1 setlinejoin
0 setlinecap
0 0 m
-3 0 l
gsave
0.000 setgray
fill
grestore
stroke
grestore
} bind def
245.147 156.395 o
grestore
gsave
/o {
gsave
newpath
translate
0.5 setlinewidth
1 setlinejoin
0 setlinecap
0 0 m
3 0 l
gsave
0.000 setgray
fill
grestore
stroke
grestore
} bind def
22.5225 159.486 o
grestore
gsave
/o {
gsave
newpath
translate
0.5 setlinewidth
1 setlinejoin
0 setlinecap
0 0 m
-3 0 l
gsave
0.000 setgray
fill
grestore
stroke
grestore
} bind def
245.147 159.486 o
grestore
gsave
/o {
gsave
newpath
translate
0.5 setlinewidth
1 setlinejoin
0 setlinecap
0 0 m
3 0 l
gsave
0.000 setgray
fill
grestore
stroke
grestore
} bind def
22.5225 162.012 o
grestore
gsave
/o {
gsave
newpath
translate
0.5 setlinewidth
1 setlinejoin
0 setlinecap
0 0 m
-3 0 l
gsave
0.000 setgray
fill
grestore
stroke
grestore
} bind def
245.147 162.012 o
grestore
gsave
/o {
gsave
newpath
translate
0.5 setlinewidth
1 setlinejoin
0 setlinecap
0 0 m
3 0 l
gsave
0.000 setgray
fill
grestore
stroke
grestore
} bind def
22.5225 164.148 o
grestore
gsave
/o {
gsave
newpath
translate
0.5 setlinewidth
1 setlinejoin
0 setlinecap
0 0 m
-3 0 l
gsave
0.000 setgray
fill
grestore
stroke
grestore
} bind def
245.147 164.148 o
grestore
gsave
/o {
gsave
newpath
translate
0.5 setlinewidth
1 setlinejoin
0 setlinecap
0 0 m
3 0 l
gsave
0.000 setgray
fill
grestore
stroke
grestore
} bind def
22.5225 165.998 o
grestore
gsave
/o {
gsave
newpath
translate
0.5 setlinewidth
1 setlinejoin
0 setlinecap
0 0 m
-3 0 l
gsave
0.000 setgray
fill
grestore
stroke
grestore
} bind def
245.147 165.998 o
grestore
gsave
/o {
gsave
newpath
translate
0.5 setlinewidth
1 setlinejoin
0 setlinecap
0 0 m
3 0 l
gsave
0.000 setgray
fill
grestore
stroke
grestore
} bind def
22.5225 167.63 o
grestore
gsave
/o {
gsave
newpath
translate
0.5 setlinewidth
1 setlinejoin
0 setlinecap
0 0 m
-3 0 l
gsave
0.000 setgray
fill
grestore
stroke
grestore
} bind def
245.147 167.63 o
grestore
gsave
9.085000 86.462472 translate
90.000000 rotate
0.000000 1.781250 m /l glyphshow
2.558594 1.781250 m /o glyphshow
7.375000 1.781250 m /g glyphshow
12.496094 1.781250 m /parenleft glyphshow
15.617188 1.781250 m /N glyphshow
22.617188 1.781250 m /parenright glyphshow
grestore
1.000 setlinewidth
2 setlinecap
gsave
22.5225 169.09 m
245.147 169.09 l
stroke
grestore
gsave
245.147 28.71 m
245.147 169.09 l
stroke
grestore
gsave
22.5225 28.71 m
245.147 28.71 l
stroke
grestore
gsave
22.5225 28.71 m
22.5225 169.09 l
stroke
grestore
5.000 setlinewidth
0.118 0.565 1.000 setrgbcolor
gsave
30.9225 159.927 m
40.7225 159.927 l
stroke
grestore
0.000 setgray
/BitstreamVeraSerif-Roman findfont
7.000 scalefont
setfont
gsave
48.422500 157.383693 translate
0.000000 rotate
0.000000 0.093750 m /M glyphshow
7.167480 0.093750 m /e glyphshow
11.310059 0.093750 m /t glyphshow
14.123047 0.093750 m /a glyphshow
18.296387 0.093750 m /l glyphshow
20.535156 0.093750 m /hyphen glyphshow
22.900391 0.093750 m /P glyphshow
27.360352 0.093750 m /o glyphshow
31.574707 0.093750 m /o glyphshow
35.789062 0.093750 m /r glyphshow
grestore
3.000 setlinewidth
gsave
30.9225 149.662 m
40.7225 149.662 l
stroke
grestore
gsave
48.422500 147.118068 translate
0.000000 rotate
0.000000 0.093750 m /M glyphshow
7.167480 0.093750 m /e glyphshow
11.310059 0.093750 m /t glyphshow
14.123047 0.093750 m /a glyphshow
18.296387 0.093750 m /l glyphshow
20.535156 0.093750 m /hyphen glyphshow
22.900391 0.093750 m /I glyphshow
25.665527 0.093750 m /n glyphshow
30.173828 0.093750 m /t glyphshow
32.986816 0.093750 m /e glyphshow
37.129395 0.093750 m /r glyphshow
40.475586 0.093750 m /m glyphshow
47.113281 0.093750 m /e glyphshow
51.255859 0.093750 m /d glyphshow
55.736816 0.093750 m /i glyphshow
57.975586 0.093750 m /a glyphshow
62.148926 0.093750 m /t glyphshow
64.961914 0.093750 m /e glyphshow
grestore
1.000 setlinewidth
1.000 0.000 0.000 setrgbcolor
gsave
30.9225 139.396 m
40.7225 139.396 l
stroke
grestore
0.000 setgray
gsave
48.422500 136.852443 translate
0.000000 rotate
0.000000 0.093750 m /M glyphshow
7.167480 0.093750 m /e glyphshow
11.310059 0.093750 m /t glyphshow
14.123047 0.093750 m /a glyphshow
18.296387 0.093750 m /l glyphshow
20.535156 0.093750 m /hyphen glyphshow
22.900391 0.093750 m /R glyphshow
28.170898 0.093750 m /i glyphshow
30.409668 0.093750 m /c glyphshow
34.330078 0.093750 m /h glyphshow
grestore
gsave
278.541 28.71 m
501.165 28.71 l
501.165 169.09 l
278.541 169.09 l
cl
1.000 setgray
fill
grestore
5.000 setlinewidth
0.118 0.565 1.000 setrgbcolor
gsave
222.6 140.4 278.5 28.71 clipbox
165.516 9.56728 m
172.366 9.56728 l
172.366 9.56728 l
186.066 9.56728 l
186.066 9.56728 l
199.766 9.56728 l
199.766 9.56728 l
213.466 9.56728 l
213.466 9.56728 l
227.166 9.56728 l
227.166 9.56728 l
240.866 9.56728 l
240.866 9.56728 l
254.566 9.56728 l
254.566 9.56728 l
268.266 9.56728 l
268.266 9.56728 l
281.966 9.56728 l
281.966 9.56728 l
295.666 9.56728 l
295.666 136.735 l
309.366 136.735 l
309.366 140.432 l
323.065 140.432 l
323.065 119.043 l
336.765 119.043 l
336.765 9.56728 l
350.465 9.56728 l
350.465 130.717 l
364.165 130.717 l
364.165 122.952 l
377.865 122.952 l
377.865 126.121 l
391.565 126.121 l
391.565 115.295 l
405.265 115.295 l
405.265 112.715 l
418.965 112.715 l
418.965 105.824 l
432.665 105.824 l
432.665 98.4319 l
446.365 98.4319 l
446.365 107.807 l
460.065 107.807 l
460.065 106.218 l
473.765 106.218 l
473.765 98.6572 l
487.465 98.6572 l
487.465 9.56728 l
494.315 9.56728 l
stroke
grestore
3.000 setlinewidth
0.000 setgray
gsave
222.6 140.4 278.5 28.71 clipbox
165.516 9.56728 m
172.366 9.56728 l
172.366 9.56728 l
186.066 9.56728 l
186.066 9.56728 l
199.766 9.56728 l
199.766 9.56728 l
213.466 9.56728 l
213.466 9.56728 l
227.166 9.56728 l
227.166 9.56728 l
240.866 9.56728 l
240.866 9.56728 l
254.566 9.56728 l
254.566 9.56728 l
268.266 9.56728 l
268.266 9.56728 l
281.966 9.56728 l
281.966 9.56728 l
295.666 9.56728 l
295.666 136.849 l
309.366 136.849 l
309.366 141.323 l
323.065 141.323 l
323.065 119.841 l
336.765 119.841 l
336.765 51.076 l
350.465 51.076 l
350.465 130.517 l
364.165 130.517 l
364.165 121.908 l
377.865 121.908 l
377.865 126.456 l
391.565 126.456 l
391.565 117.921 l
405.265 117.921 l
405.265 110.429 l
418.965 110.429 l
418.965 103.821 l
432.665 103.821 l
432.665 87.6427 l
446.365 87.6427 l
446.365 104.126 l
460.065 104.126 l
460.065 104.57 l
473.765 104.57 l
473.765 94.2168 l
487.465 94.2168 l
487.465 9.56728 l
494.315 9.56728 l
stroke
grestore
1.000 setlinewidth
1.000 0.000 0.000 setrgbcolor
gsave
222.6 140.4 278.5 28.71 clipbox
165.516 9.56728 m
172.366 9.56728 l
172.366 9.56728 l
186.066 9.56728 l
186.066 9.56728 l
199.766 9.56728 l
199.766 9.56728 l
213.466 9.56728 l
213.466 9.56728 l
227.166 9.56728 l
227.166 9.56728 l
240.866 9.56728 l
240.866 9.56728 l
254.566 9.56728 l
254.566 9.56728 l
268.266 9.56728 l
268.266 9.56728 l
281.966 9.56728 l
281.966 9.56728 l
295.666 9.56728 l
295.666 138.226 l
309.366 138.226 l
309.366 142.19 l
323.065 142.19 l
323.065 121.74 l
336.765 121.74 l
336.765 68.4343 l
350.465 68.4343 l
350.465 126.029 l
364.165 126.029 l
364.165 119.095 l
377.865 119.095 l
377.865 129.176 l
391.565 129.176 l
391.565 118.992 l
405.265 118.992 l
405.265 114.676 l
418.965 114.676 l
418.965 92.9269 l
432.665 92.9269 l
432.665 92.234 l
446.365 92.234 l
446.365 91.5046 l
460.065 91.5046 l
460.065 90.7346 l
473.765 90.7346 l
473.765 84.3012 l
487.465 84.3012 l
487.465 9.56728 l
494.315 9.56728 l
stroke
grestore
0 setlinecap
[6 6] 0 setdash
0.000 setgray
gsave
222.6 140.4 278.5 28.71 clipbox
361.991 28.71 m
361.991 169.09 l
stroke
grestore
gsave
222.6 140.4 278.5 28.71 clipbox
412.799 28.71 m
412.799 169.09 l
stroke
grestore
gsave
222.6 140.4 278.5 28.71 clipbox
449.779 28.71 m
449.779 169.09 l
stroke
grestore
[] 0 setdash
gsave
/o {
gsave
newpath
translate
1.0 setlinewidth
1 setlinejoin
0 setlinecap
0 0 m
0 5 l
gsave
0.000 setgray
fill
grestore
stroke
grestore
} bind def
295.666 28.71 o
grestore
gsave
/o {
gsave
newpath
translate
1.0 setlinewidth
1 setlinejoin
0 setlinecap
0 0 m
0 -5 l
gsave
0.000 setgray
fill
grestore
stroke
grestore
} bind def
295.666 169.09 o
grestore
/BitstreamVeraSerif-Roman findfont
8.000 scalefont
setfont
gsave
293.720224 18.663125 translate
0.000000 rotate
0.000000 0.109375 m /three glyphshow
grestore
gsave
/o {
gsave
newpath
translate
1.0 setlinewidth
1 setlinejoin
0 setlinecap
0 0 m
0 5 l
gsave
0.000 setgray
fill
grestore
stroke
grestore
} bind def
329.915 28.71 o
grestore
gsave
/o {
gsave
newpath
translate
1.0 setlinewidth
1 setlinejoin
0 setlinecap
0 0 m
0 -5 l
gsave
0.000 setgray
fill
grestore
stroke
grestore
} bind def
329.915 169.09 o
grestore
gsave
327.696697 18.772500 translate
0.000000 rotate
0.000000 0.000000 m /four glyphshow
grestore
gsave
/o {
gsave
newpath
translate
1.0 setlinewidth
1 setlinejoin
0 setlinecap
0 0 m
0 5 l
gsave
0.000 setgray
fill
grestore
stroke
grestore
} bind def
364.165 28.71 o
grestore
gsave
/o {
gsave
newpath
translate
1.0 setlinewidth
1 setlinejoin
0 setlinecap
0 0 m
0 -5 l
gsave
0.000 setgray
fill
grestore
stroke
grestore
} bind def
364.165 169.09 o
grestore
gsave
362.274733 18.772500 translate
0.000000 rotate
0.000000 0.109375 m /five glyphshow
grestore
gsave
/o {
gsave
newpath
translate
1.0 setlinewidth
1 setlinejoin
0 setlinecap
0 0 m
0 5 l
gsave
0.000 setgray
fill
grestore
stroke
grestore
} bind def
398.415 28.71 o
grestore
gsave
/o {
gsave
newpath
translate
1.0 setlinewidth
1 setlinejoin
0 setlinecap
0 0 m
0 -5 l
gsave
0.000 setgray
fill
grestore
stroke
grestore
} bind def
398.415 169.09 o
grestore
gsave
396.384018 18.663125 translate
0.000000 rotate
0.000000 0.109375 m /six glyphshow
grestore
gsave
/o {
gsave
newpath
translate
1.0 setlinewidth
1 setlinejoin
0 setlinecap
0 0 m
0 5 l
gsave
0.000 setgray
fill
grestore
stroke
grestore
} bind def
432.665 28.71 o
grestore
gsave
/o {
gsave
newpath
translate
1.0 setlinewidth
1 setlinejoin
0 setlinecap
0 0 m
0 -5 l
gsave
0.000 setgray
fill
grestore
stroke
grestore
} bind def
432.665 169.09 o
grestore
gsave
430.743304 18.881875 translate
0.000000 rotate
0.000000 0.000000 m /seven glyphshow
grestore
gsave
/o {
gsave
newpath
translate
1.0 setlinewidth
1 setlinejoin
0 setlinecap
0 0 m
0 5 l
gsave
0.000 setgray
fill
grestore
stroke
grestore
} bind def
466.915 28.71 o
grestore
gsave
/o {
gsave
newpath
translate
1.0 setlinewidth
1 setlinejoin
0 setlinecap
0 0 m
0 -5 l
gsave
0.000 setgray
fill
grestore
stroke
grestore
} bind def
466.915 169.09 o
grestore
gsave
464.907277 18.663125 translate
0.000000 rotate
0.000000 0.109375 m /eight glyphshow
grestore
gsave
/o {
gsave
newpath
translate
1.0 setlinewidth
1 setlinejoin
0 setlinecap
0 0 m
0 5 l
gsave
0.000 setgray
fill
grestore
stroke
grestore
} bind def
501.165 28.71 o
grestore
gsave
/o {
gsave
newpath
translate
1.0 setlinewidth
1 setlinejoin
0 setlinecap
0 0 m
0 -5 l
gsave
0.000 setgray
fill
grestore
stroke
grestore
} bind def
501.165 169.09 o
grestore
gsave
499.141563 18.663125 translate
0.000000 rotate
0.000000 0.109375 m /nine glyphshow
grestore
gsave
370.852791 4.663125 translate
0.000000 rotate
/Cmr10 findfont
8.0 scalefont
setfont
0.000000 2.921875 moveto
/Delta glyphshow

/Cmmi10 findfont
8.0 scalefont
setfont
6.664062 2.921875 moveto
/t glyphshow

/BitstreamVeraSerif-Roman findfont
8.0 scalefont
setfont
9.550781 2.921875 moveto
/space glyphshow

12.093750 2.921875 moveto
/parenleft glyphshow

15.214844 2.921875 moveto
/l glyphshow

17.773438 2.921875 moveto
/o glyphshow

22.589844 2.921875 moveto
/g glyphshow

27.710938 2.921875 moveto
/space glyphshow

30.253906 2.921875 moveto
/s glyphshow

34.359375 2.921875 moveto
/parenright glyphshow


grestore
gsave
/o {
gsave
newpath
translate
1.0 setlinewidth
1 setlinejoin
0 setlinecap
0 0 m
5 0 l
gsave
0.000 setgray
fill
grestore
stroke
grestore
} bind def
278.541 41.4718 o
grestore
gsave
/o {
gsave
newpath
translate
1.0 setlinewidth
1 setlinejoin
0 setlinecap
0 0 m
-5 0 l
gsave
0.000 setgray
fill
grestore
stroke
grestore
} bind def
501.165 41.4718 o
grestore
gsave
270.509331 38.448376 translate
0.000000 rotate
0.000000 0.109375 m /zero glyphshow
grestore
gsave
/o {
gsave
newpath
translate
1.0 setlinewidth
1 setlinejoin
0 setlinecap
0 0 m
5 0 l
gsave
0.000 setgray
fill
grestore
stroke
grestore
} bind def
278.541 73.3763 o
grestore
gsave
/o {
gsave
newpath
translate
1.0 setlinewidth
1 setlinejoin
0 setlinecap
0 0 m
-5 0 l
gsave
0.000 setgray
fill
grestore
stroke
grestore
} bind def
501.165 73.3763 o
grestore
gsave
271.571831 70.407596 translate
0.000000 rotate
0.000000 0.000000 m /one glyphshow
grestore
gsave
/o {
gsave
newpath
translate
1.0 setlinewidth
1 setlinejoin
0 setlinecap
0 0 m
5 0 l
gsave
0.000 setgray
fill
grestore
stroke
grestore
} bind def
278.541 105.281 o
grestore
gsave
/o {
gsave
newpath
translate
1.0 setlinewidth
1 setlinejoin
0 setlinecap
0 0 m
-5 0 l
gsave
0.000 setgray
fill
grestore
stroke
grestore
} bind def
501.165 105.281 o
grestore
gsave
270.774956 102.312128 translate
0.000000 rotate
0.000000 0.000000 m /two glyphshow
grestore
gsave
/o {
gsave
newpath
translate
1.0 setlinewidth
1 setlinejoin
0 setlinecap
0 0 m
5 0 l
gsave
0.000 setgray
fill
grestore
stroke
grestore
} bind def
278.541 137.185 o
grestore
gsave
/o {
gsave
newpath
translate
1.0 setlinewidth
1 setlinejoin
0 setlinecap
0 0 m
-5 0 l
gsave
0.000 setgray
fill
grestore
stroke
grestore
} bind def
501.165 137.185 o
grestore
gsave
270.649956 134.161973 translate
0.000000 rotate
0.000000 0.109375 m /three glyphshow
grestore
gsave
/o {
gsave
newpath
translate
1.0 setlinewidth
1 setlinejoin
0 setlinecap
0 0 m
5 0 l
gsave
0.000 setgray
fill
grestore
stroke
grestore
} bind def
278.541 169.09 o
grestore
gsave
/o {
gsave
newpath
translate
1.0 setlinewidth
1 setlinejoin
0 setlinecap
0 0 m
-5 0 l
gsave
0.000 setgray
fill
grestore
stroke
grestore
} bind def
501.165 169.09 o
grestore
gsave
270.103081 166.121193 translate
0.000000 rotate
0.000000 0.000000 m /four glyphshow
grestore
0.500 setlinewidth
gsave
/o {
gsave
newpath
translate
0.5 setlinewidth
1 setlinejoin
0 setlinecap
0 0 m
3 0 l
gsave
0.000 setgray
fill
grestore
stroke
grestore
} bind def
278.541 51.0751 o
grestore
gsave
/o {
gsave
newpath
translate
0.5 setlinewidth
1 setlinejoin
0 setlinecap
0 0 m
-3 0 l
gsave
0.000 setgray
fill
grestore
stroke
grestore
} bind def
501.165 51.0751 o
grestore
gsave
/o {
gsave
newpath
translate
0.5 setlinewidth
1 setlinejoin
0 setlinecap
0 0 m
3 0 l
gsave
0.000 setgray
fill
grestore
stroke
grestore
} bind def
278.541 56.6935 o
grestore
gsave
/o {
gsave
newpath
translate
0.5 setlinewidth
1 setlinejoin
0 setlinecap
0 0 m
-3 0 l
gsave
0.000 setgray
fill
grestore
stroke
grestore
} bind def
501.165 56.6935 o
grestore
gsave
/o {
gsave
newpath
translate
0.5 setlinewidth
1 setlinejoin
0 setlinecap
0 0 m
3 0 l
gsave
0.000 setgray
fill
grestore
stroke
grestore
} bind def
278.541 60.6815 o
grestore
gsave
/o {
gsave
newpath
translate
0.5 setlinewidth
1 setlinejoin
0 setlinecap
0 0 m
-3 0 l
gsave
0.000 setgray
fill
grestore
stroke
grestore
} bind def
501.165 60.6815 o
grestore
gsave
/o {
gsave
newpath
translate
0.5 setlinewidth
1 setlinejoin
0 setlinecap
0 0 m
3 0 l
gsave
0.000 setgray
fill
grestore
stroke
grestore
} bind def
278.541 63.7721 o
grestore
gsave
/o {
gsave
newpath
translate
0.5 setlinewidth
1 setlinejoin
0 setlinecap
0 0 m
-3 0 l
gsave
0.000 setgray
fill
grestore
stroke
grestore
} bind def
501.165 63.7721 o
grestore
gsave
/o {
gsave
newpath
translate
0.5 setlinewidth
1 setlinejoin
0 setlinecap
0 0 m
3 0 l
gsave
0.000 setgray
fill
grestore
stroke
grestore
} bind def
278.541 66.2983 o
grestore
gsave
/o {
gsave
newpath
translate
0.5 setlinewidth
1 setlinejoin
0 setlinecap
0 0 m
-3 0 l
gsave
0.000 setgray
fill
grestore
stroke
grestore
} bind def
501.165 66.2983 o
grestore
gsave
/o {
gsave
newpath
translate
0.5 setlinewidth
1 setlinejoin
0 setlinecap
0 0 m
3 0 l
gsave
0.000 setgray
fill
grestore
stroke
grestore
} bind def
278.541 68.4343 o
grestore
gsave
/o {
gsave
newpath
translate
0.5 setlinewidth
1 setlinejoin
0 setlinecap
0 0 m
-3 0 l
gsave
0.000 setgray
fill
grestore
stroke
grestore
} bind def
501.165 68.4343 o
grestore
gsave
/o {
gsave
newpath
translate
0.5 setlinewidth
1 setlinejoin
0 setlinecap
0 0 m
3 0 l
gsave
0.000 setgray
fill
grestore
stroke
grestore
} bind def
278.541 70.2848 o
grestore
gsave
/o {
gsave
newpath
translate
0.5 setlinewidth
1 setlinejoin
0 setlinecap
0 0 m
-3 0 l
gsave
0.000 setgray
fill
grestore
stroke
grestore
} bind def
501.165 70.2848 o
grestore
gsave
/o {
gsave
newpath
translate
0.5 setlinewidth
1 setlinejoin
0 setlinecap
0 0 m
3 0 l
gsave
0.000 setgray
fill
grestore
stroke
grestore
} bind def
278.541 71.9164 o
grestore
gsave
/o {
gsave
newpath
translate
0.5 setlinewidth
1 setlinejoin
0 setlinecap
0 0 m
-3 0 l
gsave
0.000 setgray
fill
grestore
stroke
grestore
} bind def
501.165 71.9164 o
grestore
gsave
/o {
gsave
newpath
translate
0.5 setlinewidth
1 setlinejoin
0 setlinecap
0 0 m
3 0 l
gsave
0.000 setgray
fill
grestore
stroke
grestore
} bind def
278.541 82.9796 o
grestore
gsave
/o {
gsave
newpath
translate
0.5 setlinewidth
1 setlinejoin
0 setlinecap
0 0 m
-3 0 l
gsave
0.000 setgray
fill
grestore
stroke
grestore
} bind def
501.165 82.9796 o
grestore
gsave
/o {
gsave
newpath
translate
0.5 setlinewidth
1 setlinejoin
0 setlinecap
0 0 m
3 0 l
gsave
0.000 setgray
fill
grestore
stroke
grestore
} bind def
278.541 88.598 o
grestore
gsave
/o {
gsave
newpath
translate
0.5 setlinewidth
1 setlinejoin
0 setlinecap
0 0 m
-3 0 l
gsave
0.000 setgray
fill
grestore
stroke
grestore
} bind def
501.165 88.598 o
grestore
gsave
/o {
gsave
newpath
translate
0.5 setlinewidth
1 setlinejoin
0 setlinecap
0 0 m
3 0 l
gsave
0.000 setgray
fill
grestore
stroke
grestore
} bind def
278.541 92.5861 o
grestore
gsave
/o {
gsave
newpath
translate
0.5 setlinewidth
1 setlinejoin
0 setlinecap
0 0 m
-3 0 l
gsave
0.000 setgray
fill
grestore
stroke
grestore
} bind def
501.165 92.5861 o
grestore
gsave
/o {
gsave
newpath
translate
0.5 setlinewidth
1 setlinejoin
0 setlinecap
0 0 m
3 0 l
gsave
0.000 setgray
fill
grestore
stroke
grestore
} bind def
278.541 95.6767 o
grestore
gsave
/o {
gsave
newpath
translate
0.5 setlinewidth
1 setlinejoin
0 setlinecap
0 0 m
-3 0 l
gsave
0.000 setgray
fill
grestore
stroke
grestore
} bind def
501.165 95.6767 o
grestore
gsave
/o {
gsave
newpath
translate
0.5 setlinewidth
1 setlinejoin
0 setlinecap
0 0 m
3 0 l
gsave
0.000 setgray
fill
grestore
stroke
grestore
} bind def
278.541 98.2029 o
grestore
gsave
/o {
gsave
newpath
translate
0.5 setlinewidth
1 setlinejoin
0 setlinecap
0 0 m
-3 0 l
gsave
0.000 setgray
fill
grestore
stroke
grestore
} bind def
501.165 98.2029 o
grestore
gsave
/o {
gsave
newpath
translate
0.5 setlinewidth
1 setlinejoin
0 setlinecap
0 0 m
3 0 l
gsave
0.000 setgray
fill
grestore
stroke
grestore
} bind def
278.541 100.339 o
grestore
gsave
/o {
gsave
newpath
translate
0.5 setlinewidth
1 setlinejoin
0 setlinecap
0 0 m
-3 0 l
gsave
0.000 setgray
fill
grestore
stroke
grestore
} bind def
501.165 100.339 o
grestore
gsave
/o {
gsave
newpath
translate
0.5 setlinewidth
1 setlinejoin
0 setlinecap
0 0 m
3 0 l
gsave
0.000 setgray
fill
grestore
stroke
grestore
} bind def
278.541 102.189 o
grestore
gsave
/o {
gsave
newpath
translate
0.5 setlinewidth
1 setlinejoin
0 setlinecap
0 0 m
-3 0 l
gsave
0.000 setgray
fill
grestore
stroke
grestore
} bind def
501.165 102.189 o
grestore
gsave
/o {
gsave
newpath
translate
0.5 setlinewidth
1 setlinejoin
0 setlinecap
0 0 m
3 0 l
gsave
0.000 setgray
fill
grestore
stroke
grestore
} bind def
278.541 103.821 o
grestore
gsave
/o {
gsave
newpath
translate
0.5 setlinewidth
1 setlinejoin
0 setlinecap
0 0 m
-3 0 l
gsave
0.000 setgray
fill
grestore
stroke
grestore
} bind def
501.165 103.821 o
grestore
gsave
/o {
gsave
newpath
translate
0.5 setlinewidth
1 setlinejoin
0 setlinecap
0 0 m
3 0 l
gsave
0.000 setgray
fill
grestore
stroke
grestore
} bind def
278.541 114.884 o
grestore
gsave
/o {
gsave
newpath
translate
0.5 setlinewidth
1 setlinejoin
0 setlinecap
0 0 m
-3 0 l
gsave
0.000 setgray
fill
grestore
stroke
grestore
} bind def
501.165 114.884 o
grestore
gsave
/o {
gsave
newpath
translate
0.5 setlinewidth
1 setlinejoin
0 setlinecap
0 0 m
3 0 l
gsave
0.000 setgray
fill
grestore
stroke
grestore
} bind def
278.541 120.503 o
grestore
gsave
/o {
gsave
newpath
translate
0.5 setlinewidth
1 setlinejoin
0 setlinecap
0 0 m
-3 0 l
gsave
0.000 setgray
fill
grestore
stroke
grestore
} bind def
501.165 120.503 o
grestore
gsave
/o {
gsave
newpath
translate
0.5 setlinewidth
1 setlinejoin
0 setlinecap
0 0 m
3 0 l
gsave
0.000 setgray
fill
grestore
stroke
grestore
} bind def
278.541 124.491 o
grestore
gsave
/o {
gsave
newpath
translate
0.5 setlinewidth
1 setlinejoin
0 setlinecap
0 0 m
-3 0 l
gsave
0.000 setgray
fill
grestore
stroke
grestore
} bind def
501.165 124.491 o
grestore
gsave
/o {
gsave
newpath
translate
0.5 setlinewidth
1 setlinejoin
0 setlinecap
0 0 m
3 0 l
gsave
0.000 setgray
fill
grestore
stroke
grestore
} bind def
278.541 127.581 o
grestore
gsave
/o {
gsave
newpath
translate
0.5 setlinewidth
1 setlinejoin
0 setlinecap
0 0 m
-3 0 l
gsave
0.000 setgray
fill
grestore
stroke
grestore
} bind def
501.165 127.581 o
grestore
gsave
/o {
gsave
newpath
translate
0.5 setlinewidth
1 setlinejoin
0 setlinecap
0 0 m
3 0 l
gsave
0.000 setgray
fill
grestore
stroke
grestore
} bind def
278.541 130.107 o
grestore
gsave
/o {
gsave
newpath
translate
0.5 setlinewidth
1 setlinejoin
0 setlinecap
0 0 m
-3 0 l
gsave
0.000 setgray
fill
grestore
stroke
grestore
} bind def
501.165 130.107 o
grestore
gsave
/o {
gsave
newpath
translate
0.5 setlinewidth
1 setlinejoin
0 setlinecap
0 0 m
3 0 l
gsave
0.000 setgray
fill
grestore
stroke
grestore
} bind def
278.541 132.243 o
grestore
gsave
/o {
gsave
newpath
translate
0.5 setlinewidth
1 setlinejoin
0 setlinecap
0 0 m
-3 0 l
gsave
0.000 setgray
fill
grestore
stroke
grestore
} bind def
501.165 132.243 o
grestore
gsave
/o {
gsave
newpath
translate
0.5 setlinewidth
1 setlinejoin
0 setlinecap
0 0 m
3 0 l
gsave
0.000 setgray
fill
grestore
stroke
grestore
} bind def
278.541 134.094 o
grestore
gsave
/o {
gsave
newpath
translate
0.5 setlinewidth
1 setlinejoin
0 setlinecap
0 0 m
-3 0 l
gsave
0.000 setgray
fill
grestore
stroke
grestore
} bind def
501.165 134.094 o
grestore
gsave
/o {
gsave
newpath
translate
0.5 setlinewidth
1 setlinejoin
0 setlinecap
0 0 m
3 0 l
gsave
0.000 setgray
fill
grestore
stroke
grestore
} bind def
278.541 135.725 o
grestore
gsave
/o {
gsave
newpath
translate
0.5 setlinewidth
1 setlinejoin
0 setlinecap
0 0 m
-3 0 l
gsave
0.000 setgray
fill
grestore
stroke
grestore
} bind def
501.165 135.725 o
grestore
gsave
/o {
gsave
newpath
translate
0.5 setlinewidth
1 setlinejoin
0 setlinecap
0 0 m
3 0 l
gsave
0.000 setgray
fill
grestore
stroke
grestore
} bind def
278.541 146.789 o
grestore
gsave
/o {
gsave
newpath
translate
0.5 setlinewidth
1 setlinejoin
0 setlinecap
0 0 m
-3 0 l
gsave
0.000 setgray
fill
grestore
stroke
grestore
} bind def
501.165 146.789 o
grestore
gsave
/o {
gsave
newpath
translate
0.5 setlinewidth
1 setlinejoin
0 setlinecap
0 0 m
3 0 l
gsave
0.000 setgray
fill
grestore
stroke
grestore
} bind def
278.541 152.407 o
grestore
gsave
/o {
gsave
newpath
translate
0.5 setlinewidth
1 setlinejoin
0 setlinecap
0 0 m
-3 0 l
gsave
0.000 setgray
fill
grestore
stroke
grestore
} bind def
501.165 152.407 o
grestore
gsave
/o {
gsave
newpath
translate
0.5 setlinewidth
1 setlinejoin
0 setlinecap
0 0 m
3 0 l
gsave
0.000 setgray
fill
grestore
stroke
grestore
} bind def
278.541 156.395 o
grestore
gsave
/o {
gsave
newpath
translate
0.5 setlinewidth
1 setlinejoin
0 setlinecap
0 0 m
-3 0 l
gsave
0.000 setgray
fill
grestore
stroke
grestore
} bind def
501.165 156.395 o
grestore
gsave
/o {
gsave
newpath
translate
0.5 setlinewidth
1 setlinejoin
0 setlinecap
0 0 m
3 0 l
gsave
0.000 setgray
fill
grestore
stroke
grestore
} bind def
278.541 159.486 o
grestore
gsave
/o {
gsave
newpath
translate
0.5 setlinewidth
1 setlinejoin
0 setlinecap
0 0 m
-3 0 l
gsave
0.000 setgray
fill
grestore
stroke
grestore
} bind def
501.165 159.486 o
grestore
gsave
/o {
gsave
newpath
translate
0.5 setlinewidth
1 setlinejoin
0 setlinecap
0 0 m
3 0 l
gsave
0.000 setgray
fill
grestore
stroke
grestore
} bind def
278.541 162.012 o
grestore
gsave
/o {
gsave
newpath
translate
0.5 setlinewidth
1 setlinejoin
0 setlinecap
0 0 m
-3 0 l
gsave
0.000 setgray
fill
grestore
stroke
grestore
} bind def
501.165 162.012 o
grestore
gsave
/o {
gsave
newpath
translate
0.5 setlinewidth
1 setlinejoin
0 setlinecap
0 0 m
3 0 l
gsave
0.000 setgray
fill
grestore
stroke
grestore
} bind def
278.541 164.148 o
grestore
gsave
/o {
gsave
newpath
translate
0.5 setlinewidth
1 setlinejoin
0 setlinecap
0 0 m
-3 0 l
gsave
0.000 setgray
fill
grestore
stroke
grestore
} bind def
501.165 164.148 o
grestore
gsave
/o {
gsave
newpath
translate
0.5 setlinewidth
1 setlinejoin
0 setlinecap
0 0 m
3 0 l
gsave
0.000 setgray
fill
grestore
stroke
grestore
} bind def
278.541 165.998 o
grestore
gsave
/o {
gsave
newpath
translate
0.5 setlinewidth
1 setlinejoin
0 setlinecap
0 0 m
-3 0 l
gsave
0.000 setgray
fill
grestore
stroke
grestore
} bind def
501.165 165.998 o
grestore
gsave
/o {
gsave
newpath
translate
0.5 setlinewidth
1 setlinejoin
0 setlinecap
0 0 m
3 0 l
gsave
0.000 setgray
fill
grestore
stroke
grestore
} bind def
278.541 167.63 o
grestore
gsave
/o {
gsave
newpath
translate
0.5 setlinewidth
1 setlinejoin
0 setlinecap
0 0 m
-3 0 l
gsave
0.000 setgray
fill
grestore
stroke
grestore
} bind def
501.165 167.63 o
grestore
1.000 setlinewidth
2 setlinecap
gsave
278.541 169.09 m
501.165 169.09 l
stroke
grestore
gsave
501.165 28.71 m
501.165 169.09 l
stroke
grestore
gsave
278.541 28.71 m
501.165 28.71 l
stroke
grestore
gsave
278.541 28.71 m
278.541 169.09 l
stroke
grestore
/BitstreamVeraSerif-Roman findfont
9.000 scalefont
setfont
gsave
366.877308 149.822224 translate
0.000000 rotate
0.000000 0.125000 m /one glyphshow
5.726074 0.125000 m /d glyphshow
grestore
gsave
419.035769 149.947224 translate
0.000000 rotate
0.000000 0.000000 m /one glyphshow
5.726074 0.000000 m /m glyphshow
grestore
gsave
456.604839 147.947224 translate
0.000000 rotate
0.000000 2.000000 m /one glyphshow
5.726074 2.000000 m /y glyphshow
grestore

end
showpage
