%!PS-Adobe-3.0 EPSF-3.0
%%Title: /home/hettin12/webplots/06-17-15_mcmc_example/data.eps
%%Creator: matplotlib version 1.2.x, http://matplotlib.sourceforge.net/
%%CreationDate: Sun Jun 21 15:58:13 2015
%%Orientation: portrait
%%BoundingBox: 18 288 594 504
%%EndComments
%%BeginProlog
/mpldict 8 dict def
mpldict begin
/m { moveto } bind def
/l { lineto } bind def
/r { rlineto } bind def
/c { curveto } bind def
/cl { closepath } bind def
/box {
m
1 index 0 r
0 exch r
neg 0 r
cl
} bind def
/clipbox {
box
clip
newpath
} bind def
%!PS-Adobe-3.0 Resource-Font
%%Title: Bitstream Vera Serif
%%Copyright: Copyright (c) 2003 by Bitstream, Inc. All Rights Reserved.
%%Creator: Converted from TrueType to type 3 by PPR
25 dict begin
/_d{bind def}bind def
/_m{moveto}_d
/_l{lineto}_d
/_cl{closepath eofill}_d
/_c{curveto}_d
/_sc{7 -1 roll{setcachedevice}{pop pop pop pop pop pop}ifelse}_d
/_e{exec}_d
/FontName /BitstreamVeraSerif-Roman def
/PaintType 0 def
/FontMatrix[.001 0 0 .001 0 0]def
/FontBBox[-183 -236 1287 928]def
/FontType 3 def
/Encoding [ /period /zero /one /two /four /six /eight /X /Y ] def
/FontInfo 10 dict dup begin
/FamilyName (Bitstream Vera Serif) def
/FullName (Bitstream Vera Serif) def
/Notice (Copyright (c) 2003 by Bitstream, Inc. All Rights Reserved. Bitstream Vera is a trademark of Bitstream, Inc.) def
/Weight (Roman) def
/Version (Release 1.10) def
/ItalicAngle 0.0 def
/isFixedPitch false def
/UnderlinePosition -213 def
/UnderlineThickness 133 def
end readonly def
/CharStrings 9 dict dup begin
/period{318 0 94 -13 224 116 _sc
94 51 _m
94 69 100 84 112 97 _c
124 109 140 116 159 116 _c
177 116 192 109 205 97 _c
217 84 224 69 224 51 _c
224 33 217 17 205 5 _c
192 -7 177 -13 159 -13 _c
140 -13 124 -7 112 5 _c
100 17 94 32 94 51 _c
_cl}_d
/zero{636 0 66 -13 570 742 _sc
318 34 _m
368 34 405 61 430 116 _c
454 170 467 253 467 364 _c
467 474 454 557 430 612 _c
405 666 368 694 318 694 _c
268 694 230 666 206 612 _c
181 557 169 474 169 364 _c
169 253 181 170 206 116 _c
230 61 268 34 318 34 _c
318 -13 _m
238 -13 176 20 132 86 _c
88 152 66 244 66 364 _c
66 483 88 576 132 642 _c
176 708 238 742 318 742 _c
397 742 459 708 503 642 _c
547 576 570 483 570 364 _c
570 244 547 152 503 86 _c
459 20 397 -13 318 -13 _c
_cl}_d
/one{636 0 122 0 494 742 _sc
142 0 _m
142 52 _l
269 52 _l
269 658 _l
122 563 _l
122 627 _l
300 742 _l
367 742 _l
367 52 _l
494 52 _l
494 0 _l
142 0 _l
_cl}_d
/two{{636 0 68 0 538 742 _sc
128 555 _m
73 555 _l
73 685 _l
107 703 142 717 178 727 _c
213 737 248 742 282 742 _c
358 742 418 723 462 687 _c
506 650 528 600 528 537 _c
528 465 478 380 378 281 _c
370 273 365 268 361 264 _c
177 80 _l
481 80 _l
481 170 _l
538 170 _l
538 0 _l
68 0 _l
68 53 _l
289 274 _l
337 322 372 367 393 408 _c
414 449 425 492 425 537 _c
}_e{425 586 412 624 386 652 _c
360 680 325 694 281 694 _c
234 694 198 682 173 659 _c
147 636 132 601 128 555 _c
_cl}_e}_d
/four{636 0 31 0 586 742 _sc
349 247 _m
349 635 _l
100 247 _l
349 247 _l
564 0 _m
232 0 _l
232 52 _l
349 52 _l
349 195 _l
31 195 _l
31 248 _l
350 742 _l
447 742 _l
447 247 _l
586 247 _l
586 195 _l
447 195 _l
447 52 _l
564 52 _l
564 0 _l
_cl}_d
/six{{636 0 67 -13 573 742 _sc
327 34 _m
373 34 408 50 433 84 _c
457 118 470 166 470 230 _c
470 293 457 341 433 375 _c
408 409 373 426 327 426 _c
280 426 244 409 220 377 _c
196 344 184 297 184 236 _c
184 171 196 121 221 86 _c
245 51 281 34 327 34 _c
168 401 _m
190 425 215 444 243 456 _c
271 468 302 474 338 474 _c
410 474 468 452 510 408 _c
552 364 573 305 573 230 _c
}_e{573 156 550 97 505 53 _c
459 9 399 -13 323 -13 _c
241 -13 177 17 133 78 _c
89 139 67 227 67 341 _c
67 468 93 567 145 637 _c
197 707 271 742 367 742 _c
393 742 420 739 448 735 _c
476 730 505 723 535 713 _c
535 593 _l
480 593 _l
476 625 463 650 442 668 _c
421 685 393 694 357 694 _c
293 694 246 670 215 622 _c
184 574 168 500 168 401 _c
_cl}_e}_d
/eight{{636 0 67 -13 569 742 _sc
466 199 _m
466 251 453 291 427 320 _c
401 349 364 364 318 364 _c
271 364 235 349 209 320 _c
183 291 170 251 170 199 _c
170 147 183 106 209 77 _c
235 48 271 34 318 34 _c
364 34 401 48 427 77 _c
453 106 466 147 466 199 _c
446 553 _m
446 597 434 632 412 657 _c
389 681 358 694 318 694 _c
278 694 246 681 224 657 _c
201 632 190 597 190 553 _c
}_e{190 508 201 473 224 449 _c
246 424 278 412 318 412 _c
358 412 389 424 412 449 _c
434 473 428 453 393 388 _c
448 380 491 360 522 327 _c
553 293 569 251 569 199 _c
569 131 547 78 504 42 _c
460 5 398 -13 318 -13 _c
237 -13 175 5 132 42 _c
88 78 67 131 67 199 _c
67 251 82 293 113 327 _c
144 360 187 380 243 388 _c
193 396 156 415 130 444 _c
}_e{104 472 91 509 91 553 _c
91 611 111 657 151 691 _c
191 725 247 742 318 742 _c
388 742 444 725 484 691 _c
524 657 545 611 545 553 _c
545 509 531 472 505 444 _c
479 415 459 451 446 553 _c
_cl}_e}_d
/X{{712 0 6 0 707 729 _sc
331 312 _m
153 52 _l
247 52 _l
247 0 _l
6 0 _l
6 52 _l
90 52 _l
300 358 _l
87 677 _l
9 677 _l
9 729 _l
298 729 _l
298 677 _l
212 677 _l
368 442 _l
529 677 _l
435 677 _l
435 729 _l
674 729 _l
674 677 _l
592 677 _l
399 396 _l
629 52 _l
707 52 _l
707 0 _l
418 0 _l
418 52 _l
505 52 _l
331 312 _l
_cl}_e}_d
/Y{660 0 -10 0 669 729 _sc
189 0 _m
189 52 _l
282 52 _l
282 314 _l
57 677 _l
-10 677 _l
-10 729 _l
260 729 _l
260 677 _l
175 677 _l
357 382 _l
539 677 _l
457 677 _l
457 729 _l
669 729 _l
669 677 _l
600 677 _l
381 323 _l
381 52 _l
474 52 _l
474 0 _l
189 0 _l
_cl}_d
end readonly def

/BuildGlyph
 {exch begin
 CharStrings exch
 2 copy known not{pop /.notdef}if
 true 3 1 roll get exec
 end}_d

/BuildChar {
 1 index /Encoding get exch get
 1 index /BuildGlyph get exec
}_d

FontName currentdict end definefont pop
end
%%EndProlog
mpldict begin
18 288 translate
576 216 0 0 clipbox
gsave
0 0 m
576 0 l
576 216 l
0 216 l
cl
1.000 setgray
fill
grestore
gsave
40.6997 33.12 m
566.28 33.12 l
566.28 206.28 l
40.6997 206.28 l
cl
1.000 setgray
fill
grestore
/p0_0 {
newpath
translate
114.106 73.7879 m
114.106 98.525 l
} bind def
/p0_1 {
newpath
translate
264.071 92.4768 m
264.071 117.214 l
} bind def
/p0_2 {
newpath
translate
155.189 72.7242 m
155.189 97.4613 l
} bind def
/p0_3 {
newpath
translate
386.269 137.981 m
386.269 162.718 l
} bind def
/p0_4 {
newpath
translate
133.333 94.0352 m
133.333 118.772 l
} bind def
/p0_5 {
newpath
translate
215.543 95.0494 m
215.543 119.787 l
} bind def
/p0_6 {
newpath
translate
99.7399 89.5083 m
99.7399 114.245 l
} bind def
/p0_7 {
newpath
translate
297.533 128.803 m
297.533 153.54 l
} bind def
/p0_8 {
newpath
translate
374.794 153.491 m
374.794 178.228 l
} bind def
/p0_9 {
newpath
translate
457.967 157.659 m
457.967 182.396 l
} bind def
/p0_a {
newpath
translate
460.507 162.236 m
460.507 186.973 l
} bind def
/p0_b {
newpath
translate
132.983 91.5244 m
132.983 116.262 l
} bind def
/p0_c {
newpath
translate
259.429 125.192 m
259.429 149.929 l
} bind def
/p0_d {
newpath
translate
435.279 119.131 m
435.279 143.868 l
} bind def
/p0_e {
newpath
translate
403 143.596 m
403 168.333 l
} bind def
/p0_f {
newpath
translate
276.554 149.323 m
276.554 174.06 l
} bind def
/p0_10 {
newpath
translate
440.973 134.456 m
440.973 159.193 l
} bind def
/p0_11 {
newpath
translate
104.426 69.4341 m
104.426 94.1713 l
} bind def
/p0_12 {
newpath
translate
111.127 56.744 m
111.127 81.4811 l
} bind def
/p0_13 {
newpath
translate
89.0531 73.355 m
89.0531 98.0921 l
} bind def
/p0_14 {
newpath
translate
444.039 148.581 m
444.039 173.318 l
} bind def
/p0_15 {
newpath
translate
317.067 119.638 m
317.067 144.375 l
} bind def
/p0_16 {
newpath
translate
514.204 147.27 m
514.204 172.007 l
} bind def
/p0_17 {
newpath
translate
280.846 127.641 m
280.846 152.378 l
} bind def
/p0_18 {
newpath
translate
170.299 78.995 m
170.299 103.732 l
} bind def
/p0_19 {
newpath
translate
462.741 168.308 m
462.741 193.046 l
} bind def
/p0_1a {
newpath
translate
402.693 142.124 m
402.693 166.861 l
} bind def
/p0_1b {
newpath
translate
258.947 98.9579 m
258.947 123.695 l
} bind def
/p0_1c {
newpath
translate
149.013 70.6215 m
149.013 95.3587 l
} bind def
/p0_1d {
newpath
translate
314.133 105.056 m
314.133 129.793 l
} bind def
1.500 setlinewidth
1 setlinejoin
0 setlinecap
[] 0 setdash
0.118 0.565 1.000 setrgbcolor
gsave
525.6 173.2 40.7 33.12 clipbox
0 0 p0_0
stroke
grestore
gsave
525.6 173.2 40.7 33.12 clipbox
0 0 p0_1
stroke
grestore
gsave
525.6 173.2 40.7 33.12 clipbox
0 0 p0_2
stroke
grestore
gsave
525.6 173.2 40.7 33.12 clipbox
0 0 p0_3
stroke
grestore
gsave
525.6 173.2 40.7 33.12 clipbox
0 0 p0_4
stroke
grestore
gsave
525.6 173.2 40.7 33.12 clipbox
0 0 p0_5
stroke
grestore
gsave
525.6 173.2 40.7 33.12 clipbox
0 0 p0_6
stroke
grestore
gsave
525.6 173.2 40.7 33.12 clipbox
0 0 p0_7
stroke
grestore
gsave
525.6 173.2 40.7 33.12 clipbox
0 0 p0_8
stroke
grestore
gsave
525.6 173.2 40.7 33.12 clipbox
0 0 p0_9
stroke
grestore
gsave
525.6 173.2 40.7 33.12 clipbox
0 0 p0_a
stroke
grestore
gsave
525.6 173.2 40.7 33.12 clipbox
0 0 p0_b
stroke
grestore
gsave
525.6 173.2 40.7 33.12 clipbox
0 0 p0_c
stroke
grestore
gsave
525.6 173.2 40.7 33.12 clipbox
0 0 p0_d
stroke
grestore
gsave
525.6 173.2 40.7 33.12 clipbox
0 0 p0_e
stroke
grestore
gsave
525.6 173.2 40.7 33.12 clipbox
0 0 p0_f
stroke
grestore
gsave
525.6 173.2 40.7 33.12 clipbox
0 0 p0_10
stroke
grestore
gsave
525.6 173.2 40.7 33.12 clipbox
0 0 p0_11
stroke
grestore
gsave
525.6 173.2 40.7 33.12 clipbox
0 0 p0_12
stroke
grestore
gsave
525.6 173.2 40.7 33.12 clipbox
0 0 p0_13
stroke
grestore
gsave
525.6 173.2 40.7 33.12 clipbox
0 0 p0_14
stroke
grestore
gsave
525.6 173.2 40.7 33.12 clipbox
0 0 p0_15
stroke
grestore
gsave
525.6 173.2 40.7 33.12 clipbox
0 0 p0_16
stroke
grestore
gsave
525.6 173.2 40.7 33.12 clipbox
0 0 p0_17
stroke
grestore
gsave
525.6 173.2 40.7 33.12 clipbox
0 0 p0_18
stroke
grestore
gsave
525.6 173.2 40.7 33.12 clipbox
0 0 p0_19
stroke
grestore
gsave
525.6 173.2 40.7 33.12 clipbox
0 0 p0_1a
stroke
grestore
gsave
525.6 173.2 40.7 33.12 clipbox
0 0 p0_1b
stroke
grestore
gsave
525.6 173.2 40.7 33.12 clipbox
0 0 p0_1c
stroke
grestore
gsave
525.6 173.2 40.7 33.12 clipbox
0 0 p0_1d
stroke
grestore
0.500 setlinewidth
gsave
525.6 173.2 40.7 33.12 clipbox
/o {
gsave
newpath
translate
0.5 setlinewidth
1 setlinejoin
0 setlinecap
3 -1.83697e-16 m
-3 1.83697e-16 l
gsave
0.118 0.565 1.000 setrgbcolor
fill
grestore
stroke
grestore
} bind def
114.106 73.7879 o
264.071 92.4768 o
155.189 72.7242 o
386.269 137.981 o
133.333 94.0352 o
215.543 95.0494 o
99.7399 89.5083 o
297.533 128.803 o
374.794 153.491 o
457.967 157.659 o
460.507 162.236 o
132.983 91.5244 o
259.429 125.192 o
435.279 119.131 o
403 143.596 o
276.554 149.323 o
440.973 134.456 o
104.426 69.4341 o
111.127 56.744 o
89.0531 73.355 o
444.039 148.581 o
317.067 119.638 o
514.204 147.27 o
280.846 127.641 o
170.299 78.995 o
462.741 168.308 o
402.693 142.124 o
258.947 98.9579 o
149.013 70.6215 o
314.133 105.056 o
grestore
gsave
525.6 173.2 40.7 33.12 clipbox
/o {
gsave
newpath
translate
0.5 setlinewidth
1 setlinejoin
0 setlinecap
3 -1.83697e-16 m
-3 1.83697e-16 l
gsave
0.118 0.565 1.000 setrgbcolor
fill
grestore
stroke
grestore
} bind def
114.106 98.525 o
264.071 117.214 o
155.189 97.4613 o
386.269 162.718 o
133.333 118.772 o
215.543 119.787 o
99.7399 114.245 o
297.533 153.54 o
374.794 178.228 o
457.967 182.396 o
460.507 186.973 o
132.983 116.262 o
259.429 149.929 o
435.279 143.868 o
403 168.333 o
276.554 174.06 o
440.973 159.193 o
104.426 94.1713 o
111.127 81.4811 o
89.0531 98.0921 o
444.039 173.318 o
317.067 144.375 o
514.204 172.007 o
280.846 152.378 o
170.299 103.732 o
462.741 193.046 o
402.693 166.861 o
258.947 123.695 o
149.013 95.3587 o
314.133 129.793 o
grestore
0.000 setgray
gsave
525.6 173.2 40.7 33.12 clipbox
/o {
gsave
newpath
translate
0.5 setlinewidth
1 setlinejoin
0 setlinecap
0 -3 m
0.795609 -3 1.55874 -2.6839 2.12132 -2.12132 c
2.6839 -1.55874 3 -0.795609 3 0 c
3 0.795609 2.6839 1.55874 2.12132 2.12132 c
1.55874 2.6839 0.795609 3 0 3 c
-0.795609 3 -1.55874 2.6839 -2.12132 2.12132 c
-2.6839 1.55874 -3 0.795609 -3 0 c
-3 -0.795609 -2.6839 -1.55874 -2.12132 -2.12132 c
-1.55874 -2.6839 -0.795609 -3 0 -3 c
cl
gsave
0.118 0.565 1.000 setrgbcolor
fill
grestore
stroke
grestore
} bind def
114.106 86.1564 o
264.071 104.845 o
155.189 85.0927 o
386.269 150.349 o
133.333 106.404 o
215.543 107.418 o
99.7399 101.877 o
297.533 141.172 o
374.794 165.86 o
457.967 170.028 o
460.507 174.604 o
132.983 103.893 o
259.429 137.56 o
435.279 131.5 o
403 155.965 o
276.554 161.691 o
440.973 146.824 o
104.426 81.8027 o
111.127 69.1125 o
89.0531 85.7235 o
444.039 160.949 o
317.067 132.007 o
514.204 159.638 o
280.846 140.009 o
170.299 91.3636 o
462.741 180.677 o
402.693 154.493 o
258.947 111.326 o
149.013 82.9901 o
314.133 117.424 o
grestore
1.000 setlinewidth
gsave
/o {
gsave
newpath
translate
1.0 setlinewidth
1 setlinejoin
0 setlinecap
0 0 m
0 5 l
gsave
0.000 setgray
fill
grestore
stroke
grestore
} bind def
84.498 33.12 o
grestore
gsave
/o {
gsave
newpath
translate
1.0 setlinewidth
1 setlinejoin
0 setlinecap
0 0 m
0 -5 l
gsave
0.000 setgray
fill
grestore
stroke
grestore
} bind def
84.498 206.28 o
grestore
/BitstreamVeraSerif-Roman findfont
10.000 scalefont
setfont
gsave
77.201172 21.557500 translate
0.000000 rotate
0.000000 0.140625 m /zero glyphshow
6.362305 0.140625 m /period glyphshow
9.541016 0.140625 m /zero glyphshow
grestore
gsave
/o {
gsave
newpath
translate
1.0 setlinewidth
1 setlinejoin
0 setlinecap
0 0 m
0 5 l
gsave
0.000 setgray
fill
grestore
stroke
grestore
} bind def
172.095 33.12 o
grestore
gsave
/o {
gsave
newpath
translate
1.0 setlinewidth
1 setlinejoin
0 setlinecap
0 0 m
0 -5 l
gsave
0.000 setgray
fill
grestore
stroke
grestore
} bind def
172.095 206.28 o
grestore
gsave
164.961953 21.557500 translate
0.000000 rotate
0.000000 0.140625 m /zero glyphshow
6.362305 0.140625 m /period glyphshow
9.541016 0.140625 m /two glyphshow
grestore
gsave
/o {
gsave
newpath
translate
1.0 setlinewidth
1 setlinejoin
0 setlinecap
0 0 m
0 5 l
gsave
0.000 setgray
fill
grestore
stroke
grestore
} bind def
259.691 33.12 o
grestore
gsave
/o {
gsave
newpath
translate
1.0 setlinewidth
1 setlinejoin
0 setlinecap
0 0 m
0 -5 l
gsave
0.000 setgray
fill
grestore
stroke
grestore
} bind def
259.691 206.28 o
grestore
gsave
252.316484 21.557500 translate
0.000000 rotate
0.000000 0.140625 m /zero glyphshow
6.362305 0.140625 m /period glyphshow
9.541016 0.140625 m /four glyphshow
grestore
gsave
/o {
gsave
newpath
translate
1.0 setlinewidth
1 setlinejoin
0 setlinecap
0 0 m
0 5 l
gsave
0.000 setgray
fill
grestore
stroke
grestore
} bind def
347.288 33.12 o
grestore
gsave
/o {
gsave
newpath
translate
1.0 setlinewidth
1 setlinejoin
0 setlinecap
0 0 m
0 -5 l
gsave
0.000 setgray
fill
grestore
stroke
grestore
} bind def
347.288 206.28 o
grestore
gsave
339.975703 21.557500 translate
0.000000 rotate
0.000000 0.140625 m /zero glyphshow
6.362305 0.140625 m /period glyphshow
9.541016 0.140625 m /six glyphshow
grestore
gsave
/o {
gsave
newpath
translate
1.0 setlinewidth
1 setlinejoin
0 setlinecap
0 0 m
0 5 l
gsave
0.000 setgray
fill
grestore
stroke
grestore
} bind def
434.885 33.12 o
grestore
gsave
/o {
gsave
newpath
translate
1.0 setlinewidth
1 setlinejoin
0 setlinecap
0 0 m
0 -5 l
gsave
0.000 setgray
fill
grestore
stroke
grestore
} bind def
434.885 206.28 o
grestore
gsave
427.595859 21.557500 translate
0.000000 rotate
0.000000 0.140625 m /zero glyphshow
6.362305 0.140625 m /period glyphshow
9.541016 0.140625 m /eight glyphshow
grestore
gsave
/o {
gsave
newpath
translate
1.0 setlinewidth
1 setlinejoin
0 setlinecap
0 0 m
0 5 l
gsave
0.000 setgray
fill
grestore
stroke
grestore
} bind def
522.482 33.12 o
grestore
gsave
/o {
gsave
newpath
translate
1.0 setlinewidth
1 setlinejoin
0 setlinecap
0 0 m
0 -5 l
gsave
0.000 setgray
fill
grestore
stroke
grestore
} bind def
522.482 206.28 o
grestore
gsave
515.466016 21.557500 translate
0.000000 rotate
0.000000 0.140625 m /one glyphshow
6.362305 0.140625 m /period glyphshow
9.541016 0.140625 m /zero glyphshow
grestore
gsave
299.982031 9.260625 translate
0.000000 rotate
0.000000 0.000000 m /X glyphshow
grestore
gsave
/o {
gsave
newpath
translate
1.0 setlinewidth
1 setlinejoin
0 setlinecap
0 0 m
5 0 l
gsave
0.000 setgray
fill
grestore
stroke
grestore
} bind def
40.6997 45.4886 o
grestore
gsave
/o {
gsave
newpath
translate
1.0 setlinewidth
1 setlinejoin
0 setlinecap
0 0 m
-5 0 l
gsave
0.000 setgray
fill
grestore
stroke
grestore
} bind def
566.28 45.4886 o
grestore
gsave
22.105938 41.707321 translate
0.000000 rotate
0.000000 0.140625 m /zero glyphshow
6.362305 0.140625 m /period glyphshow
9.541016 0.140625 m /zero glyphshow
grestore
gsave
/o {
gsave
newpath
translate
1.0 setlinewidth
1 setlinejoin
0 setlinecap
0 0 m
5 0 l
gsave
0.000 setgray
fill
grestore
stroke
grestore
} bind def
40.6997 70.2257 o
grestore
gsave
/o {
gsave
newpath
translate
1.0 setlinewidth
1 setlinejoin
0 setlinecap
0 0 m
-5 0 l
gsave
0.000 setgray
fill
grestore
stroke
grestore
} bind def
566.28 70.2257 o
grestore
gsave
22.434063 66.444464 translate
0.000000 rotate
0.000000 0.140625 m /zero glyphshow
6.362305 0.140625 m /period glyphshow
9.541016 0.140625 m /two glyphshow
grestore
gsave
/o {
gsave
newpath
translate
1.0 setlinewidth
1 setlinejoin
0 setlinecap
0 0 m
5 0 l
gsave
0.000 setgray
fill
grestore
stroke
grestore
} bind def
40.6997 94.9629 o
grestore
gsave
/o {
gsave
newpath
translate
1.0 setlinewidth
1 setlinejoin
0 setlinecap
0 0 m
-5 0 l
gsave
0.000 setgray
fill
grestore
stroke
grestore
} bind def
566.28 94.9629 o
grestore
gsave
21.949688 91.181607 translate
0.000000 rotate
0.000000 0.140625 m /zero glyphshow
6.362305 0.140625 m /period glyphshow
9.541016 0.140625 m /four glyphshow
grestore
gsave
/o {
gsave
newpath
translate
1.0 setlinewidth
1 setlinejoin
0 setlinecap
0 0 m
5 0 l
gsave
0.000 setgray
fill
grestore
stroke
grestore
} bind def
40.6997 119.7 o
grestore
gsave
/o {
gsave
newpath
translate
1.0 setlinewidth
1 setlinejoin
0 setlinecap
0 0 m
-5 0 l
gsave
0.000 setgray
fill
grestore
stroke
grestore
} bind def
566.28 119.7 o
grestore
gsave
22.074688 115.918750 translate
0.000000 rotate
0.000000 0.140625 m /zero glyphshow
6.362305 0.140625 m /period glyphshow
9.541016 0.140625 m /six glyphshow
grestore
gsave
/o {
gsave
newpath
translate
1.0 setlinewidth
1 setlinejoin
0 setlinecap
0 0 m
5 0 l
gsave
0.000 setgray
fill
grestore
stroke
grestore
} bind def
40.6997 144.437 o
grestore
gsave
/o {
gsave
newpath
translate
1.0 setlinewidth
1 setlinejoin
0 setlinecap
0 0 m
-5 0 l
gsave
0.000 setgray
fill
grestore
stroke
grestore
} bind def
566.28 144.437 o
grestore
gsave
22.121563 140.655893 translate
0.000000 rotate
0.000000 0.140625 m /zero glyphshow
6.362305 0.140625 m /period glyphshow
9.541016 0.140625 m /eight glyphshow
grestore
gsave
/o {
gsave
newpath
translate
1.0 setlinewidth
1 setlinejoin
0 setlinecap
0 0 m
5 0 l
gsave
0.000 setgray
fill
grestore
stroke
grestore
} bind def
40.6997 169.174 o
grestore
gsave
/o {
gsave
newpath
translate
1.0 setlinewidth
1 setlinejoin
0 setlinecap
0 0 m
-5 0 l
gsave
0.000 setgray
fill
grestore
stroke
grestore
} bind def
566.28 169.174 o
grestore
gsave
22.668438 165.393036 translate
0.000000 rotate
0.000000 0.140625 m /one glyphshow
6.362305 0.140625 m /period glyphshow
9.541016 0.140625 m /zero glyphshow
grestore
gsave
/o {
gsave
newpath
translate
1.0 setlinewidth
1 setlinejoin
0 setlinecap
0 0 m
5 0 l
gsave
0.000 setgray
fill
grestore
stroke
grestore
} bind def
40.6997 193.911 o
grestore
gsave
/o {
gsave
newpath
translate
1.0 setlinewidth
1 setlinejoin
0 setlinecap
0 0 m
-5 0 l
gsave
0.000 setgray
fill
grestore
stroke
grestore
} bind def
566.28 193.911 o
grestore
gsave
22.996563 190.130179 translate
0.000000 rotate
0.000000 0.140625 m /one glyphshow
6.362305 0.140625 m /period glyphshow
9.541016 0.140625 m /two glyphshow
grestore
gsave
16.949688 116.301562 translate
90.000000 rotate
0.000000 0.000000 m /Y glyphshow
grestore
2 setlinecap
gsave
40.6997 206.28 m
566.28 206.28 l
stroke
grestore
gsave
566.28 33.12 m
566.28 206.28 l
stroke
grestore
gsave
40.6997 33.12 m
566.28 33.12 l
stroke
grestore
gsave
40.6997 33.12 m
40.6997 206.28 l
stroke
grestore

end
showpage
