%!PS-Adobe-3.0 EPSF-3.0
%%Title: /home/hettin12/webplots/06-17-15_mcmc_example/first_few_walkers.eps
%%Creator: matplotlib version 1.2.x, http://matplotlib.sourceforge.net/
%%CreationDate: Sun Jun 21 17:15:05 2015
%%Orientation: portrait
%%BoundingBox: 18 288 594 504
%%EndComments
%%BeginProlog
/mpldict 8 dict def
mpldict begin
/m { moveto } bind def
/l { lineto } bind def
/r { rlineto } bind def
/c { curveto } bind def
/cl { closepath } bind def
/box {
m
1 index 0 r
0 exch r
neg 0 r
cl
} bind def
/clipbox {
box
clip
newpath
} bind def
%!PS-Adobe-3.0 Resource-Font
%%Title: Bitstream Vera Serif
%%Copyright: Copyright (c) 2003 by Bitstream, Inc. All Rights Reserved.
%%Creator: Converted from TrueType to type 3 by PPR
25 dict begin
/_d{bind def}bind def
/_m{moveto}_d
/_l{lineto}_d
/_cl{closepath eofill}_d
/_c{curveto}_d
/_sc{7 -1 roll{setcachedevice}{pop pop pop pop pop pop}ifelse}_d
/_e{exec}_d
/FontName /BitstreamVeraSerif-Roman def
/PaintType 0 def
/FontMatrix[.001 0 0 .001 0 0]def
/FontBBox[-183 -236 1287 928]def
/FontType 3 def
/Encoding [ /period /zero /one /two /three /four /five /six /seven /eight /nine /b /m /minus ] def
/FontInfo 10 dict dup begin
/FamilyName (Bitstream Vera Serif) def
/FullName (Bitstream Vera Serif) def
/Notice (Copyright (c) 2003 by Bitstream, Inc. All Rights Reserved. Bitstream Vera is a trademark of Bitstream, Inc.) def
/Weight (Roman) def
/Version (Release 1.10) def
/ItalicAngle 0.0 def
/isFixedPitch false def
/UnderlinePosition -213 def
/UnderlineThickness 133 def
end readonly def
/CharStrings 14 dict dup begin
/period{318 0 94 -13 224 116 _sc
94 51 _m
94 69 100 84 112 97 _c
124 109 140 116 159 116 _c
177 116 192 109 205 97 _c
217 84 224 69 224 51 _c
224 33 217 17 205 5 _c
192 -7 177 -13 159 -13 _c
140 -13 124 -7 112 5 _c
100 17 94 32 94 51 _c
_cl}_d
/zero{636 0 66 -13 570 742 _sc
318 34 _m
368 34 405 61 430 116 _c
454 170 467 253 467 364 _c
467 474 454 557 430 612 _c
405 666 368 694 318 694 _c
268 694 230 666 206 612 _c
181 557 169 474 169 364 _c
169 253 181 170 206 116 _c
230 61 268 34 318 34 _c
318 -13 _m
238 -13 176 20 132 86 _c
88 152 66 244 66 364 _c
66 483 88 576 132 642 _c
176 708 238 742 318 742 _c
397 742 459 708 503 642 _c
547 576 570 483 570 364 _c
570 244 547 152 503 86 _c
459 20 397 -13 318 -13 _c
_cl}_d
/one{636 0 122 0 494 742 _sc
142 0 _m
142 52 _l
269 52 _l
269 658 _l
122 563 _l
122 627 _l
300 742 _l
367 742 _l
367 52 _l
494 52 _l
494 0 _l
142 0 _l
_cl}_d
/two{{636 0 68 0 538 742 _sc
128 555 _m
73 555 _l
73 685 _l
107 703 142 717 178 727 _c
213 737 248 742 282 742 _c
358 742 418 723 462 687 _c
506 650 528 600 528 537 _c
528 465 478 380 378 281 _c
370 273 365 268 361 264 _c
177 80 _l
481 80 _l
481 170 _l
538 170 _l
538 0 _l
68 0 _l
68 53 _l
289 274 _l
337 322 372 367 393 408 _c
414 449 425 492 425 537 _c
}_e{425 586 412 624 386 652 _c
360 680 325 694 281 694 _c
234 694 198 682 173 659 _c
147 636 132 601 128 555 _c
_cl}_e}_d
/three{{636 0 76 -13 562 742 _sc
97 698 _m
135 712 171 723 206 731 _c
241 738 274 742 305 742 _c
376 742 432 726 472 696 _c
512 665 532 622 532 568 _c
532 524 518 487 490 458 _c
462 428 423 408 373 398 _c
433 389 479 367 512 332 _c
545 297 562 252 562 197 _c
562 129 539 77 493 41 _c
447 5 382 -13 296 -13 _c
258 -13 220 -9 184 -1 _c
148 6 112 18 76 35 _c
76 177 _l
}_e{131 177 _l
134 129 150 94 178 70 _c
206 46 246 34 298 34 _c
348 34 387 48 416 77 _c
444 106 459 146 459 196 _c
459 253 444 296 414 326 _c
384 355 341 370 284 370 _c
238 370 _l
238 420 _l
262 420 _l
319 420 362 431 390 455 _c
418 479 433 514 433 562 _c
433 604 421 637 398 660 _c
374 682 341 694 297 694 _c
253 694 218 683 194 662 _c
170 641 156 610 152 570 _c
}_e{97 570 _l
97 698 _l
_cl}_e}_d
/four{636 0 31 0 586 742 _sc
349 247 _m
349 635 _l
100 247 _l
349 247 _l
564 0 _m
232 0 _l
232 52 _l
349 52 _l
349 195 _l
31 195 _l
31 248 _l
350 742 _l
447 742 _l
447 247 _l
586 247 _l
586 195 _l
447 195 _l
447 52 _l
564 52 _l
564 0 _l
_cl}_d
/five{{636 0 85 -13 559 729 _sc
503 729 _m
503 649 _l
169 649 _l
169 440 _l
185 452 205 460 228 466 _c
250 472 276 475 304 475 _c
382 475 444 453 490 409 _c
536 365 559 306 559 231 _c
559 153 536 93 490 51 _c
444 8 379 -13 296 -13 _c
262 -13 228 -9 193 -1 _c
157 6 121 18 85 35 _c
85 177 _l
140 177 _l
143 130 158 94 184 70 _c
210 46 248 34 296 34 _c
}_e{347 34 386 51 414 85 _c
442 119 456 167 456 231 _c
456 294 442 342 415 376 _c
387 410 348 427 296 427 _c
266 427 240 421 218 411 _c
196 401 176 385 159 363 _c
117 363 _l
117 729 _l
503 729 _l
_cl}_e}_d
/six{{636 0 67 -13 573 742 _sc
327 34 _m
373 34 408 50 433 84 _c
457 118 470 166 470 230 _c
470 293 457 341 433 375 _c
408 409 373 426 327 426 _c
280 426 244 409 220 377 _c
196 344 184 297 184 236 _c
184 171 196 121 221 86 _c
245 51 281 34 327 34 _c
168 401 _m
190 425 215 444 243 456 _c
271 468 302 474 338 474 _c
410 474 468 452 510 408 _c
552 364 573 305 573 230 _c
}_e{573 156 550 97 505 53 _c
459 9 399 -13 323 -13 _c
241 -13 177 17 133 78 _c
89 139 67 227 67 341 _c
67 468 93 567 145 637 _c
197 707 271 742 367 742 _c
393 742 420 739 448 735 _c
476 730 505 723 535 713 _c
535 593 _l
480 593 _l
476 625 463 650 442 668 _c
421 685 393 694 357 694 _c
293 694 246 670 215 622 _c
184 574 168 500 168 401 _c
_cl}_e}_d
/seven{636 0 84 0 564 729 _sc
564 679 _m
279 0 _l
206 0 _l
478 649 _l
141 649 _l
141 559 _l
84 559 _l
84 729 _l
564 729 _l
564 679 _l
_cl}_d
/eight{{636 0 67 -13 569 742 _sc
466 199 _m
466 251 453 291 427 320 _c
401 349 364 364 318 364 _c
271 364 235 349 209 320 _c
183 291 170 251 170 199 _c
170 147 183 106 209 77 _c
235 48 271 34 318 34 _c
364 34 401 48 427 77 _c
453 106 466 147 466 199 _c
446 553 _m
446 597 434 632 412 657 _c
389 681 358 694 318 694 _c
278 694 246 681 224 657 _c
201 632 190 597 190 553 _c
}_e{190 508 201 473 224 449 _c
246 424 278 412 318 412 _c
358 412 389 424 412 449 _c
434 473 428 453 393 388 _c
448 380 491 360 522 327 _c
553 293 569 251 569 199 _c
569 131 547 78 504 42 _c
460 5 398 -13 318 -13 _c
237 -13 175 5 132 42 _c
88 78 67 131 67 199 _c
67 251 82 293 113 327 _c
144 360 187 380 243 388 _c
193 396 156 415 130 444 _c
}_e{104 472 91 509 91 553 _c
91 611 111 657 151 691 _c
191 725 247 742 318 742 _c
388 742 444 725 484 691 _c
524 657 545 611 545 553 _c
545 509 531 472 505 444 _c
479 415 459 451 446 553 _c
_cl}_e}_d
/nine{{636 0 63 -13 569 742 _sc
468 327 _m
446 302 420 284 392 272 _c
364 260 332 254 297 254 _c
224 254 167 275 125 319 _c
83 363 63 422 63 498 _c
63 572 85 631 131 675 _c
176 719 237 742 313 742 _c
395 742 459 711 503 650 _c
547 588 569 501 569 387 _c
569 259 542 161 490 91 _c
438 21 364 -13 269 -13 _c
243 -13 216 -10 188 -6 _c
160 -2 131 5 101 15 _c
101 136 _l
}_e{156 136 _l
160 103 172 78 194 60 _c
215 42 243 34 279 34 _c
342 34 389 57 420 105 _c
450 153 466 227 468 327 _c
309 694 _m
263 694 227 677 203 643 _c
178 609 166 561 166 498 _c
166 434 178 386 203 352 _c
227 318 263 302 309 302 _c
355 302 390 318 415 351 _c
439 383 452 430 452 492 _c
452 556 439 606 415 641 _c
390 676 355 694 309 694 _c
_cl}_e}_d
/b{{640 0 29 -13 590 760 _sc
115 52 _m
115 708 _l
29 708 _l
29 760 _l
205 760 _l
205 438 _l
222 470 244 494 272 510 _c
299 525 333 533 373 533 _c
437 533 489 507 529 457 _c
569 407 590 341 590 260 _c
590 178 569 112 529 62 _c
489 12 437 -13 373 -13 _c
333 -13 299 -5 272 9 _c
244 24 222 48 205 81 _c
205 0 _l
29 0 _l
29 52 _l
115 52 _l
205 234 _m
}_e{205 171 217 123 241 91 _c
265 58 299 42 345 42 _c
391 42 425 60 449 97 _c
473 133 485 188 485 260 _c
485 332 473 386 449 422 _c
425 458 391 477 345 477 _c
299 477 265 460 241 427 _c
217 394 205 347 205 285 _c
205 234 _l
_cl}_e}_d
/m{{948 0 36 0 921 533 _sc
518 418 _m
535 456 557 484 584 504 _c
611 523 642 533 678 533 _c
732 533 773 516 800 482 _c
826 448 840 398 840 330 _c
840 52 _l
921 52 _l
921 0 _l
672 0 _l
672 52 _l
750 52 _l
750 320 _l
750 372 742 410 726 433 _c
710 455 685 467 649 467 _c
609 467 578 451 557 421 _c
536 391 526 347 526 289 _c
526 52 _l
604 52 _l
604 0 _l
358 0 _l
}_e{358 52 _l
436 52 _l
436 323 _l
436 375 428 412 412 434 _c
396 456 371 467 335 467 _c
295 467 264 451 243 421 _c
222 391 212 347 212 289 _c
212 52 _l
290 52 _l
290 0 _l
41 0 _l
41 52 _l
122 52 _l
122 468 _l
36 468 _l
36 519 _l
212 519 _l
212 427 _l
228 461 249 488 275 506 _c
301 524 330 533 363 533 _c
403 533 436 523 463 503 _c
}_e{490 483 508 454 518 418 _c
_cl}_e}_d
/minus{838 0 106 274 732 353 _sc
106 353 _m
732 353 _l
732 274 _l
106 274 _l
106 353 _l
_cl}_d
end readonly def

/BuildGlyph
 {exch begin
 CharStrings exch
 2 copy known not{pop /.notdef}if
 true 3 1 roll get exec
 end}_d

/BuildChar {
 1 index /Encoding get exch get
 1 index /BuildGlyph get exec
}_d

FontName currentdict end definefont pop
end
%%EndProlog
mpldict begin
18 288 translate
576 216 0 0 clipbox
gsave
0 0 m
576 0 l
576 216 l
0 216 l
cl
1.000 setgray
fill
grestore
gsave
39.0825 31.32 m
281.066 31.32 l
281.066 202.68 l
39.0825 202.68 l
cl
1.000 setgray
fill
grestore
1.500 setlinewidth
1 setlinejoin
2 setlinecap
[] 0 setdash
0.118 0.565 1.000 setrgbcolor
gsave
242 171.4 39.08 31.32 clipbox
273.59 146.591 m
273.59 146.591 l
273.59 146.591 l
273.59 146.591 l
266.665 145.695 l
266.665 145.695 l
243.551 114.657 l
243.551 114.657 l
228.504 112.948 l
228.504 112.948 l
192.058 120.335 l
186.068 114.03 l
185.305 115.284 l
185.305 115.284 l
160.121 122.675 l
179.505 119.486 l
179.505 119.486 l
176.429 119.952 l
176.429 119.952 l
172.577 120.536 l
172.577 120.536 l
172.577 120.536 l
172.577 120.536 l
172.577 120.536 l
172.577 120.536 l
172.577 120.536 l
172.577 120.536 l
172.577 120.536 l
172.577 120.536 l
172.577 120.536 l
172.577 120.536 l
172.577 120.536 l
172.033 120.573 l
172.031 120.574 l
172.931 119.903 l
172.931 119.903 l
172.931 119.903 l
172.984 119.784 l
173.814 119.544 l
172.022 120.182 l
172.108 120.117 l
172.108 120.117 l
172.108 120.117 l
171.187 120.502 l
171.187 120.502 l
171.16 120.481 l
171.16 120.481 l
169.915 120.713 l
169.929 120.708 l
169.823 120.755 l
169.882 120.756 l
169.882 120.756 l
169.882 120.756 l
169.882 120.756 l
169.882 120.756 l
169.882 120.756 l
169.882 120.756 l
169.882 120.756 l
169.679 120.807 l
169.038 121.001 l
stroke
grestore
0.500 setlinewidth
0 setlinecap
0.000 setgray
gsave
242 171.4 39.08 31.32 clipbox
/o {
gsave
newpath
translate
0.5 setlinewidth
1 setlinejoin
0 setlinecap
0 -3 m
0.795609 -3 1.55874 -2.6839 2.12132 -2.12132 c
2.6839 -1.55874 3 -0.795609 3 0 c
3 0.795609 2.6839 1.55874 2.12132 2.12132 c
1.55874 2.6839 0.795609 3 0 3 c
-0.795609 3 -1.55874 2.6839 -2.12132 2.12132 c
-2.6839 1.55874 -3 0.795609 -3 0 c
-3 -0.795609 -2.6839 -1.55874 -2.12132 -2.12132 c
-1.55874 -2.6839 -0.795609 -3 0 -3 c
cl
gsave
0.118 0.565 1.000 setrgbcolor
fill
grestore
stroke
grestore
} bind def
273.59 146.591 o
273.59 146.591 o
273.59 146.591 o
273.59 146.591 o
266.665 145.695 o
266.665 145.695 o
243.551 114.657 o
243.551 114.657 o
228.504 112.948 o
228.504 112.948 o
192.058 120.335 o
186.068 114.03 o
185.305 115.284 o
185.305 115.284 o
160.121 122.675 o
179.505 119.486 o
179.505 119.486 o
176.429 119.952 o
176.429 119.952 o
172.577 120.536 o
172.577 120.536 o
172.577 120.536 o
172.577 120.536 o
172.577 120.536 o
172.577 120.536 o
172.577 120.536 o
172.577 120.536 o
172.577 120.536 o
172.577 120.536 o
172.577 120.536 o
172.577 120.536 o
172.577 120.536 o
172.033 120.573 o
172.031 120.574 o
172.931 119.903 o
172.931 119.903 o
172.931 119.903 o
172.984 119.784 o
173.814 119.544 o
172.022 120.182 o
172.108 120.117 o
172.108 120.117 o
172.108 120.117 o
171.187 120.502 o
171.187 120.502 o
171.16 120.481 o
171.16 120.481 o
169.915 120.713 o
169.929 120.708 o
169.823 120.755 o
169.882 120.756 o
169.882 120.756 o
169.882 120.756 o
169.882 120.756 o
169.882 120.756 o
169.882 120.756 o
169.882 120.756 o
169.882 120.756 o
169.679 120.807 o
169.038 121.001 o
grestore
1.500 setlinewidth
2 setlinecap
0.196 0.804 0.196 setrgbcolor
gsave
242 171.4 39.08 31.32 clipbox
73.8631 113.401 m
135.451 97.9308 l
135.451 97.9308 l
135.451 97.9308 l
151.063 98.0454 l
151.063 98.0454 l
150.272 99.2492 l
137.086 108.24 l
147.145 105.806 l
147.145 105.806 l
155.935 108.935 l
155.935 108.935 l
155.935 108.935 l
161.068 111.445 l
161.068 111.445 l
161.068 111.445 l
161.068 111.445 l
161.068 111.445 l
159.917 116.59 l
163.412 117.842 l
163.46 117.974 l
178.389 119.835 l
178.389 119.835 l
177.559 119.398 l
177.299 118.632 l
177.299 118.632 l
177.299 118.632 l
177.299 118.632 l
177.299 118.632 l
177.299 118.632 l
177.299 118.632 l
177.299 118.632 l
176.279 118.887 l
176.279 118.887 l
176.279 118.887 l
176.279 118.887 l
176.279 118.887 l
176.279 118.887 l
175.968 118.913 l
175.968 118.913 l
175.968 118.913 l
175.968 118.913 l
175.34 119.018 l
175.34 119.018 l
175.718 118.943 l
175.718 118.943 l
175.718 118.943 l
175.718 118.943 l
174.561 119.281 l
174.614 119.258 l
174.614 119.258 l
174.614 119.258 l
174.614 119.258 l
174.614 119.258 l
174.779 119.203 l
174.779 119.203 l
174.779 119.203 l
173.979 119.482 l
173.453 119.688 l
173.453 119.688 l
stroke
grestore
0.500 setlinewidth
0 setlinecap
0.000 setgray
gsave
242 171.4 39.08 31.32 clipbox
/o {
gsave
newpath
translate
0.5 setlinewidth
1 setlinejoin
0 setlinecap
0 -3 m
0.795609 -3 1.55874 -2.6839 2.12132 -2.12132 c
2.6839 -1.55874 3 -0.795609 3 0 c
3 0.795609 2.6839 1.55874 2.12132 2.12132 c
1.55874 2.6839 0.795609 3 0 3 c
-0.795609 3 -1.55874 2.6839 -2.12132 2.12132 c
-2.6839 1.55874 -3 0.795609 -3 0 c
-3 -0.795609 -2.6839 -1.55874 -2.12132 -2.12132 c
-1.55874 -2.6839 -0.795609 -3 0 -3 c
cl
gsave
0.196 0.804 0.196 setrgbcolor
fill
grestore
stroke
grestore
} bind def
73.8631 113.401 o
135.451 97.9308 o
135.451 97.9308 o
135.451 97.9308 o
151.063 98.0454 o
151.063 98.0454 o
150.272 99.2492 o
137.086 108.24 o
147.145 105.806 o
147.145 105.806 o
155.935 108.935 o
155.935 108.935 o
155.935 108.935 o
161.068 111.445 o
161.068 111.445 o
161.068 111.445 o
161.068 111.445 o
161.068 111.445 o
159.917 116.59 o
163.412 117.842 o
163.46 117.974 o
178.389 119.835 o
178.389 119.835 o
177.559 119.398 o
177.299 118.632 o
177.299 118.632 o
177.299 118.632 o
177.299 118.632 o
177.299 118.632 o
177.299 118.632 o
177.299 118.632 o
177.299 118.632 o
176.279 118.887 o
176.279 118.887 o
176.279 118.887 o
176.279 118.887 o
176.279 118.887 o
176.279 118.887 o
175.968 118.913 o
175.968 118.913 o
175.968 118.913 o
175.968 118.913 o
175.34 119.018 o
175.34 119.018 o
175.718 118.943 o
175.718 118.943 o
175.718 118.943 o
175.718 118.943 o
174.561 119.281 o
174.614 119.258 o
174.614 119.258 o
174.614 119.258 o
174.614 119.258 o
174.614 119.258 o
174.779 119.203 o
174.779 119.203 o
174.779 119.203 o
173.979 119.482 o
173.453 119.688 o
173.453 119.688 o
grestore
1.500 setlinewidth
2 setlinecap
1.000 0.000 0.000 setrgbcolor
gsave
242 171.4 39.08 31.32 clipbox
291.2 160.501 m
258.121 160.034 l
195.625 127.68 l
195.625 127.68 l
195.625 127.68 l
203.27 118.064 l
195.455 116.787 l
195.455 116.787 l
193.351 114.289 l
192.247 115.224 l
192.247 115.224 l
192.247 115.224 l
192.247 115.224 l
192.247 115.224 l
192.247 115.224 l
191.113 115.533 l
191.113 115.533 l
191.113 115.533 l
191.113 115.533 l
187.576 117.985 l
187.576 117.985 l
187.576 117.985 l
168.135 121.939 l
168.135 121.939 l
168.135 121.939 l
168.126 121.95 l
168.126 121.95 l
168.126 121.95 l
168.147 121.888 l
169.702 121.316 l
169.826 121.305 l
170.346 120.936 l
170.346 120.936 l
170.349 120.948 l
171.044 120.529 l
171.044 120.529 l
171.044 120.529 l
171.044 120.529 l
170.903 120.664 l
170.652 120.713 l
170.856 120.835 l
170.856 120.835 l
170.761 120.871 l
170.761 120.871 l
170.761 120.871 l
170.761 120.871 l
171.485 120.558 l
171.455 120.506 l
171.479 120.388 l
171.367 120.6 l
171.41 120.565 l
172.025 120.455 l
172.025 120.455 l
172.025 120.455 l
172.046 120.449 l
172.269 120.189 l
172.322 120.163 l
172.322 120.163 l
172.5 120.119 l
172.332 120.248 l
stroke
grestore
0.500 setlinewidth
0 setlinecap
0.000 setgray
gsave
242 171.4 39.08 31.32 clipbox
/o {
gsave
newpath
translate
0.5 setlinewidth
1 setlinejoin
0 setlinecap
0 -3 m
0.795609 -3 1.55874 -2.6839 2.12132 -2.12132 c
2.6839 -1.55874 3 -0.795609 3 0 c
3 0.795609 2.6839 1.55874 2.12132 2.12132 c
1.55874 2.6839 0.795609 3 0 3 c
-0.795609 3 -1.55874 2.6839 -2.12132 2.12132 c
-2.6839 1.55874 -3 0.795609 -3 0 c
-3 -0.795609 -2.6839 -1.55874 -2.12132 -2.12132 c
-1.55874 -2.6839 -0.795609 -3 0 -3 c
cl
gsave
1.000 0.000 0.000 setrgbcolor
fill
grestore
stroke
grestore
} bind def
291.2 160.501 o
258.121 160.034 o
195.625 127.68 o
195.625 127.68 o
195.625 127.68 o
203.27 118.064 o
195.455 116.787 o
195.455 116.787 o
193.351 114.289 o
192.247 115.224 o
192.247 115.224 o
192.247 115.224 o
192.247 115.224 o
192.247 115.224 o
192.247 115.224 o
191.113 115.533 o
191.113 115.533 o
191.113 115.533 o
191.113 115.533 o
187.576 117.985 o
187.576 117.985 o
187.576 117.985 o
168.135 121.939 o
168.135 121.939 o
168.135 121.939 o
168.126 121.95 o
168.126 121.95 o
168.126 121.95 o
168.147 121.888 o
169.702 121.316 o
169.826 121.305 o
170.346 120.936 o
170.346 120.936 o
170.349 120.948 o
171.044 120.529 o
171.044 120.529 o
171.044 120.529 o
171.044 120.529 o
170.903 120.664 o
170.652 120.713 o
170.856 120.835 o
170.856 120.835 o
170.761 120.871 o
170.761 120.871 o
170.761 120.871 o
170.761 120.871 o
171.485 120.558 o
171.455 120.506 o
171.479 120.388 o
171.367 120.6 o
171.41 120.565 o
172.025 120.455 o
172.025 120.455 o
172.025 120.455 o
172.046 120.449 o
172.269 120.189 o
172.322 120.163 o
172.322 120.163 o
172.5 120.119 o
172.332 120.248 o
grestore
1.500 setlinewidth
2 setlinecap
0.855 0.647 0.125 setrgbcolor
gsave
242 171.4 39.08 31.32 clipbox
140.088 106.356 m
140.088 106.356 l
140.088 106.356 l
136.441 109.773 l
143.454 118.276 l
143.454 118.276 l
143.656 118.494 l
143.778 125.224 l
143.778 125.224 l
143.778 125.224 l
143.778 125.224 l
143.778 125.224 l
143.778 125.224 l
143.778 125.224 l
143.778 125.224 l
143.778 125.224 l
143.778 125.224 l
143.778 125.224 l
143.778 125.224 l
143.778 125.224 l
143.778 125.224 l
161.493 118.2 l
161.493 118.2 l
161.493 118.2 l
161.493 118.2 l
161.493 118.2 l
161.493 118.2 l
167.444 118.927 l
166.349 120.066 l
166.349 120.066 l
166.349 120.066 l
166.349 120.066 l
166.349 120.066 l
166.349 120.066 l
167.733 120.602 l
167.733 120.602 l
168.949 120.304 l
169.598 120.346 l
169.914 120.445 l
169.914 120.445 l
169.599 120.796 l
169.449 120.882 l
170.233 120.553 l
170.599 120.527 l
171.065 120.449 l
170.33 120.751 l
170.33 120.751 l
170.416 120.735 l
170.416 120.735 l
170.998 120.434 l
170.741 120.53 l
170.159 120.7 l
170.159 120.7 l
170.579 120.651 l
170.841 120.62 l
171.416 120.431 l
170.917 120.596 l
170.856 120.545 l
170.856 120.545 l
170.467 120.661 l
stroke
grestore
0.500 setlinewidth
0 setlinecap
0.000 setgray
gsave
242 171.4 39.08 31.32 clipbox
/o {
gsave
newpath
translate
0.5 setlinewidth
1 setlinejoin
0 setlinecap
0 -3 m
0.795609 -3 1.55874 -2.6839 2.12132 -2.12132 c
2.6839 -1.55874 3 -0.795609 3 0 c
3 0.795609 2.6839 1.55874 2.12132 2.12132 c
1.55874 2.6839 0.795609 3 0 3 c
-0.795609 3 -1.55874 2.6839 -2.12132 2.12132 c
-2.6839 1.55874 -3 0.795609 -3 0 c
-3 -0.795609 -2.6839 -1.55874 -2.12132 -2.12132 c
-1.55874 -2.6839 -0.795609 -3 0 -3 c
cl
gsave
0.855 0.647 0.125 setrgbcolor
fill
grestore
stroke
grestore
} bind def
140.088 106.356 o
140.088 106.356 o
140.088 106.356 o
136.441 109.773 o
143.454 118.276 o
143.454 118.276 o
143.656 118.494 o
143.778 125.224 o
143.778 125.224 o
143.778 125.224 o
143.778 125.224 o
143.778 125.224 o
143.778 125.224 o
143.778 125.224 o
143.778 125.224 o
143.778 125.224 o
143.778 125.224 o
143.778 125.224 o
143.778 125.224 o
143.778 125.224 o
143.778 125.224 o
161.493 118.2 o
161.493 118.2 o
161.493 118.2 o
161.493 118.2 o
161.493 118.2 o
161.493 118.2 o
167.444 118.927 o
166.349 120.066 o
166.349 120.066 o
166.349 120.066 o
166.349 120.066 o
166.349 120.066 o
166.349 120.066 o
167.733 120.602 o
167.733 120.602 o
168.949 120.304 o
169.598 120.346 o
169.914 120.445 o
169.914 120.445 o
169.599 120.796 o
169.449 120.882 o
170.233 120.553 o
170.599 120.527 o
171.065 120.449 o
170.33 120.751 o
170.33 120.751 o
170.416 120.735 o
170.416 120.735 o
170.998 120.434 o
170.741 120.53 o
170.159 120.7 o
170.159 120.7 o
170.579 120.651 o
170.841 120.62 o
171.416 120.431 o
170.917 120.596 o
170.856 120.545 o
170.856 120.545 o
170.467 120.661 o
grestore
1.500 setlinewidth
2 setlinecap
0.294 0.000 0.510 setrgbcolor
gsave
242 171.4 39.08 31.32 clipbox
289.59 49.9329 m
256.99 89.3875 l
256.99 89.3875 l
256.99 89.3875 l
235.146 100.206 l
235.146 100.206 l
235.146 100.206 l
228.62 101.223 l
215.337 109.126 l
215.337 109.126 l
206.629 114.306 l
206.629 114.306 l
206.629 114.306 l
206.263 114.393 l
207.911 104.639 l
207.911 104.639 l
207.911 104.639 l
187.361 112.652 l
159.176 125.034 l
159.176 125.034 l
164.233 123.02 l
164.233 123.02 l
164.233 123.02 l
164.233 123.02 l
164.233 123.02 l
164.233 123.02 l
165.605 122.782 l
165.605 122.782 l
165.965 122.238 l
166.27 122.192 l
169.595 121.988 l
168.878 121.893 l
171.009 119.989 l
171.009 119.989 l
171.009 119.989 l
171.009 119.989 l
171.009 119.989 l
171.009 119.989 l
170.921 120.052 l
170.873 120.344 l
170.873 120.344 l
170.873 120.344 l
170.873 120.344 l
170.844 120.349 l
171.09 120.342 l
171.09 120.342 l
171.016 120.342 l
170.73 120.62 l
170.641 120.657 l
171.375 120.404 l
171.366 120.29 l
171.276 120.229 l
171.214 120.147 l
171.214 120.147 l
171.214 120.147 l
171.228 120.168 l
171.081 120.184 l
171.024 120.186 l
171.024 120.186 l
170.806 120.163 l
stroke
grestore
0.500 setlinewidth
0 setlinecap
0.000 setgray
gsave
242 171.4 39.08 31.32 clipbox
/o {
gsave
newpath
translate
0.5 setlinewidth
1 setlinejoin
0 setlinecap
0 -3 m
0.795609 -3 1.55874 -2.6839 2.12132 -2.12132 c
2.6839 -1.55874 3 -0.795609 3 0 c
3 0.795609 2.6839 1.55874 2.12132 2.12132 c
1.55874 2.6839 0.795609 3 0 3 c
-0.795609 3 -1.55874 2.6839 -2.12132 2.12132 c
-2.6839 1.55874 -3 0.795609 -3 0 c
-3 -0.795609 -2.6839 -1.55874 -2.12132 -2.12132 c
-1.55874 -2.6839 -0.795609 -3 0 -3 c
cl
gsave
0.294 0.000 0.510 setrgbcolor
fill
grestore
stroke
grestore
} bind def
289.59 49.9329 o
256.99 89.3875 o
256.99 89.3875 o
256.99 89.3875 o
235.146 100.206 o
235.146 100.206 o
235.146 100.206 o
228.62 101.223 o
215.337 109.126 o
215.337 109.126 o
206.629 114.306 o
206.629 114.306 o
206.629 114.306 o
206.263 114.393 o
207.911 104.639 o
207.911 104.639 o
207.911 104.639 o
187.361 112.652 o
159.176 125.034 o
159.176 125.034 o
164.233 123.02 o
164.233 123.02 o
164.233 123.02 o
164.233 123.02 o
164.233 123.02 o
164.233 123.02 o
165.605 122.782 o
165.605 122.782 o
165.965 122.238 o
166.27 122.192 o
169.595 121.988 o
168.878 121.893 o
171.009 119.989 o
171.009 119.989 o
171.009 119.989 o
171.009 119.989 o
171.009 119.989 o
171.009 119.989 o
170.921 120.052 o
170.873 120.344 o
170.873 120.344 o
170.873 120.344 o
170.873 120.344 o
170.844 120.349 o
171.09 120.342 o
171.09 120.342 o
171.016 120.342 o
170.73 120.62 o
170.641 120.657 o
171.375 120.404 o
171.366 120.29 o
171.276 120.229 o
171.214 120.147 o
171.214 120.147 o
171.214 120.147 o
171.228 120.168 o
171.081 120.184 o
171.024 120.186 o
171.024 120.186 o
170.806 120.163 o
grestore
1.500 setlinewidth
2 setlinecap
0.627 0.322 0.176 setrgbcolor
gsave
242 171.4 39.08 31.32 clipbox
98.7268 54.5168 m
143.17 83.3288 l
137.205 89.3468 l
209.787 138.499 l
209.787 138.499 l
197.61 129.227 l
199.882 121.738 l
223.056 99.9358 l
193.41 113.41 l
193.41 113.41 l
193.41 113.41 l
193.41 113.41 l
193.41 113.41 l
191.211 114.205 l
191.211 114.205 l
191.211 114.205 l
182.43 118.167 l
182.43 118.167 l
181.959 118.242 l
181.959 118.242 l
181.959 118.242 l
181.423 118.433 l
181.423 118.433 l
181.423 118.433 l
181.423 118.433 l
181.423 118.433 l
180.014 118.721 l
176.745 118.371 l
176.745 118.371 l
175.011 119.026 l
174.764 119.164 l
174.764 119.164 l
174.764 119.164 l
174.722 119.168 l
174.722 119.168 l
174.518 119.341 l
174.518 119.341 l
174.518 119.341 l
174.518 119.341 l
174.518 119.341 l
174.518 119.341 l
174.518 119.341 l
174.518 119.341 l
174.518 119.341 l
170.643 120.418 l
170.357 120.481 l
170.357 120.481 l
172.024 119.945 l
171.397 120.096 l
171.397 120.096 l
171.03 120.148 l
172.036 120.087 l
172.054 120.101 l
171.954 120.122 l
171.954 120.122 l
171.847 120.185 l
171.845 120.117 l
171.845 120.117 l
171.845 120.117 l
171.695 120.165 l
stroke
grestore
0.500 setlinewidth
0 setlinecap
0.000 setgray
gsave
242 171.4 39.08 31.32 clipbox
/o {
gsave
newpath
translate
0.5 setlinewidth
1 setlinejoin
0 setlinecap
0 -3 m
0.795609 -3 1.55874 -2.6839 2.12132 -2.12132 c
2.6839 -1.55874 3 -0.795609 3 0 c
3 0.795609 2.6839 1.55874 2.12132 2.12132 c
1.55874 2.6839 0.795609 3 0 3 c
-0.795609 3 -1.55874 2.6839 -2.12132 2.12132 c
-2.6839 1.55874 -3 0.795609 -3 0 c
-3 -0.795609 -2.6839 -1.55874 -2.12132 -2.12132 c
-1.55874 -2.6839 -0.795609 -3 0 -3 c
cl
gsave
0.627 0.322 0.176 setrgbcolor
fill
grestore
stroke
grestore
} bind def
98.7268 54.5168 o
143.17 83.3288 o
137.205 89.3468 o
209.787 138.499 o
209.787 138.499 o
197.61 129.227 o
199.882 121.738 o
223.056 99.9358 o
193.41 113.41 o
193.41 113.41 o
193.41 113.41 o
193.41 113.41 o
193.41 113.41 o
191.211 114.205 o
191.211 114.205 o
191.211 114.205 o
182.43 118.167 o
182.43 118.167 o
181.959 118.242 o
181.959 118.242 o
181.959 118.242 o
181.423 118.433 o
181.423 118.433 o
181.423 118.433 o
181.423 118.433 o
181.423 118.433 o
180.014 118.721 o
176.745 118.371 o
176.745 118.371 o
175.011 119.026 o
174.764 119.164 o
174.764 119.164 o
174.764 119.164 o
174.722 119.168 o
174.722 119.168 o
174.518 119.341 o
174.518 119.341 o
174.518 119.341 o
174.518 119.341 o
174.518 119.341 o
174.518 119.341 o
174.518 119.341 o
174.518 119.341 o
174.518 119.341 o
170.643 120.418 o
170.357 120.481 o
170.357 120.481 o
172.024 119.945 o
171.397 120.096 o
171.397 120.096 o
171.03 120.148 o
172.036 120.087 o
172.054 120.101 o
171.954 120.122 o
171.954 120.122 o
171.847 120.185 o
171.845 120.117 o
171.845 120.117 o
171.845 120.117 o
171.695 120.165 o
grestore
1.500 setlinewidth
2 setlinecap
0.000 0.980 0.604 setrgbcolor
gsave
242 171.4 39.08 31.32 clipbox
153.447 179.697 m
181.04 167.017 l
200.37 160.318 l
200.37 160.318 l
200.37 160.318 l
205.892 141.393 l
205.892 141.393 l
178.404 142.213 l
201.426 117.962 l
201.426 117.962 l
196.564 118.658 l
196.564 118.658 l
196.063 118.525 l
194.141 118.828 l
194.141 118.828 l
180.528 121.732 l
171.785 124.533 l
171.785 124.533 l
171.785 124.533 l
171.785 124.533 l
171.785 124.533 l
171.785 124.533 l
173.221 122.228 l
170.582 122.527 l
177.527 118.964 l
176.612 118.856 l
176.612 118.856 l
176.343 118.974 l
176.343 118.974 l
176.343 118.974 l
174.598 119.491 l
174.598 119.491 l
174.598 119.491 l
174.731 119.448 l
174.513 119.614 l
174.448 119.497 l
174.687 119.279 l
174.687 119.279 l
174.51 119.351 l
174.51 119.351 l
173.881 119.321 l
173.881 119.321 l
173.881 119.321 l
173.649 119.434 l
173.649 119.434 l
173.692 119.417 l
173.692 119.417 l
173.692 119.417 l
172.963 119.646 l
172.958 119.65 l
172.778 119.779 l
172.709 119.803 l
172.709 119.803 l
172.709 119.803 l
172.529 119.903 l
172.529 119.903 l
172.331 119.984 l
172.331 119.984 l
172.576 119.905 l
172.291 119.99 l
stroke
grestore
0.500 setlinewidth
0 setlinecap
0.000 setgray
gsave
242 171.4 39.08 31.32 clipbox
/o {
gsave
newpath
translate
0.5 setlinewidth
1 setlinejoin
0 setlinecap
0 -3 m
0.795609 -3 1.55874 -2.6839 2.12132 -2.12132 c
2.6839 -1.55874 3 -0.795609 3 0 c
3 0.795609 2.6839 1.55874 2.12132 2.12132 c
1.55874 2.6839 0.795609 3 0 3 c
-0.795609 3 -1.55874 2.6839 -2.12132 2.12132 c
-2.6839 1.55874 -3 0.795609 -3 0 c
-3 -0.795609 -2.6839 -1.55874 -2.12132 -2.12132 c
-1.55874 -2.6839 -0.795609 -3 0 -3 c
cl
gsave
0.000 0.980 0.604 setrgbcolor
fill
grestore
stroke
grestore
} bind def
153.447 179.697 o
181.04 167.017 o
200.37 160.318 o
200.37 160.318 o
200.37 160.318 o
205.892 141.393 o
205.892 141.393 o
178.404 142.213 o
201.426 117.962 o
201.426 117.962 o
196.564 118.658 o
196.564 118.658 o
196.063 118.525 o
194.141 118.828 o
194.141 118.828 o
180.528 121.732 o
171.785 124.533 o
171.785 124.533 o
171.785 124.533 o
171.785 124.533 o
171.785 124.533 o
171.785 124.533 o
173.221 122.228 o
170.582 122.527 o
177.527 118.964 o
176.612 118.856 o
176.612 118.856 o
176.343 118.974 o
176.343 118.974 o
176.343 118.974 o
174.598 119.491 o
174.598 119.491 o
174.598 119.491 o
174.731 119.448 o
174.513 119.614 o
174.448 119.497 o
174.687 119.279 o
174.687 119.279 o
174.51 119.351 o
174.51 119.351 o
173.881 119.321 o
173.881 119.321 o
173.881 119.321 o
173.649 119.434 o
173.649 119.434 o
173.692 119.417 o
173.692 119.417 o
173.692 119.417 o
172.963 119.646 o
172.958 119.65 o
172.778 119.779 o
172.709 119.803 o
172.709 119.803 o
172.709 119.803 o
172.529 119.903 o
172.529 119.903 o
172.331 119.984 o
172.331 119.984 o
172.576 119.905 o
172.291 119.99 o
grestore
1.000 setlinewidth
gsave
/o {
gsave
newpath
translate
1.0 setlinewidth
1 setlinejoin
0 setlinecap
0 0 m
0 5 l
gsave
0.000 setgray
fill
grestore
stroke
grestore
} bind def
39.0825 31.32 o
grestore
gsave
/o {
gsave
newpath
translate
1.0 setlinewidth
1 setlinejoin
0 setlinecap
0 0 m
0 -5 l
gsave
0.000 setgray
fill
grestore
stroke
grestore
} bind def
39.0825 202.68 o
grestore
/BitstreamVeraSerif-Roman findfont
10.000 scalefont
setfont
gsave
32.582500 19.757500 translate
0.000000 rotate
0.000000 0.140625 m /minus glyphshow
8.378906 0.140625 m /eight glyphshow
grestore
gsave
/o {
gsave
newpath
translate
1.0 setlinewidth
1 setlinejoin
0 setlinecap
0 0 m
0 5 l
gsave
0.000 setgray
fill
grestore
stroke
grestore
} bind def
69.3304 31.32 o
grestore
gsave
/o {
gsave
newpath
translate
1.0 setlinewidth
1 setlinejoin
0 setlinecap
0 0 m
0 -5 l
gsave
0.000 setgray
fill
grestore
stroke
grestore
} bind def
69.3304 202.68 o
grestore
gsave
62.806973 19.757500 translate
0.000000 rotate
0.000000 0.140625 m /minus glyphshow
8.378906 0.140625 m /six glyphshow
grestore
gsave
/o {
gsave
newpath
translate
1.0 setlinewidth
1 setlinejoin
0 setlinecap
0 0 m
0 5 l
gsave
0.000 setgray
fill
grestore
stroke
grestore
} bind def
99.5783 31.32 o
grestore
gsave
/o {
gsave
newpath
translate
1.0 setlinewidth
1 setlinejoin
0 setlinecap
0 0 m
0 -5 l
gsave
0.000 setgray
fill
grestore
stroke
grestore
} bind def
99.5783 202.68 o
grestore
gsave
92.992383 19.898125 translate
0.000000 rotate
0.000000 0.000000 m /minus glyphshow
8.378906 0.000000 m /four glyphshow
grestore
gsave
/o {
gsave
newpath
translate
1.0 setlinewidth
1 setlinejoin
0 setlinecap
0 0 m
0 5 l
gsave
0.000 setgray
fill
grestore
stroke
grestore
} bind def
129.826 31.32 o
grestore
gsave
/o {
gsave
newpath
translate
1.0 setlinewidth
1 setlinejoin
0 setlinecap
0 0 m
0 -5 l
gsave
0.000 setgray
fill
grestore
stroke
grestore
} bind def
129.826 202.68 o
grestore
gsave
123.482480 19.898125 translate
0.000000 rotate
0.000000 0.000000 m /minus glyphshow
8.378906 0.000000 m /two glyphshow
grestore
gsave
/o {
gsave
newpath
translate
1.0 setlinewidth
1 setlinejoin
0 setlinecap
0 0 m
0 5 l
gsave
0.000 setgray
fill
grestore
stroke
grestore
} bind def
160.074 31.32 o
grestore
gsave
/o {
gsave
newpath
translate
1.0 setlinewidth
1 setlinejoin
0 setlinecap
0 0 m
0 -5 l
gsave
0.000 setgray
fill
grestore
stroke
grestore
} bind def
160.074 202.68 o
grestore
gsave
157.550703 19.757500 translate
0.000000 rotate
0.000000 0.140625 m /zero glyphshow
grestore
gsave
/o {
gsave
newpath
translate
1.0 setlinewidth
1 setlinejoin
0 setlinecap
0 0 m
0 5 l
gsave
0.000 setgray
fill
grestore
stroke
grestore
} bind def
190.322 31.32 o
grestore
gsave
/o {
gsave
newpath
translate
1.0 setlinewidth
1 setlinejoin
0 setlinecap
0 0 m
0 -5 l
gsave
0.000 setgray
fill
grestore
stroke
grestore
} bind def
190.322 202.68 o
grestore
gsave
187.978301 19.898125 translate
0.000000 rotate
0.000000 0.000000 m /two glyphshow
grestore
gsave
/o {
gsave
newpath
translate
1.0 setlinewidth
1 setlinejoin
0 setlinecap
0 0 m
0 5 l
gsave
0.000 setgray
fill
grestore
stroke
grestore
} bind def
220.57 31.32 o
grestore
gsave
/o {
gsave
newpath
translate
1.0 setlinewidth
1 setlinejoin
0 setlinecap
0 0 m
0 -5 l
gsave
0.000 setgray
fill
grestore
stroke
grestore
} bind def
220.57 202.68 o
grestore
gsave
217.796523 19.898125 translate
0.000000 rotate
0.000000 0.000000 m /four glyphshow
grestore
gsave
/o {
gsave
newpath
translate
1.0 setlinewidth
1 setlinejoin
0 setlinecap
0 0 m
0 5 l
gsave
0.000 setgray
fill
grestore
stroke
grestore
} bind def
250.818 31.32 o
grestore
gsave
/o {
gsave
newpath
translate
1.0 setlinewidth
1 setlinejoin
0 setlinecap
0 0 m
0 -5 l
gsave
0.000 setgray
fill
grestore
stroke
grestore
} bind def
250.818 202.68 o
grestore
gsave
248.286621 19.757500 translate
0.000000 rotate
0.000000 0.140625 m /six glyphshow
grestore
gsave
/o {
gsave
newpath
translate
1.0 setlinewidth
1 setlinejoin
0 setlinecap
0 0 m
0 5 l
gsave
0.000 setgray
fill
grestore
stroke
grestore
} bind def
281.066 31.32 o
grestore
gsave
/o {
gsave
newpath
translate
1.0 setlinewidth
1 setlinejoin
0 setlinecap
0 0 m
0 -5 l
gsave
0.000 setgray
fill
grestore
stroke
grestore
} bind def
281.066 202.68 o
grestore
gsave
278.557969 19.757500 translate
0.000000 rotate
0.000000 0.140625 m /eight glyphshow
grestore
gsave
155.652266 9.429375 translate
0.000000 rotate
0.000000 0.000000 m /m glyphshow
grestore
gsave
/o {
gsave
newpath
translate
1.0 setlinewidth
1 setlinejoin
0 setlinecap
0 0 m
5 0 l
gsave
0.000 setgray
fill
grestore
stroke
grestore
} bind def
39.0825 31.32 o
grestore
gsave
/o {
gsave
newpath
translate
1.0 setlinewidth
1 setlinejoin
0 setlinecap
0 0 m
-5 0 l
gsave
0.000 setgray
fill
grestore
stroke
grestore
} bind def
281.066 31.32 o
grestore
gsave
22.082500 27.538750 translate
0.000000 rotate
0.000000 0.140625 m /minus glyphshow
8.378906 0.140625 m /eight glyphshow
grestore
gsave
/o {
gsave
newpath
translate
1.0 setlinewidth
1 setlinejoin
0 setlinecap
0 0 m
5 0 l
gsave
0.000 setgray
fill
grestore
stroke
grestore
} bind def
39.0825 52.74 o
grestore
gsave
/o {
gsave
newpath
translate
1.0 setlinewidth
1 setlinejoin
0 setlinecap
0 0 m
-5 0 l
gsave
0.000 setgray
fill
grestore
stroke
grestore
} bind def
281.066 52.74 o
grestore
gsave
22.035625 48.958750 translate
0.000000 rotate
0.000000 0.140625 m /minus glyphshow
8.378906 0.140625 m /six glyphshow
grestore
gsave
/o {
gsave
newpath
translate
1.0 setlinewidth
1 setlinejoin
0 setlinecap
0 0 m
5 0 l
gsave
0.000 setgray
fill
grestore
stroke
grestore
} bind def
39.0825 74.16 o
grestore
gsave
/o {
gsave
newpath
translate
1.0 setlinewidth
1 setlinejoin
0 setlinecap
0 0 m
-5 0 l
gsave
0.000 setgray
fill
grestore
stroke
grestore
} bind def
281.066 74.16 o
grestore
gsave
21.910625 70.449063 translate
0.000000 rotate
0.000000 0.000000 m /minus glyphshow
8.378906 0.000000 m /four glyphshow
grestore
gsave
/o {
gsave
newpath
translate
1.0 setlinewidth
1 setlinejoin
0 setlinecap
0 0 m
5 0 l
gsave
0.000 setgray
fill
grestore
stroke
grestore
} bind def
39.0825 95.58 o
grestore
gsave
/o {
gsave
newpath
translate
1.0 setlinewidth
1 setlinejoin
0 setlinecap
0 0 m
-5 0 l
gsave
0.000 setgray
fill
grestore
stroke
grestore
} bind def
281.066 95.58 o
grestore
gsave
22.395000 91.869063 translate
0.000000 rotate
0.000000 0.000000 m /minus glyphshow
8.378906 0.000000 m /two glyphshow
grestore
gsave
/o {
gsave
newpath
translate
1.0 setlinewidth
1 setlinejoin
0 setlinecap
0 0 m
5 0 l
gsave
0.000 setgray
fill
grestore
stroke
grestore
} bind def
39.0825 117 o
grestore
gsave
/o {
gsave
newpath
translate
1.0 setlinewidth
1 setlinejoin
0 setlinecap
0 0 m
-5 0 l
gsave
0.000 setgray
fill
grestore
stroke
grestore
} bind def
281.066 117 o
grestore
gsave
30.035625 113.218750 translate
0.000000 rotate
0.000000 0.140625 m /zero glyphshow
grestore
gsave
/o {
gsave
newpath
translate
1.0 setlinewidth
1 setlinejoin
0 setlinecap
0 0 m
5 0 l
gsave
0.000 setgray
fill
grestore
stroke
grestore
} bind def
39.0825 138.42 o
grestore
gsave
/o {
gsave
newpath
translate
1.0 setlinewidth
1 setlinejoin
0 setlinecap
0 0 m
-5 0 l
gsave
0.000 setgray
fill
grestore
stroke
grestore
} bind def
281.066 138.42 o
grestore
gsave
30.395000 134.709063 translate
0.000000 rotate
0.000000 0.000000 m /two glyphshow
grestore
gsave
/o {
gsave
newpath
translate
1.0 setlinewidth
1 setlinejoin
0 setlinecap
0 0 m
5 0 l
gsave
0.000 setgray
fill
grestore
stroke
grestore
} bind def
39.0825 159.84 o
grestore
gsave
/o {
gsave
newpath
translate
1.0 setlinewidth
1 setlinejoin
0 setlinecap
0 0 m
-5 0 l
gsave
0.000 setgray
fill
grestore
stroke
grestore
} bind def
281.066 159.84 o
grestore
gsave
29.535625 156.129063 translate
0.000000 rotate
0.000000 0.000000 m /four glyphshow
grestore
gsave
/o {
gsave
newpath
translate
1.0 setlinewidth
1 setlinejoin
0 setlinecap
0 0 m
5 0 l
gsave
0.000 setgray
fill
grestore
stroke
grestore
} bind def
39.0825 181.26 o
grestore
gsave
/o {
gsave
newpath
translate
1.0 setlinewidth
1 setlinejoin
0 setlinecap
0 0 m
-5 0 l
gsave
0.000 setgray
fill
grestore
stroke
grestore
} bind def
281.066 181.26 o
grestore
gsave
30.020000 177.478750 translate
0.000000 rotate
0.000000 0.140625 m /six glyphshow
grestore
gsave
/o {
gsave
newpath
translate
1.0 setlinewidth
1 setlinejoin
0 setlinecap
0 0 m
5 0 l
gsave
0.000 setgray
fill
grestore
stroke
grestore
} bind def
39.0825 202.68 o
grestore
gsave
/o {
gsave
newpath
translate
1.0 setlinewidth
1 setlinejoin
0 setlinecap
0 0 m
-5 0 l
gsave
0.000 setgray
fill
grestore
stroke
grestore
} bind def
281.066 202.68 o
grestore
gsave
30.066875 198.898750 translate
0.000000 rotate
0.000000 0.140625 m /eight glyphshow
grestore
gsave
16.910625 114.195313 translate
90.000000 rotate
0.000000 0.140625 m /b glyphshow
grestore
2 setlinecap
gsave
39.0825 202.68 m
281.066 202.68 l
stroke
grestore
gsave
281.066 31.32 m
281.066 202.68 l
stroke
grestore
gsave
39.0825 31.32 m
281.066 31.32 l
stroke
grestore
gsave
39.0825 31.32 m
39.0825 202.68 l
stroke
grestore
gsave
324.297 31.32 m
566.28 31.32 l
566.28 202.68 l
324.297 202.68 l
cl
1.000 setgray
fill
grestore
1.500 setlinewidth
0.118 0.565 1.000 setrgbcolor
gsave
242 171.4 324.3 31.32 clipbox
2473.62 820.404 m
577 36.8 m
204.243 182.659 l
577 100.883 l
577 100.623 m
530.406 110.031 l
530.406 110.031 l
453.365 125.625 l
453.365 125.625 l
453.365 125.625 l
453.365 125.625 l
453.365 125.625 l
453.365 125.625 l
453.365 125.625 l
453.365 125.625 l
453.365 125.625 l
453.365 125.625 l
453.365 125.625 l
453.365 125.625 l
453.365 125.625 l
442.475 126.596 l
442.445 126.625 l
460.443 108.746 l
460.443 108.746 l
460.443 108.746 l
461.501 105.547 l
478.107 99.15 l
442.264 116.172 l
443.988 114.43 l
443.988 114.43 l
443.988 114.43 l
425.567 124.711 l
425.567 124.711 l
425.022 124.14 l
425.022 124.14 l
400.128 130.338 l
400.4 130.195 l
398.283 131.451 l
399.463 131.48 l
399.463 131.48 l
399.463 131.48 l
399.463 131.48 l
399.463 131.48 l
399.463 131.48 l
399.463 131.48 l
399.463 131.48 l
395.41 132.851 l
382.584 138.02 l
stroke
grestore
0.500 setlinewidth
0 setlinecap
0.000 setgray
gsave
242 171.4 324.3 31.32 clipbox
/o {
gsave
newpath
translate
0.5 setlinewidth
1 setlinejoin
0 setlinecap
0 -3 m
0.795609 -3 1.55874 -2.6839 2.12132 -2.12132 c
2.6839 -1.55874 3 -0.795609 3 0 c
3 0.795609 2.6839 1.55874 2.12132 2.12132 c
1.55874 2.6839 0.795609 3 0 3 c
-0.795609 3 -1.55874 2.6839 -2.12132 2.12132 c
-2.6839 1.55874 -3 0.795609 -3 0 c
-3 -0.795609 -2.6839 -1.55874 -2.12132 -2.12132 c
-1.55874 -2.6839 -0.795609 -3 0 -3 c
cl
gsave
0.118 0.565 1.000 setrgbcolor
fill
grestore
stroke
grestore
} bind def
2473.62 820.404 o
2473.62 820.404 o
2473.62 820.404 o
2473.62 820.404 o
2335.12 796.528 o
2335.12 796.528 o
1872.84 -31.1693 o
1872.84 -31.1693 o
1571.9 -76.7225 o
1571.9 -76.7225 o
842.988 120.256 o
723.176 -47.8769 o
707.931 -14.4331 o
707.931 -14.4331 o
204.243 182.659 o
591.93 97.6078 o
591.93 97.6078 o
530.406 110.031 o
530.406 110.031 o
453.365 125.625 o
453.365 125.625 o
453.365 125.625 o
453.365 125.625 o
453.365 125.625 o
453.365 125.625 o
453.365 125.625 o
453.365 125.625 o
453.365 125.625 o
453.365 125.625 o
453.365 125.625 o
453.365 125.625 o
453.365 125.625 o
442.475 126.596 o
442.445 126.625 o
460.443 108.746 o
460.443 108.746 o
460.443 108.746 o
461.501 105.547 o
478.107 99.15 o
442.264 116.172 o
443.988 114.43 o
443.988 114.43 o
443.988 114.43 o
425.567 124.711 o
425.567 124.711 o
425.022 124.14 o
425.022 124.14 o
400.128 130.338 o
400.4 130.195 o
398.283 131.451 o
399.463 131.48 o
399.463 131.48 o
399.463 131.48 o
399.463 131.48 o
399.463 131.48 o
399.463 131.48 o
399.463 131.48 o
399.463 131.48 o
395.41 132.851 o
382.584 138.02 o
grestore
1.500 setlinewidth
2 setlinecap
0.196 0.804 0.196 setrgbcolor
gsave
242 171.4 324.3 31.32 clipbox
-1520.92 -64.6416 m
203.747 -1 m
200.159 20.3815 l
270.062 53.7682 l
271.03 57.281 l
569.607 106.918 l
569.607 106.918 l
553.001 95.2658 l
547.799 74.8454 l
547.799 74.8454 l
547.799 74.8454 l
547.799 74.8454 l
547.799 74.8454 l
547.799 74.8454 l
547.799 74.8454 l
547.799 74.8454 l
527.411 81.6427 l
527.411 81.6427 l
527.411 81.6427 l
527.411 81.6427 l
527.411 81.6427 l
527.411 81.6427 l
521.18 82.3282 l
521.18 82.3282 l
521.18 82.3282 l
521.18 82.3282 l
508.627 85.127 l
508.627 85.127 l
516.189 83.1278 l
516.189 83.1278 l
516.189 83.1278 l
516.189 83.1278 l
493.05 92.1528 l
494.108 91.5245 l
494.108 91.5245 l
494.108 91.5245 l
494.108 91.5245 l
494.108 91.5245 l
497.406 90.0679 l
497.406 90.0679 l
497.406 90.0679 l
481.404 97.4935 l
470.878 103.006 l
470.878 103.006 l
stroke
grestore
0.500 setlinewidth
0 setlinecap
0.000 setgray
gsave
242 171.4 324.3 31.32 clipbox
/o {
gsave
newpath
translate
0.5 setlinewidth
1 setlinejoin
0 setlinecap
0 -3 m
0.795609 -3 1.55874 -2.6839 2.12132 -2.12132 c
2.6839 -1.55874 3 -0.795609 3 0 c
3 0.795609 2.6839 1.55874 2.12132 2.12132 c
1.55874 2.6839 0.795609 3 0 3 c
-0.795609 3 -1.55874 2.6839 -2.12132 2.12132 c
-2.6839 1.55874 -3 0.795609 -3 0 c
-3 -0.795609 -2.6839 -1.55874 -2.12132 -2.12132 c
-1.55874 -2.6839 -0.795609 -3 0 -3 c
cl
gsave
0.196 0.804 0.196 setrgbcolor
fill
grestore
stroke
grestore
} bind def
-1520.92 -64.6416 o
-289.161 -477.191 o
-289.161 -477.191 o
-289.161 -477.191 o
23.088 -474.135 o
23.088 -474.135 o
7.26837 -442.033 o
-256.463 -202.272 o
-55.2843 -267.189 o
-55.2843 -267.189 o
120.517 -183.737 o
120.517 -183.737 o
120.517 -183.737 o
223.178 -116.821 o
223.178 -116.821 o
223.178 -116.821 o
223.178 -116.821 o
223.178 -116.821 o
200.159 20.3815 o
270.062 53.7682 o
271.03 57.281 o
569.607 106.918 o
569.607 106.918 o
553.001 95.2658 o
547.799 74.8454 o
547.799 74.8454 o
547.799 74.8454 o
547.799 74.8454 o
547.799 74.8454 o
547.799 74.8454 o
547.799 74.8454 o
547.799 74.8454 o
527.411 81.6427 o
527.411 81.6427 o
527.411 81.6427 o
527.411 81.6427 o
527.411 81.6427 o
527.411 81.6427 o
521.18 82.3282 o
521.18 82.3282 o
521.18 82.3282 o
521.18 82.3282 o
508.627 85.127 o
508.627 85.127 o
516.189 83.1278 o
516.189 83.1278 o
516.189 83.1278 o
516.189 83.1278 o
493.05 92.1528 o
494.108 91.5245 o
494.108 91.5245 o
494.108 91.5245 o
494.108 91.5245 o
494.108 91.5245 o
497.406 90.0679 o
497.406 90.0679 o
497.406 90.0679 o
481.404 97.4935 o
470.878 103.006 o
470.878 103.006 o
grestore
1.500 setlinewidth
2 setlinecap
1.000 0.000 0.000 setrgbcolor
gsave
242 171.4 324.3 31.32 clipbox
2825.83 1191.34 m
577 105.416 m
364.526 163.039 l
364.526 163.039 l
364.526 163.039 l
364.345 163.324 l
364.345 163.324 l
364.345 163.324 l
364.768 161.668 l
395.863 146.417 l
398.344 146.131 l
408.749 136.278 l
408.749 136.278 l
408.809 136.592 l
422.693 125.425 l
422.693 125.425 l
422.693 125.425 l
422.693 125.425 l
419.88 129.024 l
414.859 130.338 l
418.942 133.593 l
418.942 133.593 l
417.037 134.536 l
417.037 134.536 l
417.037 134.536 l
417.037 134.536 l
431.526 126.196 l
430.921 124.825 l
431.405 121.655 l
429.166 127.31 l
430.013 126.396 l
442.324 123.455 l
442.324 123.455 l
442.324 123.455 l
442.748 123.283 l
447.194 116.372 l
448.253 115.658 l
448.253 115.658 l
451.822 114.487 l
448.464 117.942 l
stroke
grestore
0.500 setlinewidth
0 setlinecap
0.000 setgray
gsave
242 171.4 324.3 31.32 clipbox
/o {
gsave
newpath
translate
0.5 setlinewidth
1 setlinejoin
0 setlinecap
0 -3 m
0.795609 -3 1.55874 -2.6839 2.12132 -2.12132 c
2.6839 -1.55874 3 -0.795609 3 0 c
3 0.795609 2.6839 1.55874 2.12132 2.12132 c
1.55874 2.6839 0.795609 3 0 3 c
-0.795609 3 -1.55874 2.6839 -2.12132 2.12132 c
-2.6839 1.55874 -3 0.795609 -3 0 c
-3 -0.795609 -2.6839 -1.55874 -2.12132 -2.12132 c
-1.55874 -2.6839 -0.795609 -3 0 -3 c
cl
gsave
1.000 0.000 0.000 setrgbcolor
fill
grestore
stroke
grestore
} bind def
2825.83 1191.34 o
2164.25 1178.89 o
914.312 316.12 o
914.312 316.12 o
914.312 316.12 o
1067.22 59.6801 o
910.925 25.6366 o
910.925 25.6366 o
868.85 -40.9654 o
846.769 -16.0325 o
846.769 -16.0325 o
846.769 -16.0325 o
846.769 -16.0325 o
846.769 -16.0325 o
846.769 -16.0325 o
824.083 -7.8072 o
824.083 -7.8072 o
824.083 -7.8072 o
824.083 -7.8072 o
753.333 57.5952 o
753.333 57.5952 o
753.333 57.5952 o
364.526 163.039 o
364.526 163.039 o
364.526 163.039 o
364.345 163.324 o
364.345 163.324 o
364.345 163.324 o
364.768 161.668 o
395.863 146.417 o
398.344 146.131 o
408.749 136.278 o
408.749 136.278 o
408.809 136.592 o
422.693 125.425 o
422.693 125.425 o
422.693 125.425 o
422.693 125.425 o
419.88 129.024 o
414.859 130.338 o
418.942 133.593 o
418.942 133.593 o
417.037 134.536 o
417.037 134.536 o
417.037 134.536 o
417.037 134.536 o
431.526 126.196 o
430.921 124.825 o
431.405 121.655 o
429.166 127.31 o
430.013 126.396 o
442.324 123.455 o
442.324 123.455 o
442.324 123.455 o
442.748 123.283 o
447.194 116.372 o
448.253 115.658 o
448.253 115.658 o
451.822 114.487 o
448.464 117.942 o
grestore
1.500 setlinewidth
2 setlinecap
0.855 0.647 0.125 setrgbcolor
gsave
242 171.4 324.3 31.32 clipbox
-196.421 -252.509 m
-1 186.33 m
231.678 63.3072 l
231.678 63.3072 l
231.678 63.3072 l
231.678 63.3072 l
231.678 63.3072 l
231.678 63.3072 l
350.703 82.6994 l
328.804 113.087 l
328.804 113.087 l
328.804 113.087 l
328.804 113.087 l
328.804 113.087 l
328.804 113.087 l
356.48 127.367 l
356.48 127.367 l
380.8 119.428 l
393.776 120.541 l
400.098 123.198 l
400.098 123.198 l
393.806 132.537 l
390.812 134.85 l
406.48 126.054 l
413.8 125.368 l
423.117 123.283 l
408.416 131.337 l
408.416 131.337 l
410.14 130.909 l
410.14 130.909 l
421.786 122.883 l
416.644 125.454 l
404.998 129.995 l
404.998 129.995 l
413.407 128.681 l
418.64 127.853 l
430.134 122.826 l
420.152 127.224 l
418.942 125.854 l
418.942 125.854 l
411.169 128.938 l
stroke
grestore
0.500 setlinewidth
0 setlinecap
0.000 setgray
gsave
242 171.4 324.3 31.32 clipbox
/o {
gsave
newpath
translate
0.5 setlinewidth
1 setlinejoin
0 setlinecap
0 -3 m
0.795609 -3 1.55874 -2.6839 2.12132 -2.12132 c
2.6839 -1.55874 3 -0.795609 3 0 c
3 0.795609 2.6839 1.55874 2.12132 2.12132 c
1.55874 2.6839 0.795609 3 0 3 c
-0.795609 3 -1.55874 2.6839 -2.12132 2.12132 c
-2.6839 1.55874 -3 0.795609 -3 0 c
-3 -0.795609 -2.6839 -1.55874 -2.12132 -2.12132 c
-1.55874 -2.6839 -0.795609 -3 0 -3 c
cl
gsave
0.855 0.647 0.125 setrgbcolor
fill
grestore
stroke
grestore
} bind def
-196.421 -252.509 o
-196.421 -252.509 o
-196.421 -252.509 o
-269.349 -161.403 o
-129.089 65.335 o
-129.089 65.335 o
-125.066 71.1612 o
-122.616 250.632 o
-122.616 250.632 o
-122.616 250.632 o
-122.616 250.632 o
-122.616 250.632 o
-122.616 250.632 o
-122.616 250.632 o
-122.616 250.632 o
-122.616 250.632 o
-122.616 250.632 o
-122.616 250.632 o
-122.616 250.632 o
-122.616 250.632 o
-122.616 250.632 o
231.678 63.3072 o
231.678 63.3072 o
231.678 63.3072 o
231.678 63.3072 o
231.678 63.3072 o
231.678 63.3072 o
350.703 82.6994 o
328.804 113.087 o
328.804 113.087 o
328.804 113.087 o
328.804 113.087 o
328.804 113.087 o
328.804 113.087 o
356.48 127.367 o
356.48 127.367 o
380.8 119.428 o
393.776 120.541 o
400.098 123.198 o
400.098 123.198 o
393.806 132.537 o
390.812 134.85 o
406.48 126.054 o
413.8 125.368 o
423.117 123.283 o
408.416 131.337 o
408.416 131.337 o
410.14 130.909 o
410.14 130.909 o
421.786 122.883 o
416.644 125.454 o
404.998 129.995 o
404.998 129.995 o
413.407 128.681 o
418.64 127.853 o
430.134 122.826 o
420.152 127.224 o
418.942 125.854 o
418.942 125.854 o
411.169 128.938 o
grestore
1.500 setlinewidth
2 setlinecap
0.294 0.000 0.510 setrgbcolor
gsave
242 171.4 324.3 31.32 clipbox
2793.62 -1757.14 m
577 16.136 m
234.077 217 l
239.119 217 m
286.487 191.856 l
286.487 191.856 l
286.487 191.856 l
286.487 191.856 l
286.487 191.856 l
286.487 191.856 l
313.922 185.515 l
313.922 185.515 l
321.121 171.007 l
327.231 169.779 l
393.716 164.324 l
379.378 161.811 l
421.997 111.031 l
421.997 111.031 l
421.997 111.031 l
421.997 111.031 l
421.997 111.031 l
421.997 111.031 l
420.243 112.716 l
419.275 120.484 l
419.275 120.484 l
419.275 120.484 l
419.275 120.484 l
418.7 120.627 l
423.631 120.427 l
423.631 120.427 l
422.149 120.427 l
416.432 127.853 l
414.647 128.852 l
429.317 122.084 l
429.136 119.056 l
427.351 117.428 l
426.111 115.229 l
426.111 115.229 l
426.111 115.229 l
426.383 115.8 l
423.449 116.229 l
422.3 116.286 l
422.3 116.286 l
417.944 115.658 l
stroke
grestore
0.500 setlinewidth
0 setlinecap
0.000 setgray
gsave
242 171.4 324.3 31.32 clipbox
/o {
gsave
newpath
translate
0.5 setlinewidth
1 setlinejoin
0 setlinecap
0 -3 m
0.795609 -3 1.55874 -2.6839 2.12132 -2.12132 c
2.6839 -1.55874 3 -0.795609 3 0 c
3 0.795609 2.6839 1.55874 2.12132 2.12132 c
1.55874 2.6839 0.795609 3 0 3 c
-0.795609 3 -1.55874 2.6839 -2.12132 2.12132 c
-2.6839 1.55874 -3 0.795609 -3 0 c
-3 -0.795609 -2.6839 -1.55874 -2.12132 -2.12132 c
-1.55874 -2.6839 -0.795609 -3 0 -3 c
cl
gsave
0.294 0.000 0.510 setrgbcolor
fill
grestore
stroke
grestore
} bind def
2793.62 -1757.14 o
2141.62 -705.014 o
2141.62 -705.014 o
2141.62 -705.014 o
1704.75 -416.529 o
1704.75 -416.529 o
1704.75 -416.529 o
1574.23 -389.397 o
1308.56 -178.653 o
1308.56 -178.653 o
1134.4 -40.5084 o
1134.4 -40.5084 o
1134.4 -40.5084 o
1127.08 -38.195 o
1160.05 -298.32 o
1160.05 -298.32 o
1160.05 -298.32 o
749.038 -84.6336 o
185.338 245.549 o
185.338 245.549 o
286.487 191.856 o
286.487 191.856 o
286.487 191.856 o
286.487 191.856 o
286.487 191.856 o
286.487 191.856 o
313.922 185.515 o
313.922 185.515 o
321.121 171.007 o
327.231 169.779 o
393.716 164.324 o
379.378 161.811 o
421.997 111.031 o
421.997 111.031 o
421.997 111.031 o
421.997 111.031 o
421.997 111.031 o
421.997 111.031 o
420.243 112.716 o
419.275 120.484 o
419.275 120.484 o
419.275 120.484 o
419.275 120.484 o
418.7 120.627 o
423.631 120.427 o
423.631 120.427 o
422.149 120.427 o
416.432 127.853 o
414.647 128.852 o
429.317 122.084 o
429.136 119.056 o
427.351 117.428 o
426.111 115.229 o
426.111 115.229 o
426.111 115.229 o
426.383 115.8 o
423.449 116.229 o
422.3 116.286 o
422.3 116.286 o
417.944 115.658 o
grestore
1.500 setlinewidth
2 setlinecap
0.627 0.322 0.176 setrgbcolor
gsave
242 171.4 324.3 31.32 clipbox
-1023.64 -1634.9 m
526.819 -1 m
577 44.3105 l
577 73.6307 m
536.728 67.8768 l
536.728 67.8768 l
502.033 85.3555 l
497.103 89.0398 l
497.103 89.0398 l
497.103 89.0398 l
496.256 89.1254 l
496.256 89.1254 l
492.173 93.7522 l
492.173 93.7522 l
492.173 93.7522 l
492.173 93.7522 l
492.173 93.7522 l
492.173 93.7522 l
492.173 93.7522 l
492.173 93.7522 l
492.173 93.7522 l
414.677 122.455 l
408.961 124.14 l
408.961 124.14 l
442.294 109.86 l
429.771 113.887 l
429.771 113.887 l
422.421 115.258 l
442.536 113.63 l
442.899 114.001 l
440.902 114.572 l
440.902 114.572 l
438.755 116.257 l
438.725 114.43 l
438.725 114.43 l
438.725 114.43 l
435.73 115.715 l
stroke
grestore
0.500 setlinewidth
0 setlinecap
0.000 setgray
gsave
242 171.4 324.3 31.32 clipbox
/o {
gsave
newpath
translate
0.5 setlinewidth
1 setlinejoin
0 setlinecap
0 -3 m
0.795609 -3 1.55874 -2.6839 2.12132 -2.12132 c
2.6839 -1.55874 3 -0.795609 3 0 c
3 0.795609 2.6839 1.55874 2.12132 2.12132 c
1.55874 2.6839 0.795609 3 0 3 c
-0.795609 3 -1.55874 2.6839 -2.12132 2.12132 c
-2.6839 1.55874 -3 0.795609 -3 0 c
-3 -0.795609 -2.6839 -1.55874 -2.12132 -2.12132 c
-1.55874 -2.6839 -0.795609 -3 0 -3 c
cl
gsave
0.627 0.322 0.176 setrgbcolor
fill
grestore
stroke
grestore
} bind def
-1023.64 -1634.9 o
-134.776 -866.578 o
-254.074 -706.099 o
1197.55 604.633 o
1197.55 604.633 o
954.028 357.361 o
999.46 157.669 o
1462.95 -423.726 o
870.03 -64.4131 o
870.03 -64.4131 o
870.03 -64.4131 o
870.03 -64.4131 o
870.03 -64.4131 o
826.049 -43.2216 o
826.049 -43.2216 o
826.049 -43.2216 o
650.43 62.4504 o
650.43 62.4504 o
640.992 64.4496 o
640.992 64.4496 o
640.992 64.4496 o
630.285 69.5333 o
630.285 69.5333 o
630.285 69.5333 o
630.285 69.5333 o
630.285 69.5333 o
602.094 77.2159 o
536.728 67.8768 o
536.728 67.8768 o
502.033 85.3555 o
497.103 89.0398 o
497.103 89.0398 o
497.103 89.0398 o
496.256 89.1254 o
496.256 89.1254 o
492.173 93.7522 o
492.173 93.7522 o
492.173 93.7522 o
492.173 93.7522 o
492.173 93.7522 o
492.173 93.7522 o
492.173 93.7522 o
492.173 93.7522 o
492.173 93.7522 o
414.677 122.455 o
408.961 124.14 o
408.961 124.14 o
442.294 109.86 o
429.771 113.887 o
429.771 113.887 o
422.421 115.258 o
442.536 113.63 o
442.899 114.001 o
440.902 114.572 o
440.902 114.572 o
438.755 116.257 o
438.725 114.43 o
438.725 114.43 o
438.725 114.43 o
435.73 115.715 o
grestore
1.500 setlinewidth
2 setlinecap
0.000 0.980 0.604 setrgbcolor
gsave
242 171.4 324.3 31.32 clipbox
70.7587 1703.25 m
577 172.614 m
473.116 217 l
444.623 217 m
466.25 170.721 l
413.468 178.718 l
552.366 83.699 l
534.066 80.8145 l
534.066 80.8145 l
528.682 83.9561 l
528.682 83.9561 l
528.682 83.9561 l
493.776 97.7506 l
493.776 97.7506 l
493.776 97.7506 l
496.438 96.6082 l
492.082 101.035 l
490.781 97.8934 l
495.56 92.0957 l
495.56 92.0957 l
492.021 94.0092 l
492.021 94.0092 l
479.438 93.2095 l
479.438 93.2095 l
479.438 93.2095 l
474.81 96.2369 l
474.81 96.2369 l
475.657 95.7799 l
475.657 95.7799 l
475.657 95.7799 l
461.078 101.892 l
460.987 101.977 l
457.388 105.433 l
455.996 106.062 l
455.996 106.062 l
455.996 106.062 l
452.397 108.746 l
452.397 108.746 l
448.434 110.888 l
448.434 110.888 l
453.334 108.775 l
447.648 111.06 l
stroke
grestore
0.500 setlinewidth
0 setlinecap
0.000 setgray
gsave
242 171.4 324.3 31.32 clipbox
/o {
gsave
newpath
translate
0.5 setlinewidth
1 setlinejoin
0 setlinecap
0 -3 m
0.795609 -3 1.55874 -2.6839 2.12132 -2.12132 c
2.6839 -1.55874 3 -0.795609 3 0 c
3 0.795609 2.6839 1.55874 2.12132 2.12132 c
1.55874 2.6839 0.795609 3 0 3 c
-0.795609 3 -1.55874 2.6839 -2.12132 2.12132 c
-2.6839 1.55874 -3 0.795609 -3 0 c
-3 -0.795609 -2.6839 -1.55874 -2.12132 -2.12132 c
-1.55874 -2.6839 -0.795609 -3 0 -3 c
cl
gsave
0.000 0.980 0.604 setrgbcolor
fill
grestore
stroke
grestore
} bind def
70.7587 1703.25 o
622.632 1365.1 o
1009.23 1186.46 o
1009.23 1186.46 o
1009.23 1186.46 o
1119.67 681.803 o
1119.67 681.803 o
569.91 703.68 o
1030.34 56.9669 o
1030.34 56.9669 o
933.096 75.5309 o
933.096 75.5309 o
923.084 71.9894 o
884.639 80.0719 o
884.639 80.0719 o
612.378 157.498 o
437.515 232.211 o
437.515 232.211 o
437.515 232.211 o
437.515 232.211 o
437.515 232.211 o
437.515 232.211 o
466.25 170.721 o
413.468 178.718 o
552.366 83.699 o
534.066 80.8145 o
534.066 80.8145 o
528.682 83.9561 o
528.682 83.9561 o
528.682 83.9561 o
493.776 97.7506 o
493.776 97.7506 o
493.776 97.7506 o
496.438 96.6082 o
492.082 101.035 o
490.781 97.8934 o
495.56 92.0957 o
495.56 92.0957 o
492.021 94.0092 o
492.021 94.0092 o
479.438 93.2095 o
479.438 93.2095 o
479.438 93.2095 o
474.81 96.2369 o
474.81 96.2369 o
475.657 95.7799 o
475.657 95.7799 o
475.657 95.7799 o
461.078 101.892 o
460.987 101.977 o
457.388 105.433 o
455.996 106.062 o
455.996 106.062 o
455.996 106.062 o
452.397 108.746 o
452.397 108.746 o
448.434 110.888 o
448.434 110.888 o
453.334 108.775 o
447.648 111.06 o
grestore
1.000 setlinewidth
gsave
/o {
gsave
newpath
translate
1.0 setlinewidth
1 setlinejoin
0 setlinecap
0 0 m
0 5 l
gsave
0.000 setgray
fill
grestore
stroke
grestore
} bind def
324.297 31.32 o
grestore
gsave
/o {
gsave
newpath
translate
1.0 setlinewidth
1 setlinejoin
0 setlinecap
0 0 m
0 -5 l
gsave
0.000 setgray
fill
grestore
stroke
grestore
} bind def
324.297 202.68 o
grestore
gsave
316.921719 19.757500 translate
0.000000 rotate
0.000000 0.140625 m /zero glyphshow
6.362305 0.140625 m /period glyphshow
9.541016 0.140625 m /four glyphshow
grestore
gsave
/o {
gsave
newpath
translate
1.0 setlinewidth
1 setlinejoin
0 setlinecap
0 0 m
0 5 l
gsave
0.000 setgray
fill
grestore
stroke
grestore
} bind def
354.545 31.32 o
grestore
gsave
/o {
gsave
newpath
translate
1.0 setlinewidth
1 setlinejoin
0 setlinecap
0 0 m
0 -5 l
gsave
0.000 setgray
fill
grestore
stroke
grestore
} bind def
354.545 202.68 o
grestore
gsave
347.302441 19.757500 translate
0.000000 rotate
0.000000 0.140625 m /zero glyphshow
6.362305 0.140625 m /period glyphshow
9.541016 0.140625 m /five glyphshow
grestore
gsave
/o {
gsave
newpath
translate
1.0 setlinewidth
1 setlinejoin
0 setlinecap
0 0 m
0 5 l
gsave
0.000 setgray
fill
grestore
stroke
grestore
} bind def
384.793 31.32 o
grestore
gsave
/o {
gsave
newpath
translate
1.0 setlinewidth
1 setlinejoin
0 setlinecap
0 0 m
0 -5 l
gsave
0.000 setgray
fill
grestore
stroke
grestore
} bind def
384.793 202.68 o
grestore
gsave
377.480039 19.757500 translate
0.000000 rotate
0.000000 0.140625 m /zero glyphshow
6.362305 0.140625 m /period glyphshow
9.541016 0.140625 m /six glyphshow
grestore
gsave
/o {
gsave
newpath
translate
1.0 setlinewidth
1 setlinejoin
0 setlinecap
0 0 m
0 5 l
gsave
0.000 setgray
fill
grestore
stroke
grestore
} bind def
415.04 31.32 o
grestore
gsave
/o {
gsave
newpath
translate
1.0 setlinewidth
1 setlinejoin
0 setlinecap
0 0 m
0 -5 l
gsave
0.000 setgray
fill
grestore
stroke
grestore
} bind def
415.04 202.68 o
grestore
gsave
407.774824 19.757500 translate
0.000000 rotate
0.000000 0.140625 m /zero glyphshow
6.362305 0.140625 m /period glyphshow
9.541016 0.140625 m /seven glyphshow
grestore
gsave
/o {
gsave
newpath
translate
1.0 setlinewidth
1 setlinejoin
0 setlinecap
0 0 m
0 5 l
gsave
0.000 setgray
fill
grestore
stroke
grestore
} bind def
445.288 31.32 o
grestore
gsave
/o {
gsave
newpath
translate
1.0 setlinewidth
1 setlinejoin
0 setlinecap
0 0 m
0 -5 l
gsave
0.000 setgray
fill
grestore
stroke
grestore
} bind def
445.288 202.68 o
grestore
gsave
437.999297 19.757500 translate
0.000000 rotate
0.000000 0.140625 m /zero glyphshow
6.362305 0.140625 m /period glyphshow
9.541016 0.140625 m /eight glyphshow
grestore
gsave
/o {
gsave
newpath
translate
1.0 setlinewidth
1 setlinejoin
0 setlinecap
0 0 m
0 5 l
gsave
0.000 setgray
fill
grestore
stroke
grestore
} bind def
475.536 31.32 o
grestore
gsave
/o {
gsave
newpath
translate
1.0 setlinewidth
1 setlinejoin
0 setlinecap
0 0 m
0 -5 l
gsave
0.000 setgray
fill
grestore
stroke
grestore
} bind def
475.536 202.68 o
grestore
gsave
468.247207 19.757500 translate
0.000000 rotate
0.000000 0.140625 m /zero glyphshow
6.362305 0.140625 m /period glyphshow
9.541016 0.140625 m /nine glyphshow
grestore
gsave
/o {
gsave
newpath
translate
1.0 setlinewidth
1 setlinejoin
0 setlinecap
0 0 m
0 5 l
gsave
0.000 setgray
fill
grestore
stroke
grestore
} bind def
505.784 31.32 o
grestore
gsave
/o {
gsave
newpath
translate
1.0 setlinewidth
1 setlinejoin
0 setlinecap
0 0 m
0 -5 l
gsave
0.000 setgray
fill
grestore
stroke
grestore
} bind def
505.784 202.68 o
grestore
gsave
498.768555 19.757500 translate
0.000000 rotate
0.000000 0.140625 m /one glyphshow
6.362305 0.140625 m /period glyphshow
9.541016 0.140625 m /zero glyphshow
grestore
gsave
/o {
gsave
newpath
translate
1.0 setlinewidth
1 setlinejoin
0 setlinecap
0 0 m
0 5 l
gsave
0.000 setgray
fill
grestore
stroke
grestore
} bind def
536.032 31.32 o
grestore
gsave
/o {
gsave
newpath
translate
1.0 setlinewidth
1 setlinejoin
0 setlinecap
0 0 m
0 -5 l
gsave
0.000 setgray
fill
grestore
stroke
grestore
} bind def
536.032 202.68 o
grestore
gsave
529.399277 19.757500 translate
0.000000 rotate
0.000000 0.140625 m /one glyphshow
6.362305 0.140625 m /period glyphshow
9.541016 0.140625 m /one glyphshow
grestore
gsave
440.866484 9.429375 translate
0.000000 rotate
0.000000 0.000000 m /m glyphshow
grestore
gsave
/o {
gsave
newpath
translate
1.0 setlinewidth
1 setlinejoin
0 setlinecap
0 0 m
5 0 l
gsave
0.000 setgray
fill
grestore
stroke
grestore
} bind def
324.297 31.32 o
grestore
gsave
/o {
gsave
newpath
translate
1.0 setlinewidth
1 setlinejoin
0 setlinecap
0 0 m
-5 0 l
gsave
0.000 setgray
fill
grestore
stroke
grestore
} bind def
566.28 31.32 o
grestore
gsave
305.702969 27.538750 translate
0.000000 rotate
0.000000 0.140625 m /zero glyphshow
6.362305 0.140625 m /period glyphshow
9.541016 0.140625 m /zero glyphshow
grestore
gsave
/o {
gsave
newpath
translate
1.0 setlinewidth
1 setlinejoin
0 setlinecap
0 0 m
5 0 l
gsave
0.000 setgray
fill
grestore
stroke
grestore
} bind def
324.297 59.88 o
grestore
gsave
/o {
gsave
newpath
translate
1.0 setlinewidth
1 setlinejoin
0 setlinecap
0 0 m
-5 0 l
gsave
0.000 setgray
fill
grestore
stroke
grestore
} bind def
566.28 59.88 o
grestore
gsave
306.468594 56.098750 translate
0.000000 rotate
0.000000 0.140625 m /zero glyphshow
6.362305 0.140625 m /period glyphshow
9.541016 0.140625 m /one glyphshow
grestore
gsave
/o {
gsave
newpath
translate
1.0 setlinewidth
1 setlinejoin
0 setlinecap
0 0 m
5 0 l
gsave
0.000 setgray
fill
grestore
stroke
grestore
} bind def
324.297 88.44 o
grestore
gsave
/o {
gsave
newpath
translate
1.0 setlinewidth
1 setlinejoin
0 setlinecap
0 0 m
-5 0 l
gsave
0.000 setgray
fill
grestore
stroke
grestore
} bind def
566.28 88.44 o
grestore
gsave
306.031094 84.658750 translate
0.000000 rotate
0.000000 0.140625 m /zero glyphshow
6.362305 0.140625 m /period glyphshow
9.541016 0.140625 m /two glyphshow
grestore
gsave
/o {
gsave
newpath
translate
1.0 setlinewidth
1 setlinejoin
0 setlinecap
0 0 m
5 0 l
gsave
0.000 setgray
fill
grestore
stroke
grestore
} bind def
324.297 117 o
grestore
gsave
/o {
gsave
newpath
translate
1.0 setlinewidth
1 setlinejoin
0 setlinecap
0 0 m
-5 0 l
gsave
0.000 setgray
fill
grestore
stroke
grestore
} bind def
566.28 117 o
grestore
gsave
305.781094 113.218750 translate
0.000000 rotate
0.000000 0.140625 m /zero glyphshow
6.362305 0.140625 m /period glyphshow
9.541016 0.140625 m /three glyphshow
grestore
gsave
/o {
gsave
newpath
translate
1.0 setlinewidth
1 setlinejoin
0 setlinecap
0 0 m
5 0 l
gsave
0.000 setgray
fill
grestore
stroke
grestore
} bind def
324.297 145.56 o
grestore
gsave
/o {
gsave
newpath
translate
1.0 setlinewidth
1 setlinejoin
0 setlinecap
0 0 m
-5 0 l
gsave
0.000 setgray
fill
grestore
stroke
grestore
} bind def
566.28 145.56 o
grestore
gsave
305.546719 141.778750 translate
0.000000 rotate
0.000000 0.140625 m /zero glyphshow
6.362305 0.140625 m /period glyphshow
9.541016 0.140625 m /four glyphshow
grestore
gsave
/o {
gsave
newpath
translate
1.0 setlinewidth
1 setlinejoin
0 setlinecap
0 0 m
5 0 l
gsave
0.000 setgray
fill
grestore
stroke
grestore
} bind def
324.297 174.12 o
grestore
gsave
/o {
gsave
newpath
translate
1.0 setlinewidth
1 setlinejoin
0 setlinecap
0 0 m
-5 0 l
gsave
0.000 setgray
fill
grestore
stroke
grestore
} bind def
566.28 174.12 o
grestore
gsave
305.812344 170.338750 translate
0.000000 rotate
0.000000 0.140625 m /zero glyphshow
6.362305 0.140625 m /period glyphshow
9.541016 0.140625 m /five glyphshow
grestore
gsave
300.546719 114.195313 translate
90.000000 rotate
0.000000 0.140625 m /b glyphshow
grestore
2 setlinecap
gsave
324.297 202.68 m
566.28 202.68 l
stroke
grestore
gsave
566.28 31.32 m
566.28 202.68 l
stroke
grestore
gsave
324.297 31.32 m
566.28 31.32 l
stroke
grestore
gsave
324.297 31.32 m
324.297 202.68 l
stroke
grestore

end
showpage
