%!PS-Adobe-3.0 EPSF-3.0
%%Title: /home/hettin12/webplots/03-20-15_shift_run/sample_stats/meanRV_plus_stdRV/meanRV_plus_stdRV_big.eps
%%Creator: matplotlib version 1.2.x, http://matplotlib.sourceforge.net/
%%CreationDate: Wed Apr  1 19:36:34 2015
%%Orientation: portrait
%%BoundingBox: 54 309 558 482
%%EndComments
%%BeginProlog
/mpldict 9 dict def
mpldict begin
/m { moveto } bind def
/l { lineto } bind def
/r { rlineto } bind def
/c { curveto } bind def
/cl { closepath } bind def
/box {
m
1 index 0 r
0 exch r
neg 0 r
cl
} bind def
/clipbox {
box
clip
newpath
} bind def
%!PS-Adobe-3.0 Resource-Font
%%Title: cmr10
%%Copyright: Copyright (C) 1994, Basil K. Malyshev. All Rights Reserved.012BaKoMa Fonts Collection, Level-B.
%%Creator: Converted from TrueType to type 3 by PPR
25 dict begin
/_d{bind def}bind def
/_m{moveto}_d
/_l{lineto}_d
/_cl{closepath eofill}_d
/_c{curveto}_d
/_sc{7 -1 roll{setcachedevice}{pop pop pop pop pop pop}ifelse}_d
/_e{exec}_d
/FontName /Cmr10 def
/PaintType 0 def
/FontMatrix[.001 0 0 .001 0 0]def
/FontBBox[-44 -250 1009 750]def
/FontType 3 def
/Encoding [ /R /V ] def
/FontInfo 10 dict dup begin
/FamilyName (cmr10) def
/FullName (cmr10) def
/Notice (Copyright (C) 1994, Basil K. Malyshev. All Rights Reserved.012BaKoMa Fonts Collection, Level-B. ) def
/Weight (Regular) def
/Version (1.1/12-Nov-94) def
/ItalicAngle 0.0 def
/isFixedPitch false def
/UnderlinePosition -133 def
/UnderlineThickness 20 def
end readonly def
/CharStrings 2 dict dup begin
/R{{736 0 33 -21 732 683 _sc
33 0 _m
33 35 _l
101 35 136 45 136 67 _c
136 616 _l
136 637 101 648 33 648 _c
33 683 _l
347 683 _l
384 683 423 676 465 663 _c
506 649 540 629 568 601 _c
596 573 610 540 610 502 _c
610 474 601 449 585 427 _c
568 405 546 386 520 372 _c
494 357 467 346 440 340 _c
470 329 496 312 518 290 _c
540 267 554 241 559 212 _c
573 123 _l
}_e{579 83 586 53 593 33 _c
600 13 616 4 641 4 _c
661 4 677 13 687 33 _c
697 52 703 73 703 96 _c
703 98 704 100 706 102 _c
708 104 710 105 713 105 _c
722 105 _l
728 105 732 100 732 92 _c
732 73 728 55 721 38 _c
713 20 703 6 690 -4 _c
676 -15 660 -21 642 -21 _c
594 -21 552 -9 518 14 _c
483 38 466 73 466 119 _c
466 208 _l
466 241 454 269 431 293 _c
}_e{407 317 379 329 346 329 _c
226 329 _l
226 67 _l
226 45 260 35 329 35 _c
329 0 _l
33 0 _l
226 355 _m
333 355 _l
388 355 430 366 459 388 _c
488 410 503 448 503 502 _c
503 555 488 593 460 615 _c
431 637 389 648 333 648 _c
277 648 _l
265 648 255 647 249 646 _c
242 645 236 642 232 638 _c
228 633 226 626 226 616 _c
226 355 _l
_cl}_e}_d
/V{{750 0 19 -21 730 683 _sc
352 -10 _m
116 616 _l
110 630 98 638 82 642 _c
66 646 45 648 19 648 _c
19 683 _l
294 683 _l
294 648 _l
238 648 211 639 211 622 _c
211 621 211 620 211 619 _c
211 618 212 617 212 616 _c
404 106 _l
585 589 _l
586 591 587 595 587 601 _c
587 617 579 628 564 636 _c
549 644 532 648 514 648 _c
514 683 _l
730 683 _l
730 648 _l
}_e{704 648 682 643 663 634 _c
644 624 631 609 623 589 _c
397 -10 _l
395 -17 389 -21 381 -21 _c
368 -21 _l
359 -21 354 -17 352 -10 _c
_cl}_e}_d
end readonly def

/BuildGlyph
 {exch begin
 CharStrings exch
 2 copy known not{pop /.notdef}if
 true 3 1 roll get exec
 end}_d

/BuildChar {
 1 index /Encoding get exch get
 1 index /BuildGlyph get exec
}_d

FontName currentdict end definefont pop
%!PS-Adobe-3.0 Resource-Font
%%Title: Bitstream Vera Serif
%%Copyright: Copyright (c) 2003 by Bitstream, Inc. All Rights Reserved.
%%Creator: Converted from TrueType to type 3 by PPR
25 dict begin
/_d{bind def}bind def
/_m{moveto}_d
/_l{lineto}_d
/_cl{closepath eofill}_d
/_c{curveto}_d
/_sc{7 -1 roll{setcachedevice}{pop pop pop pop pop pop}ifelse}_d
/_e{exec}_d
/FontName /BitstreamVeraSerif-Roman def
/PaintType 0 def
/FontMatrix[.001 0 0 .001 0 0]def
/FontBBox[-183 -236 1287 928]def
/FontType 3 def
/Encoding [ /space /parenleft /parenright /hyphen /slash /zero /one /two /three /four /five /six /I /M /N /P /R /V /a /c /d /e /g /h /i /k /l /m /n /o /r /s /t /minus ] def
/FontInfo 10 dict dup begin
/FamilyName (Bitstream Vera Serif) def
/FullName (Bitstream Vera Serif) def
/Notice (Copyright (c) 2003 by Bitstream, Inc. All Rights Reserved. Bitstream Vera is a trademark of Bitstream, Inc.) def
/Weight (Roman) def
/Version (Release 1.10) def
/ItalicAngle 0.0 def
/isFixedPitch false def
/UnderlinePosition -213 def
/UnderlineThickness 133 def
end readonly def
/CharStrings 34 dict dup begin
/space{318 0 0 0 0 0 _sc
}_d
/parenleft{390 0 79 -155 319 760 _sc
319 -155 _m
239 -119 179 -63 139 13 _c
99 89 79 186 79 302 _c
79 418 99 514 139 591 _c
179 668 239 724 319 760 _c
319 712 _l
269 677 233 628 211 566 _c
189 503 178 415 178 302 _c
178 188 189 100 211 38 _c
233 -24 269 -72 319 -107 _c
319 -155 _l
_cl}_d
/parenright{390 0 71 -155 311 760 _sc
71 -155 _m
71 -107 _l
121 -72 157 -24 179 38 _c
201 100 212 188 212 302 _c
212 415 201 503 179 566 _c
157 628 121 677 71 712 _c
71 760 _l
150 724 210 668 250 591 _c
290 514 311 418 311 302 _c
311 186 290 89 250 13 _c
210 -63 150 -119 71 -155 _c
_cl}_d
/hyphen{338 0 44 230 294 306 _sc
44 306 _m
294 306 _l
294 230 _l
44 230 _l
44 306 _l
_cl}_d
/slash{337 0 0 -92 337 729 _sc
259 729 _m
337 729 _l
78 -92 _l
0 -92 _l
259 729 _l
_cl}_d
/zero{636 0 66 -13 570 742 _sc
318 34 _m
368 34 405 61 430 116 _c
454 170 467 253 467 364 _c
467 474 454 557 430 612 _c
405 666 368 694 318 694 _c
268 694 230 666 206 612 _c
181 557 169 474 169 364 _c
169 253 181 170 206 116 _c
230 61 268 34 318 34 _c
318 -13 _m
238 -13 176 20 132 86 _c
88 152 66 244 66 364 _c
66 483 88 576 132 642 _c
176 708 238 742 318 742 _c
397 742 459 708 503 642 _c
547 576 570 483 570 364 _c
570 244 547 152 503 86 _c
459 20 397 -13 318 -13 _c
_cl}_d
/one{636 0 122 0 494 742 _sc
142 0 _m
142 52 _l
269 52 _l
269 658 _l
122 563 _l
122 627 _l
300 742 _l
367 742 _l
367 52 _l
494 52 _l
494 0 _l
142 0 _l
_cl}_d
/two{{636 0 68 0 538 742 _sc
128 555 _m
73 555 _l
73 685 _l
107 703 142 717 178 727 _c
213 737 248 742 282 742 _c
358 742 418 723 462 687 _c
506 650 528 600 528 537 _c
528 465 478 380 378 281 _c
370 273 365 268 361 264 _c
177 80 _l
481 80 _l
481 170 _l
538 170 _l
538 0 _l
68 0 _l
68 53 _l
289 274 _l
337 322 372 367 393 408 _c
414 449 425 492 425 537 _c
}_e{425 586 412 624 386 652 _c
360 680 325 694 281 694 _c
234 694 198 682 173 659 _c
147 636 132 601 128 555 _c
_cl}_e}_d
/three{{636 0 76 -13 562 742 _sc
97 698 _m
135 712 171 723 206 731 _c
241 738 274 742 305 742 _c
376 742 432 726 472 696 _c
512 665 532 622 532 568 _c
532 524 518 487 490 458 _c
462 428 423 408 373 398 _c
433 389 479 367 512 332 _c
545 297 562 252 562 197 _c
562 129 539 77 493 41 _c
447 5 382 -13 296 -13 _c
258 -13 220 -9 184 -1 _c
148 6 112 18 76 35 _c
76 177 _l
}_e{131 177 _l
134 129 150 94 178 70 _c
206 46 246 34 298 34 _c
348 34 387 48 416 77 _c
444 106 459 146 459 196 _c
459 253 444 296 414 326 _c
384 355 341 370 284 370 _c
238 370 _l
238 420 _l
262 420 _l
319 420 362 431 390 455 _c
418 479 433 514 433 562 _c
433 604 421 637 398 660 _c
374 682 341 694 297 694 _c
253 694 218 683 194 662 _c
170 641 156 610 152 570 _c
}_e{97 570 _l
97 698 _l
_cl}_e}_d
/four{636 0 31 0 586 742 _sc
349 247 _m
349 635 _l
100 247 _l
349 247 _l
564 0 _m
232 0 _l
232 52 _l
349 52 _l
349 195 _l
31 195 _l
31 248 _l
350 742 _l
447 742 _l
447 247 _l
586 247 _l
586 195 _l
447 195 _l
447 52 _l
564 52 _l
564 0 _l
_cl}_d
/five{{636 0 85 -13 559 729 _sc
503 729 _m
503 649 _l
169 649 _l
169 440 _l
185 452 205 460 228 466 _c
250 472 276 475 304 475 _c
382 475 444 453 490 409 _c
536 365 559 306 559 231 _c
559 153 536 93 490 51 _c
444 8 379 -13 296 -13 _c
262 -13 228 -9 193 -1 _c
157 6 121 18 85 35 _c
85 177 _l
140 177 _l
143 130 158 94 184 70 _c
210 46 248 34 296 34 _c
}_e{347 34 386 51 414 85 _c
442 119 456 167 456 231 _c
456 294 442 342 415 376 _c
387 410 348 427 296 427 _c
266 427 240 421 218 411 _c
196 401 176 385 159 363 _c
117 363 _l
117 729 _l
503 729 _l
_cl}_e}_d
/six{{636 0 67 -13 573 742 _sc
327 34 _m
373 34 408 50 433 84 _c
457 118 470 166 470 230 _c
470 293 457 341 433 375 _c
408 409 373 426 327 426 _c
280 426 244 409 220 377 _c
196 344 184 297 184 236 _c
184 171 196 121 221 86 _c
245 51 281 34 327 34 _c
168 401 _m
190 425 215 444 243 456 _c
271 468 302 474 338 474 _c
410 474 468 452 510 408 _c
552 364 573 305 573 230 _c
}_e{573 156 550 97 505 53 _c
459 9 399 -13 323 -13 _c
241 -13 177 17 133 78 _c
89 139 67 227 67 341 _c
67 468 93 567 145 637 _c
197 707 271 742 367 742 _c
393 742 420 739 448 735 _c
476 730 505 723 535 713 _c
535 593 _l
480 593 _l
476 625 463 650 442 668 _c
421 685 393 694 357 694 _c
293 694 246 670 215 622 _c
184 574 168 500 168 401 _c
_cl}_e}_d
/I{395 0 55 0 340 729 _sc
247 52 _m
340 52 _l
340 0 _l
55 0 _l
55 52 _l
148 52 _l
148 677 _l
55 677 _l
55 729 _l
340 729 _l
340 677 _l
247 677 _l
247 52 _l
_cl}_d
/M{1024 0 50 0 973 729 _sc
55 0 _m
55 52 _l
148 52 _l
148 677 _l
50 677 _l
50 729 _l
262 729 _l
518 210 _l
774 729 _l
973 729 _l
973 677 _l
876 677 _l
876 52 _l
969 52 _l
969 0 _l
684 0 _l
684 52 _l
777 52 _l
777 615 _l
527 107 _l
458 107 _l
208 615 _l
208 52 _l
301 52 _l
301 0 _l
55 0 _l
_cl}_d
/N{875 0 49 -13 831 729 _sc
49 0 _m
49 52 _l
147 52 _l
147 677 _l
49 677 _l
49 729 _l
236 729 _l
673 154 _l
673 677 _l
575 677 _l
575 729 _l
831 729 _l
831 677 _l
733 677 _l
733 -13 _l
674 -13 _l
207 600 _l
207 52 _l
305 52 _l
305 0 _l
49 0 _l
_cl}_d
/P{{673 0 55 0 637 729 _sc
247 371 _m
376 371 _l
424 371 461 384 487 410 _c
512 436 525 474 525 524 _c
525 574 512 612 487 638 _c
461 664 424 677 376 677 _c
247 677 _l
247 371 _l
55 0 _m
55 52 _l
148 52 _l
148 677 _l
55 677 _l
55 729 _l
400 729 _l
472 729 530 710 573 673 _c
615 636 637 586 637 524 _c
637 461 615 411 573 374 _c
530 337 472 319 400 319 _c
247 319 _l
}_e{247 52 _l
360 52 _l
360 0 _l
55 0 _l
_cl}_e}_d
/R{{753 0 55 0 777 729 _sc
479 362 _m
501 356 521 345 538 330 _c
554 315 569 294 582 268 _c
688 52 _l
777 52 _l
777 0 _l
605 0 _l
491 232 _l
469 276 449 305 431 319 _c
413 332 388 339 356 339 _c
247 339 _l
247 52 _l
350 52 _l
350 0 _l
55 0 _l
55 52 _l
148 52 _l
148 677 _l
55 677 _l
55 729 _l
425 729 _l
495 729 550 712 589 678 _c
}_e{627 644 647 596 647 534 _c
647 484 633 444 605 416 _c
577 387 535 369 479 362 _c
247 391 _m
391 391 _l
440 391 476 402 500 426 _c
523 449 535 485 535 534 _c
535 582 523 618 500 642 _c
476 665 440 677 391 677 _c
247 677 _l
247 391 _l
_cl}_e}_d
/V{722 0 -9 0 737 729 _sc
175 677 _m
390 117 _l
605 677 _l
523 677 _l
523 729 _l
737 729 _l
737 677 _l
666 677 _l
406 0 _l
322 0 _l
63 677 _l
-9 677 _l
-9 729 _l
256 729 _l
256 677 _l
175 677 _l
_cl}_d
/a{{596 0 50 -13 568 533 _sc
398 163 _m
398 273 _l
282 273 _l
237 273 204 263 182 244 _c
160 224 150 195 150 156 _c
150 120 161 91 183 70 _c
205 48 235 38 273 38 _c
310 38 340 49 363 72 _c
386 95 398 125 398 163 _c
488 324 _m
488 52 _l
568 52 _l
568 0 _l
398 0 _l
398 56 _l
378 32 355 14 329 3 _c
303 -7 272 -13 238 -13 _c
180 -13 134 2 100 32 _c
}_e{66 62 50 104 50 156 _c
50 209 69 250 108 280 _c
146 310 201 325 272 325 _c
398 325 _l
398 361 _l
398 400 386 430 362 452 _c
338 474 304 485 261 485 _c
225 485 197 476 176 460 _c
154 444 141 420 136 388 _c
90 388 _l
90 493 _l
121 506 151 516 181 523 _c
210 529 239 533 267 533 _c
339 533 393 515 431 479 _c
469 443 488 392 488 324 _c
_cl}_e}_d
/c{{560 0 50 -13 514 533 _sc
514 156 _m
501 100 477 58 441 30 _c
405 1 358 -13 301 -13 _c
225 -13 165 11 119 61 _c
73 111 50 177 50 260 _c
50 342 73 408 119 458 _c
165 508 225 533 301 533 _c
333 533 366 529 399 521 _c
431 513 464 502 497 487 _c
497 354 _l
445 354 _l
438 399 423 432 400 453 _c
377 474 344 485 302 485 _c
253 485 216 466 192 428 _c
}_e{167 390 155 334 155 260 _c
155 184 167 128 192 90 _c
216 52 253 34 302 34 _c
340 34 371 44 394 64 _c
417 84 433 115 442 156 _c
514 156 _l
_cl}_e}_d
/d{{640 0 50 -13 611 760 _sc
525 52 _m
611 52 _l
611 0 _l
435 0 _l
435 81 _l
417 48 395 24 368 9 _c
340 -5 307 -13 267 -13 _c
203 -13 150 12 110 62 _c
70 112 50 178 50 260 _c
50 341 70 407 110 457 _c
150 507 203 533 267 533 _c
307 533 340 525 368 510 _c
395 494 417 470 435 438 _c
435 708 _l
350 708 _l
350 760 _l
525 760 _l
525 52 _l
435 234 _m
435 285 _l
}_e{435 347 423 394 399 427 _c
375 460 340 477 295 477 _c
249 477 214 458 190 422 _c
166 386 155 332 155 260 _c
155 188 166 133 190 97 _c
214 60 249 42 295 42 _c
340 42 375 58 399 91 _c
423 123 435 171 435 234 _c
_cl}_e}_d
/e{{592 0 50 -13 542 533 _sc
542 250 _m
155 250 _l
155 246 _l
155 176 168 123 194 87 _c
220 51 259 34 311 34 _c
350 34 382 44 408 65 _c
433 85 451 116 461 157 _c
533 157 _l
519 100 492 57 454 29 _c
415 1 364 -13 302 -13 _c
226 -13 165 11 119 61 _c
73 111 50 177 50 260 _c
50 342 72 408 118 458 _c
163 508 222 533 296 533 _c
374 533 435 508 477 460 _c
}_e{519 412 540 342 542 250 _c
436 302 _m
434 362 421 408 397 439 _c
373 469 340 485 296 485 _c
254 485 222 469 198 438 _c
174 407 160 362 155 302 _c
436 302 _l
_cl}_e}_d
/g{{640 0 50 -221 611 533 _sc
525 467 _m
525 11 _l
525 -63 504 -120 463 -160 _c
422 -200 364 -221 288 -221 _c
254 -221 221 -218 190 -212 _c
158 -206 128 -196 100 -184 _c
100 -75 _l
147 -75 _l
153 -109 166 -133 188 -149 _c
210 -165 241 -173 282 -173 _c
334 -173 373 -158 398 -128 _c
422 -98 435 -51 435 11 _c
435 81 _l
417 48 395 24 368 9 _c
340 -5 307 -13 267 -13 _c
203 -13 150 12 110 62 _c
}_e{70 112 50 178 50 260 _c
50 341 70 407 110 457 _c
150 507 203 533 267 533 _c
307 533 340 525 368 510 _c
395 494 417 470 435 438 _c
435 519 _l
611 519 _l
611 467 _l
525 467 _l
435 285 _m
435 347 423 394 399 427 _c
375 460 340 477 295 477 _c
249 477 214 458 190 422 _c
166 386 155 332 155 260 _c
155 188 166 133 190 97 _c
214 60 249 42 295 42 _c
}_e{340 42 375 58 399 91 _c
423 123 435 171 435 234 _c
435 285 _l
_cl}_e}_d
/h{{644 0 36 0 616 760 _sc
41 0 _m
41 52 _l
122 52 _l
122 708 _l
36 708 _l
36 760 _l
212 760 _l
212 427 _l
228 461 250 488 276 506 _c
302 524 333 533 369 533 _c
426 533 468 516 495 484 _c
522 451 536 400 536 330 _c
536 52 _l
616 52 _l
616 0 _l
368 0 _l
368 52 _l
446 52 _l
446 302 _l
446 365 438 408 422 432 _c
406 455 379 467 340 467 _c
}_e{298 467 266 451 244 421 _c
222 391 212 347 212 289 _c
212 52 _l
290 52 _l
290 0 _l
41 0 _l
_cl}_e}_d
/i{320 0 36 0 297 736 _sc
97 680 _m
97 695 102 708 113 719 _c
124 730 137 736 153 736 _c
167 736 180 730 191 719 _c
202 708 208 695 208 680 _c
208 664 202 651 192 641 _c
181 630 168 625 153 625 _c
137 625 124 630 113 641 _c
102 651 97 664 97 680 _c
212 52 _m
297 52 _l
297 0 _l
36 0 _l
36 52 _l
122 52 _l
122 467 _l
36 467 _l
36 519 _l
212 519 _l
212 52 _l
_cl}_d
/k{{606 0 29 0 613 760 _sc
286 0 _m
34 0 _l
34 52 _l
115 52 _l
115 708 _l
29 708 _l
29 760 _l
205 760 _l
205 265 _l
424 467 _l
349 467 _l
349 519 _l
584 519 _l
584 467 _l
495 467 _l
341 324 _l
538 52 _l
613 52 _l
613 0 _l
357 0 _l
357 52 _l
431 52 _l
276 265 _l
205 199 _l
205 52 _l
286 52 _l
286 0 _l
_cl}_e}_d
/l{320 0 29 0 290 760 _sc
205 52 _m
290 52 _l
290 0 _l
29 0 _l
29 52 _l
115 52 _l
115 708 _l
29 708 _l
29 760 _l
205 760 _l
205 52 _l
_cl}_d
/m{{948 0 36 0 921 533 _sc
518 418 _m
535 456 557 484 584 504 _c
611 523 642 533 678 533 _c
732 533 773 516 800 482 _c
826 448 840 398 840 330 _c
840 52 _l
921 52 _l
921 0 _l
672 0 _l
672 52 _l
750 52 _l
750 320 _l
750 372 742 410 726 433 _c
710 455 685 467 649 467 _c
609 467 578 451 557 421 _c
536 391 526 347 526 289 _c
526 52 _l
604 52 _l
604 0 _l
358 0 _l
}_e{358 52 _l
436 52 _l
436 323 _l
436 375 428 412 412 434 _c
396 456 371 467 335 467 _c
295 467 264 451 243 421 _c
222 391 212 347 212 289 _c
212 52 _l
290 52 _l
290 0 _l
41 0 _l
41 52 _l
122 52 _l
122 468 _l
36 468 _l
36 519 _l
212 519 _l
212 427 _l
228 461 249 488 275 506 _c
301 524 330 533 363 533 _c
403 533 436 523 463 503 _c
}_e{490 483 508 454 518 418 _c
_cl}_e}_d
/n{{644 0 36 0 616 533 _sc
41 0 _m
41 52 _l
122 52 _l
122 467 _l
36 467 _l
36 519 _l
212 519 _l
212 427 _l
228 461 250 488 276 506 _c
302 524 333 533 369 533 _c
426 533 468 516 495 484 _c
522 451 536 400 536 330 _c
536 52 _l
616 52 _l
616 0 _l
368 0 _l
368 52 _l
446 52 _l
446 302 _l
446 365 438 408 422 432 _c
406 456 379 468 340 468 _c
}_e{298 468 266 452 244 422 _c
222 391 212 347 212 289 _c
212 52 _l
290 52 _l
290 0 _l
41 0 _l
_cl}_e}_d
/o{602 0 50 -13 552 533 _sc
301 34 _m
349 34 385 53 410 91 _c
434 129 447 185 447 260 _c
447 334 434 390 410 428 _c
385 466 349 485 301 485 _c
253 485 216 466 192 428 _c
167 390 155 334 155 260 _c
155 185 167 129 192 91 _c
216 53 253 34 301 34 _c
301 -13 _m
225 -13 165 11 119 61 _c
73 111 50 177 50 260 _c
50 342 72 408 118 458 _c
164 508 225 533 301 533 _c
377 533 437 508 483 458 _c
529 408 552 342 552 260 _c
552 177 529 111 483 61 _c
437 11 377 -13 301 -13 _c
_cl}_d
/r{478 0 36 0 478 533 _sc
478 520 _m
478 390 _l
426 390 _l
424 416 417 435 405 448 _c
392 460 373 467 349 467 _c
305 467 271 451 247 421 _c
223 390 212 346 212 289 _c
212 52 _l
316 52 _l
316 0 _l
41 0 _l
41 52 _l
122 52 _l
122 468 _l
36 468 _l
36 519 _l
212 519 _l
212 427 _l
229 463 251 489 279 507 _c
307 524 341 533 381 533 _c
395 533 411 531 427 529 _c
443 527 460 524 478 520 _c
_cl}_d
/s{{513 0 56 -13 462 533 _sc
56 29 _m
56 150 _l
108 150 _l
109 111 121 82 144 63 _c
167 43 201 34 246 34 _c
286 34 317 41 338 57 _c
359 72 370 94 370 123 _c
370 145 362 164 347 178 _c
331 192 299 207 249 223 _c
184 245 _l
139 259 107 277 87 299 _c
67 320 57 347 57 381 _c
57 428 74 465 109 492 _c
144 519 192 533 254 533 _c
281 533 310 529 340 522 _c
}_e{370 515 402 505 434 491 _c
434 378 _l
382 378 _l
380 411 369 437 347 456 _c
325 475 295 485 257 485 _c
219 485 190 478 171 465 _c
151 451 142 431 142 405 _c
142 383 149 365 164 352 _c
178 339 208 326 252 312 _c
323 290 _l
372 274 407 255 429 232 _c
451 209 462 180 462 144 _c
462 94 443 56 405 28 _c
367 0 316 -13 250 -13 _c
216 -13 184 -9 152 -3 _c
}_e{120 3 88 14 56 29 _c
_cl}_e}_d
/t{402 0 29 -13 394 680 _sc
108 467 _m
29 467 _l
29 519 _l
108 519 _l
108 680 _l
198 680 _l
198 519 _l
367 519 _l
367 467 _l
198 467 _l
198 137 _l
198 93 202 64 211 52 _c
219 40 235 34 258 34 _c
281 34 298 41 309 55 _c
319 69 325 91 326 122 _c
394 122 _l
391 74 378 40 355 19 _c
332 -2 297 -13 250 -13 _c
198 -13 161 -1 140 21 _c
118 43 108 82 108 137 _c
108 467 _l
_cl}_d
/minus{838 0 106 274 732 353 _sc
106 353 _m
732 353 _l
732 274 _l
106 274 _l
106 353 _l
_cl}_d
end readonly def

/BuildGlyph
 {exch begin
 CharStrings exch
 2 copy known not{pop /.notdef}if
 true 3 1 roll get exec
 end}_d

/BuildChar {
 1 index /Encoding get exch get
 1 index /BuildGlyph get exec
}_d

FontName currentdict end definefont pop
end
%%EndProlog
mpldict begin
54 309.475 translate
504 173.05 0 0 clipbox
gsave
0 0 m
504 0 l
504 173.05 l
0 173.05 l
cl
1.000 setgray
fill
grestore
gsave
22.5225 27.9337 m
243.97 27.9337 l
243.97 169.09 l
22.5225 169.09 l
cl
1.000 setgray
fill
grestore
5.000 setlinewidth
1 setlinejoin
2 setlinecap
[] 0 setdash
0.118 0.565 1.000 setrgbcolor
gsave
221.4 141.2 22.52 27.93 clipbox
22.6455 8.68518 m
26.4593 8.68518 l
26.4593 40.7661 l
34.087 40.7661 l
34.087 50.4235 l
41.7146 50.4235 l
41.7146 40.7661 l
49.3422 40.7661 l
49.3422 60.0808 l
56.9698 60.0808 l
56.9698 77.535 l
64.5974 77.535 l
64.5974 93.1694 l
72.2251 93.1694 l
72.2251 101.466 l
79.8527 101.466 l
79.8527 110.105 l
87.4803 110.105 l
87.4803 115.065 l
95.1079 115.065 l
95.1079 119.422 l
102.736 119.422 l
102.736 126.16 l
110.363 126.16 l
110.363 127.844 l
117.991 127.844 l
117.991 130.594 l
125.618 130.594 l
125.618 129.681 l
133.246 129.681 l
133.246 128.32 l
140.874 128.32 l
140.874 125.347 l
148.501 125.347 l
148.501 121.221 l
156.129 121.221 l
156.129 114.375 l
163.757 114.375 l
163.757 106.382 l
171.384 106.382 l
171.384 104.066 l
179.012 104.066 l
179.012 94.9892 l
186.639 94.9892 l
186.639 84.4517 l
194.267 84.4517 l
194.267 79.3954 l
201.895 79.3954 l
201.895 63.1898 l
209.522 63.1898 l
209.522 60.0808 l
217.15 60.0808 l
217.15 40.7661 l
224.778 40.7661 l
224.778 8.68518 l
232.405 8.68518 l
232.405 8.68518 l
240.033 8.68518 l
240.033 8.68518 l
243.847 8.68518 l
stroke
grestore
3.000 setlinewidth
0.000 setgray
gsave
221.4 141.2 22.52 27.93 clipbox
22.6455 8.68518 m
26.4593 8.68518 l
26.4593 8.68518 l
34.087 8.68518 l
34.087 8.68518 l
41.7146 8.68518 l
41.7146 8.68518 l
49.3422 8.68518 l
49.3422 50.4235 l
56.9698 50.4235 l
56.9698 63.1898 l
64.5974 63.1898 l
64.5974 76.5025 l
72.2251 76.5025 l
72.2251 91.0755 l
79.8527 91.0755 l
79.8527 99.7582 l
87.4803 99.7582 l
87.4803 106.754 l
95.1079 106.754 l
95.1079 112.962 l
102.736 112.962 l
102.736 121.814 l
110.363 121.814 l
110.363 126.038 l
117.991 126.038 l
117.991 133.259 l
125.618 133.259 l
125.618 135.664 l
133.246 135.664 l
133.246 134.295 l
140.874 134.295 l
140.874 127.042 l
148.501 127.042 l
148.501 118.971 l
156.129 118.971 l
156.129 110.944 l
163.757 110.944 l
163.757 98.4907 l
171.384 98.4907 l
171.384 91.0755 l
179.012 91.0755 l
179.012 84.4517 l
186.639 84.4517 l
186.639 71.3791 l
194.267 71.3791 l
194.267 65.73 l
201.895 65.73 l
201.895 60.0808 l
209.522 60.0808 l
209.522 50.4235 l
217.15 50.4235 l
217.15 40.7661 l
224.778 40.7661 l
224.778 40.7661 l
232.405 40.7661 l
232.405 8.68518 l
240.033 8.68518 l
240.033 8.68518 l
243.847 8.68518 l
stroke
grestore
1.000 setlinewidth
1.000 0.000 0.000 setrgbcolor
gsave
221.4 141.2 22.52 27.93 clipbox
22.6455 8.68518 m
26.4593 8.68518 l
26.4593 8.68518 l
34.087 8.68518 l
34.087 8.68518 l
41.7146 8.68518 l
41.7146 8.68518 l
49.3422 8.68518 l
49.3422 8.68518 l
56.9698 8.68518 l
56.9698 8.68518 l
64.5974 8.68518 l
64.5974 8.68518 l
72.2251 8.68518 l
72.2251 8.68518 l
79.8527 8.68518 l
79.8527 40.7661 l
87.4803 40.7661 l
87.4803 56.0726 l
95.1079 56.0726 l
95.1079 79.3954 l
102.736 79.3954 l
102.736 91.0755 l
110.363 91.0755 l
110.363 106.875 l
117.991 106.875 l
117.991 131.283 l
125.618 131.283 l
125.618 143.205 l
133.246 143.205 l
133.246 143.142 l
140.874 143.142 l
140.874 131.554 l
148.501 131.554 l
148.501 107.352 l
156.129 107.352 l
156.129 82.5044 l
163.757 82.5044 l
163.757 56.0726 l
171.384 56.0726 l
171.384 8.68518 l
179.012 8.68518 l
179.012 40.7661 l
186.639 40.7661 l
186.639 8.68518 l
194.267 8.68518 l
194.267 8.68518 l
201.895 8.68518 l
201.895 8.68518 l
209.522 8.68518 l
209.522 8.68518 l
217.15 8.68518 l
217.15 8.68518 l
224.778 8.68518 l
224.778 8.68518 l
232.405 8.68518 l
232.405 8.68518 l
240.033 8.68518 l
240.033 8.68518 l
243.847 8.68518 l
stroke
grestore
0 setlinecap
0.000 setgray
gsave
/o {
gsave
newpath
translate
1.0 setlinewidth
1 setlinejoin
0 setlinecap
0 0 m
0 5 l
gsave
0.000 setgray
fill
grestore
stroke
grestore
} bind def
22.5225 27.9337 o
grestore
gsave
/o {
gsave
newpath
translate
1.0 setlinewidth
1 setlinejoin
0 setlinecap
0 0 m
0 -5 l
gsave
0.000 setgray
fill
grestore
stroke
grestore
} bind def
22.5225 169.09 o
grestore
/BitstreamVeraSerif-Roman findfont
8.000 scalefont
setfont
gsave
12.217812 17.886875 translate
0.000000 rotate
0.000000 0.109375 m /minus glyphshow
6.703125 0.109375 m /six glyphshow
11.792969 0.109375 m /zero glyphshow
16.882812 0.109375 m /zero glyphshow
grestore
gsave
/o {
gsave
newpath
translate
1.0 setlinewidth
1 setlinejoin
0 setlinecap
0 0 m
0 5 l
gsave
0.000 setgray
fill
grestore
stroke
grestore
} bind def
59.4303 27.9337 o
grestore
gsave
/o {
gsave
newpath
translate
1.0 setlinewidth
1 setlinejoin
0 setlinecap
0 0 m
0 -5 l
gsave
0.000 setgray
fill
grestore
stroke
grestore
} bind def
59.4303 169.09 o
grestore
gsave
49.125661 17.886875 translate
0.000000 rotate
0.000000 0.109375 m /minus glyphshow
6.703125 0.109375 m /four glyphshow
11.792969 0.109375 m /zero glyphshow
16.882812 0.109375 m /zero glyphshow
grestore
gsave
/o {
gsave
newpath
translate
1.0 setlinewidth
1 setlinejoin
0 setlinecap
0 0 m
0 5 l
gsave
0.000 setgray
fill
grestore
stroke
grestore
} bind def
96.3382 27.9337 o
grestore
gsave
/o {
gsave
newpath
translate
1.0 setlinewidth
1 setlinejoin
0 setlinecap
0 0 m
0 -5 l
gsave
0.000 setgray
fill
grestore
stroke
grestore
} bind def
96.3382 169.09 o
grestore
gsave
86.033510 17.886875 translate
0.000000 rotate
0.000000 0.109375 m /minus glyphshow
6.703125 0.109375 m /two glyphshow
11.792969 0.109375 m /zero glyphshow
16.882812 0.109375 m /zero glyphshow
grestore
gsave
/o {
gsave
newpath
translate
1.0 setlinewidth
1 setlinejoin
0 setlinecap
0 0 m
0 5 l
gsave
0.000 setgray
fill
grestore
stroke
grestore
} bind def
133.246 27.9337 o
grestore
gsave
/o {
gsave
newpath
translate
1.0 setlinewidth
1 setlinejoin
0 setlinecap
0 0 m
0 -5 l
gsave
0.000 setgray
fill
grestore
stroke
grestore
} bind def
133.246 169.09 o
grestore
gsave
131.230422 17.886875 translate
0.000000 rotate
0.000000 0.109375 m /zero glyphshow
grestore
gsave
/o {
gsave
newpath
translate
1.0 setlinewidth
1 setlinejoin
0 setlinecap
0 0 m
0 5 l
gsave
0.000 setgray
fill
grestore
stroke
grestore
} bind def
170.154 27.9337 o
grestore
gsave
/o {
gsave
newpath
translate
1.0 setlinewidth
1 setlinejoin
0 setlinecap
0 0 m
0 -5 l
gsave
0.000 setgray
fill
grestore
stroke
grestore
} bind def
170.154 169.09 o
grestore
gsave
163.052333 17.886875 translate
0.000000 rotate
0.000000 0.109375 m /two glyphshow
5.089844 0.109375 m /zero glyphshow
10.179688 0.109375 m /zero glyphshow
grestore
gsave
/o {
gsave
newpath
translate
1.0 setlinewidth
1 setlinejoin
0 setlinecap
0 0 m
0 5 l
gsave
0.000 setgray
fill
grestore
stroke
grestore
} bind def
207.062 27.9337 o
grestore
gsave
/o {
gsave
newpath
translate
1.0 setlinewidth
1 setlinejoin
0 setlinecap
0 0 m
0 -5 l
gsave
0.000 setgray
fill
grestore
stroke
grestore
} bind def
207.062 169.09 o
grestore
gsave
199.811744 17.886875 translate
0.000000 rotate
0.000000 0.109375 m /four glyphshow
5.089844 0.109375 m /zero glyphshow
10.179688 0.109375 m /zero glyphshow
grestore
gsave
/o {
gsave
newpath
translate
1.0 setlinewidth
1 setlinejoin
0 setlinecap
0 0 m
0 5 l
gsave
0.000 setgray
fill
grestore
stroke
grestore
} bind def
243.97 27.9337 o
grestore
gsave
/o {
gsave
newpath
translate
1.0 setlinewidth
1 setlinejoin
0 setlinecap
0 0 m
0 -5 l
gsave
0.000 setgray
fill
grestore
stroke
grestore
} bind def
243.97 169.09 o
grestore
gsave
236.860218 17.886875 translate
0.000000 rotate
0.000000 0.109375 m /six glyphshow
5.089844 0.109375 m /zero glyphshow
10.179688 0.109375 m /zero glyphshow
grestore
gsave
113.246047 2.886875 translate
0.000000 rotate
0.000000 9.000000 11.886719 0.500000 rectfill
/Cmr10 findfont
8.0 scalefont
setfont
0.000000 3.031250 moveto
/R glyphshow

5.886719 3.031250 moveto
/V glyphshow

/BitstreamVeraSerif-Roman findfont
8.0 scalefont
setfont
11.886719 2.551250 moveto
/space glyphshow

14.429688 2.551250 moveto
/parenleft glyphshow

17.550781 2.551250 moveto
/k glyphshow

22.398438 2.551250 moveto
/m glyphshow

29.984375 2.551250 moveto
/slash glyphshow

32.679688 2.551250 moveto
/s glyphshow

36.785156 2.551250 moveto
/parenright glyphshow


grestore
gsave
/o {
gsave
newpath
translate
1.0 setlinewidth
1 setlinejoin
0 setlinecap
0 0 m
5 0 l
gsave
0.000 setgray
fill
grestore
stroke
grestore
} bind def
22.5225 40.7661 o
grestore
gsave
/o {
gsave
newpath
translate
1.0 setlinewidth
1 setlinejoin
0 setlinecap
0 0 m
-5 0 l
gsave
0.000 setgray
fill
grestore
stroke
grestore
} bind def
243.97 40.7661 o
grestore
gsave
14.491250 37.742694 translate
0.000000 rotate
0.000000 0.109375 m /zero glyphshow
grestore
gsave
/o {
gsave
newpath
translate
1.0 setlinewidth
1 setlinejoin
0 setlinecap
0 0 m
5 0 l
gsave
0.000 setgray
fill
grestore
stroke
grestore
} bind def
22.5225 72.8471 o
grestore
gsave
/o {
gsave
newpath
translate
1.0 setlinewidth
1 setlinejoin
0 setlinecap
0 0 m
-5 0 l
gsave
0.000 setgray
fill
grestore
stroke
grestore
} bind def
243.97 72.8471 o
grestore
gsave
15.553750 69.878334 translate
0.000000 rotate
0.000000 0.000000 m /one glyphshow
grestore
gsave
/o {
gsave
newpath
translate
1.0 setlinewidth
1 setlinejoin
0 setlinecap
0 0 m
5 0 l
gsave
0.000 setgray
fill
grestore
stroke
grestore
} bind def
22.5225 104.928 o
grestore
gsave
/o {
gsave
newpath
translate
1.0 setlinewidth
1 setlinejoin
0 setlinecap
0 0 m
-5 0 l
gsave
0.000 setgray
fill
grestore
stroke
grestore
} bind def
243.97 104.928 o
grestore
gsave
14.756875 101.959287 translate
0.000000 rotate
0.000000 0.000000 m /two glyphshow
grestore
gsave
/o {
gsave
newpath
translate
1.0 setlinewidth
1 setlinejoin
0 setlinecap
0 0 m
5 0 l
gsave
0.000 setgray
fill
grestore
stroke
grestore
} bind def
22.5225 137.009 o
grestore
gsave
/o {
gsave
newpath
translate
1.0 setlinewidth
1 setlinejoin
0 setlinecap
0 0 m
-5 0 l
gsave
0.000 setgray
fill
grestore
stroke
grestore
} bind def
243.97 137.009 o
grestore
gsave
14.631875 133.985553 translate
0.000000 rotate
0.000000 0.109375 m /three glyphshow
grestore
gsave
/o {
gsave
newpath
translate
1.0 setlinewidth
1 setlinejoin
0 setlinecap
0 0 m
5 0 l
gsave
0.000 setgray
fill
grestore
stroke
grestore
} bind def
22.5225 169.09 o
grestore
gsave
/o {
gsave
newpath
translate
1.0 setlinewidth
1 setlinejoin
0 setlinecap
0 0 m
-5 0 l
gsave
0.000 setgray
fill
grestore
stroke
grestore
} bind def
243.97 169.09 o
grestore
gsave
14.085000 166.121193 translate
0.000000 rotate
0.000000 0.000000 m /four glyphshow
grestore
0.500 setlinewidth
gsave
/o {
gsave
newpath
translate
0.5 setlinewidth
1 setlinejoin
0 setlinecap
0 0 m
3 0 l
gsave
0.000 setgray
fill
grestore
stroke
grestore
} bind def
22.5225 50.4225 o
grestore
gsave
/o {
gsave
newpath
translate
0.5 setlinewidth
1 setlinejoin
0 setlinecap
0 0 m
-3 0 l
gsave
0.000 setgray
fill
grestore
stroke
grestore
} bind def
243.97 50.4225 o
grestore
gsave
/o {
gsave
newpath
translate
0.5 setlinewidth
1 setlinejoin
0 setlinecap
0 0 m
3 0 l
gsave
0.000 setgray
fill
grestore
stroke
grestore
} bind def
22.5225 56.072 o
grestore
gsave
/o {
gsave
newpath
translate
0.5 setlinewidth
1 setlinejoin
0 setlinecap
0 0 m
-3 0 l
gsave
0.000 setgray
fill
grestore
stroke
grestore
} bind def
243.97 56.072 o
grestore
gsave
/o {
gsave
newpath
translate
0.5 setlinewidth
1 setlinejoin
0 setlinecap
0 0 m
3 0 l
gsave
0.000 setgray
fill
grestore
stroke
grestore
} bind def
22.5225 60.0821 o
grestore
gsave
/o {
gsave
newpath
translate
0.5 setlinewidth
1 setlinejoin
0 setlinecap
0 0 m
-3 0 l
gsave
0.000 setgray
fill
grestore
stroke
grestore
} bind def
243.97 60.0821 o
grestore
gsave
/o {
gsave
newpath
translate
0.5 setlinewidth
1 setlinejoin
0 setlinecap
0 0 m
3 0 l
gsave
0.000 setgray
fill
grestore
stroke
grestore
} bind def
22.5225 63.1898 o
grestore
gsave
/o {
gsave
newpath
translate
0.5 setlinewidth
1 setlinejoin
0 setlinecap
0 0 m
-3 0 l
gsave
0.000 setgray
fill
grestore
stroke
grestore
} bind def
243.97 63.1898 o
grestore
gsave
/o {
gsave
newpath
translate
0.5 setlinewidth
1 setlinejoin
0 setlinecap
0 0 m
3 0 l
gsave
0.000 setgray
fill
grestore
stroke
grestore
} bind def
22.5225 65.7299 o
grestore
gsave
/o {
gsave
newpath
translate
0.5 setlinewidth
1 setlinejoin
0 setlinecap
0 0 m
-3 0 l
gsave
0.000 setgray
fill
grestore
stroke
grestore
} bind def
243.97 65.7299 o
grestore
gsave
/o {
gsave
newpath
translate
0.5 setlinewidth
1 setlinejoin
0 setlinecap
0 0 m
3 0 l
gsave
0.000 setgray
fill
grestore
stroke
grestore
} bind def
22.5225 67.8777 o
grestore
gsave
/o {
gsave
newpath
translate
0.5 setlinewidth
1 setlinejoin
0 setlinecap
0 0 m
-3 0 l
gsave
0.000 setgray
fill
grestore
stroke
grestore
} bind def
243.97 67.8777 o
grestore
gsave
/o {
gsave
newpath
translate
0.5 setlinewidth
1 setlinejoin
0 setlinecap
0 0 m
3 0 l
gsave
0.000 setgray
fill
grestore
stroke
grestore
} bind def
22.5225 69.7384 o
grestore
gsave
/o {
gsave
newpath
translate
0.5 setlinewidth
1 setlinejoin
0 setlinecap
0 0 m
-3 0 l
gsave
0.000 setgray
fill
grestore
stroke
grestore
} bind def
243.97 69.7384 o
grestore
gsave
/o {
gsave
newpath
translate
0.5 setlinewidth
1 setlinejoin
0 setlinecap
0 0 m
3 0 l
gsave
0.000 setgray
fill
grestore
stroke
grestore
} bind def
22.5225 71.3791 o
grestore
gsave
/o {
gsave
newpath
translate
0.5 setlinewidth
1 setlinejoin
0 setlinecap
0 0 m
-3 0 l
gsave
0.000 setgray
fill
grestore
stroke
grestore
} bind def
243.97 71.3791 o
grestore
gsave
/o {
gsave
newpath
translate
0.5 setlinewidth
1 setlinejoin
0 setlinecap
0 0 m
3 0 l
gsave
0.000 setgray
fill
grestore
stroke
grestore
} bind def
22.5225 82.5035 o
grestore
gsave
/o {
gsave
newpath
translate
0.5 setlinewidth
1 setlinejoin
0 setlinecap
0 0 m
-3 0 l
gsave
0.000 setgray
fill
grestore
stroke
grestore
} bind def
243.97 82.5035 o
grestore
gsave
/o {
gsave
newpath
translate
0.5 setlinewidth
1 setlinejoin
0 setlinecap
0 0 m
3 0 l
gsave
0.000 setgray
fill
grestore
stroke
grestore
} bind def
22.5225 88.1529 o
grestore
gsave
/o {
gsave
newpath
translate
0.5 setlinewidth
1 setlinejoin
0 setlinecap
0 0 m
-3 0 l
gsave
0.000 setgray
fill
grestore
stroke
grestore
} bind def
243.97 88.1529 o
grestore
gsave
/o {
gsave
newpath
translate
0.5 setlinewidth
1 setlinejoin
0 setlinecap
0 0 m
3 0 l
gsave
0.000 setgray
fill
grestore
stroke
grestore
} bind def
22.5225 92.163 o
grestore
gsave
/o {
gsave
newpath
translate
0.5 setlinewidth
1 setlinejoin
0 setlinecap
0 0 m
-3 0 l
gsave
0.000 setgray
fill
grestore
stroke
grestore
} bind def
243.97 92.163 o
grestore
gsave
/o {
gsave
newpath
translate
0.5 setlinewidth
1 setlinejoin
0 setlinecap
0 0 m
3 0 l
gsave
0.000 setgray
fill
grestore
stroke
grestore
} bind def
22.5225 95.2707 o
grestore
gsave
/o {
gsave
newpath
translate
0.5 setlinewidth
1 setlinejoin
0 setlinecap
0 0 m
-3 0 l
gsave
0.000 setgray
fill
grestore
stroke
grestore
} bind def
243.97 95.2707 o
grestore
gsave
/o {
gsave
newpath
translate
0.5 setlinewidth
1 setlinejoin
0 setlinecap
0 0 m
3 0 l
gsave
0.000 setgray
fill
grestore
stroke
grestore
} bind def
22.5225 97.8109 o
grestore
gsave
/o {
gsave
newpath
translate
0.5 setlinewidth
1 setlinejoin
0 setlinecap
0 0 m
-3 0 l
gsave
0.000 setgray
fill
grestore
stroke
grestore
} bind def
243.97 97.8109 o
grestore
gsave
/o {
gsave
newpath
translate
0.5 setlinewidth
1 setlinejoin
0 setlinecap
0 0 m
3 0 l
gsave
0.000 setgray
fill
grestore
stroke
grestore
} bind def
22.5225 99.9587 o
grestore
gsave
/o {
gsave
newpath
translate
0.5 setlinewidth
1 setlinejoin
0 setlinecap
0 0 m
-3 0 l
gsave
0.000 setgray
fill
grestore
stroke
grestore
} bind def
243.97 99.9587 o
grestore
gsave
/o {
gsave
newpath
translate
0.5 setlinewidth
1 setlinejoin
0 setlinecap
0 0 m
3 0 l
gsave
0.000 setgray
fill
grestore
stroke
grestore
} bind def
22.5225 101.819 o
grestore
gsave
/o {
gsave
newpath
translate
0.5 setlinewidth
1 setlinejoin
0 setlinecap
0 0 m
-3 0 l
gsave
0.000 setgray
fill
grestore
stroke
grestore
} bind def
243.97 101.819 o
grestore
gsave
/o {
gsave
newpath
translate
0.5 setlinewidth
1 setlinejoin
0 setlinecap
0 0 m
3 0 l
gsave
0.000 setgray
fill
grestore
stroke
grestore
} bind def
22.5225 103.46 o
grestore
gsave
/o {
gsave
newpath
translate
0.5 setlinewidth
1 setlinejoin
0 setlinecap
0 0 m
-3 0 l
gsave
0.000 setgray
fill
grestore
stroke
grestore
} bind def
243.97 103.46 o
grestore
gsave
/o {
gsave
newpath
translate
0.5 setlinewidth
1 setlinejoin
0 setlinecap
0 0 m
3 0 l
gsave
0.000 setgray
fill
grestore
stroke
grestore
} bind def
22.5225 114.584 o
grestore
gsave
/o {
gsave
newpath
translate
0.5 setlinewidth
1 setlinejoin
0 setlinecap
0 0 m
-3 0 l
gsave
0.000 setgray
fill
grestore
stroke
grestore
} bind def
243.97 114.584 o
grestore
gsave
/o {
gsave
newpath
translate
0.5 setlinewidth
1 setlinejoin
0 setlinecap
0 0 m
3 0 l
gsave
0.000 setgray
fill
grestore
stroke
grestore
} bind def
22.5225 120.234 o
grestore
gsave
/o {
gsave
newpath
translate
0.5 setlinewidth
1 setlinejoin
0 setlinecap
0 0 m
-3 0 l
gsave
0.000 setgray
fill
grestore
stroke
grestore
} bind def
243.97 120.234 o
grestore
gsave
/o {
gsave
newpath
translate
0.5 setlinewidth
1 setlinejoin
0 setlinecap
0 0 m
3 0 l
gsave
0.000 setgray
fill
grestore
stroke
grestore
} bind def
22.5225 124.244 o
grestore
gsave
/o {
gsave
newpath
translate
0.5 setlinewidth
1 setlinejoin
0 setlinecap
0 0 m
-3 0 l
gsave
0.000 setgray
fill
grestore
stroke
grestore
} bind def
243.97 124.244 o
grestore
gsave
/o {
gsave
newpath
translate
0.5 setlinewidth
1 setlinejoin
0 setlinecap
0 0 m
3 0 l
gsave
0.000 setgray
fill
grestore
stroke
grestore
} bind def
22.5225 127.352 o
grestore
gsave
/o {
gsave
newpath
translate
0.5 setlinewidth
1 setlinejoin
0 setlinecap
0 0 m
-3 0 l
gsave
0.000 setgray
fill
grestore
stroke
grestore
} bind def
243.97 127.352 o
grestore
gsave
/o {
gsave
newpath
translate
0.5 setlinewidth
1 setlinejoin
0 setlinecap
0 0 m
3 0 l
gsave
0.000 setgray
fill
grestore
stroke
grestore
} bind def
22.5225 129.892 o
grestore
gsave
/o {
gsave
newpath
translate
0.5 setlinewidth
1 setlinejoin
0 setlinecap
0 0 m
-3 0 l
gsave
0.000 setgray
fill
grestore
stroke
grestore
} bind def
243.97 129.892 o
grestore
gsave
/o {
gsave
newpath
translate
0.5 setlinewidth
1 setlinejoin
0 setlinecap
0 0 m
3 0 l
gsave
0.000 setgray
fill
grestore
stroke
grestore
} bind def
22.5225 132.04 o
grestore
gsave
/o {
gsave
newpath
translate
0.5 setlinewidth
1 setlinejoin
0 setlinecap
0 0 m
-3 0 l
gsave
0.000 setgray
fill
grestore
stroke
grestore
} bind def
243.97 132.04 o
grestore
gsave
/o {
gsave
newpath
translate
0.5 setlinewidth
1 setlinejoin
0 setlinecap
0 0 m
3 0 l
gsave
0.000 setgray
fill
grestore
stroke
grestore
} bind def
22.5225 133.9 o
grestore
gsave
/o {
gsave
newpath
translate
0.5 setlinewidth
1 setlinejoin
0 setlinecap
0 0 m
-3 0 l
gsave
0.000 setgray
fill
grestore
stroke
grestore
} bind def
243.97 133.9 o
grestore
gsave
/o {
gsave
newpath
translate
0.5 setlinewidth
1 setlinejoin
0 setlinecap
0 0 m
3 0 l
gsave
0.000 setgray
fill
grestore
stroke
grestore
} bind def
22.5225 135.541 o
grestore
gsave
/o {
gsave
newpath
translate
0.5 setlinewidth
1 setlinejoin
0 setlinecap
0 0 m
-3 0 l
gsave
0.000 setgray
fill
grestore
stroke
grestore
} bind def
243.97 135.541 o
grestore
gsave
/o {
gsave
newpath
translate
0.5 setlinewidth
1 setlinejoin
0 setlinecap
0 0 m
3 0 l
gsave
0.000 setgray
fill
grestore
stroke
grestore
} bind def
22.5225 146.665 o
grestore
gsave
/o {
gsave
newpath
translate
0.5 setlinewidth
1 setlinejoin
0 setlinecap
0 0 m
-3 0 l
gsave
0.000 setgray
fill
grestore
stroke
grestore
} bind def
243.97 146.665 o
grestore
gsave
/o {
gsave
newpath
translate
0.5 setlinewidth
1 setlinejoin
0 setlinecap
0 0 m
3 0 l
gsave
0.000 setgray
fill
grestore
stroke
grestore
} bind def
22.5225 152.315 o
grestore
gsave
/o {
gsave
newpath
translate
0.5 setlinewidth
1 setlinejoin
0 setlinecap
0 0 m
-3 0 l
gsave
0.000 setgray
fill
grestore
stroke
grestore
} bind def
243.97 152.315 o
grestore
gsave
/o {
gsave
newpath
translate
0.5 setlinewidth
1 setlinejoin
0 setlinecap
0 0 m
3 0 l
gsave
0.000 setgray
fill
grestore
stroke
grestore
} bind def
22.5225 156.325 o
grestore
gsave
/o {
gsave
newpath
translate
0.5 setlinewidth
1 setlinejoin
0 setlinecap
0 0 m
-3 0 l
gsave
0.000 setgray
fill
grestore
stroke
grestore
} bind def
243.97 156.325 o
grestore
gsave
/o {
gsave
newpath
translate
0.5 setlinewidth
1 setlinejoin
0 setlinecap
0 0 m
3 0 l
gsave
0.000 setgray
fill
grestore
stroke
grestore
} bind def
22.5225 159.433 o
grestore
gsave
/o {
gsave
newpath
translate
0.5 setlinewidth
1 setlinejoin
0 setlinecap
0 0 m
-3 0 l
gsave
0.000 setgray
fill
grestore
stroke
grestore
} bind def
243.97 159.433 o
grestore
gsave
/o {
gsave
newpath
translate
0.5 setlinewidth
1 setlinejoin
0 setlinecap
0 0 m
3 0 l
gsave
0.000 setgray
fill
grestore
stroke
grestore
} bind def
22.5225 161.973 o
grestore
gsave
/o {
gsave
newpath
translate
0.5 setlinewidth
1 setlinejoin
0 setlinecap
0 0 m
-3 0 l
gsave
0.000 setgray
fill
grestore
stroke
grestore
} bind def
243.97 161.973 o
grestore
gsave
/o {
gsave
newpath
translate
0.5 setlinewidth
1 setlinejoin
0 setlinecap
0 0 m
3 0 l
gsave
0.000 setgray
fill
grestore
stroke
grestore
} bind def
22.5225 164.121 o
grestore
gsave
/o {
gsave
newpath
translate
0.5 setlinewidth
1 setlinejoin
0 setlinecap
0 0 m
-3 0 l
gsave
0.000 setgray
fill
grestore
stroke
grestore
} bind def
243.97 164.121 o
grestore
gsave
/o {
gsave
newpath
translate
0.5 setlinewidth
1 setlinejoin
0 setlinecap
0 0 m
3 0 l
gsave
0.000 setgray
fill
grestore
stroke
grestore
} bind def
22.5225 165.981 o
grestore
gsave
/o {
gsave
newpath
translate
0.5 setlinewidth
1 setlinejoin
0 setlinecap
0 0 m
-3 0 l
gsave
0.000 setgray
fill
grestore
stroke
grestore
} bind def
243.97 165.981 o
grestore
gsave
/o {
gsave
newpath
translate
0.5 setlinewidth
1 setlinejoin
0 setlinecap
0 0 m
3 0 l
gsave
0.000 setgray
fill
grestore
stroke
grestore
} bind def
22.5225 167.622 o
grestore
gsave
/o {
gsave
newpath
translate
0.5 setlinewidth
1 setlinejoin
0 setlinecap
0 0 m
-3 0 l
gsave
0.000 setgray
fill
grestore
stroke
grestore
} bind def
243.97 167.622 o
grestore
gsave
9.085000 86.074347 translate
90.000000 rotate
0.000000 1.781250 m /l glyphshow
2.558594 1.781250 m /o glyphshow
7.375000 1.781250 m /g glyphshow
12.496094 1.781250 m /parenleft glyphshow
15.617188 1.781250 m /N glyphshow
22.617188 1.781250 m /parenright glyphshow
grestore
1.000 setlinewidth
2 setlinecap
gsave
22.5225 169.09 m
243.97 169.09 l
stroke
grestore
gsave
243.97 27.9338 m
243.97 169.09 l
stroke
grestore
gsave
22.5225 27.9337 m
243.97 27.9337 l
stroke
grestore
gsave
22.5225 27.9338 m
22.5225 169.09 l
stroke
grestore
gsave
277.187 27.9337 m
498.634 27.9337 l
498.634 169.09 l
277.187 169.09 l
cl
1.000 setgray
fill
grestore
5.000 setlinewidth
0.118 0.565 1.000 setrgbcolor
gsave
221.4 141.2 277.2 27.93 clipbox
273.496 8.68518 m
277.187 8.68518 l
277.187 131.241 l
284.568 131.241 l
284.568 144.418 l
291.95 144.418 l
291.95 141.262 l
299.331 141.262 l
299.331 131.05 l
306.713 131.05 l
306.713 117.97 l
314.095 117.97 l
314.095 101.819 l
321.476 101.819 l
321.476 86.1598 l
328.858 86.1598 l
328.858 76.5025 l
336.239 76.5025 l
336.239 65.73 l
343.621 65.73 l
343.621 50.4235 l
351.002 50.4235 l
351.002 56.0726 l
358.384 56.0726 l
358.384 40.7661 l
365.765 40.7661 l
365.765 40.7661 l
373.147 40.7661 l
373.147 40.7661 l
380.529 40.7661 l
380.529 50.4235 l
387.91 50.4235 l
387.91 40.7661 l
395.292 40.7661 l
395.292 40.7661 l
402.673 40.7661 l
402.673 8.68518 l
410.055 8.68518 l
410.055 40.7661 l
417.436 40.7661 l
417.436 40.7661 l
424.818 40.7661 l
424.818 8.68518 l
432.2 8.68518 l
432.2 8.68518 l
439.581 8.68518 l
439.581 40.7661 l
446.963 40.7661 l
446.963 8.68518 l
454.344 8.68518 l
454.344 8.68518 l
461.726 8.68518 l
461.726 8.68518 l
469.107 8.68518 l
469.107 8.68518 l
476.489 8.68518 l
476.489 8.68518 l
483.871 8.68518 l
483.871 8.68518 l
487.561 8.68518 l
stroke
grestore
3.000 setlinewidth
0.000 setgray
gsave
221.4 141.2 277.2 27.93 clipbox
273.496 8.68518 m
277.187 8.68518 l
277.187 136.455 l
284.568 136.455 l
284.568 146.997 l
291.95 146.997 l
291.95 139.149 l
299.331 139.149 l
299.331 124.823 l
306.713 124.823 l
306.713 106.382 l
314.095 106.382 l
314.095 91.809 l
321.476 91.809 l
321.476 72.8471 l
328.858 72.8471 l
328.858 63.1898 l
336.239 63.1898 l
336.239 8.68518 l
343.621 8.68518 l
343.621 8.68518 l
351.002 8.68518 l
351.002 40.7661 l
358.384 40.7661 l
358.384 50.4235 l
365.765 50.4235 l
365.765 50.4235 l
373.147 50.4235 l
373.147 40.7661 l
380.529 40.7661 l
380.529 50.4235 l
387.91 50.4235 l
387.91 8.68518 l
395.292 8.68518 l
395.292 8.68518 l
402.673 8.68518 l
402.673 8.68518 l
410.055 8.68518 l
410.055 8.68518 l
417.436 8.68518 l
417.436 8.68518 l
424.818 8.68518 l
424.818 40.7661 l
432.2 40.7661 l
432.2 8.68518 l
439.581 8.68518 l
439.581 8.68518 l
446.963 8.68518 l
446.963 8.68518 l
454.344 8.68518 l
454.344 8.68518 l
461.726 8.68518 l
461.726 8.68518 l
469.107 8.68518 l
469.107 40.7661 l
476.489 40.7661 l
476.489 8.68518 l
483.871 8.68518 l
483.871 8.68518 l
487.561 8.68518 l
stroke
grestore
1.000 setlinewidth
1.000 0.000 0.000 setrgbcolor
gsave
221.4 141.2 277.2 27.93 clipbox
273.496 8.68518 m
277.187 8.68518 l
277.187 144.964 l
284.568 144.964 l
284.568 147.7 l
291.95 147.7 l
291.95 130.438 l
299.331 130.438 l
299.331 109.516 l
306.713 109.516 l
306.713 93.4897 l
314.095 93.4897 l
314.095 74.175 l
321.476 74.175 l
321.476 56.0726 l
328.858 56.0726 l
328.858 56.0726 l
336.239 56.0726 l
336.239 63.1898 l
343.621 63.1898 l
343.621 60.0808 l
351.002 60.0808 l
351.002 50.4235 l
358.384 50.4235 l
358.384 8.68518 l
365.765 8.68518 l
365.765 40.7661 l
373.147 40.7661 l
373.147 8.68518 l
380.529 8.68518 l
380.529 50.4235 l
387.91 50.4235 l
387.91 50.4235 l
395.292 50.4235 l
395.292 8.68518 l
402.673 8.68518 l
402.673 8.68518 l
410.055 8.68518 l
410.055 50.4235 l
417.436 50.4235 l
417.436 40.7661 l
424.818 40.7661 l
424.818 8.68518 l
432.2 8.68518 l
432.2 8.68518 l
439.581 8.68518 l
439.581 8.68518 l
446.963 8.68518 l
446.963 8.68518 l
454.344 8.68518 l
454.344 8.68518 l
461.726 8.68518 l
461.726 8.68518 l
469.107 8.68518 l
469.107 8.68518 l
476.489 8.68518 l
476.489 8.68518 l
483.871 8.68518 l
483.871 8.68518 l
487.561 8.68518 l
stroke
grestore
0 setlinecap
0.000 setgray
gsave
/o {
gsave
newpath
translate
1.0 setlinewidth
1 setlinejoin
0 setlinecap
0 0 m
0 5 l
gsave
0.000 setgray
fill
grestore
stroke
grestore
} bind def
277.187 27.9337 o
grestore
gsave
/o {
gsave
newpath
translate
1.0 setlinewidth
1 setlinejoin
0 setlinecap
0 0 m
0 -5 l
gsave
0.000 setgray
fill
grestore
stroke
grestore
} bind def
277.187 169.09 o
grestore
gsave
275.171032 17.886875 translate
0.000000 rotate
0.000000 0.109375 m /zero glyphshow
grestore
gsave
/o {
gsave
newpath
translate
1.0 setlinewidth
1 setlinejoin
0 setlinecap
0 0 m
0 5 l
gsave
0.000 setgray
fill
grestore
stroke
grestore
} bind def
314.095 27.9337 o
grestore
gsave
/o {
gsave
newpath
translate
1.0 setlinewidth
1 setlinejoin
0 setlinecap
0 0 m
0 -5 l
gsave
0.000 setgray
fill
grestore
stroke
grestore
} bind def
314.095 169.09 o
grestore
gsave
309.758568 17.886875 translate
0.000000 rotate
0.000000 0.109375 m /one glyphshow
5.089844 0.109375 m /zero glyphshow
grestore
gsave
/o {
gsave
newpath
translate
1.0 setlinewidth
1 setlinejoin
0 setlinecap
0 0 m
0 5 l
gsave
0.000 setgray
fill
grestore
stroke
grestore
} bind def
351.002 27.9337 o
grestore
gsave
/o {
gsave
newpath
translate
1.0 setlinewidth
1 setlinejoin
0 setlinecap
0 0 m
0 -5 l
gsave
0.000 setgray
fill
grestore
stroke
grestore
} bind def
351.002 169.09 o
grestore
gsave
346.447667 17.886875 translate
0.000000 rotate
0.000000 0.109375 m /two glyphshow
5.089844 0.109375 m /zero glyphshow
grestore
gsave
/o {
gsave
newpath
translate
1.0 setlinewidth
1 setlinejoin
0 setlinecap
0 0 m
0 5 l
gsave
0.000 setgray
fill
grestore
stroke
grestore
} bind def
387.91 27.9337 o
grestore
gsave
/o {
gsave
newpath
translate
1.0 setlinewidth
1 setlinejoin
0 setlinecap
0 0 m
0 -5 l
gsave
0.000 setgray
fill
grestore
stroke
grestore
} bind def
387.91 169.09 o
grestore
gsave
383.386766 17.886875 translate
0.000000 rotate
0.000000 0.109375 m /three glyphshow
5.089844 0.109375 m /zero glyphshow
grestore
gsave
/o {
gsave
newpath
translate
1.0 setlinewidth
1 setlinejoin
0 setlinecap
0 0 m
0 5 l
gsave
0.000 setgray
fill
grestore
stroke
grestore
} bind def
424.818 27.9337 o
grestore
gsave
/o {
gsave
newpath
translate
1.0 setlinewidth
1 setlinejoin
0 setlinecap
0 0 m
0 -5 l
gsave
0.000 setgray
fill
grestore
stroke
grestore
} bind def
424.818 169.09 o
grestore
gsave
420.114927 17.886875 translate
0.000000 rotate
0.000000 0.109375 m /four glyphshow
5.089844 0.109375 m /zero glyphshow
grestore
gsave
/o {
gsave
newpath
translate
1.0 setlinewidth
1 setlinejoin
0 setlinecap
0 0 m
0 5 l
gsave
0.000 setgray
fill
grestore
stroke
grestore
} bind def
461.726 27.9337 o
grestore
gsave
/o {
gsave
newpath
translate
1.0 setlinewidth
1 setlinejoin
0 setlinecap
0 0 m
0 -5 l
gsave
0.000 setgray
fill
grestore
stroke
grestore
} bind def
461.726 169.09 o
grestore
gsave
457.241526 17.886875 translate
0.000000 rotate
0.000000 0.109375 m /five glyphshow
5.089844 0.109375 m /zero glyphshow
grestore
gsave
/o {
gsave
newpath
translate
1.0 setlinewidth
1 setlinejoin
0 setlinecap
0 0 m
0 5 l
gsave
0.000 setgray
fill
grestore
stroke
grestore
} bind def
498.634 27.9337 o
grestore
gsave
/o {
gsave
newpath
translate
1.0 setlinewidth
1 setlinejoin
0 setlinecap
0 0 m
0 -5 l
gsave
0.000 setgray
fill
grestore
stroke
grestore
} bind def
498.634 169.09 o
grestore
gsave
494.071250 17.886875 translate
0.000000 rotate
0.000000 0.109375 m /six glyphshow
5.089844 0.109375 m /zero glyphshow
grestore
gsave
359.074266 5.558750 translate
0.000000 rotate
0.000000 1.250000 m /s glyphshow
4.105469 1.250000 m /t glyphshow
7.320312 1.250000 m /d glyphshow
12.441406 1.250000 m /parenleft glyphshow
15.562500 1.250000 m /R glyphshow
21.335938 1.250000 m /V glyphshow
27.113281 1.250000 m /parenright glyphshow
30.234375 1.250000 m /space glyphshow
32.777344 1.250000 m /parenleft glyphshow
35.898438 1.250000 m /k glyphshow
40.746094 1.250000 m /m glyphshow
48.332031 1.250000 m /slash glyphshow
51.027344 1.250000 m /s glyphshow
55.132812 1.250000 m /parenright glyphshow
grestore
gsave
/o {
gsave
newpath
translate
1.0 setlinewidth
1 setlinejoin
0 setlinecap
0 0 m
5 0 l
gsave
0.000 setgray
fill
grestore
stroke
grestore
} bind def
277.187 40.7661 o
grestore
gsave
/o {
gsave
newpath
translate
1.0 setlinewidth
1 setlinejoin
0 setlinecap
0 0 m
-5 0 l
gsave
0.000 setgray
fill
grestore
stroke
grestore
} bind def
498.634 40.7661 o
grestore
gsave
269.155407 37.742694 translate
0.000000 rotate
0.000000 0.109375 m /zero glyphshow
grestore
gsave
/o {
gsave
newpath
translate
1.0 setlinewidth
1 setlinejoin
0 setlinecap
0 0 m
5 0 l
gsave
0.000 setgray
fill
grestore
stroke
grestore
} bind def
277.187 72.8471 o
grestore
gsave
/o {
gsave
newpath
translate
1.0 setlinewidth
1 setlinejoin
0 setlinecap
0 0 m
-5 0 l
gsave
0.000 setgray
fill
grestore
stroke
grestore
} bind def
498.634 72.8471 o
grestore
gsave
270.217907 69.878334 translate
0.000000 rotate
0.000000 0.000000 m /one glyphshow
grestore
gsave
/o {
gsave
newpath
translate
1.0 setlinewidth
1 setlinejoin
0 setlinecap
0 0 m
5 0 l
gsave
0.000 setgray
fill
grestore
stroke
grestore
} bind def
277.187 104.928 o
grestore
gsave
/o {
gsave
newpath
translate
1.0 setlinewidth
1 setlinejoin
0 setlinecap
0 0 m
-5 0 l
gsave
0.000 setgray
fill
grestore
stroke
grestore
} bind def
498.634 104.928 o
grestore
gsave
269.421032 101.959287 translate
0.000000 rotate
0.000000 0.000000 m /two glyphshow
grestore
gsave
/o {
gsave
newpath
translate
1.0 setlinewidth
1 setlinejoin
0 setlinecap
0 0 m
5 0 l
gsave
0.000 setgray
fill
grestore
stroke
grestore
} bind def
277.187 137.009 o
grestore
gsave
/o {
gsave
newpath
translate
1.0 setlinewidth
1 setlinejoin
0 setlinecap
0 0 m
-5 0 l
gsave
0.000 setgray
fill
grestore
stroke
grestore
} bind def
498.634 137.009 o
grestore
gsave
269.296032 133.985553 translate
0.000000 rotate
0.000000 0.109375 m /three glyphshow
grestore
gsave
/o {
gsave
newpath
translate
1.0 setlinewidth
1 setlinejoin
0 setlinecap
0 0 m
5 0 l
gsave
0.000 setgray
fill
grestore
stroke
grestore
} bind def
277.187 169.09 o
grestore
gsave
/o {
gsave
newpath
translate
1.0 setlinewidth
1 setlinejoin
0 setlinecap
0 0 m
-5 0 l
gsave
0.000 setgray
fill
grestore
stroke
grestore
} bind def
498.634 169.09 o
grestore
gsave
268.749157 166.121193 translate
0.000000 rotate
0.000000 0.000000 m /four glyphshow
grestore
0.500 setlinewidth
gsave
/o {
gsave
newpath
translate
0.5 setlinewidth
1 setlinejoin
0 setlinecap
0 0 m
3 0 l
gsave
0.000 setgray
fill
grestore
stroke
grestore
} bind def
277.187 50.4225 o
grestore
gsave
/o {
gsave
newpath
translate
0.5 setlinewidth
1 setlinejoin
0 setlinecap
0 0 m
-3 0 l
gsave
0.000 setgray
fill
grestore
stroke
grestore
} bind def
498.634 50.4225 o
grestore
gsave
/o {
gsave
newpath
translate
0.5 setlinewidth
1 setlinejoin
0 setlinecap
0 0 m
3 0 l
gsave
0.000 setgray
fill
grestore
stroke
grestore
} bind def
277.187 56.072 o
grestore
gsave
/o {
gsave
newpath
translate
0.5 setlinewidth
1 setlinejoin
0 setlinecap
0 0 m
-3 0 l
gsave
0.000 setgray
fill
grestore
stroke
grestore
} bind def
498.634 56.072 o
grestore
gsave
/o {
gsave
newpath
translate
0.5 setlinewidth
1 setlinejoin
0 setlinecap
0 0 m
3 0 l
gsave
0.000 setgray
fill
grestore
stroke
grestore
} bind def
277.187 60.0821 o
grestore
gsave
/o {
gsave
newpath
translate
0.5 setlinewidth
1 setlinejoin
0 setlinecap
0 0 m
-3 0 l
gsave
0.000 setgray
fill
grestore
stroke
grestore
} bind def
498.634 60.0821 o
grestore
gsave
/o {
gsave
newpath
translate
0.5 setlinewidth
1 setlinejoin
0 setlinecap
0 0 m
3 0 l
gsave
0.000 setgray
fill
grestore
stroke
grestore
} bind def
277.187 63.1898 o
grestore
gsave
/o {
gsave
newpath
translate
0.5 setlinewidth
1 setlinejoin
0 setlinecap
0 0 m
-3 0 l
gsave
0.000 setgray
fill
grestore
stroke
grestore
} bind def
498.634 63.1898 o
grestore
gsave
/o {
gsave
newpath
translate
0.5 setlinewidth
1 setlinejoin
0 setlinecap
0 0 m
3 0 l
gsave
0.000 setgray
fill
grestore
stroke
grestore
} bind def
277.187 65.7299 o
grestore
gsave
/o {
gsave
newpath
translate
0.5 setlinewidth
1 setlinejoin
0 setlinecap
0 0 m
-3 0 l
gsave
0.000 setgray
fill
grestore
stroke
grestore
} bind def
498.634 65.7299 o
grestore
gsave
/o {
gsave
newpath
translate
0.5 setlinewidth
1 setlinejoin
0 setlinecap
0 0 m
3 0 l
gsave
0.000 setgray
fill
grestore
stroke
grestore
} bind def
277.187 67.8777 o
grestore
gsave
/o {
gsave
newpath
translate
0.5 setlinewidth
1 setlinejoin
0 setlinecap
0 0 m
-3 0 l
gsave
0.000 setgray
fill
grestore
stroke
grestore
} bind def
498.634 67.8777 o
grestore
gsave
/o {
gsave
newpath
translate
0.5 setlinewidth
1 setlinejoin
0 setlinecap
0 0 m
3 0 l
gsave
0.000 setgray
fill
grestore
stroke
grestore
} bind def
277.187 69.7384 o
grestore
gsave
/o {
gsave
newpath
translate
0.5 setlinewidth
1 setlinejoin
0 setlinecap
0 0 m
-3 0 l
gsave
0.000 setgray
fill
grestore
stroke
grestore
} bind def
498.634 69.7384 o
grestore
gsave
/o {
gsave
newpath
translate
0.5 setlinewidth
1 setlinejoin
0 setlinecap
0 0 m
3 0 l
gsave
0.000 setgray
fill
grestore
stroke
grestore
} bind def
277.187 71.3791 o
grestore
gsave
/o {
gsave
newpath
translate
0.5 setlinewidth
1 setlinejoin
0 setlinecap
0 0 m
-3 0 l
gsave
0.000 setgray
fill
grestore
stroke
grestore
} bind def
498.634 71.3791 o
grestore
gsave
/o {
gsave
newpath
translate
0.5 setlinewidth
1 setlinejoin
0 setlinecap
0 0 m
3 0 l
gsave
0.000 setgray
fill
grestore
stroke
grestore
} bind def
277.187 82.5035 o
grestore
gsave
/o {
gsave
newpath
translate
0.5 setlinewidth
1 setlinejoin
0 setlinecap
0 0 m
-3 0 l
gsave
0.000 setgray
fill
grestore
stroke
grestore
} bind def
498.634 82.5035 o
grestore
gsave
/o {
gsave
newpath
translate
0.5 setlinewidth
1 setlinejoin
0 setlinecap
0 0 m
3 0 l
gsave
0.000 setgray
fill
grestore
stroke
grestore
} bind def
277.187 88.1529 o
grestore
gsave
/o {
gsave
newpath
translate
0.5 setlinewidth
1 setlinejoin
0 setlinecap
0 0 m
-3 0 l
gsave
0.000 setgray
fill
grestore
stroke
grestore
} bind def
498.634 88.1529 o
grestore
gsave
/o {
gsave
newpath
translate
0.5 setlinewidth
1 setlinejoin
0 setlinecap
0 0 m
3 0 l
gsave
0.000 setgray
fill
grestore
stroke
grestore
} bind def
277.187 92.163 o
grestore
gsave
/o {
gsave
newpath
translate
0.5 setlinewidth
1 setlinejoin
0 setlinecap
0 0 m
-3 0 l
gsave
0.000 setgray
fill
grestore
stroke
grestore
} bind def
498.634 92.163 o
grestore
gsave
/o {
gsave
newpath
translate
0.5 setlinewidth
1 setlinejoin
0 setlinecap
0 0 m
3 0 l
gsave
0.000 setgray
fill
grestore
stroke
grestore
} bind def
277.187 95.2707 o
grestore
gsave
/o {
gsave
newpath
translate
0.5 setlinewidth
1 setlinejoin
0 setlinecap
0 0 m
-3 0 l
gsave
0.000 setgray
fill
grestore
stroke
grestore
} bind def
498.634 95.2707 o
grestore
gsave
/o {
gsave
newpath
translate
0.5 setlinewidth
1 setlinejoin
0 setlinecap
0 0 m
3 0 l
gsave
0.000 setgray
fill
grestore
stroke
grestore
} bind def
277.187 97.8109 o
grestore
gsave
/o {
gsave
newpath
translate
0.5 setlinewidth
1 setlinejoin
0 setlinecap
0 0 m
-3 0 l
gsave
0.000 setgray
fill
grestore
stroke
grestore
} bind def
498.634 97.8109 o
grestore
gsave
/o {
gsave
newpath
translate
0.5 setlinewidth
1 setlinejoin
0 setlinecap
0 0 m
3 0 l
gsave
0.000 setgray
fill
grestore
stroke
grestore
} bind def
277.187 99.9587 o
grestore
gsave
/o {
gsave
newpath
translate
0.5 setlinewidth
1 setlinejoin
0 setlinecap
0 0 m
-3 0 l
gsave
0.000 setgray
fill
grestore
stroke
grestore
} bind def
498.634 99.9587 o
grestore
gsave
/o {
gsave
newpath
translate
0.5 setlinewidth
1 setlinejoin
0 setlinecap
0 0 m
3 0 l
gsave
0.000 setgray
fill
grestore
stroke
grestore
} bind def
277.187 101.819 o
grestore
gsave
/o {
gsave
newpath
translate
0.5 setlinewidth
1 setlinejoin
0 setlinecap
0 0 m
-3 0 l
gsave
0.000 setgray
fill
grestore
stroke
grestore
} bind def
498.634 101.819 o
grestore
gsave
/o {
gsave
newpath
translate
0.5 setlinewidth
1 setlinejoin
0 setlinecap
0 0 m
3 0 l
gsave
0.000 setgray
fill
grestore
stroke
grestore
} bind def
277.187 103.46 o
grestore
gsave
/o {
gsave
newpath
translate
0.5 setlinewidth
1 setlinejoin
0 setlinecap
0 0 m
-3 0 l
gsave
0.000 setgray
fill
grestore
stroke
grestore
} bind def
498.634 103.46 o
grestore
gsave
/o {
gsave
newpath
translate
0.5 setlinewidth
1 setlinejoin
0 setlinecap
0 0 m
3 0 l
gsave
0.000 setgray
fill
grestore
stroke
grestore
} bind def
277.187 114.584 o
grestore
gsave
/o {
gsave
newpath
translate
0.5 setlinewidth
1 setlinejoin
0 setlinecap
0 0 m
-3 0 l
gsave
0.000 setgray
fill
grestore
stroke
grestore
} bind def
498.634 114.584 o
grestore
gsave
/o {
gsave
newpath
translate
0.5 setlinewidth
1 setlinejoin
0 setlinecap
0 0 m
3 0 l
gsave
0.000 setgray
fill
grestore
stroke
grestore
} bind def
277.187 120.234 o
grestore
gsave
/o {
gsave
newpath
translate
0.5 setlinewidth
1 setlinejoin
0 setlinecap
0 0 m
-3 0 l
gsave
0.000 setgray
fill
grestore
stroke
grestore
} bind def
498.634 120.234 o
grestore
gsave
/o {
gsave
newpath
translate
0.5 setlinewidth
1 setlinejoin
0 setlinecap
0 0 m
3 0 l
gsave
0.000 setgray
fill
grestore
stroke
grestore
} bind def
277.187 124.244 o
grestore
gsave
/o {
gsave
newpath
translate
0.5 setlinewidth
1 setlinejoin
0 setlinecap
0 0 m
-3 0 l
gsave
0.000 setgray
fill
grestore
stroke
grestore
} bind def
498.634 124.244 o
grestore
gsave
/o {
gsave
newpath
translate
0.5 setlinewidth
1 setlinejoin
0 setlinecap
0 0 m
3 0 l
gsave
0.000 setgray
fill
grestore
stroke
grestore
} bind def
277.187 127.352 o
grestore
gsave
/o {
gsave
newpath
translate
0.5 setlinewidth
1 setlinejoin
0 setlinecap
0 0 m
-3 0 l
gsave
0.000 setgray
fill
grestore
stroke
grestore
} bind def
498.634 127.352 o
grestore
gsave
/o {
gsave
newpath
translate
0.5 setlinewidth
1 setlinejoin
0 setlinecap
0 0 m
3 0 l
gsave
0.000 setgray
fill
grestore
stroke
grestore
} bind def
277.187 129.892 o
grestore
gsave
/o {
gsave
newpath
translate
0.5 setlinewidth
1 setlinejoin
0 setlinecap
0 0 m
-3 0 l
gsave
0.000 setgray
fill
grestore
stroke
grestore
} bind def
498.634 129.892 o
grestore
gsave
/o {
gsave
newpath
translate
0.5 setlinewidth
1 setlinejoin
0 setlinecap
0 0 m
3 0 l
gsave
0.000 setgray
fill
grestore
stroke
grestore
} bind def
277.187 132.04 o
grestore
gsave
/o {
gsave
newpath
translate
0.5 setlinewidth
1 setlinejoin
0 setlinecap
0 0 m
-3 0 l
gsave
0.000 setgray
fill
grestore
stroke
grestore
} bind def
498.634 132.04 o
grestore
gsave
/o {
gsave
newpath
translate
0.5 setlinewidth
1 setlinejoin
0 setlinecap
0 0 m
3 0 l
gsave
0.000 setgray
fill
grestore
stroke
grestore
} bind def
277.187 133.9 o
grestore
gsave
/o {
gsave
newpath
translate
0.5 setlinewidth
1 setlinejoin
0 setlinecap
0 0 m
-3 0 l
gsave
0.000 setgray
fill
grestore
stroke
grestore
} bind def
498.634 133.9 o
grestore
gsave
/o {
gsave
newpath
translate
0.5 setlinewidth
1 setlinejoin
0 setlinecap
0 0 m
3 0 l
gsave
0.000 setgray
fill
grestore
stroke
grestore
} bind def
277.187 135.541 o
grestore
gsave
/o {
gsave
newpath
translate
0.5 setlinewidth
1 setlinejoin
0 setlinecap
0 0 m
-3 0 l
gsave
0.000 setgray
fill
grestore
stroke
grestore
} bind def
498.634 135.541 o
grestore
gsave
/o {
gsave
newpath
translate
0.5 setlinewidth
1 setlinejoin
0 setlinecap
0 0 m
3 0 l
gsave
0.000 setgray
fill
grestore
stroke
grestore
} bind def
277.187 146.665 o
grestore
gsave
/o {
gsave
newpath
translate
0.5 setlinewidth
1 setlinejoin
0 setlinecap
0 0 m
-3 0 l
gsave
0.000 setgray
fill
grestore
stroke
grestore
} bind def
498.634 146.665 o
grestore
gsave
/o {
gsave
newpath
translate
0.5 setlinewidth
1 setlinejoin
0 setlinecap
0 0 m
3 0 l
gsave
0.000 setgray
fill
grestore
stroke
grestore
} bind def
277.187 152.315 o
grestore
gsave
/o {
gsave
newpath
translate
0.5 setlinewidth
1 setlinejoin
0 setlinecap
0 0 m
-3 0 l
gsave
0.000 setgray
fill
grestore
stroke
grestore
} bind def
498.634 152.315 o
grestore
gsave
/o {
gsave
newpath
translate
0.5 setlinewidth
1 setlinejoin
0 setlinecap
0 0 m
3 0 l
gsave
0.000 setgray
fill
grestore
stroke
grestore
} bind def
277.187 156.325 o
grestore
gsave
/o {
gsave
newpath
translate
0.5 setlinewidth
1 setlinejoin
0 setlinecap
0 0 m
-3 0 l
gsave
0.000 setgray
fill
grestore
stroke
grestore
} bind def
498.634 156.325 o
grestore
gsave
/o {
gsave
newpath
translate
0.5 setlinewidth
1 setlinejoin
0 setlinecap
0 0 m
3 0 l
gsave
0.000 setgray
fill
grestore
stroke
grestore
} bind def
277.187 159.433 o
grestore
gsave
/o {
gsave
newpath
translate
0.5 setlinewidth
1 setlinejoin
0 setlinecap
0 0 m
-3 0 l
gsave
0.000 setgray
fill
grestore
stroke
grestore
} bind def
498.634 159.433 o
grestore
gsave
/o {
gsave
newpath
translate
0.5 setlinewidth
1 setlinejoin
0 setlinecap
0 0 m
3 0 l
gsave
0.000 setgray
fill
grestore
stroke
grestore
} bind def
277.187 161.973 o
grestore
gsave
/o {
gsave
newpath
translate
0.5 setlinewidth
1 setlinejoin
0 setlinecap
0 0 m
-3 0 l
gsave
0.000 setgray
fill
grestore
stroke
grestore
} bind def
498.634 161.973 o
grestore
gsave
/o {
gsave
newpath
translate
0.5 setlinewidth
1 setlinejoin
0 setlinecap
0 0 m
3 0 l
gsave
0.000 setgray
fill
grestore
stroke
grestore
} bind def
277.187 164.121 o
grestore
gsave
/o {
gsave
newpath
translate
0.5 setlinewidth
1 setlinejoin
0 setlinecap
0 0 m
-3 0 l
gsave
0.000 setgray
fill
grestore
stroke
grestore
} bind def
498.634 164.121 o
grestore
gsave
/o {
gsave
newpath
translate
0.5 setlinewidth
1 setlinejoin
0 setlinecap
0 0 m
3 0 l
gsave
0.000 setgray
fill
grestore
stroke
grestore
} bind def
277.187 165.981 o
grestore
gsave
/o {
gsave
newpath
translate
0.5 setlinewidth
1 setlinejoin
0 setlinecap
0 0 m
-3 0 l
gsave
0.000 setgray
fill
grestore
stroke
grestore
} bind def
498.634 165.981 o
grestore
gsave
/o {
gsave
newpath
translate
0.5 setlinewidth
1 setlinejoin
0 setlinecap
0 0 m
3 0 l
gsave
0.000 setgray
fill
grestore
stroke
grestore
} bind def
277.187 167.622 o
grestore
gsave
/o {
gsave
newpath
translate
0.5 setlinewidth
1 setlinejoin
0 setlinecap
0 0 m
-3 0 l
gsave
0.000 setgray
fill
grestore
stroke
grestore
} bind def
498.634 167.622 o
grestore
1.000 setlinewidth
2 setlinecap
gsave
277.187 169.09 m
498.634 169.09 l
stroke
grestore
gsave
498.634 27.9338 m
498.634 169.09 l
stroke
grestore
gsave
277.187 27.9337 m
498.634 27.9337 l
stroke
grestore
gsave
277.187 27.9338 m
277.187 169.09 l
stroke
grestore
5.000 setlinewidth
0.118 0.565 1.000 setrgbcolor
gsave
406.428 159.927 m
416.228 159.927 l
stroke
grestore
0.000 setgray
/BitstreamVeraSerif-Roman findfont
7.000 scalefont
setfont
gsave
423.927500 157.383693 translate
0.000000 rotate
0.000000 0.093750 m /M glyphshow
7.167480 0.093750 m /e glyphshow
11.310059 0.093750 m /t glyphshow
14.123047 0.093750 m /a glyphshow
18.296387 0.093750 m /l glyphshow
20.535156 0.093750 m /hyphen glyphshow
22.900391 0.093750 m /P glyphshow
27.360352 0.093750 m /o glyphshow
31.574707 0.093750 m /o glyphshow
35.789062 0.093750 m /r glyphshow
grestore
3.000 setlinewidth
gsave
406.428 149.662 m
416.228 149.662 l
stroke
grestore
gsave
423.927500 147.118068 translate
0.000000 rotate
0.000000 0.093750 m /M glyphshow
7.167480 0.093750 m /e glyphshow
11.310059 0.093750 m /t glyphshow
14.123047 0.093750 m /a glyphshow
18.296387 0.093750 m /l glyphshow
20.535156 0.093750 m /hyphen glyphshow
22.900391 0.093750 m /I glyphshow
25.665527 0.093750 m /n glyphshow
30.173828 0.093750 m /t glyphshow
32.986816 0.093750 m /e glyphshow
37.129395 0.093750 m /r glyphshow
40.475586 0.093750 m /m glyphshow
47.113281 0.093750 m /e glyphshow
51.255859 0.093750 m /d glyphshow
55.736816 0.093750 m /i glyphshow
57.975586 0.093750 m /a glyphshow
62.148926 0.093750 m /t glyphshow
64.961914 0.093750 m /e glyphshow
grestore
1.000 setlinewidth
1.000 0.000 0.000 setrgbcolor
gsave
406.428 139.396 m
416.228 139.396 l
stroke
grestore
0.000 setgray
gsave
423.927500 136.852443 translate
0.000000 rotate
0.000000 0.093750 m /M glyphshow
7.167480 0.093750 m /e glyphshow
11.310059 0.093750 m /t glyphshow
14.123047 0.093750 m /a glyphshow
18.296387 0.093750 m /l glyphshow
20.535156 0.093750 m /hyphen glyphshow
22.900391 0.093750 m /R glyphshow
28.170898 0.093750 m /i glyphshow
30.409668 0.093750 m /c glyphshow
34.330078 0.093750 m /h glyphshow
grestore

end
showpage
