%!PS-Adobe-3.0 EPSF-3.0
%%Title: /home/hettin12/webplots/05-27-15_thesis_figures/sample_stats/stellar_params/stellar_params_big.eps
%%Creator: matplotlib version 1.2.x, http://matplotlib.sourceforge.net/
%%CreationDate: Wed Jun 10 15:17:07 2015
%%Orientation: portrait
%%BoundingBox: 90 72 522 720
%%EndComments
%%BeginProlog
/mpldict 10 dict def
mpldict begin
/m { moveto } bind def
/l { lineto } bind def
/r { rlineto } bind def
/c { curveto } bind def
/cl { closepath } bind def
/box {
m
1 index 0 r
0 exch r
neg 0 r
cl
} bind def
/clipbox {
box
clip
newpath
} bind def
%!PS-Adobe-3.0 Resource-Font
%%Title: cmr10
%%Copyright: Copyright (C) 1994, Basil K. Malyshev. All Rights Reserved.012BaKoMa Fonts Collection, Level-B.
%%Creator: Converted from TrueType to type 3 by PPR
25 dict begin
/_d{bind def}bind def
/_m{moveto}_d
/_l{lineto}_d
/_cl{closepath eofill}_d
/_c{curveto}_d
/_sc{7 -1 roll{setcachedevice}{pop pop pop pop pop pop}ifelse}_d
/_e{exec}_d
/FontName /Cmr10 def
/PaintType 0 def
/FontMatrix[.001 0 0 .001 0 0]def
/FontBBox[-44 -250 1009 750]def
/FontType 3 def
/Encoding [ /g /o /f /l /e ] def
/FontInfo 10 dict dup begin
/FamilyName (cmr10) def
/FullName (cmr10) def
/Notice (Copyright (C) 1994, Basil K. Malyshev. All Rights Reserved.012BaKoMa Fonts Collection, Level-B. ) def
/Weight (Regular) def
/Version (1.1/12-Nov-94) def
/ItalicAngle 0.0 def
/isFixedPitch false def
/UnderlinePosition -133 def
/UnderlineThickness 20 def
end readonly def
/CharStrings 5 dict dup begin
/g{{500 0 28 -205 485 453 _sc
28 -77 _m
28 -53 36 -32 54 -15 _c
71 2 91 14 115 22 _c
101 32 91 44 84 60 _c
77 75 74 91 74 109 _c
74 140 84 168 104 192 _c
73 222 58 256 58 295 _c
58 315 62 335 71 353 _c
80 371 93 387 109 401 _c
125 414 142 424 162 431 _c
181 438 201 442 222 442 _c
262 442 297 430 329 407 _c
343 421 359 433 378 441 _c
}_e{396 449 416 453 436 453 _c
450 453 462 447 471 437 _c
480 427 485 415 485 401 _c
485 393 481 385 475 379 _c
469 373 462 370 454 370 _c
445 370 438 373 432 379 _c
426 385 423 393 423 401 _c
423 413 427 421 435 427 _c
400 427 370 415 346 391 _c
358 379 367 364 375 347 _c
382 329 386 312 386 295 _c
386 266 378 240 362 218 _c
346 196 326 178 301 166 _c
}_e{275 153 249 147 222 147 _c
185 147 152 157 122 177 _c
112 163 108 149 108 133 _c
108 115 113 99 125 86 _c
137 73 151 67 169 67 _c
251 67 _l
291 67 326 63 358 56 _c
390 48 416 34 438 13 _c
460 -7 471 -37 471 -77 _c
471 -106 458 -130 434 -150 _c
409 -169 379 -183 345 -192 _c
311 -200 279 -205 250 -205 _c
220 -205 188 -200 154 -192 _c
119 -183 89 -169 65 -150 _c
}_e{40 -130 28 -106 28 -77 _c
84 -77 _m
84 -99 93 -118 111 -133 _c
129 -148 151 -159 177 -167 _c
203 -174 227 -178 250 -178 _c
272 -178 296 -174 322 -167 _c
348 -159 370 -148 388 -133 _c
406 -118 415 -99 415 -77 _c
415 -42 399 -20 367 -10 _c
335 0 296 5 251 5 _c
169 5 _l
153 5 139 1 126 -5 _c
113 -12 103 -22 95 -36 _c
87 -49 84 -63 84 -77 _c
222 174 _m
}_e{278 174 307 214 307 295 _c
307 329 301 358 289 381 _c
277 403 254 415 222 415 _c
189 415 167 403 155 381 _c
143 358 137 329 137 295 _c
137 273 139 253 144 235 _c
148 217 157 202 169 191 _c
181 179 199 174 222 174 _c
_cl}_e}_d
/o{{500 0 28 -10 471 448 _sc
250 -10 _m
210 -10 172 0 138 20 _c
104 40 77 67 57 101 _c
37 135 28 172 28 213 _c
28 243 33 273 44 301 _c
55 329 71 355 91 377 _c
111 399 135 417 162 429 _c
189 441 218 448 250 448 _c
291 448 328 437 362 415 _c
396 393 422 364 442 328 _c
461 292 471 253 471 213 _c
471 173 461 135 441 101 _c
421 67 395 40 361 20 _c
}_e{327 0 290 -10 250 -10 _c
250 18 _m
303 18 339 37 357 76 _c
375 114 384 164 384 224 _c
384 257 382 285 378 307 _c
374 329 367 349 355 367 _c
347 378 338 388 326 396 _c
314 404 302 411 290 415 _c
277 419 264 422 250 422 _c
229 422 209 417 191 408 _c
172 398 156 385 144 367 _c
131 348 123 327 120 305 _c
116 282 115 255 115 224 _c
115 186 118 153 125 123 _c
}_e{131 93 144 68 164 48 _c
184 28 212 18 250 18 _c
_cl}_e}_d
/f{{305 0 32 0 361 705 _sc
32 0 _m
32 35 _l
54 35 73 36 88 40 _c
102 44 110 53 110 67 _c
110 396 _l
33 396 _l
33 431 _l
110 431 _l
110 551 _l
110 572 114 592 123 611 _c
132 629 144 646 159 660 _c
174 674 191 685 211 693 _c
231 701 251 705 273 705 _c
295 705 316 698 334 685 _c
352 671 361 654 361 632 _c
361 619 356 608 348 600 _c
339 591 328 587 316 587 _c
}_e{303 587 292 591 283 600 _c
274 608 270 619 270 632 _c
270 652 279 666 297 674 _c
286 677 276 679 268 679 _c
248 679 232 672 218 658 _c
204 644 193 628 187 608 _c
180 588 177 568 177 549 _c
177 431 _l
292 431 _l
292 396 _l
180 396 _l
180 67 _l
180 53 189 44 209 40 _c
229 36 251 35 277 35 _c
277 0 _l
32 0 _l
_cl}_e}_d
/l{277 0 31 0 257 694 _sc
31 0 _m
31 35 _l
53 35 72 36 87 40 _c
101 44 109 53 109 67 _c
109 592 _l
109 610 106 623 101 631 _c
95 639 88 643 78 645 _c
68 647 52 648 31 648 _c
31 683 _l
179 694 _l
179 67 _l
179 53 186 44 201 40 _c
215 36 234 35 257 35 _c
257 0 _l
31 0 _l
_cl}_d
/e{{444 0 28 -10 415 448 _sc
249 -10 _m
208 -10 171 0 137 21 _c
103 42 76 70 57 106 _c
37 142 28 179 28 219 _c
28 258 36 295 54 330 _c
72 365 96 393 128 415 _c
160 437 195 448 235 448 _c
265 448 292 442 315 432 _c
337 422 356 408 371 390 _c
385 372 396 350 404 326 _c
411 301 415 274 415 244 _c
415 235 411 231 405 231 _c
115 231 _l
115 220 _l
}_e{115 164 126 117 148 77 _c
170 37 207 18 258 18 _c
278 18 297 22 315 31 _c
332 40 347 53 360 69 _c
372 85 381 103 386 122 _c
386 124 388 126 390 128 _c
392 130 394 131 396 131 _c
405 131 _l
411 131 415 126 415 118 _c
405 80 385 50 354 26 _c
322 2 287 -10 249 -10 _c
116 256 _m
344 256 _l
344 280 340 306 333 332 _c
326 358 314 379 298 396 _c
}_e{282 413 261 422 235 422 _c
197 422 167 404 147 369 _c
126 333 116 296 116 256 _c
_cl}_e}_d
end readonly def

/BuildGlyph
 {exch begin
 CharStrings exch
 2 copy known not{pop /.notdef}if
 true 3 1 roll get exec
 end}_d

/BuildChar {
 1 index /Encoding get exch get
 1 index /BuildGlyph get exec
}_d

FontName currentdict end definefont pop
%!PS-Adobe-3.0 Resource-Font
%%Title: cmmi10
%%Copyright: Copyright (C) 1994, Basil K. Malyshev. All Rights Reserved.012BaKoMa Fonts Collection, Level-B.
%%Creator: Converted from TrueType to type 3 by PPR
25 dict begin
/_d{bind def}bind def
/_m{moveto}_d
/_l{lineto}_d
/_cl{closepath eofill}_d
/_c{curveto}_d
/_sc{7 -1 roll{setcachedevice}{pop pop pop pop pop pop}ifelse}_d
/_e{exec}_d
/FontName /Cmmi10 def
/PaintType 0 def
/FontMatrix[.001 0 0 .001 0 0]def
/FontBBox[-34 -250 1048 750]def
/FontType 3 def
/Encoding [ /g /T ] def
/FontInfo 10 dict dup begin
/FamilyName (cmmi10) def
/FullName (cmmi10) def
/Notice (Copyright (C) 1994, Basil K. Malyshev. All Rights Reserved.012BaKoMa Fonts Collection, Level-B. ) def
/Weight (Regular) def
/Version (1.1/12-Nov-94) def
/ItalicAngle 0.0 def
/isFixedPitch false def
/UnderlinePosition -133 def
/UnderlineThickness 20 def
end readonly def
/CharStrings 2 dict dup begin
/g{{477 0 14 -204 476 442 _sc
14 -142 _m
14 -126 19 -111 31 -99 _c
42 -87 56 -81 72 -81 _c
82 -81 91 -84 99 -91 _c
106 -97 110 -106 110 -117 _c
110 -129 106 -139 99 -149 _c
92 -159 83 -166 73 -170 _c
91 -175 119 -178 157 -178 _c
187 -178 215 -166 241 -142 _c
266 -118 283 -91 291 -61 _c
320 55 _l
284 18 246 0 207 0 _c
178 0 153 7 133 22 _c
113 36 97 56 87 80 _c
}_e{76 104 71 130 71 158 _c
71 188 77 220 89 254 _c
101 288 119 319 142 348 _c
164 376 190 399 220 416 _c
249 433 280 442 313 442 _c
332 442 349 436 365 426 _c
381 415 393 401 403 383 _c
409 409 424 422 446 422 _c
454 422 461 419 467 414 _c
473 409 476 402 476 394 _c
476 392 476 390 476 389 _c
476 388 475 387 475 386 _c
361 -67 _l
355 -87 346 -106 332 -124 _c
}_e{318 -141 301 -155 282 -167 _c
263 -179 242 -188 220 -194 _c
198 -200 176 -204 156 -204 _c
118 -204 84 -200 56 -193 _c
28 -185 14 -168 14 -142 _c
209 26 _m
251 26 293 55 335 114 _c
390 332 _l
385 355 376 375 362 391 _c
348 407 331 416 311 416 _c
289 416 268 407 248 389 _c
228 371 212 349 199 324 _c
187 300 175 265 163 220 _c
151 175 146 140 146 114 _c
146 91 151 71 161 53 _c
}_e{171 35 187 26 209 26 _c
_cl}_e}_d
/T{{584 0 24 0 706 683 _sc
46 13 _m
46 15 46 18 48 22 _c
49 26 50 29 52 31 _c
54 33 56 35 60 35 _c
117 35 155 36 174 40 _c
192 44 202 54 206 69 _c
343 618 _l
345 626 347 633 347 640 _c
347 645 335 648 312 648 _c
254 648 _l
209 648 174 641 150 627 _c
126 613 108 595 97 573 _c
85 551 71 514 53 463 _c
51 457 47 454 43 454 _c
34 454 _l
}_e{27 454 24 458 24 467 _c
95 674 _l
96 680 99 683 105 683 _c
696 683 _l
702 683 706 678 706 670 _c
673 463 _l
673 461 671 459 669 457 _c
667 455 665 454 663 454 _c
654 454 _l
647 454 644 458 644 467 _c
651 514 655 547 655 567 _c
655 590 650 608 640 620 _c
630 632 617 639 602 643 _c
586 646 566 648 541 648 _c
482 648 _l
464 648 452 646 446 643 _c
}_e{440 639 434 630 430 614 _c
293 65 _l
292 63 292 62 292 61 _c
292 59 291 58 291 56 _c
291 47 296 42 306 40 _c
323 36 360 35 417 35 _c
423 35 427 30 427 22 _c
424 12 422 6 421 4 _c
419 1 416 0 410 0 _c
56 0 _l
49 0 46 4 46 13 _c
_cl}_e}_d
end readonly def

/BuildGlyph
 {exch begin
 CharStrings exch
 2 copy known not{pop /.notdef}if
 true 3 1 roll get exec
 end}_d

/BuildChar {
 1 index /Encoding get exch get
 1 index /BuildGlyph get exec
}_d

FontName currentdict end definefont pop
%!PS-Adobe-3.0 Resource-Font
%%Title: Bitstream Vera Serif
%%Copyright: Copyright (c) 2003 by Bitstream, Inc. All Rights Reserved.
%%Creator: Converted from TrueType to type 3 by PPR
25 dict begin
/_d{bind def}bind def
/_m{moveto}_d
/_l{lineto}_d
/_cl{closepath eofill}_d
/_c{curveto}_d
/_sc{7 -1 roll{setcachedevice}{pop pop pop pop pop pop}ifelse}_d
/_e{exec}_d
/FontName /BitstreamVeraSerif-Roman def
/PaintType 0 def
/FontMatrix[.001 0 0 .001 0 0]def
/FontBBox[-183 -236 1287 928]def
/FontType 3 def
/Encoding [ /space /parenleft /parenright /hyphen /period /slash /zero /one /two /three /four /five /six /seven /eight /F /H /I /K /M /N /P /R /bracketleft /bracketright /a /c /d /e /g /h /i /l /m /n /o /r /t /minus ] def
/FontInfo 10 dict dup begin
/FamilyName (Bitstream Vera Serif) def
/FullName (Bitstream Vera Serif) def
/Notice (Copyright (c) 2003 by Bitstream, Inc. All Rights Reserved. Bitstream Vera is a trademark of Bitstream, Inc.) def
/Weight (Roman) def
/Version (Release 1.10) def
/ItalicAngle 0.0 def
/isFixedPitch false def
/UnderlinePosition -213 def
/UnderlineThickness 133 def
end readonly def
/CharStrings 39 dict dup begin
/space{318 0 0 0 0 0 _sc
}_d
/parenleft{390 0 79 -155 319 760 _sc
319 -155 _m
239 -119 179 -63 139 13 _c
99 89 79 186 79 302 _c
79 418 99 514 139 591 _c
179 668 239 724 319 760 _c
319 712 _l
269 677 233 628 211 566 _c
189 503 178 415 178 302 _c
178 188 189 100 211 38 _c
233 -24 269 -72 319 -107 _c
319 -155 _l
_cl}_d
/parenright{390 0 71 -155 311 760 _sc
71 -155 _m
71 -107 _l
121 -72 157 -24 179 38 _c
201 100 212 188 212 302 _c
212 415 201 503 179 566 _c
157 628 121 677 71 712 _c
71 760 _l
150 724 210 668 250 591 _c
290 514 311 418 311 302 _c
311 186 290 89 250 13 _c
210 -63 150 -119 71 -155 _c
_cl}_d
/hyphen{338 0 44 230 294 306 _sc
44 306 _m
294 306 _l
294 230 _l
44 230 _l
44 306 _l
_cl}_d
/period{318 0 94 -13 224 116 _sc
94 51 _m
94 69 100 84 112 97 _c
124 109 140 116 159 116 _c
177 116 192 109 205 97 _c
217 84 224 69 224 51 _c
224 33 217 17 205 5 _c
192 -7 177 -13 159 -13 _c
140 -13 124 -7 112 5 _c
100 17 94 32 94 51 _c
_cl}_d
/slash{337 0 0 -92 337 729 _sc
259 729 _m
337 729 _l
78 -92 _l
0 -92 _l
259 729 _l
_cl}_d
/zero{636 0 66 -13 570 742 _sc
318 34 _m
368 34 405 61 430 116 _c
454 170 467 253 467 364 _c
467 474 454 557 430 612 _c
405 666 368 694 318 694 _c
268 694 230 666 206 612 _c
181 557 169 474 169 364 _c
169 253 181 170 206 116 _c
230 61 268 34 318 34 _c
318 -13 _m
238 -13 176 20 132 86 _c
88 152 66 244 66 364 _c
66 483 88 576 132 642 _c
176 708 238 742 318 742 _c
397 742 459 708 503 642 _c
547 576 570 483 570 364 _c
570 244 547 152 503 86 _c
459 20 397 -13 318 -13 _c
_cl}_d
/one{636 0 122 0 494 742 _sc
142 0 _m
142 52 _l
269 52 _l
269 658 _l
122 563 _l
122 627 _l
300 742 _l
367 742 _l
367 52 _l
494 52 _l
494 0 _l
142 0 _l
_cl}_d
/two{{636 0 68 0 538 742 _sc
128 555 _m
73 555 _l
73 685 _l
107 703 142 717 178 727 _c
213 737 248 742 282 742 _c
358 742 418 723 462 687 _c
506 650 528 600 528 537 _c
528 465 478 380 378 281 _c
370 273 365 268 361 264 _c
177 80 _l
481 80 _l
481 170 _l
538 170 _l
538 0 _l
68 0 _l
68 53 _l
289 274 _l
337 322 372 367 393 408 _c
414 449 425 492 425 537 _c
}_e{425 586 412 624 386 652 _c
360 680 325 694 281 694 _c
234 694 198 682 173 659 _c
147 636 132 601 128 555 _c
_cl}_e}_d
/three{{636 0 76 -13 562 742 _sc
97 698 _m
135 712 171 723 206 731 _c
241 738 274 742 305 742 _c
376 742 432 726 472 696 _c
512 665 532 622 532 568 _c
532 524 518 487 490 458 _c
462 428 423 408 373 398 _c
433 389 479 367 512 332 _c
545 297 562 252 562 197 _c
562 129 539 77 493 41 _c
447 5 382 -13 296 -13 _c
258 -13 220 -9 184 -1 _c
148 6 112 18 76 35 _c
76 177 _l
}_e{131 177 _l
134 129 150 94 178 70 _c
206 46 246 34 298 34 _c
348 34 387 48 416 77 _c
444 106 459 146 459 196 _c
459 253 444 296 414 326 _c
384 355 341 370 284 370 _c
238 370 _l
238 420 _l
262 420 _l
319 420 362 431 390 455 _c
418 479 433 514 433 562 _c
433 604 421 637 398 660 _c
374 682 341 694 297 694 _c
253 694 218 683 194 662 _c
170 641 156 610 152 570 _c
}_e{97 570 _l
97 698 _l
_cl}_e}_d
/four{636 0 31 0 586 742 _sc
349 247 _m
349 635 _l
100 247 _l
349 247 _l
564 0 _m
232 0 _l
232 52 _l
349 52 _l
349 195 _l
31 195 _l
31 248 _l
350 742 _l
447 742 _l
447 247 _l
586 247 _l
586 195 _l
447 195 _l
447 52 _l
564 52 _l
564 0 _l
_cl}_d
/five{{636 0 85 -13 559 729 _sc
503 729 _m
503 649 _l
169 649 _l
169 440 _l
185 452 205 460 228 466 _c
250 472 276 475 304 475 _c
382 475 444 453 490 409 _c
536 365 559 306 559 231 _c
559 153 536 93 490 51 _c
444 8 379 -13 296 -13 _c
262 -13 228 -9 193 -1 _c
157 6 121 18 85 35 _c
85 177 _l
140 177 _l
143 130 158 94 184 70 _c
210 46 248 34 296 34 _c
}_e{347 34 386 51 414 85 _c
442 119 456 167 456 231 _c
456 294 442 342 415 376 _c
387 410 348 427 296 427 _c
266 427 240 421 218 411 _c
196 401 176 385 159 363 _c
117 363 _l
117 729 _l
503 729 _l
_cl}_e}_d
/six{{636 0 67 -13 573 742 _sc
327 34 _m
373 34 408 50 433 84 _c
457 118 470 166 470 230 _c
470 293 457 341 433 375 _c
408 409 373 426 327 426 _c
280 426 244 409 220 377 _c
196 344 184 297 184 236 _c
184 171 196 121 221 86 _c
245 51 281 34 327 34 _c
168 401 _m
190 425 215 444 243 456 _c
271 468 302 474 338 474 _c
410 474 468 452 510 408 _c
552 364 573 305 573 230 _c
}_e{573 156 550 97 505 53 _c
459 9 399 -13 323 -13 _c
241 -13 177 17 133 78 _c
89 139 67 227 67 341 _c
67 468 93 567 145 637 _c
197 707 271 742 367 742 _c
393 742 420 739 448 735 _c
476 730 505 723 535 713 _c
535 593 _l
480 593 _l
476 625 463 650 442 668 _c
421 685 393 694 357 694 _c
293 694 246 670 215 622 _c
184 574 168 500 168 401 _c
_cl}_e}_d
/seven{636 0 84 0 564 729 _sc
564 679 _m
279 0 _l
206 0 _l
478 649 _l
141 649 _l
141 559 _l
84 559 _l
84 729 _l
564 729 _l
564 679 _l
_cl}_d
/eight{{636 0 67 -13 569 742 _sc
466 199 _m
466 251 453 291 427 320 _c
401 349 364 364 318 364 _c
271 364 235 349 209 320 _c
183 291 170 251 170 199 _c
170 147 183 106 209 77 _c
235 48 271 34 318 34 _c
364 34 401 48 427 77 _c
453 106 466 147 466 199 _c
446 553 _m
446 597 434 632 412 657 _c
389 681 358 694 318 694 _c
278 694 246 681 224 657 _c
201 632 190 597 190 553 _c
}_e{190 508 201 473 224 449 _c
246 424 278 412 318 412 _c
358 412 389 424 412 449 _c
434 473 428 453 393 388 _c
448 380 491 360 522 327 _c
553 293 569 251 569 199 _c
569 131 547 78 504 42 _c
460 5 398 -13 318 -13 _c
237 -13 175 5 132 42 _c
88 78 67 131 67 199 _c
67 251 82 293 113 327 _c
144 360 187 380 243 388 _c
193 396 156 415 130 444 _c
}_e{104 472 91 509 91 553 _c
91 611 111 657 151 691 _c
191 725 247 742 318 742 _c
388 742 444 725 484 691 _c
524 657 545 611 545 553 _c
545 509 531 472 505 444 _c
479 415 459 451 446 553 _c
_cl}_e}_d
/F{694 0 55 0 652 729 _sc
55 0 _m
55 52 _l
148 52 _l
148 677 _l
55 677 _l
55 729 _l
652 729 _l
652 567 _l
592 567 _l
592 669 _l
247 669 _l
247 425 _l
496 425 _l
496 516 _l
556 516 _l
556 274 _l
496 274 _l
496 365 _l
247 365 _l
247 52 _l
364 52 _l
364 0 _l
55 0 _l
_cl}_d
/H{{872 0 55 0 817 729 _sc
55 0 _m
55 52 _l
148 52 _l
148 677 _l
55 677 _l
55 729 _l
340 729 _l
340 677 _l
247 677 _l
247 425 _l
625 425 _l
625 677 _l
532 677 _l
532 729 _l
817 729 _l
817 677 _l
724 677 _l
724 52 _l
817 52 _l
817 0 _l
532 0 _l
532 52 _l
625 52 _l
625 365 _l
247 365 _l
247 52 _l
340 52 _l
340 0 _l
55 0 _l
_cl}_e}_d
/I{395 0 55 0 340 729 _sc
247 52 _m
340 52 _l
340 0 _l
55 0 _l
55 52 _l
148 52 _l
148 677 _l
55 677 _l
55 729 _l
340 729 _l
340 677 _l
247 677 _l
247 52 _l
_cl}_d
/K{747 0 55 0 762 729 _sc
55 0 _m
55 52 _l
148 52 _l
148 677 _l
55 677 _l
55 729 _l
340 729 _l
340 677 _l
247 677 _l
247 401 _l
561 677 _l
482 677 _l
482 729 _l
724 729 _l
724 677 _l
642 677 _l
329 402 _l
679 52 _l
762 52 _l
762 0 _l
593 0 _l
247 346 _l
247 52 _l
340 52 _l
340 0 _l
55 0 _l
_cl}_d
/M{1024 0 50 0 973 729 _sc
55 0 _m
55 52 _l
148 52 _l
148 677 _l
50 677 _l
50 729 _l
262 729 _l
518 210 _l
774 729 _l
973 729 _l
973 677 _l
876 677 _l
876 52 _l
969 52 _l
969 0 _l
684 0 _l
684 52 _l
777 52 _l
777 615 _l
527 107 _l
458 107 _l
208 615 _l
208 52 _l
301 52 _l
301 0 _l
55 0 _l
_cl}_d
/N{875 0 49 -13 831 729 _sc
49 0 _m
49 52 _l
147 52 _l
147 677 _l
49 677 _l
49 729 _l
236 729 _l
673 154 _l
673 677 _l
575 677 _l
575 729 _l
831 729 _l
831 677 _l
733 677 _l
733 -13 _l
674 -13 _l
207 600 _l
207 52 _l
305 52 _l
305 0 _l
49 0 _l
_cl}_d
/P{{673 0 55 0 637 729 _sc
247 371 _m
376 371 _l
424 371 461 384 487 410 _c
512 436 525 474 525 524 _c
525 574 512 612 487 638 _c
461 664 424 677 376 677 _c
247 677 _l
247 371 _l
55 0 _m
55 52 _l
148 52 _l
148 677 _l
55 677 _l
55 729 _l
400 729 _l
472 729 530 710 573 673 _c
615 636 637 586 637 524 _c
637 461 615 411 573 374 _c
530 337 472 319 400 319 _c
247 319 _l
}_e{247 52 _l
360 52 _l
360 0 _l
55 0 _l
_cl}_e}_d
/R{{753 0 55 0 777 729 _sc
479 362 _m
501 356 521 345 538 330 _c
554 315 569 294 582 268 _c
688 52 _l
777 52 _l
777 0 _l
605 0 _l
491 232 _l
469 276 449 305 431 319 _c
413 332 388 339 356 339 _c
247 339 _l
247 52 _l
350 52 _l
350 0 _l
55 0 _l
55 52 _l
148 52 _l
148 677 _l
55 677 _l
55 729 _l
425 729 _l
495 729 550 712 589 678 _c
}_e{627 644 647 596 647 534 _c
647 484 633 444 605 416 _c
577 387 535 369 479 362 _c
247 391 _m
391 391 _l
440 391 476 402 500 426 _c
523 449 535 485 535 534 _c
535 582 523 618 500 642 _c
476 665 440 677 391 677 _c
247 677 _l
247 391 _l
_cl}_e}_d
/bracketleft{390 0 86 -131 313 760 _sc
86 760 _m
313 760 _l
313 708 _l
179 708 _l
179 -79 _l
313 -79 _l
313 -131 _l
86 -131 _l
86 760 _l
_cl}_d
/bracketright{390 0 77 -131 304 760 _sc
304 760 _m
304 -131 _l
77 -131 _l
77 -79 _l
211 -79 _l
211 708 _l
77 708 _l
77 760 _l
304 760 _l
_cl}_d
/a{{596 0 50 -13 568 533 _sc
398 163 _m
398 273 _l
282 273 _l
237 273 204 263 182 244 _c
160 224 150 195 150 156 _c
150 120 161 91 183 70 _c
205 48 235 38 273 38 _c
310 38 340 49 363 72 _c
386 95 398 125 398 163 _c
488 324 _m
488 52 _l
568 52 _l
568 0 _l
398 0 _l
398 56 _l
378 32 355 14 329 3 _c
303 -7 272 -13 238 -13 _c
180 -13 134 2 100 32 _c
}_e{66 62 50 104 50 156 _c
50 209 69 250 108 280 _c
146 310 201 325 272 325 _c
398 325 _l
398 361 _l
398 400 386 430 362 452 _c
338 474 304 485 261 485 _c
225 485 197 476 176 460 _c
154 444 141 420 136 388 _c
90 388 _l
90 493 _l
121 506 151 516 181 523 _c
210 529 239 533 267 533 _c
339 533 393 515 431 479 _c
469 443 488 392 488 324 _c
_cl}_e}_d
/c{{560 0 50 -13 514 533 _sc
514 156 _m
501 100 477 58 441 30 _c
405 1 358 -13 301 -13 _c
225 -13 165 11 119 61 _c
73 111 50 177 50 260 _c
50 342 73 408 119 458 _c
165 508 225 533 301 533 _c
333 533 366 529 399 521 _c
431 513 464 502 497 487 _c
497 354 _l
445 354 _l
438 399 423 432 400 453 _c
377 474 344 485 302 485 _c
253 485 216 466 192 428 _c
}_e{167 390 155 334 155 260 _c
155 184 167 128 192 90 _c
216 52 253 34 302 34 _c
340 34 371 44 394 64 _c
417 84 433 115 442 156 _c
514 156 _l
_cl}_e}_d
/d{{640 0 50 -13 611 760 _sc
525 52 _m
611 52 _l
611 0 _l
435 0 _l
435 81 _l
417 48 395 24 368 9 _c
340 -5 307 -13 267 -13 _c
203 -13 150 12 110 62 _c
70 112 50 178 50 260 _c
50 341 70 407 110 457 _c
150 507 203 533 267 533 _c
307 533 340 525 368 510 _c
395 494 417 470 435 438 _c
435 708 _l
350 708 _l
350 760 _l
525 760 _l
525 52 _l
435 234 _m
435 285 _l
}_e{435 347 423 394 399 427 _c
375 460 340 477 295 477 _c
249 477 214 458 190 422 _c
166 386 155 332 155 260 _c
155 188 166 133 190 97 _c
214 60 249 42 295 42 _c
340 42 375 58 399 91 _c
423 123 435 171 435 234 _c
_cl}_e}_d
/e{{592 0 50 -13 542 533 _sc
542 250 _m
155 250 _l
155 246 _l
155 176 168 123 194 87 _c
220 51 259 34 311 34 _c
350 34 382 44 408 65 _c
433 85 451 116 461 157 _c
533 157 _l
519 100 492 57 454 29 _c
415 1 364 -13 302 -13 _c
226 -13 165 11 119 61 _c
73 111 50 177 50 260 _c
50 342 72 408 118 458 _c
163 508 222 533 296 533 _c
374 533 435 508 477 460 _c
}_e{519 412 540 342 542 250 _c
436 302 _m
434 362 421 408 397 439 _c
373 469 340 485 296 485 _c
254 485 222 469 198 438 _c
174 407 160 362 155 302 _c
436 302 _l
_cl}_e}_d
/g{{640 0 50 -221 611 533 _sc
525 467 _m
525 11 _l
525 -63 504 -120 463 -160 _c
422 -200 364 -221 288 -221 _c
254 -221 221 -218 190 -212 _c
158 -206 128 -196 100 -184 _c
100 -75 _l
147 -75 _l
153 -109 166 -133 188 -149 _c
210 -165 241 -173 282 -173 _c
334 -173 373 -158 398 -128 _c
422 -98 435 -51 435 11 _c
435 81 _l
417 48 395 24 368 9 _c
340 -5 307 -13 267 -13 _c
203 -13 150 12 110 62 _c
}_e{70 112 50 178 50 260 _c
50 341 70 407 110 457 _c
150 507 203 533 267 533 _c
307 533 340 525 368 510 _c
395 494 417 470 435 438 _c
435 519 _l
611 519 _l
611 467 _l
525 467 _l
435 285 _m
435 347 423 394 399 427 _c
375 460 340 477 295 477 _c
249 477 214 458 190 422 _c
166 386 155 332 155 260 _c
155 188 166 133 190 97 _c
214 60 249 42 295 42 _c
}_e{340 42 375 58 399 91 _c
423 123 435 171 435 234 _c
435 285 _l
_cl}_e}_d
/h{{644 0 36 0 616 760 _sc
41 0 _m
41 52 _l
122 52 _l
122 708 _l
36 708 _l
36 760 _l
212 760 _l
212 427 _l
228 461 250 488 276 506 _c
302 524 333 533 369 533 _c
426 533 468 516 495 484 _c
522 451 536 400 536 330 _c
536 52 _l
616 52 _l
616 0 _l
368 0 _l
368 52 _l
446 52 _l
446 302 _l
446 365 438 408 422 432 _c
406 455 379 467 340 467 _c
}_e{298 467 266 451 244 421 _c
222 391 212 347 212 289 _c
212 52 _l
290 52 _l
290 0 _l
41 0 _l
_cl}_e}_d
/i{320 0 36 0 297 736 _sc
97 680 _m
97 695 102 708 113 719 _c
124 730 137 736 153 736 _c
167 736 180 730 191 719 _c
202 708 208 695 208 680 _c
208 664 202 651 192 641 _c
181 630 168 625 153 625 _c
137 625 124 630 113 641 _c
102 651 97 664 97 680 _c
212 52 _m
297 52 _l
297 0 _l
36 0 _l
36 52 _l
122 52 _l
122 467 _l
36 467 _l
36 519 _l
212 519 _l
212 52 _l
_cl}_d
/l{320 0 29 0 290 760 _sc
205 52 _m
290 52 _l
290 0 _l
29 0 _l
29 52 _l
115 52 _l
115 708 _l
29 708 _l
29 760 _l
205 760 _l
205 52 _l
_cl}_d
/m{{948 0 36 0 921 533 _sc
518 418 _m
535 456 557 484 584 504 _c
611 523 642 533 678 533 _c
732 533 773 516 800 482 _c
826 448 840 398 840 330 _c
840 52 _l
921 52 _l
921 0 _l
672 0 _l
672 52 _l
750 52 _l
750 320 _l
750 372 742 410 726 433 _c
710 455 685 467 649 467 _c
609 467 578 451 557 421 _c
536 391 526 347 526 289 _c
526 52 _l
604 52 _l
604 0 _l
358 0 _l
}_e{358 52 _l
436 52 _l
436 323 _l
436 375 428 412 412 434 _c
396 456 371 467 335 467 _c
295 467 264 451 243 421 _c
222 391 212 347 212 289 _c
212 52 _l
290 52 _l
290 0 _l
41 0 _l
41 52 _l
122 52 _l
122 468 _l
36 468 _l
36 519 _l
212 519 _l
212 427 _l
228 461 249 488 275 506 _c
301 524 330 533 363 533 _c
403 533 436 523 463 503 _c
}_e{490 483 508 454 518 418 _c
_cl}_e}_d
/n{{644 0 36 0 616 533 _sc
41 0 _m
41 52 _l
122 52 _l
122 467 _l
36 467 _l
36 519 _l
212 519 _l
212 427 _l
228 461 250 488 276 506 _c
302 524 333 533 369 533 _c
426 533 468 516 495 484 _c
522 451 536 400 536 330 _c
536 52 _l
616 52 _l
616 0 _l
368 0 _l
368 52 _l
446 52 _l
446 302 _l
446 365 438 408 422 432 _c
406 456 379 468 340 468 _c
}_e{298 468 266 452 244 422 _c
222 391 212 347 212 289 _c
212 52 _l
290 52 _l
290 0 _l
41 0 _l
_cl}_e}_d
/o{602 0 50 -13 552 533 _sc
301 34 _m
349 34 385 53 410 91 _c
434 129 447 185 447 260 _c
447 334 434 390 410 428 _c
385 466 349 485 301 485 _c
253 485 216 466 192 428 _c
167 390 155 334 155 260 _c
155 185 167 129 192 91 _c
216 53 253 34 301 34 _c
301 -13 _m
225 -13 165 11 119 61 _c
73 111 50 177 50 260 _c
50 342 72 408 118 458 _c
164 508 225 533 301 533 _c
377 533 437 508 483 458 _c
529 408 552 342 552 260 _c
552 177 529 111 483 61 _c
437 11 377 -13 301 -13 _c
_cl}_d
/r{478 0 36 0 478 533 _sc
478 520 _m
478 390 _l
426 390 _l
424 416 417 435 405 448 _c
392 460 373 467 349 467 _c
305 467 271 451 247 421 _c
223 390 212 346 212 289 _c
212 52 _l
316 52 _l
316 0 _l
41 0 _l
41 52 _l
122 52 _l
122 468 _l
36 468 _l
36 519 _l
212 519 _l
212 427 _l
229 463 251 489 279 507 _c
307 524 341 533 381 533 _c
395 533 411 531 427 529 _c
443 527 460 524 478 520 _c
_cl}_d
/t{402 0 29 -13 394 680 _sc
108 467 _m
29 467 _l
29 519 _l
108 519 _l
108 680 _l
198 680 _l
198 519 _l
367 519 _l
367 467 _l
198 467 _l
198 137 _l
198 93 202 64 211 52 _c
219 40 235 34 258 34 _c
281 34 298 41 309 55 _c
319 69 325 91 326 122 _c
394 122 _l
391 74 378 40 355 19 _c
332 -2 297 -13 250 -13 _c
198 -13 161 -1 140 21 _c
118 43 108 82 108 137 _c
108 467 _l
_cl}_d
/minus{838 0 106 274 732 353 _sc
106 353 _m
732 353 _l
732 274 _l
106 274 _l
106 353 _l
_cl}_d
end readonly def

/BuildGlyph
 {exch begin
 CharStrings exch
 2 copy known not{pop /.notdef}if
 true 3 1 roll get exec
 end}_d

/BuildChar {
 1 index /Encoding get exch get
 1 index /BuildGlyph get exec
}_d

FontName currentdict end definefont pop
end
%%EndProlog
mpldict begin
90 72 translate
432 648 0 0 clipbox
gsave
0 0 m
432 0 l
432 648 l
0 648 l
cl
1.000 setgray
fill
grestore
gsave
37.5272 461.271 m
429.678 461.271 l
429.678 644.04 l
37.5272 644.04 l
cl
1.000 setgray
fill
grestore
5.000 setlinewidth
1 setlinejoin
2 setlinecap
[] 0 setdash
0.118 0.565 1.000 setrgbcolor
gsave
392.2 182.8 37.53 461.3 clipbox
41.4487 440.963 m
45.3702 440.963 l
45.3702 440.963 l
53.2132 440.963 l
53.2132 440.963 l
61.0563 440.963 l
61.0563 440.963 l
68.8993 440.963 l
68.8993 440.963 l
76.7423 440.963 l
76.7423 481.578 l
84.5853 481.578 l
84.5853 481.578 l
92.4283 481.578 l
92.4283 481.578 l
100.271 481.578 l
100.271 440.963 l
108.114 440.963 l
108.114 493.805 l
115.957 493.805 l
115.957 500.957 l
123.8 500.957 l
123.8 506.031 l
131.643 506.031 l
131.643 523.875 l
139.486 523.875 l
139.486 529.346 l
147.329 529.346 l
147.329 537.636 l
155.173 537.636 l
155.173 549.863 l
163.016 549.863 l
163.016 563.331 l
170.859 563.331 l
170.859 569.484 l
178.702 569.484 l
178.702 572.781 l
186.545 572.781 l
186.545 581.283 l
194.388 581.283 l
194.388 585.501 l
202.231 585.501 l
202.231 591.822 l
210.074 591.822 l
210.074 595.106 l
217.917 595.106 l
217.917 598.066 l
225.76 598.066 l
225.76 603.086 l
233.603 603.086 l
233.603 597.752 l
241.446 597.752 l
241.446 440.963 l
249.289 440.963 l
249.289 440.963 l
257.132 440.963 l
257.132 440.963 l
264.975 440.963 l
264.975 440.963 l
272.818 440.963 l
272.818 440.963 l
280.661 440.963 l
280.661 440.963 l
288.504 440.963 l
288.504 440.963 l
296.347 440.963 l
296.347 440.963 l
304.19 440.963 l
304.19 440.963 l
312.033 440.963 l
312.033 440.963 l
319.876 440.963 l
319.876 440.963 l
327.719 440.963 l
327.719 440.963 l
335.562 440.963 l
335.562 440.963 l
343.405 440.963 l
343.405 440.963 l
351.248 440.963 l
351.248 440.963 l
359.091 440.963 l
359.091 440.963 l
366.934 440.963 l
366.934 440.963 l
374.777 440.963 l
374.777 440.963 l
382.62 440.963 l
382.62 440.963 l
390.463 440.963 l
390.463 440.963 l
398.306 440.963 l
398.306 440.963 l
406.149 440.963 l
406.149 440.963 l
413.992 440.963 l
413.992 440.963 l
421.835 440.963 l
421.835 440.963 l
425.757 440.963 l
stroke
grestore
3.000 setlinewidth
0.000 setgray
gsave
392.2 182.8 37.53 461.3 clipbox
41.4487 440.963 m
45.3702 440.963 l
45.3702 440.963 l
53.2132 440.963 l
53.2132 440.963 l
61.0563 440.963 l
61.0563 440.963 l
68.8993 440.963 l
68.8993 440.963 l
76.7423 440.963 l
76.7423 440.963 l
84.5853 440.963 l
84.5853 440.963 l
92.4283 440.963 l
92.4283 440.963 l
100.271 440.963 l
100.271 440.963 l
108.114 440.963 l
108.114 440.963 l
115.957 440.963 l
115.957 440.963 l
123.8 440.963 l
123.8 440.963 l
131.643 440.963 l
131.643 440.963 l
139.486 440.963 l
139.486 440.963 l
147.329 440.963 l
147.329 440.963 l
155.173 440.963 l
155.173 440.963 l
163.016 440.963 l
163.016 440.963 l
170.859 440.963 l
170.859 440.963 l
178.702 440.963 l
178.702 440.963 l
186.545 440.963 l
186.545 440.963 l
194.388 440.963 l
194.388 440.963 l
202.231 440.963 l
202.231 440.963 l
210.074 440.963 l
210.074 440.963 l
217.917 440.963 l
217.917 440.963 l
225.76 440.963 l
225.76 440.963 l
233.603 440.963 l
233.603 582.07 l
241.446 582.07 l
241.446 601.819 l
249.289 601.819 l
249.289 599.489 l
257.132 599.489 l
257.132 594.177 l
264.975 594.177 l
264.975 592.126 l
272.818 592.126 l
272.818 588.29 l
280.661 588.29 l
280.661 587.438 l
288.504 587.438 l
288.504 593.229 l
296.347 593.229 l
296.347 578.83 l
304.19 578.83 l
304.19 440.963 l
312.033 440.963 l
312.033 440.963 l
319.876 440.963 l
319.876 440.963 l
327.719 440.963 l
327.719 440.963 l
335.562 440.963 l
335.562 440.963 l
343.405 440.963 l
343.405 440.963 l
351.248 440.963 l
351.248 440.963 l
359.091 440.963 l
359.091 440.963 l
366.934 440.963 l
366.934 440.963 l
374.777 440.963 l
374.777 440.963 l
382.62 440.963 l
382.62 440.963 l
390.463 440.963 l
390.463 440.963 l
398.306 440.963 l
398.306 440.963 l
406.149 440.963 l
406.149 440.963 l
413.992 440.963 l
413.992 440.963 l
421.835 440.963 l
421.835 440.963 l
425.757 440.963 l
stroke
grestore
1.000 setlinewidth
1.000 0.000 0.000 setrgbcolor
gsave
392.2 182.8 37.53 461.3 clipbox
41.4487 440.963 m
45.3702 440.963 l
45.3702 440.963 l
53.2132 440.963 l
53.2132 440.963 l
61.0563 440.963 l
61.0563 440.963 l
68.8993 440.963 l
68.8993 440.963 l
76.7423 440.963 l
76.7423 440.963 l
84.5853 440.963 l
84.5853 440.963 l
92.4283 440.963 l
92.4283 440.963 l
100.271 440.963 l
100.271 440.963 l
108.114 440.963 l
108.114 440.963 l
115.957 440.963 l
115.957 440.963 l
123.8 440.963 l
123.8 440.963 l
131.643 440.963 l
131.643 440.963 l
139.486 440.963 l
139.486 440.963 l
147.329 440.963 l
147.329 440.963 l
155.173 440.963 l
155.173 440.963 l
163.016 440.963 l
163.016 440.963 l
170.859 440.963 l
170.859 440.963 l
178.702 440.963 l
178.702 440.963 l
186.545 440.963 l
186.545 440.963 l
194.388 440.963 l
194.388 440.963 l
202.231 440.963 l
202.231 440.963 l
210.074 440.963 l
210.074 440.963 l
217.917 440.963 l
217.917 440.963 l
225.76 440.963 l
225.76 440.963 l
233.603 440.963 l
233.603 440.963 l
241.446 440.963 l
241.446 440.963 l
249.289 440.963 l
249.289 440.963 l
257.132 440.963 l
257.132 440.963 l
264.975 440.963 l
264.975 440.963 l
272.818 440.963 l
272.818 440.963 l
280.661 440.963 l
280.661 440.963 l
288.504 440.963 l
288.504 440.963 l
296.347 440.963 l
296.347 595.442 l
304.19 595.442 l
304.19 606.284 l
312.033 606.284 l
312.033 604.651 l
319.876 604.651 l
319.876 598.906 l
327.719 598.906 l
327.719 591.092 l
335.562 591.092 l
335.562 584.343 l
343.405 584.343 l
343.405 571.535 l
351.248 571.535 l
351.248 554.937 l
359.091 554.937 l
359.091 541.572 l
366.934 541.572 l
366.934 520.335 l
374.777 520.335 l
374.777 509.967 l
382.62 509.967 l
382.62 440.963 l
390.463 440.963 l
390.463 481.578 l
398.306 481.578 l
398.306 440.963 l
406.149 440.963 l
406.149 440.963 l
413.992 440.963 l
413.992 440.963 l
421.835 440.963 l
421.835 440.963 l
425.757 440.963 l
stroke
grestore
0 setlinecap
0.000 setgray
gsave
/o {
gsave
newpath
translate
1.0 setlinewidth
1 setlinejoin
0 setlinecap
0 0 m
0 5 l
gsave
0.000 setgray
fill
grestore
stroke
grestore
} bind def
37.5272 461.271 o
grestore
gsave
/o {
gsave
newpath
translate
1.0 setlinewidth
1 setlinejoin
0 setlinecap
0 0 m
0 -5 l
gsave
0.000 setgray
fill
grestore
stroke
grestore
} bind def
37.5272 644.04 o
grestore
/BitstreamVeraSerif-Roman findfont
8.000 scalefont
setfont
gsave
32.253750 451.333125 translate
0.000000 rotate
0.000000 0.000000 m /minus glyphshow
6.703125 0.000000 m /four glyphshow
grestore
gsave
/o {
gsave
newpath
translate
1.0 setlinewidth
1 setlinejoin
0 setlinecap
0 0 m
0 5 l
gsave
0.000 setgray
fill
grestore
stroke
grestore
} bind def
115.957 461.271 o
grestore
gsave
/o {
gsave
newpath
translate
1.0 setlinewidth
1 setlinejoin
0 setlinecap
0 0 m
0 -5 l
gsave
0.000 setgray
fill
grestore
stroke
grestore
} bind def
115.957 644.04 o
grestore
gsave
110.777719 451.223750 translate
0.000000 rotate
0.000000 0.109375 m /minus glyphshow
6.703125 0.109375 m /three glyphshow
grestore
gsave
/o {
gsave
newpath
translate
1.0 setlinewidth
1 setlinejoin
0 setlinecap
0 0 m
0 5 l
gsave
0.000 setgray
fill
grestore
stroke
grestore
} bind def
194.388 461.271 o
grestore
gsave
/o {
gsave
newpath
translate
1.0 setlinewidth
1 setlinejoin
0 setlinecap
0 0 m
0 -5 l
gsave
0.000 setgray
fill
grestore
stroke
grestore
} bind def
194.388 644.04 o
grestore
gsave
189.301688 451.333125 translate
0.000000 rotate
0.000000 0.000000 m /minus glyphshow
6.703125 0.000000 m /two glyphshow
grestore
gsave
/o {
gsave
newpath
translate
1.0 setlinewidth
1 setlinejoin
0 setlinecap
0 0 m
0 5 l
gsave
0.000 setgray
fill
grestore
stroke
grestore
} bind def
272.818 461.271 o
grestore
gsave
/o {
gsave
newpath
translate
1.0 setlinewidth
1 setlinejoin
0 setlinecap
0 0 m
0 -5 l
gsave
0.000 setgray
fill
grestore
stroke
grestore
} bind def
272.818 644.04 o
grestore
gsave
267.911594 451.333125 translate
0.000000 rotate
0.000000 0.000000 m /minus glyphshow
6.703125 0.000000 m /one glyphshow
grestore
gsave
/o {
gsave
newpath
translate
1.0 setlinewidth
1 setlinejoin
0 setlinecap
0 0 m
0 5 l
gsave
0.000 setgray
fill
grestore
stroke
grestore
} bind def
351.248 461.271 o
grestore
gsave
/o {
gsave
newpath
translate
1.0 setlinewidth
1 setlinejoin
0 setlinecap
0 0 m
0 -5 l
gsave
0.000 setgray
fill
grestore
stroke
grestore
} bind def
351.248 644.04 o
grestore
gsave
349.232438 451.223750 translate
0.000000 rotate
0.000000 0.109375 m /zero glyphshow
grestore
gsave
/o {
gsave
newpath
translate
1.0 setlinewidth
1 setlinejoin
0 setlinecap
0 0 m
0 5 l
gsave
0.000 setgray
fill
grestore
stroke
grestore
} bind def
429.678 461.271 o
grestore
gsave
/o {
gsave
newpath
translate
1.0 setlinewidth
1 setlinejoin
0 setlinecap
0 0 m
0 -5 l
gsave
0.000 setgray
fill
grestore
stroke
grestore
} bind def
429.678 644.04 o
grestore
gsave
428.193906 451.333125 translate
0.000000 rotate
0.000000 0.000000 m /one glyphshow
grestore
/BitstreamVeraSerif-Roman findfont
10.000 scalefont
setfont
gsave
218.329297 437.317500 translate
0.000000 rotate
0.000000 1.312500 m /bracketleft glyphshow
3.901367 1.312500 m /F glyphshow
10.339844 1.312500 m /e glyphshow
16.257812 1.312500 m /slash glyphshow
19.626953 1.312500 m /H glyphshow
28.347656 1.312500 m /bracketright glyphshow
grestore
gsave
/o {
gsave
newpath
translate
1.0 setlinewidth
1 setlinejoin
0 setlinecap
0 0 m
5 0 l
gsave
0.000 setgray
fill
grestore
stroke
grestore
} bind def
37.5272 461.271 o
grestore
gsave
/o {
gsave
newpath
translate
1.0 setlinewidth
1 setlinejoin
0 setlinecap
0 0 m
-5 0 l
gsave
0.000 setgray
fill
grestore
stroke
grestore
} bind def
429.678 461.271 o
grestore
/BitstreamVeraSerif-Roman findfont
8.000 scalefont
setfont
gsave
15.558437 458.247188 translate
0.000000 rotate
0.000000 0.109375 m /minus glyphshow
6.703125 0.109375 m /zero glyphshow
11.792969 0.109375 m /period glyphshow
14.335938 0.109375 m /five glyphshow
grestore
gsave
/o {
gsave
newpath
translate
1.0 setlinewidth
1 setlinejoin
0 setlinecap
0 0 m
5 0 l
gsave
0.000 setgray
fill
grestore
stroke
grestore
} bind def
37.5272 481.578 o
grestore
gsave
/o {
gsave
newpath
translate
1.0 setlinewidth
1 setlinejoin
0 setlinecap
0 0 m
-5 0 l
gsave
0.000 setgray
fill
grestore
stroke
grestore
} bind def
429.678 481.578 o
grestore
gsave
21.855312 478.554896 translate
0.000000 rotate
0.000000 0.109375 m /zero glyphshow
5.089844 0.109375 m /period glyphshow
7.632812 0.109375 m /zero glyphshow
grestore
gsave
/o {
gsave
newpath
translate
1.0 setlinewidth
1 setlinejoin
0 setlinecap
0 0 m
5 0 l
gsave
0.000 setgray
fill
grestore
stroke
grestore
} bind def
37.5272 501.886 o
grestore
gsave
/o {
gsave
newpath
translate
1.0 setlinewidth
1 setlinejoin
0 setlinecap
0 0 m
-5 0 l
gsave
0.000 setgray
fill
grestore
stroke
grestore
} bind def
429.678 501.886 o
grestore
gsave
21.949062 498.862604 translate
0.000000 rotate
0.000000 0.109375 m /zero glyphshow
5.089844 0.109375 m /period glyphshow
7.632812 0.109375 m /five glyphshow
grestore
gsave
/o {
gsave
newpath
translate
1.0 setlinewidth
1 setlinejoin
0 setlinecap
0 0 m
5 0 l
gsave
0.000 setgray
fill
grestore
stroke
grestore
} bind def
37.5272 522.194 o
grestore
gsave
/o {
gsave
newpath
translate
1.0 setlinewidth
1 setlinejoin
0 setlinecap
0 0 m
-5 0 l
gsave
0.000 setgray
fill
grestore
stroke
grestore
} bind def
429.678 522.194 o
grestore
gsave
22.308437 519.170313 translate
0.000000 rotate
0.000000 0.109375 m /one glyphshow
5.089844 0.109375 m /period glyphshow
7.632812 0.109375 m /zero glyphshow
grestore
gsave
/o {
gsave
newpath
translate
1.0 setlinewidth
1 setlinejoin
0 setlinecap
0 0 m
5 0 l
gsave
0.000 setgray
fill
grestore
stroke
grestore
} bind def
37.5272 542.501 o
grestore
gsave
/o {
gsave
newpath
translate
1.0 setlinewidth
1 setlinejoin
0 setlinecap
0 0 m
-5 0 l
gsave
0.000 setgray
fill
grestore
stroke
grestore
} bind def
429.678 542.501 o
grestore
gsave
22.402187 539.478021 translate
0.000000 rotate
0.000000 0.109375 m /one glyphshow
5.089844 0.109375 m /period glyphshow
7.632812 0.109375 m /five glyphshow
grestore
gsave
/o {
gsave
newpath
translate
1.0 setlinewidth
1 setlinejoin
0 setlinecap
0 0 m
5 0 l
gsave
0.000 setgray
fill
grestore
stroke
grestore
} bind def
37.5272 562.809 o
grestore
gsave
/o {
gsave
newpath
translate
1.0 setlinewidth
1 setlinejoin
0 setlinecap
0 0 m
-5 0 l
gsave
0.000 setgray
fill
grestore
stroke
grestore
} bind def
429.678 562.809 o
grestore
gsave
21.870937 559.785729 translate
0.000000 rotate
0.000000 0.109375 m /two glyphshow
5.089844 0.109375 m /period glyphshow
7.632812 0.109375 m /zero glyphshow
grestore
gsave
/o {
gsave
newpath
translate
1.0 setlinewidth
1 setlinejoin
0 setlinecap
0 0 m
5 0 l
gsave
0.000 setgray
fill
grestore
stroke
grestore
} bind def
37.5272 583.117 o
grestore
gsave
/o {
gsave
newpath
translate
1.0 setlinewidth
1 setlinejoin
0 setlinecap
0 0 m
-5 0 l
gsave
0.000 setgray
fill
grestore
stroke
grestore
} bind def
429.678 583.117 o
grestore
gsave
21.964687 580.093438 translate
0.000000 rotate
0.000000 0.109375 m /two glyphshow
5.089844 0.109375 m /period glyphshow
7.632812 0.109375 m /five glyphshow
grestore
gsave
/o {
gsave
newpath
translate
1.0 setlinewidth
1 setlinejoin
0 setlinecap
0 0 m
5 0 l
gsave
0.000 setgray
fill
grestore
stroke
grestore
} bind def
37.5272 603.425 o
grestore
gsave
/o {
gsave
newpath
translate
1.0 setlinewidth
1 setlinejoin
0 setlinecap
0 0 m
-5 0 l
gsave
0.000 setgray
fill
grestore
stroke
grestore
} bind def
429.678 603.425 o
grestore
gsave
21.933437 600.401146 translate
0.000000 rotate
0.000000 0.109375 m /three glyphshow
5.089844 0.109375 m /period glyphshow
7.632812 0.109375 m /zero glyphshow
grestore
gsave
/o {
gsave
newpath
translate
1.0 setlinewidth
1 setlinejoin
0 setlinecap
0 0 m
5 0 l
gsave
0.000 setgray
fill
grestore
stroke
grestore
} bind def
37.5272 623.732 o
grestore
gsave
/o {
gsave
newpath
translate
1.0 setlinewidth
1 setlinejoin
0 setlinecap
0 0 m
-5 0 l
gsave
0.000 setgray
fill
grestore
stroke
grestore
} bind def
429.678 623.732 o
grestore
gsave
22.027187 620.708854 translate
0.000000 rotate
0.000000 0.109375 m /three glyphshow
5.089844 0.109375 m /period glyphshow
7.632812 0.109375 m /five glyphshow
grestore
gsave
/o {
gsave
newpath
translate
1.0 setlinewidth
1 setlinejoin
0 setlinecap
0 0 m
5 0 l
gsave
0.000 setgray
fill
grestore
stroke
grestore
} bind def
37.5272 644.04 o
grestore
gsave
/o {
gsave
newpath
translate
1.0 setlinewidth
1 setlinejoin
0 setlinecap
0 0 m
-5 0 l
gsave
0.000 setgray
fill
grestore
stroke
grestore
} bind def
429.678 644.04 o
grestore
gsave
21.574062 641.016563 translate
0.000000 rotate
0.000000 0.109375 m /four glyphshow
5.089844 0.109375 m /period glyphshow
7.632812 0.109375 m /zero glyphshow
grestore
/BitstreamVeraSerif-Roman findfont
10.000 scalefont
setfont
gsave
10.558437 537.108438 translate
90.000000 rotate
0.000000 2.218750 m /l glyphshow
3.198242 2.218750 m /o glyphshow
9.218750 2.218750 m /g glyphshow
15.620117 2.218750 m /parenleft glyphshow
19.521484 2.218750 m /N glyphshow
28.271484 2.218750 m /parenright glyphshow
grestore
2 setlinecap
gsave
37.5272 644.04 m
429.678 644.04 l
stroke
grestore
gsave
429.678 461.271 m
429.678 644.04 l
stroke
grestore
gsave
37.5272 461.271 m
429.678 461.271 l
stroke
grestore
gsave
37.5272 461.271 m
37.5272 644.04 l
stroke
grestore
gsave
37.5272 244.99 m
429.678 244.99 l
429.678 427.76 l
37.5272 427.76 l
cl
1.000 setgray
fill
grestore
5.000 setlinewidth
0.118 0.565 1.000 setrgbcolor
gsave
392.2 182.8 37.53 245 clipbox
14.4595 224.683 m
25.9933 224.683 l
25.9933 224.683 l
49.061 224.683 l
49.061 224.683 l
72.1288 224.683 l
72.1288 277.524 l
95.1965 277.524 l
95.1965 319.001 l
118.264 319.001 l
118.264 352.589 l
141.332 352.589 l
141.332 377.042 l
164.4 377.042 l
164.4 389.989 l
187.467 389.989 l
187.467 400.753 l
210.535 400.753 l
210.535 380.676 l
233.603 380.676 l
233.603 301.977 l
256.67 301.977 l
256.67 224.683 l
279.738 224.683 l
279.738 265.298 l
302.806 265.298 l
302.806 224.683 l
325.874 224.683 l
325.874 224.683 l
348.941 224.683 l
348.941 224.683 l
372.009 224.683 l
372.009 224.683 l
395.077 224.683 l
395.077 224.683 l
418.144 224.683 l
418.144 224.683 l
433 224.683 l
stroke
grestore
3.000 setlinewidth
0.000 setgray
gsave
392.2 182.8 37.53 245 clipbox
14.4595 224.683 m
25.9933 224.683 l
25.9933 224.683 l
49.061 224.683 l
49.061 224.683 l
72.1288 224.683 l
72.1288 224.683 l
95.1965 224.683 l
95.1965 277.524 l
118.264 277.524 l
118.264 299.622 l
141.332 299.622 l
141.332 356.897 l
164.4 356.897 l
164.4 394.261 l
187.467 394.261 l
187.467 402.275 l
210.535 402.275 l
210.535 374.988 l
233.603 374.988 l
233.603 353.915 l
256.67 353.915 l
256.67 337.81 l
279.738 337.81 l
279.738 299.622 l
302.806 299.622 l
302.806 265.298 l
325.874 265.298 l
325.874 224.683 l
348.941 224.683 l
348.941 224.683 l
372.009 224.683 l
372.009 224.683 l
395.077 224.683 l
395.077 224.683 l
418.144 224.683 l
418.144 224.683 l
433 224.683 l
stroke
grestore
1.000 setlinewidth
1.000 0.000 0.000 setrgbcolor
gsave
392.2 182.8 37.53 245 clipbox
14.4595 224.683 m
25.9933 224.683 l
25.9933 224.683 l
49.061 224.683 l
49.061 224.683 l
72.1288 224.683 l
72.1288 265.298 l
95.1965 265.298 l
95.1965 265.298 l
118.264 265.298 l
118.264 296.903 l
141.332 296.903 l
141.332 338.097 l
164.4 338.097 l
164.4 383.427 l
187.467 383.427 l
187.467 389.655 l
210.535 389.655 l
210.535 388.305 l
233.603 388.305 l
233.603 382.603 l
256.67 382.603 l
256.67 379.106 l
279.738 379.106 l
279.738 360.356 l
302.806 360.356 l
302.806 328.991 l
325.874 328.991 l
325.874 277.524 l
348.941 277.524 l
348.941 265.298 l
372.009 265.298 l
372.009 224.683 l
395.077 224.683 l
395.077 224.683 l
418.144 224.683 l
418.144 224.683 l
433 224.683 l
stroke
grestore
0 setlinecap
0.000 setgray
gsave
/o {
gsave
newpath
translate
1.0 setlinewidth
1 setlinejoin
0 setlinecap
0 0 m
0 5 l
gsave
0.000 setgray
fill
grestore
stroke
grestore
} bind def
60.5949 244.99 o
grestore
gsave
/o {
gsave
newpath
translate
1.0 setlinewidth
1 setlinejoin
0 setlinecap
0 0 m
0 -5 l
gsave
0.000 setgray
fill
grestore
stroke
grestore
} bind def
60.5949 427.76 o
grestore
/BitstreamVeraSerif-Roman findfont
8.000 scalefont
setfont
gsave
51.016774 234.943437 translate
0.000000 rotate
0.000000 0.109375 m /five glyphshow
5.089844 0.109375 m /zero glyphshow
10.179688 0.109375 m /zero glyphshow
15.269531 0.109375 m /zero glyphshow
grestore
gsave
/o {
gsave
newpath
translate
1.0 setlinewidth
1 setlinejoin
0 setlinecap
0 0 m
0 5 l
gsave
0.000 setgray
fill
grestore
stroke
grestore
} bind def
118.264 244.99 o
grestore
gsave
/o {
gsave
newpath
translate
1.0 setlinewidth
1 setlinejoin
0 setlinecap
0 0 m
0 -5 l
gsave
0.000 setgray
fill
grestore
stroke
grestore
} bind def
118.264 427.76 o
grestore
gsave
108.686052 234.943437 translate
0.000000 rotate
0.000000 0.109375 m /five glyphshow
5.089844 0.109375 m /five glyphshow
10.179688 0.109375 m /zero glyphshow
15.269531 0.109375 m /zero glyphshow
grestore
gsave
/o {
gsave
newpath
translate
1.0 setlinewidth
1 setlinejoin
0 setlinecap
0 0 m
0 5 l
gsave
0.000 setgray
fill
grestore
stroke
grestore
} bind def
175.933 244.99 o
grestore
gsave
/o {
gsave
newpath
translate
1.0 setlinewidth
1 setlinejoin
0 setlinecap
0 0 m
0 -5 l
gsave
0.000 setgray
fill
grestore
stroke
grestore
} bind def
175.933 427.76 o
grestore
gsave
166.277206 234.943437 translate
0.000000 rotate
0.000000 0.109375 m /six glyphshow
5.089844 0.109375 m /zero glyphshow
10.179688 0.109375 m /zero glyphshow
15.269531 0.109375 m /zero glyphshow
grestore
gsave
/o {
gsave
newpath
translate
1.0 setlinewidth
1 setlinejoin
0 setlinecap
0 0 m
0 5 l
gsave
0.000 setgray
fill
grestore
stroke
grestore
} bind def
233.603 244.99 o
grestore
gsave
/o {
gsave
newpath
translate
1.0 setlinewidth
1 setlinejoin
0 setlinecap
0 0 m
0 -5 l
gsave
0.000 setgray
fill
grestore
stroke
grestore
} bind def
233.603 427.76 o
grestore
gsave
223.946484 234.943437 translate
0.000000 rotate
0.000000 0.109375 m /six glyphshow
5.089844 0.109375 m /five glyphshow
10.179688 0.109375 m /zero glyphshow
15.269531 0.109375 m /zero glyphshow
grestore
gsave
/o {
gsave
newpath
translate
1.0 setlinewidth
1 setlinejoin
0 setlinecap
0 0 m
0 5 l
gsave
0.000 setgray
fill
grestore
stroke
grestore
} bind def
291.272 244.99 o
grestore
gsave
/o {
gsave
newpath
translate
1.0 setlinewidth
1 setlinejoin
0 setlinecap
0 0 m
0 -5 l
gsave
0.000 setgray
fill
grestore
stroke
grestore
} bind def
291.272 427.76 o
grestore
gsave
281.686075 234.943437 translate
0.000000 rotate
0.000000 0.109375 m /seven glyphshow
5.089844 0.109375 m /zero glyphshow
10.179688 0.109375 m /zero glyphshow
15.269531 0.109375 m /zero glyphshow
grestore
gsave
/o {
gsave
newpath
translate
1.0 setlinewidth
1 setlinejoin
0 setlinecap
0 0 m
0 5 l
gsave
0.000 setgray
fill
grestore
stroke
grestore
} bind def
348.941 244.99 o
grestore
gsave
/o {
gsave
newpath
translate
1.0 setlinewidth
1 setlinejoin
0 setlinecap
0 0 m
0 -5 l
gsave
0.000 setgray
fill
grestore
stroke
grestore
} bind def
348.941 427.76 o
grestore
gsave
339.355354 234.943437 translate
0.000000 rotate
0.000000 0.109375 m /seven glyphshow
5.089844 0.109375 m /five glyphshow
10.179688 0.109375 m /zero glyphshow
15.269531 0.109375 m /zero glyphshow
grestore
gsave
/o {
gsave
newpath
translate
1.0 setlinewidth
1 setlinejoin
0 setlinecap
0 0 m
0 5 l
gsave
0.000 setgray
fill
grestore
stroke
grestore
} bind def
406.611 244.99 o
grestore
gsave
/o {
gsave
newpath
translate
1.0 setlinewidth
1 setlinejoin
0 setlinecap
0 0 m
0 -5 l
gsave
0.000 setgray
fill
grestore
stroke
grestore
} bind def
406.611 427.76 o
grestore
gsave
396.954320 234.943437 translate
0.000000 rotate
0.000000 0.109375 m /eight glyphshow
5.089844 0.109375 m /zero glyphshow
10.179688 0.109375 m /zero glyphshow
15.269531 0.109375 m /zero glyphshow
grestore
gsave
217.602734 218.943437 translate
0.000000 rotate
/Cmmi10 findfont
10.0 scalefont
setfont
0.000000 3.406250 moveto
/T glyphshow

/Cmr10 findfont
7.0 scalefont
setfont
5.839844 0.855313 moveto
/e glyphshow

8.946777 0.855313 moveto
/f glyphshow

11.083008 0.855313 moveto
/f glyphshow

/BitstreamVeraSerif-Roman findfont
10.0 scalefont
setfont
13.219238 3.406250 moveto
/space glyphshow

16.397949 3.406250 moveto
/parenleft glyphshow

20.299316 3.406250 moveto
/K glyphshow

27.770020 3.406250 moveto
/parenright glyphshow


grestore
gsave
/o {
gsave
newpath
translate
1.0 setlinewidth
1 setlinejoin
0 setlinecap
0 0 m
5 0 l
gsave
0.000 setgray
fill
grestore
stroke
grestore
} bind def
37.5272 244.99 o
grestore
gsave
/o {
gsave
newpath
translate
1.0 setlinewidth
1 setlinejoin
0 setlinecap
0 0 m
-5 0 l
gsave
0.000 setgray
fill
grestore
stroke
grestore
} bind def
429.678 244.99 o
grestore
gsave
15.558437 241.966875 translate
0.000000 rotate
0.000000 0.109375 m /minus glyphshow
6.703125 0.109375 m /zero glyphshow
11.792969 0.109375 m /period glyphshow
14.335938 0.109375 m /five glyphshow
grestore
gsave
/o {
gsave
newpath
translate
1.0 setlinewidth
1 setlinejoin
0 setlinecap
0 0 m
5 0 l
gsave
0.000 setgray
fill
grestore
stroke
grestore
} bind def
37.5272 265.298 o
grestore
gsave
/o {
gsave
newpath
translate
1.0 setlinewidth
1 setlinejoin
0 setlinecap
0 0 m
-5 0 l
gsave
0.000 setgray
fill
grestore
stroke
grestore
} bind def
429.678 265.298 o
grestore
gsave
21.855312 262.274583 translate
0.000000 rotate
0.000000 0.109375 m /zero glyphshow
5.089844 0.109375 m /period glyphshow
7.632812 0.109375 m /zero glyphshow
grestore
gsave
/o {
gsave
newpath
translate
1.0 setlinewidth
1 setlinejoin
0 setlinecap
0 0 m
5 0 l
gsave
0.000 setgray
fill
grestore
stroke
grestore
} bind def
37.5272 285.606 o
grestore
gsave
/o {
gsave
newpath
translate
1.0 setlinewidth
1 setlinejoin
0 setlinecap
0 0 m
-5 0 l
gsave
0.000 setgray
fill
grestore
stroke
grestore
} bind def
429.678 285.606 o
grestore
gsave
21.949062 282.582292 translate
0.000000 rotate
0.000000 0.109375 m /zero glyphshow
5.089844 0.109375 m /period glyphshow
7.632812 0.109375 m /five glyphshow
grestore
gsave
/o {
gsave
newpath
translate
1.0 setlinewidth
1 setlinejoin
0 setlinecap
0 0 m
5 0 l
gsave
0.000 setgray
fill
grestore
stroke
grestore
} bind def
37.5272 305.913 o
grestore
gsave
/o {
gsave
newpath
translate
1.0 setlinewidth
1 setlinejoin
0 setlinecap
0 0 m
-5 0 l
gsave
0.000 setgray
fill
grestore
stroke
grestore
} bind def
429.678 305.913 o
grestore
gsave
22.308437 302.890000 translate
0.000000 rotate
0.000000 0.109375 m /one glyphshow
5.089844 0.109375 m /period glyphshow
7.632812 0.109375 m /zero glyphshow
grestore
gsave
/o {
gsave
newpath
translate
1.0 setlinewidth
1 setlinejoin
0 setlinecap
0 0 m
5 0 l
gsave
0.000 setgray
fill
grestore
stroke
grestore
} bind def
37.5272 326.221 o
grestore
gsave
/o {
gsave
newpath
translate
1.0 setlinewidth
1 setlinejoin
0 setlinecap
0 0 m
-5 0 l
gsave
0.000 setgray
fill
grestore
stroke
grestore
} bind def
429.678 326.221 o
grestore
gsave
22.402187 323.197708 translate
0.000000 rotate
0.000000 0.109375 m /one glyphshow
5.089844 0.109375 m /period glyphshow
7.632812 0.109375 m /five glyphshow
grestore
gsave
/o {
gsave
newpath
translate
1.0 setlinewidth
1 setlinejoin
0 setlinecap
0 0 m
5 0 l
gsave
0.000 setgray
fill
grestore
stroke
grestore
} bind def
37.5272 346.529 o
grestore
gsave
/o {
gsave
newpath
translate
1.0 setlinewidth
1 setlinejoin
0 setlinecap
0 0 m
-5 0 l
gsave
0.000 setgray
fill
grestore
stroke
grestore
} bind def
429.678 346.529 o
grestore
gsave
21.870937 343.505417 translate
0.000000 rotate
0.000000 0.109375 m /two glyphshow
5.089844 0.109375 m /period glyphshow
7.632812 0.109375 m /zero glyphshow
grestore
gsave
/o {
gsave
newpath
translate
1.0 setlinewidth
1 setlinejoin
0 setlinecap
0 0 m
5 0 l
gsave
0.000 setgray
fill
grestore
stroke
grestore
} bind def
37.5272 366.837 o
grestore
gsave
/o {
gsave
newpath
translate
1.0 setlinewidth
1 setlinejoin
0 setlinecap
0 0 m
-5 0 l
gsave
0.000 setgray
fill
grestore
stroke
grestore
} bind def
429.678 366.837 o
grestore
gsave
21.964687 363.813125 translate
0.000000 rotate
0.000000 0.109375 m /two glyphshow
5.089844 0.109375 m /period glyphshow
7.632812 0.109375 m /five glyphshow
grestore
gsave
/o {
gsave
newpath
translate
1.0 setlinewidth
1 setlinejoin
0 setlinecap
0 0 m
5 0 l
gsave
0.000 setgray
fill
grestore
stroke
grestore
} bind def
37.5272 387.144 o
grestore
gsave
/o {
gsave
newpath
translate
1.0 setlinewidth
1 setlinejoin
0 setlinecap
0 0 m
-5 0 l
gsave
0.000 setgray
fill
grestore
stroke
grestore
} bind def
429.678 387.144 o
grestore
gsave
21.933437 384.120833 translate
0.000000 rotate
0.000000 0.109375 m /three glyphshow
5.089844 0.109375 m /period glyphshow
7.632812 0.109375 m /zero glyphshow
grestore
gsave
/o {
gsave
newpath
translate
1.0 setlinewidth
1 setlinejoin
0 setlinecap
0 0 m
5 0 l
gsave
0.000 setgray
fill
grestore
stroke
grestore
} bind def
37.5272 407.452 o
grestore
gsave
/o {
gsave
newpath
translate
1.0 setlinewidth
1 setlinejoin
0 setlinecap
0 0 m
-5 0 l
gsave
0.000 setgray
fill
grestore
stroke
grestore
} bind def
429.678 407.452 o
grestore
gsave
22.027187 404.428542 translate
0.000000 rotate
0.000000 0.109375 m /three glyphshow
5.089844 0.109375 m /period glyphshow
7.632812 0.109375 m /five glyphshow
grestore
gsave
/o {
gsave
newpath
translate
1.0 setlinewidth
1 setlinejoin
0 setlinecap
0 0 m
5 0 l
gsave
0.000 setgray
fill
grestore
stroke
grestore
} bind def
37.5272 427.76 o
grestore
gsave
/o {
gsave
newpath
translate
1.0 setlinewidth
1 setlinejoin
0 setlinecap
0 0 m
-5 0 l
gsave
0.000 setgray
fill
grestore
stroke
grestore
} bind def
429.678 427.76 o
grestore
gsave
21.574062 424.736250 translate
0.000000 rotate
0.000000 0.109375 m /four glyphshow
5.089844 0.109375 m /period glyphshow
7.632812 0.109375 m /zero glyphshow
grestore
/BitstreamVeraSerif-Roman findfont
10.000 scalefont
setfont
gsave
10.558437 320.828125 translate
90.000000 rotate
0.000000 2.218750 m /l glyphshow
3.198242 2.218750 m /o glyphshow
9.218750 2.218750 m /g glyphshow
15.620117 2.218750 m /parenleft glyphshow
19.521484 2.218750 m /N glyphshow
28.271484 2.218750 m /parenright glyphshow
grestore
2 setlinecap
gsave
37.5272 427.76 m
429.678 427.76 l
stroke
grestore
gsave
429.678 244.99 m
429.678 427.76 l
stroke
grestore
gsave
37.5272 244.99 m
429.678 244.99 l
stroke
grestore
gsave
37.5272 244.99 m
37.5272 427.76 l
stroke
grestore
gsave
37.5272 28.71 m
429.678 28.71 l
429.678 211.479 l
37.5272 211.479 l
cl
1.000 setgray
fill
grestore
5.000 setlinewidth
0.118 0.565 1.000 setrgbcolor
gsave
392.2 182.8 37.53 28.71 clipbox
47.331 8.40229 m
57.1347 8.40229 l
57.1347 149.09 l
76.7423 149.09 l
76.7423 150.488 l
96.3499 150.488 l
96.3499 152.646 l
115.957 152.646 l
115.957 154.073 l
135.565 154.073 l
135.565 154.789 l
155.173 154.789 l
155.173 155.223 l
174.78 155.223 l
174.78 157.128 l
194.388 157.128 l
194.388 156.935 l
213.995 156.935 l
213.995 156.222 l
233.603 156.222 l
233.603 153.797 l
253.21 153.797 l
253.21 152.547 l
272.818 152.547 l
272.818 146.055 l
292.425 146.055 l
292.425 136.057 l
312.033 136.057 l
312.033 127.382 l
331.641 127.382 l
331.641 113.639 l
351.248 113.639 l
351.248 94.261 l
370.856 94.261 l
370.856 61.2442 l
390.463 61.2442 l
390.463 8.40229 l
410.071 8.40229 l
410.071 8.40229 l
419.875 8.40229 l
stroke
grestore
3.000 setlinewidth
0.000 setgray
gsave
392.2 182.8 37.53 28.71 clipbox
47.331 8.40229 m
57.1347 8.40229 l
57.1347 150.985 l
76.7423 150.985 l
76.7423 153.516 l
96.3499 153.516 l
96.3499 158.064 l
115.957 158.064 l
115.957 157.546 l
135.565 157.546 l
135.565 161.497 l
155.173 161.497 l
155.173 160.383 l
174.78 160.383 l
174.78 157.696 l
194.388 157.696 l
194.388 155.977 l
213.995 155.977 l
213.995 153.135 l
233.603 153.135 l
233.603 147.769 l
253.21 147.769 l
253.21 142.208 l
272.818 142.208 l
272.818 133.756 l
292.425 133.756 l
292.425 122.099 l
312.033 122.099 l
312.033 112.228 l
331.641 112.228 l
331.641 92.8491 l
351.248 92.8491 l
351.248 77.4067 l
370.856 77.4067 l
370.856 8.40229 l
390.463 8.40229 l
390.463 8.40229 l
410.071 8.40229 l
410.071 8.40229 l
419.875 8.40229 l
stroke
grestore
1.000 setlinewidth
1.000 0.000 0.000 setrgbcolor
gsave
392.2 182.8 37.53 28.71 clipbox
47.331 8.40229 m
57.1347 8.40229 l
57.1347 147.171 l
76.7423 147.171 l
76.7423 154.613 l
96.3499 154.613 l
96.3499 159.765 l
115.957 159.765 l
115.957 165.167 l
135.565 165.167 l
135.565 166.277 l
155.173 166.277 l
155.173 164.522 l
174.78 164.522 l
174.78 160.573 l
194.388 160.573 l
194.388 154.39 l
213.995 154.39 l
213.995 144.94 l
233.603 144.94 l
233.603 132.867 l
253.21 132.867 l
253.21 120.942 l
272.818 120.942 l
272.818 97.9235 l
292.425 97.9235 l
292.425 73.4706 l
312.033 73.4706 l
312.033 68.3962 l
331.641 68.3962 l
331.641 49.0177 l
351.248 49.0177 l
351.248 61.2442 l
370.856 61.2442 l
370.856 8.40229 l
390.463 8.40229 l
390.463 8.40229 l
410.071 8.40229 l
410.071 8.40229 l
419.875 8.40229 l
stroke
grestore
0 setlinecap
0.000 setgray
gsave
/o {
gsave
newpath
translate
1.0 setlinewidth
1 setlinejoin
0 setlinecap
0 0 m
0 5 l
gsave
0.000 setgray
fill
grestore
stroke
grestore
} bind def
76.7423 28.71 o
grestore
gsave
/o {
gsave
newpath
translate
1.0 setlinewidth
1 setlinejoin
0 setlinecap
0 0 m
0 -5 l
gsave
0.000 setgray
fill
grestore
stroke
grestore
} bind def
76.7423 211.479 o
grestore
/BitstreamVeraSerif-Roman findfont
8.000 scalefont
setfont
gsave
70.953234 18.663125 translate
0.000000 rotate
0.000000 0.109375 m /three glyphshow
5.089844 0.109375 m /period glyphshow
7.632812 0.109375 m /eight glyphshow
grestore
gsave
/o {
gsave
newpath
translate
1.0 setlinewidth
1 setlinejoin
0 setlinecap
0 0 m
0 5 l
gsave
0.000 setgray
fill
grestore
stroke
grestore
} bind def
155.173 28.71 o
grestore
gsave
/o {
gsave
newpath
translate
1.0 setlinewidth
1 setlinejoin
0 setlinecap
0 0 m
0 -5 l
gsave
0.000 setgray
fill
grestore
stroke
grestore
} bind def
155.173 211.479 o
grestore
gsave
149.195953 18.663125 translate
0.000000 rotate
0.000000 0.109375 m /four glyphshow
5.089844 0.109375 m /period glyphshow
7.632812 0.109375 m /zero glyphshow
grestore
gsave
/o {
gsave
newpath
translate
1.0 setlinewidth
1 setlinejoin
0 setlinecap
0 0 m
0 5 l
gsave
0.000 setgray
fill
grestore
stroke
grestore
} bind def
233.603 28.71 o
grestore
gsave
/o {
gsave
newpath
translate
1.0 setlinewidth
1 setlinejoin
0 setlinecap
0 0 m
0 -5 l
gsave
0.000 setgray
fill
grestore
stroke
grestore
} bind def
233.603 211.479 o
grestore
gsave
227.751172 18.663125 translate
0.000000 rotate
0.000000 0.109375 m /four glyphshow
5.089844 0.109375 m /period glyphshow
7.632812 0.109375 m /two glyphshow
grestore
gsave
/o {
gsave
newpath
translate
1.0 setlinewidth
1 setlinejoin
0 setlinecap
0 0 m
0 5 l
gsave
0.000 setgray
fill
grestore
stroke
grestore
} bind def
312.033 28.71 o
grestore
gsave
/o {
gsave
newpath
translate
1.0 setlinewidth
1 setlinejoin
0 setlinecap
0 0 m
0 -5 l
gsave
0.000 setgray
fill
grestore
stroke
grestore
} bind def
312.033 211.479 o
grestore
gsave
305.993891 18.663125 translate
0.000000 rotate
0.000000 0.109375 m /four glyphshow
5.089844 0.109375 m /period glyphshow
7.632812 0.109375 m /four glyphshow
grestore
gsave
/o {
gsave
newpath
translate
1.0 setlinewidth
1 setlinejoin
0 setlinecap
0 0 m
0 5 l
gsave
0.000 setgray
fill
grestore
stroke
grestore
} bind def
390.463 28.71 o
grestore
gsave
/o {
gsave
newpath
translate
1.0 setlinewidth
1 setlinejoin
0 setlinecap
0 0 m
0 -5 l
gsave
0.000 setgray
fill
grestore
stroke
grestore
} bind def
390.463 211.479 o
grestore
gsave
384.470984 18.663125 translate
0.000000 rotate
0.000000 0.109375 m /four glyphshow
5.089844 0.109375 m /period glyphshow
7.632812 0.109375 m /six glyphshow
grestore
gsave
224.602734 3.663125 translate
0.000000 rotate
/Cmr10 findfont
10.0 scalefont
setfont
0.000000 3.062500 moveto
/l glyphshow

2.768555 3.062500 moveto
/o glyphshow

7.768555 3.062500 moveto
/g glyphshow

/Cmmi10 findfont
10.0 scalefont
setfont
12.768555 3.062500 moveto
/g glyphshow


grestore
gsave
/o {
gsave
newpath
translate
1.0 setlinewidth
1 setlinejoin
0 setlinecap
0 0 m
5 0 l
gsave
0.000 setgray
fill
grestore
stroke
grestore
} bind def
37.5272 28.71 o
grestore
gsave
/o {
gsave
newpath
translate
1.0 setlinewidth
1 setlinejoin
0 setlinecap
0 0 m
-5 0 l
gsave
0.000 setgray
fill
grestore
stroke
grestore
} bind def
429.678 28.71 o
grestore
gsave
15.558437 25.686562 translate
0.000000 rotate
0.000000 0.109375 m /minus glyphshow
6.703125 0.109375 m /zero glyphshow
11.792969 0.109375 m /period glyphshow
14.335938 0.109375 m /five glyphshow
grestore
gsave
/o {
gsave
newpath
translate
1.0 setlinewidth
1 setlinejoin
0 setlinecap
0 0 m
5 0 l
gsave
0.000 setgray
fill
grestore
stroke
grestore
} bind def
37.5272 49.0177 o
grestore
gsave
/o {
gsave
newpath
translate
1.0 setlinewidth
1 setlinejoin
0 setlinecap
0 0 m
-5 0 l
gsave
0.000 setgray
fill
grestore
stroke
grestore
} bind def
429.678 49.0177 o
grestore
gsave
21.855312 45.994271 translate
0.000000 rotate
0.000000 0.109375 m /zero glyphshow
5.089844 0.109375 m /period glyphshow
7.632812 0.109375 m /zero glyphshow
grestore
gsave
/o {
gsave
newpath
translate
1.0 setlinewidth
1 setlinejoin
0 setlinecap
0 0 m
5 0 l
gsave
0.000 setgray
fill
grestore
stroke
grestore
} bind def
37.5272 69.3254 o
grestore
gsave
/o {
gsave
newpath
translate
1.0 setlinewidth
1 setlinejoin
0 setlinecap
0 0 m
-5 0 l
gsave
0.000 setgray
fill
grestore
stroke
grestore
} bind def
429.678 69.3254 o
grestore
gsave
21.949062 66.301979 translate
0.000000 rotate
0.000000 0.109375 m /zero glyphshow
5.089844 0.109375 m /period glyphshow
7.632812 0.109375 m /five glyphshow
grestore
gsave
/o {
gsave
newpath
translate
1.0 setlinewidth
1 setlinejoin
0 setlinecap
0 0 m
5 0 l
gsave
0.000 setgray
fill
grestore
stroke
grestore
} bind def
37.5272 89.6331 o
grestore
gsave
/o {
gsave
newpath
translate
1.0 setlinewidth
1 setlinejoin
0 setlinecap
0 0 m
-5 0 l
gsave
0.000 setgray
fill
grestore
stroke
grestore
} bind def
429.678 89.6331 o
grestore
gsave
22.308437 86.609687 translate
0.000000 rotate
0.000000 0.109375 m /one glyphshow
5.089844 0.109375 m /period glyphshow
7.632812 0.109375 m /zero glyphshow
grestore
gsave
/o {
gsave
newpath
translate
1.0 setlinewidth
1 setlinejoin
0 setlinecap
0 0 m
5 0 l
gsave
0.000 setgray
fill
grestore
stroke
grestore
} bind def
37.5272 109.941 o
grestore
gsave
/o {
gsave
newpath
translate
1.0 setlinewidth
1 setlinejoin
0 setlinecap
0 0 m
-5 0 l
gsave
0.000 setgray
fill
grestore
stroke
grestore
} bind def
429.678 109.941 o
grestore
gsave
22.402187 106.917396 translate
0.000000 rotate
0.000000 0.109375 m /one glyphshow
5.089844 0.109375 m /period glyphshow
7.632812 0.109375 m /five glyphshow
grestore
gsave
/o {
gsave
newpath
translate
1.0 setlinewidth
1 setlinejoin
0 setlinecap
0 0 m
5 0 l
gsave
0.000 setgray
fill
grestore
stroke
grestore
} bind def
37.5272 130.249 o
grestore
gsave
/o {
gsave
newpath
translate
1.0 setlinewidth
1 setlinejoin
0 setlinecap
0 0 m
-5 0 l
gsave
0.000 setgray
fill
grestore
stroke
grestore
} bind def
429.678 130.249 o
grestore
gsave
21.870937 127.225104 translate
0.000000 rotate
0.000000 0.109375 m /two glyphshow
5.089844 0.109375 m /period glyphshow
7.632812 0.109375 m /zero glyphshow
grestore
gsave
/o {
gsave
newpath
translate
1.0 setlinewidth
1 setlinejoin
0 setlinecap
0 0 m
5 0 l
gsave
0.000 setgray
fill
grestore
stroke
grestore
} bind def
37.5272 150.556 o
grestore
gsave
/o {
gsave
newpath
translate
1.0 setlinewidth
1 setlinejoin
0 setlinecap
0 0 m
-5 0 l
gsave
0.000 setgray
fill
grestore
stroke
grestore
} bind def
429.678 150.556 o
grestore
gsave
21.964687 147.532813 translate
0.000000 rotate
0.000000 0.109375 m /two glyphshow
5.089844 0.109375 m /period glyphshow
7.632812 0.109375 m /five glyphshow
grestore
gsave
/o {
gsave
newpath
translate
1.0 setlinewidth
1 setlinejoin
0 setlinecap
0 0 m
5 0 l
gsave
0.000 setgray
fill
grestore
stroke
grestore
} bind def
37.5272 170.864 o
grestore
gsave
/o {
gsave
newpath
translate
1.0 setlinewidth
1 setlinejoin
0 setlinecap
0 0 m
-5 0 l
gsave
0.000 setgray
fill
grestore
stroke
grestore
} bind def
429.678 170.864 o
grestore
gsave
21.933437 167.840521 translate
0.000000 rotate
0.000000 0.109375 m /three glyphshow
5.089844 0.109375 m /period glyphshow
7.632812 0.109375 m /zero glyphshow
grestore
gsave
/o {
gsave
newpath
translate
1.0 setlinewidth
1 setlinejoin
0 setlinecap
0 0 m
5 0 l
gsave
0.000 setgray
fill
grestore
stroke
grestore
} bind def
37.5272 191.172 o
grestore
gsave
/o {
gsave
newpath
translate
1.0 setlinewidth
1 setlinejoin
0 setlinecap
0 0 m
-5 0 l
gsave
0.000 setgray
fill
grestore
stroke
grestore
} bind def
429.678 191.172 o
grestore
gsave
22.027187 188.148229 translate
0.000000 rotate
0.000000 0.109375 m /three glyphshow
5.089844 0.109375 m /period glyphshow
7.632812 0.109375 m /five glyphshow
grestore
gsave
/o {
gsave
newpath
translate
1.0 setlinewidth
1 setlinejoin
0 setlinecap
0 0 m
5 0 l
gsave
0.000 setgray
fill
grestore
stroke
grestore
} bind def
37.5272 211.479 o
grestore
gsave
/o {
gsave
newpath
translate
1.0 setlinewidth
1 setlinejoin
0 setlinecap
0 0 m
-5 0 l
gsave
0.000 setgray
fill
grestore
stroke
grestore
} bind def
429.678 211.479 o
grestore
gsave
21.574062 208.455938 translate
0.000000 rotate
0.000000 0.109375 m /four glyphshow
5.089844 0.109375 m /period glyphshow
7.632812 0.109375 m /zero glyphshow
grestore
/BitstreamVeraSerif-Roman findfont
10.000 scalefont
setfont
gsave
10.558437 104.547812 translate
90.000000 rotate
0.000000 2.218750 m /l glyphshow
3.198242 2.218750 m /o glyphshow
9.218750 2.218750 m /g glyphshow
15.620117 2.218750 m /parenleft glyphshow
19.521484 2.218750 m /N glyphshow
28.271484 2.218750 m /parenright glyphshow
grestore
2 setlinecap
gsave
37.5272 211.479 m
429.678 211.479 l
stroke
grestore
gsave
429.678 28.71 m
429.678 211.479 l
stroke
grestore
gsave
37.5272 28.71 m
429.678 28.71 l
stroke
grestore
gsave
37.5272 28.71 m
37.5272 211.479 l
stroke
grestore
gsave
304.81 166.373 m
425.178 166.373 l
425.178 206.979 l
304.81 206.979 l
304.81 166.373 l
cl
gsave
1.000 setgray
fill
grestore
stroke
grestore
5.000 setlinewidth
0.118 0.565 1.000 setrgbcolor
gsave
311.11 199.686 m
323.71 199.686 l
stroke
grestore
0.000 setgray
/BitstreamVeraSerif-Roman findfont
9.000 scalefont
setfont
gsave
333.609531 196.410625 translate
0.000000 rotate
0.000000 0.125000 m /M glyphshow
9.215332 0.125000 m /e glyphshow
14.541504 0.125000 m /t glyphshow
18.158203 0.125000 m /a glyphshow
23.523926 0.125000 m /l glyphshow
26.402344 0.125000 m /hyphen glyphshow
29.443359 0.125000 m /P glyphshow
35.124023 0.125000 m /o glyphshow
40.542480 0.125000 m /o glyphshow
45.960938 0.125000 m /r glyphshow
grestore
3.000 setlinewidth
gsave
311.11 186.467 m
323.71 186.467 l
stroke
grestore
gsave
333.609531 183.191875 translate
0.000000 rotate
0.000000 0.125000 m /M glyphshow
9.215332 0.125000 m /e glyphshow
14.541504 0.125000 m /t glyphshow
18.158203 0.125000 m /a glyphshow
23.523926 0.125000 m /l glyphshow
26.402344 0.125000 m /hyphen glyphshow
29.443359 0.125000 m /I glyphshow
32.998535 0.125000 m /n glyphshow
38.794922 0.125000 m /t glyphshow
42.411621 0.125000 m /e glyphshow
47.737793 0.125000 m /r glyphshow
52.040039 0.125000 m /m glyphshow
60.574219 0.125000 m /e glyphshow
65.900391 0.125000 m /d glyphshow
71.661621 0.125000 m /i glyphshow
74.540039 0.125000 m /a glyphshow
79.905762 0.125000 m /t glyphshow
83.522461 0.125000 m /e glyphshow
grestore
1.000 setlinewidth
1.000 0.000 0.000 setrgbcolor
gsave
311.11 173.248 m
323.71 173.248 l
stroke
grestore
0.000 setgray
gsave
333.609531 169.973125 translate
0.000000 rotate
0.000000 0.125000 m /M glyphshow
9.215332 0.125000 m /e glyphshow
14.541504 0.125000 m /t glyphshow
18.158203 0.125000 m /a glyphshow
23.523926 0.125000 m /l glyphshow
26.402344 0.125000 m /hyphen glyphshow
29.443359 0.125000 m /R glyphshow
36.219727 0.125000 m /i glyphshow
39.098145 0.125000 m /c glyphshow
44.138672 0.125000 m /h glyphshow
grestore

end
showpage
