%!PS-Adobe-3.0 EPSF-3.0
%%Title: /home/hettin12/webplots/05-27-15_thesis_figures/errors/step_C_linear_fit.eps
%%Creator: matplotlib version 1.2.x, http://matplotlib.sourceforge.net/
%%CreationDate: Mon Jun  1 18:56:47 2015
%%Orientation: portrait
%%BoundingBox: 90 252 522 540
%%EndComments
%%BeginProlog
/mpldict 9 dict def
mpldict begin
/m { moveto } bind def
/l { lineto } bind def
/r { rlineto } bind def
/c { curveto } bind def
/cl { closepath } bind def
/box {
m
1 index 0 r
0 exch r
neg 0 r
cl
} bind def
/clipbox {
box
clip
newpath
} bind def
%!PS-Adobe-3.0 Resource-Font
%%Title: cmmi10
%%Copyright: Copyright (C) 1994, Basil K. Malyshev. All Rights Reserved.012BaKoMa Fonts Collection, Level-B.
%%Creator: Converted from TrueType to type 3 by PPR
25 dict begin
/_d{bind def}bind def
/_m{moveto}_d
/_l{lineto}_d
/_cl{closepath eofill}_d
/_c{curveto}_d
/_sc{7 -1 roll{setcachedevice}{pop pop pop pop pop pop}ifelse}_d
/_e{exec}_d
/FontName /Cmmi10 def
/PaintType 0 def
/FontMatrix[.001 0 0 .001 0 0]def
/FontBBox[-34 -250 1048 750]def
/FontType 3 def
/Encoding [ /m ] def
/FontInfo 10 dict dup begin
/FamilyName (cmmi10) def
/FullName (cmmi10) def
/Notice (Copyright (C) 1994, Basil K. Malyshev. All Rights Reserved.012BaKoMa Fonts Collection, Level-B. ) def
/Weight (Regular) def
/Version (1.1/12-Nov-94) def
/ItalicAngle 0.0 def
/isFixedPitch false def
/UnderlinePosition -133 def
/UnderlineThickness 20 def
end readonly def
/CharStrings 1 dict dup begin
/m{{878 0 27 -10 851 442 _sc
77 17 _m
77 21 77 24 78 26 _c
153 324 _l
157 342 160 359 160 373 _c
160 401 150 416 131 416 _c
110 416 94 403 84 378 _c
74 353 64 322 55 284 _c
55 282 54 280 52 279 _c
50 278 48 278 47 278 _c
35 278 _l
33 278 31 279 29 281 _c
27 283 27 286 27 288 _c
34 317 41 342 48 362 _c
54 382 65 400 79 417 _c
}_e{93 433 110 442 132 442 _c
156 442 178 434 198 418 _c
217 402 227 382 227 358 _c
247 384 270 404 297 419 _c
323 434 352 442 382 442 _c
413 442 440 434 463 418 _c
486 402 498 379 498 349 _c
518 378 542 401 570 417 _c
597 433 627 442 660 442 _c
694 442 722 432 743 414 _c
764 395 775 368 775 334 _c
775 306 768 273 756 235 _c
744 196 729 153 711 105 _c
}_e{701 81 697 61 697 45 _c
697 25 704 15 720 15 _c
746 15 767 29 785 57 _c
802 85 814 115 822 147 _c
824 151 826 153 830 153 _c
842 153 _l
844 153 846 152 848 150 _c
850 148 851 146 851 144 _c
851 143 850 142 850 141 _c
840 103 824 68 802 37 _c
780 5 752 -10 718 -10 _c
694 -10 674 -2 658 13 _c
641 29 633 48 633 72 _c
633 83 635 96 641 111 _c
}_e{659 161 675 205 688 245 _c
700 284 707 319 707 349 _c
707 367 703 383 696 396 _c
688 409 676 416 658 416 _c
622 416 590 404 563 382 _c
536 360 513 330 494 294 _c
492 287 491 282 491 279 _c
427 22 _l
424 12 419 5 411 -1 _c
403 -7 394 -10 385 -10 _c
377 -10 370 -7 364 -3 _c
358 1 355 8 355 17 _c
355 21 355 24 356 26 _c
420 281 _l
426 308 430 331 430 349 _c
}_e{430 367 426 383 418 396 _c
410 409 398 416 380 416 _c
355 416 332 410 312 400 _c
292 389 274 375 259 357 _c
243 339 229 318 217 294 _c
149 22 _l
147 12 142 5 134 -1 _c
126 -7 117 -10 107 -10 _c
99 -10 92 -7 86 -3 _c
80 1 77 8 77 17 _c
_cl}_e}_d
end readonly def

/BuildGlyph
 {exch begin
 CharStrings exch
 2 copy known not{pop /.notdef}if
 true 3 1 roll get exec
 end}_d

/BuildChar {
 1 index /Encoding get exch get
 1 index /BuildGlyph get exec
}_d

FontName currentdict end definefont pop
%!PS-Adobe-3.0 Resource-Font
%%Title: Bitstream Vera Serif
%%Copyright: Copyright (c) 2003 by Bitstream, Inc. All Rights Reserved.
%%Creator: Converted from TrueType to type 3 by PPR
25 dict begin
/_d{bind def}bind def
/_m{moveto}_d
/_l{lineto}_d
/_cl{closepath eofill}_d
/_c{curveto}_d
/_sc{7 -1 roll{setcachedevice}{pop pop pop pop pop pop}ifelse}_d
/_e{exec}_d
/FontName /BitstreamVeraSerif-Roman def
/PaintType 0 def
/FontMatrix[.001 0 0 .001 0 0]def
/FontBBox[-183 -236 1287 928]def
/FontType 3 def
/Encoding [ /space /parenleft /parenright /period /slash /zero /one /two /three /five /six /seven /eight /nine /F /H /bracketleft /bracketright /e /k /m /s /minus ] def
/FontInfo 10 dict dup begin
/FamilyName (Bitstream Vera Serif) def
/FullName (Bitstream Vera Serif) def
/Notice (Copyright (c) 2003 by Bitstream, Inc. All Rights Reserved. Bitstream Vera is a trademark of Bitstream, Inc.) def
/Weight (Roman) def
/Version (Release 1.10) def
/ItalicAngle 0.0 def
/isFixedPitch false def
/UnderlinePosition -213 def
/UnderlineThickness 133 def
end readonly def
/CharStrings 23 dict dup begin
/space{318 0 0 0 0 0 _sc
}_d
/parenleft{390 0 79 -155 319 760 _sc
319 -155 _m
239 -119 179 -63 139 13 _c
99 89 79 186 79 302 _c
79 418 99 514 139 591 _c
179 668 239 724 319 760 _c
319 712 _l
269 677 233 628 211 566 _c
189 503 178 415 178 302 _c
178 188 189 100 211 38 _c
233 -24 269 -72 319 -107 _c
319 -155 _l
_cl}_d
/parenright{390 0 71 -155 311 760 _sc
71 -155 _m
71 -107 _l
121 -72 157 -24 179 38 _c
201 100 212 188 212 302 _c
212 415 201 503 179 566 _c
157 628 121 677 71 712 _c
71 760 _l
150 724 210 668 250 591 _c
290 514 311 418 311 302 _c
311 186 290 89 250 13 _c
210 -63 150 -119 71 -155 _c
_cl}_d
/period{318 0 94 -13 224 116 _sc
94 51 _m
94 69 100 84 112 97 _c
124 109 140 116 159 116 _c
177 116 192 109 205 97 _c
217 84 224 69 224 51 _c
224 33 217 17 205 5 _c
192 -7 177 -13 159 -13 _c
140 -13 124 -7 112 5 _c
100 17 94 32 94 51 _c
_cl}_d
/slash{337 0 0 -92 337 729 _sc
259 729 _m
337 729 _l
78 -92 _l
0 -92 _l
259 729 _l
_cl}_d
/zero{636 0 66 -13 570 742 _sc
318 34 _m
368 34 405 61 430 116 _c
454 170 467 253 467 364 _c
467 474 454 557 430 612 _c
405 666 368 694 318 694 _c
268 694 230 666 206 612 _c
181 557 169 474 169 364 _c
169 253 181 170 206 116 _c
230 61 268 34 318 34 _c
318 -13 _m
238 -13 176 20 132 86 _c
88 152 66 244 66 364 _c
66 483 88 576 132 642 _c
176 708 238 742 318 742 _c
397 742 459 708 503 642 _c
547 576 570 483 570 364 _c
570 244 547 152 503 86 _c
459 20 397 -13 318 -13 _c
_cl}_d
/one{636 0 122 0 494 742 _sc
142 0 _m
142 52 _l
269 52 _l
269 658 _l
122 563 _l
122 627 _l
300 742 _l
367 742 _l
367 52 _l
494 52 _l
494 0 _l
142 0 _l
_cl}_d
/two{{636 0 68 0 538 742 _sc
128 555 _m
73 555 _l
73 685 _l
107 703 142 717 178 727 _c
213 737 248 742 282 742 _c
358 742 418 723 462 687 _c
506 650 528 600 528 537 _c
528 465 478 380 378 281 _c
370 273 365 268 361 264 _c
177 80 _l
481 80 _l
481 170 _l
538 170 _l
538 0 _l
68 0 _l
68 53 _l
289 274 _l
337 322 372 367 393 408 _c
414 449 425 492 425 537 _c
}_e{425 586 412 624 386 652 _c
360 680 325 694 281 694 _c
234 694 198 682 173 659 _c
147 636 132 601 128 555 _c
_cl}_e}_d
/three{{636 0 76 -13 562 742 _sc
97 698 _m
135 712 171 723 206 731 _c
241 738 274 742 305 742 _c
376 742 432 726 472 696 _c
512 665 532 622 532 568 _c
532 524 518 487 490 458 _c
462 428 423 408 373 398 _c
433 389 479 367 512 332 _c
545 297 562 252 562 197 _c
562 129 539 77 493 41 _c
447 5 382 -13 296 -13 _c
258 -13 220 -9 184 -1 _c
148 6 112 18 76 35 _c
76 177 _l
}_e{131 177 _l
134 129 150 94 178 70 _c
206 46 246 34 298 34 _c
348 34 387 48 416 77 _c
444 106 459 146 459 196 _c
459 253 444 296 414 326 _c
384 355 341 370 284 370 _c
238 370 _l
238 420 _l
262 420 _l
319 420 362 431 390 455 _c
418 479 433 514 433 562 _c
433 604 421 637 398 660 _c
374 682 341 694 297 694 _c
253 694 218 683 194 662 _c
170 641 156 610 152 570 _c
}_e{97 570 _l
97 698 _l
_cl}_e}_d
/five{{636 0 85 -13 559 729 _sc
503 729 _m
503 649 _l
169 649 _l
169 440 _l
185 452 205 460 228 466 _c
250 472 276 475 304 475 _c
382 475 444 453 490 409 _c
536 365 559 306 559 231 _c
559 153 536 93 490 51 _c
444 8 379 -13 296 -13 _c
262 -13 228 -9 193 -1 _c
157 6 121 18 85 35 _c
85 177 _l
140 177 _l
143 130 158 94 184 70 _c
210 46 248 34 296 34 _c
}_e{347 34 386 51 414 85 _c
442 119 456 167 456 231 _c
456 294 442 342 415 376 _c
387 410 348 427 296 427 _c
266 427 240 421 218 411 _c
196 401 176 385 159 363 _c
117 363 _l
117 729 _l
503 729 _l
_cl}_e}_d
/six{{636 0 67 -13 573 742 _sc
327 34 _m
373 34 408 50 433 84 _c
457 118 470 166 470 230 _c
470 293 457 341 433 375 _c
408 409 373 426 327 426 _c
280 426 244 409 220 377 _c
196 344 184 297 184 236 _c
184 171 196 121 221 86 _c
245 51 281 34 327 34 _c
168 401 _m
190 425 215 444 243 456 _c
271 468 302 474 338 474 _c
410 474 468 452 510 408 _c
552 364 573 305 573 230 _c
}_e{573 156 550 97 505 53 _c
459 9 399 -13 323 -13 _c
241 -13 177 17 133 78 _c
89 139 67 227 67 341 _c
67 468 93 567 145 637 _c
197 707 271 742 367 742 _c
393 742 420 739 448 735 _c
476 730 505 723 535 713 _c
535 593 _l
480 593 _l
476 625 463 650 442 668 _c
421 685 393 694 357 694 _c
293 694 246 670 215 622 _c
184 574 168 500 168 401 _c
_cl}_e}_d
/seven{636 0 84 0 564 729 _sc
564 679 _m
279 0 _l
206 0 _l
478 649 _l
141 649 _l
141 559 _l
84 559 _l
84 729 _l
564 729 _l
564 679 _l
_cl}_d
/eight{{636 0 67 -13 569 742 _sc
466 199 _m
466 251 453 291 427 320 _c
401 349 364 364 318 364 _c
271 364 235 349 209 320 _c
183 291 170 251 170 199 _c
170 147 183 106 209 77 _c
235 48 271 34 318 34 _c
364 34 401 48 427 77 _c
453 106 466 147 466 199 _c
446 553 _m
446 597 434 632 412 657 _c
389 681 358 694 318 694 _c
278 694 246 681 224 657 _c
201 632 190 597 190 553 _c
}_e{190 508 201 473 224 449 _c
246 424 278 412 318 412 _c
358 412 389 424 412 449 _c
434 473 428 453 393 388 _c
448 380 491 360 522 327 _c
553 293 569 251 569 199 _c
569 131 547 78 504 42 _c
460 5 398 -13 318 -13 _c
237 -13 175 5 132 42 _c
88 78 67 131 67 199 _c
67 251 82 293 113 327 _c
144 360 187 380 243 388 _c
193 396 156 415 130 444 _c
}_e{104 472 91 509 91 553 _c
91 611 111 657 151 691 _c
191 725 247 742 318 742 _c
388 742 444 725 484 691 _c
524 657 545 611 545 553 _c
545 509 531 472 505 444 _c
479 415 459 451 446 553 _c
_cl}_e}_d
/nine{{636 0 63 -13 569 742 _sc
468 327 _m
446 302 420 284 392 272 _c
364 260 332 254 297 254 _c
224 254 167 275 125 319 _c
83 363 63 422 63 498 _c
63 572 85 631 131 675 _c
176 719 237 742 313 742 _c
395 742 459 711 503 650 _c
547 588 569 501 569 387 _c
569 259 542 161 490 91 _c
438 21 364 -13 269 -13 _c
243 -13 216 -10 188 -6 _c
160 -2 131 5 101 15 _c
101 136 _l
}_e{156 136 _l
160 103 172 78 194 60 _c
215 42 243 34 279 34 _c
342 34 389 57 420 105 _c
450 153 466 227 468 327 _c
309 694 _m
263 694 227 677 203 643 _c
178 609 166 561 166 498 _c
166 434 178 386 203 352 _c
227 318 263 302 309 302 _c
355 302 390 318 415 351 _c
439 383 452 430 452 492 _c
452 556 439 606 415 641 _c
390 676 355 694 309 694 _c
_cl}_e}_d
/F{694 0 55 0 652 729 _sc
55 0 _m
55 52 _l
148 52 _l
148 677 _l
55 677 _l
55 729 _l
652 729 _l
652 567 _l
592 567 _l
592 669 _l
247 669 _l
247 425 _l
496 425 _l
496 516 _l
556 516 _l
556 274 _l
496 274 _l
496 365 _l
247 365 _l
247 52 _l
364 52 _l
364 0 _l
55 0 _l
_cl}_d
/H{{872 0 55 0 817 729 _sc
55 0 _m
55 52 _l
148 52 _l
148 677 _l
55 677 _l
55 729 _l
340 729 _l
340 677 _l
247 677 _l
247 425 _l
625 425 _l
625 677 _l
532 677 _l
532 729 _l
817 729 _l
817 677 _l
724 677 _l
724 52 _l
817 52 _l
817 0 _l
532 0 _l
532 52 _l
625 52 _l
625 365 _l
247 365 _l
247 52 _l
340 52 _l
340 0 _l
55 0 _l
_cl}_e}_d
/bracketleft{390 0 86 -131 313 760 _sc
86 760 _m
313 760 _l
313 708 _l
179 708 _l
179 -79 _l
313 -79 _l
313 -131 _l
86 -131 _l
86 760 _l
_cl}_d
/bracketright{390 0 77 -131 304 760 _sc
304 760 _m
304 -131 _l
77 -131 _l
77 -79 _l
211 -79 _l
211 708 _l
77 708 _l
77 760 _l
304 760 _l
_cl}_d
/e{{592 0 50 -13 542 533 _sc
542 250 _m
155 250 _l
155 246 _l
155 176 168 123 194 87 _c
220 51 259 34 311 34 _c
350 34 382 44 408 65 _c
433 85 451 116 461 157 _c
533 157 _l
519 100 492 57 454 29 _c
415 1 364 -13 302 -13 _c
226 -13 165 11 119 61 _c
73 111 50 177 50 260 _c
50 342 72 408 118 458 _c
163 508 222 533 296 533 _c
374 533 435 508 477 460 _c
}_e{519 412 540 342 542 250 _c
436 302 _m
434 362 421 408 397 439 _c
373 469 340 485 296 485 _c
254 485 222 469 198 438 _c
174 407 160 362 155 302 _c
436 302 _l
_cl}_e}_d
/k{{606 0 29 0 613 760 _sc
286 0 _m
34 0 _l
34 52 _l
115 52 _l
115 708 _l
29 708 _l
29 760 _l
205 760 _l
205 265 _l
424 467 _l
349 467 _l
349 519 _l
584 519 _l
584 467 _l
495 467 _l
341 324 _l
538 52 _l
613 52 _l
613 0 _l
357 0 _l
357 52 _l
431 52 _l
276 265 _l
205 199 _l
205 52 _l
286 52 _l
286 0 _l
_cl}_e}_d
/m{{948 0 36 0 921 533 _sc
518 418 _m
535 456 557 484 584 504 _c
611 523 642 533 678 533 _c
732 533 773 516 800 482 _c
826 448 840 398 840 330 _c
840 52 _l
921 52 _l
921 0 _l
672 0 _l
672 52 _l
750 52 _l
750 320 _l
750 372 742 410 726 433 _c
710 455 685 467 649 467 _c
609 467 578 451 557 421 _c
536 391 526 347 526 289 _c
526 52 _l
604 52 _l
604 0 _l
358 0 _l
}_e{358 52 _l
436 52 _l
436 323 _l
436 375 428 412 412 434 _c
396 456 371 467 335 467 _c
295 467 264 451 243 421 _c
222 391 212 347 212 289 _c
212 52 _l
290 52 _l
290 0 _l
41 0 _l
41 52 _l
122 52 _l
122 468 _l
36 468 _l
36 519 _l
212 519 _l
212 427 _l
228 461 249 488 275 506 _c
301 524 330 533 363 533 _c
403 533 436 523 463 503 _c
}_e{490 483 508 454 518 418 _c
_cl}_e}_d
/s{{513 0 56 -13 462 533 _sc
56 29 _m
56 150 _l
108 150 _l
109 111 121 82 144 63 _c
167 43 201 34 246 34 _c
286 34 317 41 338 57 _c
359 72 370 94 370 123 _c
370 145 362 164 347 178 _c
331 192 299 207 249 223 _c
184 245 _l
139 259 107 277 87 299 _c
67 320 57 347 57 381 _c
57 428 74 465 109 492 _c
144 519 192 533 254 533 _c
281 533 310 529 340 522 _c
}_e{370 515 402 505 434 491 _c
434 378 _l
382 378 _l
380 411 369 437 347 456 _c
325 475 295 485 257 485 _c
219 485 190 478 171 465 _c
151 451 142 431 142 405 _c
142 383 149 365 164 352 _c
178 339 208 326 252 312 _c
323 290 _l
372 274 407 255 429 232 _c
451 209 462 180 462 144 _c
462 94 443 56 405 28 _c
367 0 316 -13 250 -13 _c
216 -13 184 -9 152 -3 _c
}_e{120 3 88 14 56 29 _c
_cl}_e}_d
/minus{838 0 106 274 732 353 _sc
106 353 _m
732 353 _l
732 274 _l
106 274 _l
106 353 _l
_cl}_d
end readonly def

/BuildGlyph
 {exch begin
 CharStrings exch
 2 copy known not{pop /.notdef}if
 true 3 1 roll get exec
 end}_d

/BuildChar {
 1 index /Encoding get exch get
 1 index /BuildGlyph get exec
}_d

FontName currentdict end definefont pop
end
%%EndProlog
mpldict begin
90 252 translate
432 288 0 0 clipbox
gsave
0 0 m
432 0 l
432 288 l
0 288 l
cl
1.000 setgray
fill
grestore
gsave
49.1091 34.7231 m
414.968 34.7231 l
414.968 274.68 l
49.1091 274.68 l
cl
1.000 setgray
fill
grestore
1.500 setlinewidth
1 setlinejoin
2 setlinecap
[] 0 setdash
0.196 0.804 0.196 setrgbcolor
gsave
365.9 240 49.11 34.72 clipbox
49.1091 256.96 m
89.76 234.219 l
130.411 211.478 l
171.062 188.737 l
211.713 165.996 l
252.364 143.255 l
293.015 120.514 l
333.666 97.7731 l
374.317 75.0321 l
414.968 52.2912 l
stroke
grestore
0.500 setlinewidth
0 setlinecap
0.000 setgray
gsave
365.9 240 49.11 34.72 clipbox
/o {
gsave
newpath
translate
0.5 setlinewidth
1 setlinejoin
0 setlinecap
0 -4 m
1.06081 -4 2.07832 -3.57853 2.82843 -2.82843 c
3.57853 -2.07832 4 -1.06081 4 0 c
4 1.06081 3.57853 2.07832 2.82843 2.82843 c
2.07832 3.57853 1.06081 4 0 4 c
-1.06081 4 -2.07832 3.57853 -2.82843 2.82843 c
-3.57853 2.07832 -4 1.06081 -4 0 c
-4 -1.06081 -3.57853 -2.07832 -2.82843 -2.82843 c
-2.07832 -3.57853 -1.06081 -4 0 -4 c
cl
gsave
0.118 0.565 1.000 setrgbcolor
fill
grestore
stroke
grestore
} bind def
85.6949 237.202 o
158.867 193.985 o
232.038 156.634 o
341.796 91.4417 o
122.281 218.776 o
378.382 79.4123 o
305.21 106.343 o
268.624 134.133 o
195.452 173.703 o
grestore
1.000 setlinewidth
gsave
/o {
gsave
newpath
translate
1.0 setlinewidth
1 setlinejoin
0 setlinecap
0 0 m
0 5 l
gsave
0.000 setgray
fill
grestore
stroke
grestore
} bind def
49.1091 34.7231 o
grestore
gsave
/o {
gsave
newpath
translate
1.0 setlinewidth
1 setlinejoin
0 setlinecap
0 0 m
0 -5 l
gsave
0.000 setgray
fill
grestore
stroke
grestore
} bind def
49.1091 274.68 o
grestore
/BitstreamVeraSerif-Roman findfont
10.000 scalefont
setfont
gsave
37.882500 23.160625 translate
0.000000 rotate
0.000000 0.140625 m /minus glyphshow
8.378906 0.140625 m /two glyphshow
14.741211 0.140625 m /period glyphshow
17.919922 0.140625 m /five glyphshow
grestore
gsave
/o {
gsave
newpath
translate
1.0 setlinewidth
1 setlinejoin
0 setlinecap
0 0 m
0 5 l
gsave
0.000 setgray
fill
grestore
stroke
grestore
} bind def
122.281 34.7231 o
grestore
gsave
/o {
gsave
newpath
translate
1.0 setlinewidth
1 setlinejoin
0 setlinecap
0 0 m
0 -5 l
gsave
0.000 setgray
fill
grestore
stroke
grestore
} bind def
122.281 274.68 o
grestore
gsave
110.999500 23.160625 translate
0.000000 rotate
0.000000 0.140625 m /minus glyphshow
8.378906 0.140625 m /two glyphshow
14.741211 0.140625 m /period glyphshow
17.919922 0.140625 m /zero glyphshow
grestore
gsave
/o {
gsave
newpath
translate
1.0 setlinewidth
1 setlinejoin
0 setlinecap
0 0 m
0 5 l
gsave
0.000 setgray
fill
grestore
stroke
grestore
} bind def
195.452 34.7231 o
grestore
gsave
/o {
gsave
newpath
translate
1.0 setlinewidth
1 setlinejoin
0 setlinecap
0 0 m
0 -5 l
gsave
0.000 setgray
fill
grestore
stroke
grestore
} bind def
195.452 274.68 o
grestore
gsave
184.225875 23.160625 translate
0.000000 rotate
0.000000 0.140625 m /minus glyphshow
8.378906 0.140625 m /one glyphshow
14.741211 0.140625 m /period glyphshow
17.919922 0.140625 m /five glyphshow
grestore
gsave
/o {
gsave
newpath
translate
1.0 setlinewidth
1 setlinejoin
0 setlinecap
0 0 m
0 5 l
gsave
0.000 setgray
fill
grestore
stroke
grestore
} bind def
268.624 34.7231 o
grestore
gsave
/o {
gsave
newpath
translate
1.0 setlinewidth
1 setlinejoin
0 setlinecap
0 0 m
0 -5 l
gsave
0.000 setgray
fill
grestore
stroke
grestore
} bind def
268.624 274.68 o
grestore
gsave
257.342875 23.160625 translate
0.000000 rotate
0.000000 0.140625 m /minus glyphshow
8.378906 0.140625 m /one glyphshow
14.741211 0.140625 m /period glyphshow
17.919922 0.140625 m /zero glyphshow
grestore
gsave
/o {
gsave
newpath
translate
1.0 setlinewidth
1 setlinejoin
0 setlinecap
0 0 m
0 5 l
gsave
0.000 setgray
fill
grestore
stroke
grestore
} bind def
341.796 34.7231 o
grestore
gsave
/o {
gsave
newpath
translate
1.0 setlinewidth
1 setlinejoin
0 setlinecap
0 0 m
0 -5 l
gsave
0.000 setgray
fill
grestore
stroke
grestore
} bind def
341.796 274.68 o
grestore
gsave
330.569250 23.160625 translate
0.000000 rotate
0.000000 0.140625 m /minus glyphshow
8.378906 0.140625 m /zero glyphshow
14.741211 0.140625 m /period glyphshow
17.919922 0.140625 m /five glyphshow
grestore
gsave
/o {
gsave
newpath
translate
1.0 setlinewidth
1 setlinejoin
0 setlinecap
0 0 m
0 5 l
gsave
0.000 setgray
fill
grestore
stroke
grestore
} bind def
414.968 34.7231 o
grestore
gsave
/o {
gsave
newpath
translate
1.0 setlinewidth
1 setlinejoin
0 setlinecap
0 0 m
0 -5 l
gsave
0.000 setgray
fill
grestore
stroke
grestore
} bind def
414.968 274.68 o
grestore
gsave
407.670625 23.160625 translate
0.000000 rotate
0.000000 0.140625 m /zero glyphshow
6.362305 0.140625 m /period glyphshow
9.541016 0.140625 m /zero glyphshow
grestore
gsave
216.764844 9.254375 translate
0.000000 rotate
0.000000 1.312500 m /bracketleft glyphshow
3.901367 1.312500 m /F glyphshow
10.339844 1.312500 m /e glyphshow
16.257812 1.312500 m /slash glyphshow
19.626953 1.312500 m /H glyphshow
28.347656 1.312500 m /bracketright glyphshow
grestore
gsave
/o {
gsave
newpath
translate
1.0 setlinewidth
1 setlinejoin
0 setlinecap
0 0 m
5 0 l
gsave
0.000 setgray
fill
grestore
stroke
grestore
} bind def
49.1091 34.7231 o
grestore
gsave
/o {
gsave
newpath
translate
1.0 setlinewidth
1 setlinejoin
0 setlinecap
0 0 m
-5 0 l
gsave
0.000 setgray
fill
grestore
stroke
grestore
} bind def
414.968 34.7231 o
grestore
gsave
33.890313 30.941875 translate
0.000000 rotate
0.000000 0.140625 m /five glyphshow
6.362305 0.140625 m /zero glyphshow
grestore
gsave
/o {
gsave
newpath
translate
1.0 setlinewidth
1 setlinejoin
0 setlinecap
0 0 m
5 0 l
gsave
0.000 setgray
fill
grestore
stroke
grestore
} bind def
49.1091 64.7177 o
grestore
gsave
/o {
gsave
newpath
translate
1.0 setlinewidth
1 setlinejoin
0 setlinecap
0 0 m
-5 0 l
gsave
0.000 setgray
fill
grestore
stroke
grestore
} bind def
414.968 64.7177 o
grestore
gsave
33.718438 60.936484 translate
0.000000 rotate
0.000000 0.140625 m /six glyphshow
6.362305 0.140625 m /zero glyphshow
grestore
gsave
/o {
gsave
newpath
translate
1.0 setlinewidth
1 setlinejoin
0 setlinecap
0 0 m
5 0 l
gsave
0.000 setgray
fill
grestore
stroke
grestore
} bind def
49.1091 94.7123 o
grestore
gsave
/o {
gsave
newpath
translate
1.0 setlinewidth
1 setlinejoin
0 setlinecap
0 0 m
-5 0 l
gsave
0.000 setgray
fill
grestore
stroke
grestore
} bind def
414.968 94.7123 o
grestore
gsave
33.890313 90.931094 translate
0.000000 rotate
0.000000 0.140625 m /seven glyphshow
6.362305 0.140625 m /zero glyphshow
grestore
gsave
/o {
gsave
newpath
translate
1.0 setlinewidth
1 setlinejoin
0 setlinecap
0 0 m
5 0 l
gsave
0.000 setgray
fill
grestore
stroke
grestore
} bind def
49.1091 124.707 o
grestore
gsave
/o {
gsave
newpath
translate
1.0 setlinewidth
1 setlinejoin
0 setlinecap
0 0 m
-5 0 l
gsave
0.000 setgray
fill
grestore
stroke
grestore
} bind def
414.968 124.707 o
grestore
gsave
33.718438 120.925703 translate
0.000000 rotate
0.000000 0.140625 m /eight glyphshow
6.362305 0.140625 m /zero glyphshow
grestore
gsave
/o {
gsave
newpath
translate
1.0 setlinewidth
1 setlinejoin
0 setlinecap
0 0 m
5 0 l
gsave
0.000 setgray
fill
grestore
stroke
grestore
} bind def
49.1091 154.702 o
grestore
gsave
/o {
gsave
newpath
translate
1.0 setlinewidth
1 setlinejoin
0 setlinecap
0 0 m
-5 0 l
gsave
0.000 setgray
fill
grestore
stroke
grestore
} bind def
414.968 154.702 o
grestore
gsave
33.671563 150.920312 translate
0.000000 rotate
0.000000 0.140625 m /nine glyphshow
6.362305 0.140625 m /zero glyphshow
grestore
gsave
/o {
gsave
newpath
translate
1.0 setlinewidth
1 setlinejoin
0 setlinecap
0 0 m
5 0 l
gsave
0.000 setgray
fill
grestore
stroke
grestore
} bind def
49.1091 184.696 o
grestore
gsave
/o {
gsave
newpath
translate
1.0 setlinewidth
1 setlinejoin
0 setlinecap
0 0 m
-5 0 l
gsave
0.000 setgray
fill
grestore
stroke
grestore
} bind def
414.968 184.696 o
grestore
gsave
27.905938 180.914922 translate
0.000000 rotate
0.000000 0.140625 m /one glyphshow
6.362305 0.140625 m /zero glyphshow
12.724609 0.140625 m /zero glyphshow
grestore
gsave
/o {
gsave
newpath
translate
1.0 setlinewidth
1 setlinejoin
0 setlinecap
0 0 m
5 0 l
gsave
0.000 setgray
fill
grestore
stroke
grestore
} bind def
49.1091 214.691 o
grestore
gsave
/o {
gsave
newpath
translate
1.0 setlinewidth
1 setlinejoin
0 setlinecap
0 0 m
-5 0 l
gsave
0.000 setgray
fill
grestore
stroke
grestore
} bind def
414.968 214.691 o
grestore
gsave
27.905938 210.909531 translate
0.000000 rotate
0.000000 0.140625 m /one glyphshow
6.362305 0.140625 m /one glyphshow
12.724609 0.140625 m /zero glyphshow
grestore
gsave
/o {
gsave
newpath
translate
1.0 setlinewidth
1 setlinejoin
0 setlinecap
0 0 m
5 0 l
gsave
0.000 setgray
fill
grestore
stroke
grestore
} bind def
49.1091 244.685 o
grestore
gsave
/o {
gsave
newpath
translate
1.0 setlinewidth
1 setlinejoin
0 setlinecap
0 0 m
-5 0 l
gsave
0.000 setgray
fill
grestore
stroke
grestore
} bind def
414.968 244.685 o
grestore
gsave
27.905938 240.904141 translate
0.000000 rotate
0.000000 0.140625 m /one glyphshow
6.362305 0.140625 m /two glyphshow
12.724609 0.140625 m /zero glyphshow
grestore
gsave
/o {
gsave
newpath
translate
1.0 setlinewidth
1 setlinejoin
0 setlinecap
0 0 m
5 0 l
gsave
0.000 setgray
fill
grestore
stroke
grestore
} bind def
49.1091 274.68 o
grestore
gsave
/o {
gsave
newpath
translate
1.0 setlinewidth
1 setlinejoin
0 setlinecap
0 0 m
-5 0 l
gsave
0.000 setgray
fill
grestore
stroke
grestore
} bind def
414.968 274.68 o
grestore
gsave
27.905938 270.898750 translate
0.000000 rotate
0.000000 0.140625 m /one glyphshow
6.362305 0.140625 m /three glyphshow
12.724609 0.140625 m /zero glyphshow
grestore
gsave
22.905937 132.701562 translate
90.000000 rotate
/Cmmi10 findfont
10.0 scalefont
setfont
0.000000 2.406250 moveto
/m glyphshow

/BitstreamVeraSerif-Roman findfont
10.0 scalefont
setfont
8.779297 2.406250 moveto
/space glyphshow

11.958008 2.406250 moveto
/parenleft glyphshow

15.859375 2.406250 moveto
/k glyphshow

21.918945 2.406250 moveto
/m glyphshow

31.401367 2.406250 moveto
/slash glyphshow

34.770508 2.406250 moveto
/s glyphshow

39.902344 2.406250 moveto
/parenright glyphshow


grestore
2 setlinecap
gsave
49.1091 274.68 m
414.968 274.68 l
stroke
grestore
gsave
414.968 34.7231 m
414.968 274.68 l
stroke
grestore
gsave
49.1091 34.7231 m
414.968 34.7231 l
stroke
grestore
gsave
49.1091 34.7231 m
49.1091 274.68 l
stroke
grestore

end
showpage
