%!PS-Adobe-3.0 EPSF-3.0
%%Title: /home/hettin12/webplots/05-27-15_thesis_figures/sample_stats/uncertainty_hist/uncertainty_hist_big.eps
%%Creator: matplotlib version 1.2.x, http://matplotlib.sourceforge.net/
%%CreationDate: Wed Jun 10 15:10:24 2015
%%Orientation: portrait
%%BoundingBox: 90 288 522 504
%%EndComments
%%BeginProlog
/mpldict 9 dict def
mpldict begin
/m { moveto } bind def
/l { lineto } bind def
/r { rlineto } bind def
/c { curveto } bind def
/cl { closepath } bind def
/box {
m
1 index 0 r
0 exch r
neg 0 r
cl
} bind def
/clipbox {
box
clip
newpath
} bind def
%!PS-Adobe-3.0 Resource-Font
%%Title: cmmi10
%%Copyright: Copyright (C) 1994, Basil K. Malyshev. All Rights Reserved.012BaKoMa Fonts Collection, Level-B.
%%Creator: Converted from TrueType to type 3 by PPR
25 dict begin
/_d{bind def}bind def
/_m{moveto}_d
/_l{lineto}_d
/_cl{closepath eofill}_d
/_c{curveto}_d
/_sc{7 -1 roll{setcachedevice}{pop pop pop pop pop pop}ifelse}_d
/_e{exec}_d
/FontName /Cmmi10 def
/PaintType 0 def
/FontMatrix[.001 0 0 .001 0 0]def
/FontBBox[-34 -250 1048 750]def
/FontType 3 def
/Encoding [ /sigma ] def
/FontInfo 10 dict dup begin
/FamilyName (cmmi10) def
/FullName (cmmi10) def
/Notice (Copyright (C) 1994, Basil K. Malyshev. All Rights Reserved.012BaKoMa Fonts Collection, Level-B. ) def
/Weight (Regular) def
/Version (1.1/12-Nov-94) def
/ItalicAngle 0.0 def
/isFixedPitch false def
/UnderlinePosition -133 def
/UnderlineThickness 20 def
end readonly def
/CharStrings 1 dict dup begin
/sigma{{571 0 36 -10 568 431 _sc
187 -10 _m
157 -10 131 -3 108 10 _c
85 24 67 43 55 67 _c
42 91 36 118 36 147 _c
36 177 43 210 57 244 _c
71 278 90 310 114 338 _c
138 366 166 389 197 406 _c
227 422 259 431 291 431 _c
543 431 _l
549 431 555 428 560 424 _c
565 419 568 413 568 406 _c
568 396 564 387 557 380 _c
550 372 542 369 532 369 _c
410 369 _l
}_e{429 340 439 305 439 265 _c
439 231 432 198 419 166 _c
406 133 388 103 365 77 _c
342 50 315 29 284 13 _c
253 -2 221 -10 187 -10 _c
188 15 _m
224 15 257 29 285 58 _c
313 86 334 121 349 162 _c
364 203 372 241 372 277 _c
372 305 364 328 348 344 _c
332 360 310 369 282 369 _c
243 369 210 356 183 330 _c
156 304 136 271 122 232 _c
108 192 102 154 102 118 _c
}_e{102 89 109 65 124 45 _c
139 25 160 15 188 15 _c
_cl}_e}_d
end readonly def

/BuildGlyph
 {exch begin
 CharStrings exch
 2 copy known not{pop /.notdef}if
 true 3 1 roll get exec
 end}_d

/BuildChar {
 1 index /Encoding get exch get
 1 index /BuildGlyph get exec
}_d

FontName currentdict end definefont pop
%!PS-Adobe-3.0 Resource-Font
%%Title: Bitstream Vera Serif
%%Copyright: Copyright (c) 2003 by Bitstream, Inc. All Rights Reserved.
%%Creator: Converted from TrueType to type 3 by PPR
25 dict begin
/_d{bind def}bind def
/_m{moveto}_d
/_l{lineto}_d
/_cl{closepath eofill}_d
/_c{curveto}_d
/_sc{7 -1 roll{setcachedevice}{pop pop pop pop pop pop}ifelse}_d
/_e{exec}_d
/FontName /BitstreamVeraSerif-Roman def
/PaintType 0 def
/FontMatrix[.001 0 0 .001 0 0]def
/FontBBox[-183 -236 1287 928]def
/FontType 3 def
/Encoding [ /space /parenleft /parenright /hyphen /slash /zero /one /two /three /four /six /eight /I /M /N /P /R /a /c /d /e /g /h /i /k /l /m /n /o /r /s /t ] def
/FontInfo 10 dict dup begin
/FamilyName (Bitstream Vera Serif) def
/FullName (Bitstream Vera Serif) def
/Notice (Copyright (c) 2003 by Bitstream, Inc. All Rights Reserved. Bitstream Vera is a trademark of Bitstream, Inc.) def
/Weight (Roman) def
/Version (Release 1.10) def
/ItalicAngle 0.0 def
/isFixedPitch false def
/UnderlinePosition -213 def
/UnderlineThickness 133 def
end readonly def
/CharStrings 32 dict dup begin
/space{318 0 0 0 0 0 _sc
}_d
/parenleft{390 0 79 -155 319 760 _sc
319 -155 _m
239 -119 179 -63 139 13 _c
99 89 79 186 79 302 _c
79 418 99 514 139 591 _c
179 668 239 724 319 760 _c
319 712 _l
269 677 233 628 211 566 _c
189 503 178 415 178 302 _c
178 188 189 100 211 38 _c
233 -24 269 -72 319 -107 _c
319 -155 _l
_cl}_d
/parenright{390 0 71 -155 311 760 _sc
71 -155 _m
71 -107 _l
121 -72 157 -24 179 38 _c
201 100 212 188 212 302 _c
212 415 201 503 179 566 _c
157 628 121 677 71 712 _c
71 760 _l
150 724 210 668 250 591 _c
290 514 311 418 311 302 _c
311 186 290 89 250 13 _c
210 -63 150 -119 71 -155 _c
_cl}_d
/hyphen{338 0 44 230 294 306 _sc
44 306 _m
294 306 _l
294 230 _l
44 230 _l
44 306 _l
_cl}_d
/slash{337 0 0 -92 337 729 _sc
259 729 _m
337 729 _l
78 -92 _l
0 -92 _l
259 729 _l
_cl}_d
/zero{636 0 66 -13 570 742 _sc
318 34 _m
368 34 405 61 430 116 _c
454 170 467 253 467 364 _c
467 474 454 557 430 612 _c
405 666 368 694 318 694 _c
268 694 230 666 206 612 _c
181 557 169 474 169 364 _c
169 253 181 170 206 116 _c
230 61 268 34 318 34 _c
318 -13 _m
238 -13 176 20 132 86 _c
88 152 66 244 66 364 _c
66 483 88 576 132 642 _c
176 708 238 742 318 742 _c
397 742 459 708 503 642 _c
547 576 570 483 570 364 _c
570 244 547 152 503 86 _c
459 20 397 -13 318 -13 _c
_cl}_d
/one{636 0 122 0 494 742 _sc
142 0 _m
142 52 _l
269 52 _l
269 658 _l
122 563 _l
122 627 _l
300 742 _l
367 742 _l
367 52 _l
494 52 _l
494 0 _l
142 0 _l
_cl}_d
/two{{636 0 68 0 538 742 _sc
128 555 _m
73 555 _l
73 685 _l
107 703 142 717 178 727 _c
213 737 248 742 282 742 _c
358 742 418 723 462 687 _c
506 650 528 600 528 537 _c
528 465 478 380 378 281 _c
370 273 365 268 361 264 _c
177 80 _l
481 80 _l
481 170 _l
538 170 _l
538 0 _l
68 0 _l
68 53 _l
289 274 _l
337 322 372 367 393 408 _c
414 449 425 492 425 537 _c
}_e{425 586 412 624 386 652 _c
360 680 325 694 281 694 _c
234 694 198 682 173 659 _c
147 636 132 601 128 555 _c
_cl}_e}_d
/three{{636 0 76 -13 562 742 _sc
97 698 _m
135 712 171 723 206 731 _c
241 738 274 742 305 742 _c
376 742 432 726 472 696 _c
512 665 532 622 532 568 _c
532 524 518 487 490 458 _c
462 428 423 408 373 398 _c
433 389 479 367 512 332 _c
545 297 562 252 562 197 _c
562 129 539 77 493 41 _c
447 5 382 -13 296 -13 _c
258 -13 220 -9 184 -1 _c
148 6 112 18 76 35 _c
76 177 _l
}_e{131 177 _l
134 129 150 94 178 70 _c
206 46 246 34 298 34 _c
348 34 387 48 416 77 _c
444 106 459 146 459 196 _c
459 253 444 296 414 326 _c
384 355 341 370 284 370 _c
238 370 _l
238 420 _l
262 420 _l
319 420 362 431 390 455 _c
418 479 433 514 433 562 _c
433 604 421 637 398 660 _c
374 682 341 694 297 694 _c
253 694 218 683 194 662 _c
170 641 156 610 152 570 _c
}_e{97 570 _l
97 698 _l
_cl}_e}_d
/four{636 0 31 0 586 742 _sc
349 247 _m
349 635 _l
100 247 _l
349 247 _l
564 0 _m
232 0 _l
232 52 _l
349 52 _l
349 195 _l
31 195 _l
31 248 _l
350 742 _l
447 742 _l
447 247 _l
586 247 _l
586 195 _l
447 195 _l
447 52 _l
564 52 _l
564 0 _l
_cl}_d
/six{{636 0 67 -13 573 742 _sc
327 34 _m
373 34 408 50 433 84 _c
457 118 470 166 470 230 _c
470 293 457 341 433 375 _c
408 409 373 426 327 426 _c
280 426 244 409 220 377 _c
196 344 184 297 184 236 _c
184 171 196 121 221 86 _c
245 51 281 34 327 34 _c
168 401 _m
190 425 215 444 243 456 _c
271 468 302 474 338 474 _c
410 474 468 452 510 408 _c
552 364 573 305 573 230 _c
}_e{573 156 550 97 505 53 _c
459 9 399 -13 323 -13 _c
241 -13 177 17 133 78 _c
89 139 67 227 67 341 _c
67 468 93 567 145 637 _c
197 707 271 742 367 742 _c
393 742 420 739 448 735 _c
476 730 505 723 535 713 _c
535 593 _l
480 593 _l
476 625 463 650 442 668 _c
421 685 393 694 357 694 _c
293 694 246 670 215 622 _c
184 574 168 500 168 401 _c
_cl}_e}_d
/eight{{636 0 67 -13 569 742 _sc
466 199 _m
466 251 453 291 427 320 _c
401 349 364 364 318 364 _c
271 364 235 349 209 320 _c
183 291 170 251 170 199 _c
170 147 183 106 209 77 _c
235 48 271 34 318 34 _c
364 34 401 48 427 77 _c
453 106 466 147 466 199 _c
446 553 _m
446 597 434 632 412 657 _c
389 681 358 694 318 694 _c
278 694 246 681 224 657 _c
201 632 190 597 190 553 _c
}_e{190 508 201 473 224 449 _c
246 424 278 412 318 412 _c
358 412 389 424 412 449 _c
434 473 428 453 393 388 _c
448 380 491 360 522 327 _c
553 293 569 251 569 199 _c
569 131 547 78 504 42 _c
460 5 398 -13 318 -13 _c
237 -13 175 5 132 42 _c
88 78 67 131 67 199 _c
67 251 82 293 113 327 _c
144 360 187 380 243 388 _c
193 396 156 415 130 444 _c
}_e{104 472 91 509 91 553 _c
91 611 111 657 151 691 _c
191 725 247 742 318 742 _c
388 742 444 725 484 691 _c
524 657 545 611 545 553 _c
545 509 531 472 505 444 _c
479 415 459 451 446 553 _c
_cl}_e}_d
/I{395 0 55 0 340 729 _sc
247 52 _m
340 52 _l
340 0 _l
55 0 _l
55 52 _l
148 52 _l
148 677 _l
55 677 _l
55 729 _l
340 729 _l
340 677 _l
247 677 _l
247 52 _l
_cl}_d
/M{1024 0 50 0 973 729 _sc
55 0 _m
55 52 _l
148 52 _l
148 677 _l
50 677 _l
50 729 _l
262 729 _l
518 210 _l
774 729 _l
973 729 _l
973 677 _l
876 677 _l
876 52 _l
969 52 _l
969 0 _l
684 0 _l
684 52 _l
777 52 _l
777 615 _l
527 107 _l
458 107 _l
208 615 _l
208 52 _l
301 52 _l
301 0 _l
55 0 _l
_cl}_d
/N{875 0 49 -13 831 729 _sc
49 0 _m
49 52 _l
147 52 _l
147 677 _l
49 677 _l
49 729 _l
236 729 _l
673 154 _l
673 677 _l
575 677 _l
575 729 _l
831 729 _l
831 677 _l
733 677 _l
733 -13 _l
674 -13 _l
207 600 _l
207 52 _l
305 52 _l
305 0 _l
49 0 _l
_cl}_d
/P{{673 0 55 0 637 729 _sc
247 371 _m
376 371 _l
424 371 461 384 487 410 _c
512 436 525 474 525 524 _c
525 574 512 612 487 638 _c
461 664 424 677 376 677 _c
247 677 _l
247 371 _l
55 0 _m
55 52 _l
148 52 _l
148 677 _l
55 677 _l
55 729 _l
400 729 _l
472 729 530 710 573 673 _c
615 636 637 586 637 524 _c
637 461 615 411 573 374 _c
530 337 472 319 400 319 _c
247 319 _l
}_e{247 52 _l
360 52 _l
360 0 _l
55 0 _l
_cl}_e}_d
/R{{753 0 55 0 777 729 _sc
479 362 _m
501 356 521 345 538 330 _c
554 315 569 294 582 268 _c
688 52 _l
777 52 _l
777 0 _l
605 0 _l
491 232 _l
469 276 449 305 431 319 _c
413 332 388 339 356 339 _c
247 339 _l
247 52 _l
350 52 _l
350 0 _l
55 0 _l
55 52 _l
148 52 _l
148 677 _l
55 677 _l
55 729 _l
425 729 _l
495 729 550 712 589 678 _c
}_e{627 644 647 596 647 534 _c
647 484 633 444 605 416 _c
577 387 535 369 479 362 _c
247 391 _m
391 391 _l
440 391 476 402 500 426 _c
523 449 535 485 535 534 _c
535 582 523 618 500 642 _c
476 665 440 677 391 677 _c
247 677 _l
247 391 _l
_cl}_e}_d
/a{{596 0 50 -13 568 533 _sc
398 163 _m
398 273 _l
282 273 _l
237 273 204 263 182 244 _c
160 224 150 195 150 156 _c
150 120 161 91 183 70 _c
205 48 235 38 273 38 _c
310 38 340 49 363 72 _c
386 95 398 125 398 163 _c
488 324 _m
488 52 _l
568 52 _l
568 0 _l
398 0 _l
398 56 _l
378 32 355 14 329 3 _c
303 -7 272 -13 238 -13 _c
180 -13 134 2 100 32 _c
}_e{66 62 50 104 50 156 _c
50 209 69 250 108 280 _c
146 310 201 325 272 325 _c
398 325 _l
398 361 _l
398 400 386 430 362 452 _c
338 474 304 485 261 485 _c
225 485 197 476 176 460 _c
154 444 141 420 136 388 _c
90 388 _l
90 493 _l
121 506 151 516 181 523 _c
210 529 239 533 267 533 _c
339 533 393 515 431 479 _c
469 443 488 392 488 324 _c
_cl}_e}_d
/c{{560 0 50 -13 514 533 _sc
514 156 _m
501 100 477 58 441 30 _c
405 1 358 -13 301 -13 _c
225 -13 165 11 119 61 _c
73 111 50 177 50 260 _c
50 342 73 408 119 458 _c
165 508 225 533 301 533 _c
333 533 366 529 399 521 _c
431 513 464 502 497 487 _c
497 354 _l
445 354 _l
438 399 423 432 400 453 _c
377 474 344 485 302 485 _c
253 485 216 466 192 428 _c
}_e{167 390 155 334 155 260 _c
155 184 167 128 192 90 _c
216 52 253 34 302 34 _c
340 34 371 44 394 64 _c
417 84 433 115 442 156 _c
514 156 _l
_cl}_e}_d
/d{{640 0 50 -13 611 760 _sc
525 52 _m
611 52 _l
611 0 _l
435 0 _l
435 81 _l
417 48 395 24 368 9 _c
340 -5 307 -13 267 -13 _c
203 -13 150 12 110 62 _c
70 112 50 178 50 260 _c
50 341 70 407 110 457 _c
150 507 203 533 267 533 _c
307 533 340 525 368 510 _c
395 494 417 470 435 438 _c
435 708 _l
350 708 _l
350 760 _l
525 760 _l
525 52 _l
435 234 _m
435 285 _l
}_e{435 347 423 394 399 427 _c
375 460 340 477 295 477 _c
249 477 214 458 190 422 _c
166 386 155 332 155 260 _c
155 188 166 133 190 97 _c
214 60 249 42 295 42 _c
340 42 375 58 399 91 _c
423 123 435 171 435 234 _c
_cl}_e}_d
/e{{592 0 50 -13 542 533 _sc
542 250 _m
155 250 _l
155 246 _l
155 176 168 123 194 87 _c
220 51 259 34 311 34 _c
350 34 382 44 408 65 _c
433 85 451 116 461 157 _c
533 157 _l
519 100 492 57 454 29 _c
415 1 364 -13 302 -13 _c
226 -13 165 11 119 61 _c
73 111 50 177 50 260 _c
50 342 72 408 118 458 _c
163 508 222 533 296 533 _c
374 533 435 508 477 460 _c
}_e{519 412 540 342 542 250 _c
436 302 _m
434 362 421 408 397 439 _c
373 469 340 485 296 485 _c
254 485 222 469 198 438 _c
174 407 160 362 155 302 _c
436 302 _l
_cl}_e}_d
/g{{640 0 50 -221 611 533 _sc
525 467 _m
525 11 _l
525 -63 504 -120 463 -160 _c
422 -200 364 -221 288 -221 _c
254 -221 221 -218 190 -212 _c
158 -206 128 -196 100 -184 _c
100 -75 _l
147 -75 _l
153 -109 166 -133 188 -149 _c
210 -165 241 -173 282 -173 _c
334 -173 373 -158 398 -128 _c
422 -98 435 -51 435 11 _c
435 81 _l
417 48 395 24 368 9 _c
340 -5 307 -13 267 -13 _c
203 -13 150 12 110 62 _c
}_e{70 112 50 178 50 260 _c
50 341 70 407 110 457 _c
150 507 203 533 267 533 _c
307 533 340 525 368 510 _c
395 494 417 470 435 438 _c
435 519 _l
611 519 _l
611 467 _l
525 467 _l
435 285 _m
435 347 423 394 399 427 _c
375 460 340 477 295 477 _c
249 477 214 458 190 422 _c
166 386 155 332 155 260 _c
155 188 166 133 190 97 _c
214 60 249 42 295 42 _c
}_e{340 42 375 58 399 91 _c
423 123 435 171 435 234 _c
435 285 _l
_cl}_e}_d
/h{{644 0 36 0 616 760 _sc
41 0 _m
41 52 _l
122 52 _l
122 708 _l
36 708 _l
36 760 _l
212 760 _l
212 427 _l
228 461 250 488 276 506 _c
302 524 333 533 369 533 _c
426 533 468 516 495 484 _c
522 451 536 400 536 330 _c
536 52 _l
616 52 _l
616 0 _l
368 0 _l
368 52 _l
446 52 _l
446 302 _l
446 365 438 408 422 432 _c
406 455 379 467 340 467 _c
}_e{298 467 266 451 244 421 _c
222 391 212 347 212 289 _c
212 52 _l
290 52 _l
290 0 _l
41 0 _l
_cl}_e}_d
/i{320 0 36 0 297 736 _sc
97 680 _m
97 695 102 708 113 719 _c
124 730 137 736 153 736 _c
167 736 180 730 191 719 _c
202 708 208 695 208 680 _c
208 664 202 651 192 641 _c
181 630 168 625 153 625 _c
137 625 124 630 113 641 _c
102 651 97 664 97 680 _c
212 52 _m
297 52 _l
297 0 _l
36 0 _l
36 52 _l
122 52 _l
122 467 _l
36 467 _l
36 519 _l
212 519 _l
212 52 _l
_cl}_d
/k{{606 0 29 0 613 760 _sc
286 0 _m
34 0 _l
34 52 _l
115 52 _l
115 708 _l
29 708 _l
29 760 _l
205 760 _l
205 265 _l
424 467 _l
349 467 _l
349 519 _l
584 519 _l
584 467 _l
495 467 _l
341 324 _l
538 52 _l
613 52 _l
613 0 _l
357 0 _l
357 52 _l
431 52 _l
276 265 _l
205 199 _l
205 52 _l
286 52 _l
286 0 _l
_cl}_e}_d
/l{320 0 29 0 290 760 _sc
205 52 _m
290 52 _l
290 0 _l
29 0 _l
29 52 _l
115 52 _l
115 708 _l
29 708 _l
29 760 _l
205 760 _l
205 52 _l
_cl}_d
/m{{948 0 36 0 921 533 _sc
518 418 _m
535 456 557 484 584 504 _c
611 523 642 533 678 533 _c
732 533 773 516 800 482 _c
826 448 840 398 840 330 _c
840 52 _l
921 52 _l
921 0 _l
672 0 _l
672 52 _l
750 52 _l
750 320 _l
750 372 742 410 726 433 _c
710 455 685 467 649 467 _c
609 467 578 451 557 421 _c
536 391 526 347 526 289 _c
526 52 _l
604 52 _l
604 0 _l
358 0 _l
}_e{358 52 _l
436 52 _l
436 323 _l
436 375 428 412 412 434 _c
396 456 371 467 335 467 _c
295 467 264 451 243 421 _c
222 391 212 347 212 289 _c
212 52 _l
290 52 _l
290 0 _l
41 0 _l
41 52 _l
122 52 _l
122 468 _l
36 468 _l
36 519 _l
212 519 _l
212 427 _l
228 461 249 488 275 506 _c
301 524 330 533 363 533 _c
403 533 436 523 463 503 _c
}_e{490 483 508 454 518 418 _c
_cl}_e}_d
/n{{644 0 36 0 616 533 _sc
41 0 _m
41 52 _l
122 52 _l
122 467 _l
36 467 _l
36 519 _l
212 519 _l
212 427 _l
228 461 250 488 276 506 _c
302 524 333 533 369 533 _c
426 533 468 516 495 484 _c
522 451 536 400 536 330 _c
536 52 _l
616 52 _l
616 0 _l
368 0 _l
368 52 _l
446 52 _l
446 302 _l
446 365 438 408 422 432 _c
406 456 379 468 340 468 _c
}_e{298 468 266 452 244 422 _c
222 391 212 347 212 289 _c
212 52 _l
290 52 _l
290 0 _l
41 0 _l
_cl}_e}_d
/o{602 0 50 -13 552 533 _sc
301 34 _m
349 34 385 53 410 91 _c
434 129 447 185 447 260 _c
447 334 434 390 410 428 _c
385 466 349 485 301 485 _c
253 485 216 466 192 428 _c
167 390 155 334 155 260 _c
155 185 167 129 192 91 _c
216 53 253 34 301 34 _c
301 -13 _m
225 -13 165 11 119 61 _c
73 111 50 177 50 260 _c
50 342 72 408 118 458 _c
164 508 225 533 301 533 _c
377 533 437 508 483 458 _c
529 408 552 342 552 260 _c
552 177 529 111 483 61 _c
437 11 377 -13 301 -13 _c
_cl}_d
/r{478 0 36 0 478 533 _sc
478 520 _m
478 390 _l
426 390 _l
424 416 417 435 405 448 _c
392 460 373 467 349 467 _c
305 467 271 451 247 421 _c
223 390 212 346 212 289 _c
212 52 _l
316 52 _l
316 0 _l
41 0 _l
41 52 _l
122 52 _l
122 468 _l
36 468 _l
36 519 _l
212 519 _l
212 427 _l
229 463 251 489 279 507 _c
307 524 341 533 381 533 _c
395 533 411 531 427 529 _c
443 527 460 524 478 520 _c
_cl}_d
/s{{513 0 56 -13 462 533 _sc
56 29 _m
56 150 _l
108 150 _l
109 111 121 82 144 63 _c
167 43 201 34 246 34 _c
286 34 317 41 338 57 _c
359 72 370 94 370 123 _c
370 145 362 164 347 178 _c
331 192 299 207 249 223 _c
184 245 _l
139 259 107 277 87 299 _c
67 320 57 347 57 381 _c
57 428 74 465 109 492 _c
144 519 192 533 254 533 _c
281 533 310 529 340 522 _c
}_e{370 515 402 505 434 491 _c
434 378 _l
382 378 _l
380 411 369 437 347 456 _c
325 475 295 485 257 485 _c
219 485 190 478 171 465 _c
151 451 142 431 142 405 _c
142 383 149 365 164 352 _c
178 339 208 326 252 312 _c
323 290 _l
372 274 407 255 429 232 _c
451 209 462 180 462 144 _c
462 94 443 56 405 28 _c
367 0 316 -13 250 -13 _c
216 -13 184 -9 152 -3 _c
}_e{120 3 88 14 56 29 _c
_cl}_e}_d
/t{402 0 29 -13 394 680 _sc
108 467 _m
29 467 _l
29 519 _l
108 519 _l
108 680 _l
198 680 _l
198 519 _l
367 519 _l
367 467 _l
198 467 _l
198 137 _l
198 93 202 64 211 52 _c
219 40 235 34 258 34 _c
281 34 298 41 309 55 _c
319 69 325 91 326 122 _c
394 122 _l
391 74 378 40 355 19 _c
332 -2 297 -13 250 -13 _c
198 -13 161 -1 140 21 _c
118 43 108 82 108 137 _c
108 467 _l
_cl}_d
end readonly def

/BuildGlyph
 {exch begin
 CharStrings exch
 2 copy known not{pop /.notdef}if
 true 3 1 roll get exec
 end}_d

/BuildChar {
 1 index /Encoding get exch get
 1 index /BuildGlyph get exec
}_d

FontName currentdict end definefont pop
end
%%EndProlog
mpldict begin
90 288 translate
432 216 0 0 clipbox
gsave
0 0 m
432 0 l
432 216 l
0 216 l
cl
1.000 setgray
fill
grestore
gsave
23.7881 29.16 m
426.781 29.16 l
426.781 215.19 l
23.7881 215.19 l
cl
1.000 setgray
fill
grestore
5.000 setlinewidth
1 setlinejoin
2 setlinecap
[] 0 setdash
0.118 0.565 1.000 setrgbcolor
gsave
403 186 23.79 29.16 clipbox
-6.43637 9.36957 m
-1 9.36957 m
3.63846 9.36957 l
3.63846 9.36957 l
23.7881 9.36957 l
23.7881 9.36957 l
43.9378 9.36957 l
43.9378 9.36957 l
64.0875 9.36957 l
64.0875 9.36957 l
84.2371 9.36957 l
84.2371 9.36957 l
104.387 9.36957 l
104.387 117.199 l
124.536 117.199 l
124.536 158.091 l
144.686 158.091 l
144.686 181.456 l
164.836 181.456 l
164.836 190.317 l
184.985 190.317 l
184.985 194.281 l
205.135 194.281 l
205.135 194.535 l
225.285 194.535 l
225.285 191.626 l
245.434 191.626 l
245.434 182.949 l
265.584 182.949 l
265.584 162.141 l
285.734 162.141 l
285.734 136.927 l
305.883 136.927 l
305.883 91.6653 l
326.033 91.6653 l
326.033 60.8654 l
346.183 60.8654 l
346.183 48.9504 l
366.332 48.9504 l
366.332 9.36957 l
386.482 9.36957 l
386.482 9.36957 l
406.632 9.36957 l
406.632 9.36957 l
426.781 9.36957 l
426.781 9.36957 l
433 9.36957 l
stroke
grestore
3.000 setlinewidth
0.000 setgray
gsave
403 186 23.79 29.16 clipbox
-6.43637 9.36957 m
-1 9.36957 m
3.63846 9.36957 l
3.63846 9.36957 l
23.7881 9.36957 l
23.7881 9.36957 l
43.9378 9.36957 l
43.9378 9.36957 l
64.0875 9.36957 l
64.0875 9.36957 l
84.2371 9.36957 l
84.2371 9.36957 l
104.387 9.36957 l
104.387 152.028 l
124.536 152.028 l
124.536 183.622 l
144.686 183.622 l
144.686 194.959 l
164.836 194.959 l
164.836 197.19 l
184.985 197.19 l
184.985 196.745 l
205.135 196.745 l
205.135 189.769 l
225.285 189.769 l
225.285 174.257 l
245.434 174.257 l
245.434 120.441 l
265.584 120.441 l
265.584 9.36957 l
285.734 9.36957 l
285.734 9.36957 l
305.883 9.36957 l
305.883 9.36957 l
326.033 9.36957 l
326.033 9.36957 l
346.183 9.36957 l
346.183 9.36957 l
366.332 9.36957 l
366.332 9.36957 l
386.482 9.36957 l
386.482 9.36957 l
406.632 9.36957 l
406.632 9.36957 l
426.781 9.36957 l
426.781 9.36957 l
433 9.36957 l
stroke
grestore
1.000 setlinewidth
1.000 0.000 0.000 setrgbcolor
gsave
403 186 23.79 29.16 clipbox
-6.43637 9.36957 m
-1 9.36957 m
3.63846 9.36957 l
3.63846 9.36957 l
23.7881 9.36957 l
23.7881 9.36957 l
43.9378 9.36957 l
43.9378 9.36957 l
64.0875 9.36957 l
64.0875 9.36957 l
84.2371 9.36957 l
84.2371 98.6352 l
104.387 98.6352 l
104.387 194.17 l
124.536 194.17 l
124.536 204.759 l
144.686 204.759 l
144.686 198.294 l
164.836 198.294 l
164.836 189.452 l
184.985 189.452 l
184.985 174.316 l
205.135 174.316 l
205.135 118.449 l
225.285 118.449 l
225.285 9.36957 l
245.434 9.36957 l
245.434 9.36957 l
265.584 9.36957 l
265.584 9.36957 l
285.734 9.36957 l
285.734 9.36957 l
305.883 9.36957 l
305.883 9.36957 l
326.033 9.36957 l
326.033 9.36957 l
346.183 9.36957 l
346.183 9.36957 l
366.332 9.36957 l
366.332 9.36957 l
386.482 9.36957 l
386.482 9.36957 l
406.632 9.36957 l
406.632 9.36957 l
426.781 9.36957 l
426.781 9.36957 l
433 9.36957 l
stroke
grestore
0 setlinecap
0.000 setgray
gsave
/o {
gsave
newpath
translate
1.0 setlinewidth
1 setlinejoin
0 setlinecap
0 0 m
0 5 l
gsave
0.000 setgray
fill
grestore
stroke
grestore
} bind def
23.7881 29.16 o
grestore
gsave
/o {
gsave
newpath
translate
1.0 setlinewidth
1 setlinejoin
0 setlinecap
0 0 m
0 -5 l
gsave
0.000 setgray
fill
grestore
stroke
grestore
} bind def
23.7881 215.19 o
grestore
/BitstreamVeraSerif-Roman findfont
8.000 scalefont
setfont
gsave
21.772500 19.113125 translate
0.000000 rotate
0.000000 0.109375 m /zero glyphshow
grestore
gsave
/o {
gsave
newpath
translate
1.0 setlinewidth
1 setlinejoin
0 setlinecap
0 0 m
0 5 l
gsave
0.000 setgray
fill
grestore
stroke
grestore
} bind def
104.387 29.16 o
grestore
gsave
/o {
gsave
newpath
translate
1.0 setlinewidth
1 setlinejoin
0 setlinecap
0 0 m
0 -5 l
gsave
0.000 setgray
fill
grestore
stroke
grestore
} bind def
104.387 215.19 o
grestore
gsave
102.503969 19.222500 translate
0.000000 rotate
0.000000 0.000000 m /two glyphshow
grestore
gsave
/o {
gsave
newpath
translate
1.0 setlinewidth
1 setlinejoin
0 setlinecap
0 0 m
0 5 l
gsave
0.000 setgray
fill
grestore
stroke
grestore
} bind def
184.985 29.16 o
grestore
gsave
/o {
gsave
newpath
translate
1.0 setlinewidth
1 setlinejoin
0 setlinecap
0 0 m
0 -5 l
gsave
0.000 setgray
fill
grestore
stroke
grestore
} bind def
184.985 215.19 o
grestore
gsave
182.766688 19.222500 translate
0.000000 rotate
0.000000 0.000000 m /four glyphshow
grestore
gsave
/o {
gsave
newpath
translate
1.0 setlinewidth
1 setlinejoin
0 setlinecap
0 0 m
0 5 l
gsave
0.000 setgray
fill
grestore
stroke
grestore
} bind def
265.584 29.16 o
grestore
gsave
/o {
gsave
newpath
translate
1.0 setlinewidth
1 setlinejoin
0 setlinecap
0 0 m
0 -5 l
gsave
0.000 setgray
fill
grestore
stroke
grestore
} bind def
265.584 215.19 o
grestore
gsave
263.552844 19.113125 translate
0.000000 rotate
0.000000 0.109375 m /six glyphshow
grestore
gsave
/o {
gsave
newpath
translate
1.0 setlinewidth
1 setlinejoin
0 setlinecap
0 0 m
0 5 l
gsave
0.000 setgray
fill
grestore
stroke
grestore
} bind def
346.183 29.16 o
grestore
gsave
/o {
gsave
newpath
translate
1.0 setlinewidth
1 setlinejoin
0 setlinecap
0 0 m
0 -5 l
gsave
0.000 setgray
fill
grestore
stroke
grestore
} bind def
346.183 215.19 o
grestore
gsave
344.174938 19.113125 translate
0.000000 rotate
0.000000 0.109375 m /eight glyphshow
grestore
gsave
/o {
gsave
newpath
translate
1.0 setlinewidth
1 setlinejoin
0 setlinecap
0 0 m
0 5 l
gsave
0.000 setgray
fill
grestore
stroke
grestore
} bind def
426.781 29.16 o
grestore
gsave
/o {
gsave
newpath
translate
1.0 setlinewidth
1 setlinejoin
0 setlinecap
0 0 m
0 -5 l
gsave
0.000 setgray
fill
grestore
stroke
grestore
} bind def
426.781 215.19 o
grestore
gsave
422.445469 19.113125 translate
0.000000 rotate
0.000000 0.109375 m /one glyphshow
5.089844 0.109375 m /zero glyphshow
grestore
gsave
204.784766 4.113125 translate
0.000000 rotate
/Cmmi10 findfont
10.0 scalefont
setfont
0.000000 2.406250 moveto
/sigma glyphshow

/BitstreamVeraSerif-Roman findfont
10.0 scalefont
setfont
5.708008 2.406250 moveto
/space glyphshow

8.886719 2.406250 moveto
/parenleft glyphshow

12.788086 2.406250 moveto
/k glyphshow

18.847656 2.406250 moveto
/m glyphshow

28.330078 2.406250 moveto
/slash glyphshow

31.699219 2.406250 moveto
/s glyphshow

36.831055 2.406250 moveto
/parenright glyphshow


grestore
gsave
/o {
gsave
newpath
translate
1.0 setlinewidth
1 setlinejoin
0 setlinecap
0 0 m
5 0 l
gsave
0.000 setgray
fill
grestore
stroke
grestore
} bind def
23.7881 48.9504 o
grestore
gsave
/o {
gsave
newpath
translate
1.0 setlinewidth
1 setlinejoin
0 setlinecap
0 0 m
-5 0 l
gsave
0.000 setgray
fill
grestore
stroke
grestore
} bind def
426.781 48.9504 o
grestore
gsave
15.756875 45.926988 translate
0.000000 rotate
0.000000 0.109375 m /zero glyphshow
grestore
gsave
/o {
gsave
newpath
translate
1.0 setlinewidth
1 setlinejoin
0 setlinecap
0 0 m
5 0 l
gsave
0.000 setgray
fill
grestore
stroke
grestore
} bind def
23.7881 88.5313 o
grestore
gsave
/o {
gsave
newpath
translate
1.0 setlinewidth
1 setlinejoin
0 setlinecap
0 0 m
-5 0 l
gsave
0.000 setgray
fill
grestore
stroke
grestore
} bind def
426.781 88.5313 o
grestore
gsave
16.819375 85.562527 translate
0.000000 rotate
0.000000 0.000000 m /one glyphshow
grestore
gsave
/o {
gsave
newpath
translate
1.0 setlinewidth
1 setlinejoin
0 setlinecap
0 0 m
5 0 l
gsave
0.000 setgray
fill
grestore
stroke
grestore
} bind def
23.7881 128.112 o
grestore
gsave
/o {
gsave
newpath
translate
1.0 setlinewidth
1 setlinejoin
0 setlinecap
0 0 m
-5 0 l
gsave
0.000 setgray
fill
grestore
stroke
grestore
} bind def
426.781 128.112 o
grestore
gsave
16.022500 125.143378 translate
0.000000 rotate
0.000000 0.000000 m /two glyphshow
grestore
gsave
/o {
gsave
newpath
translate
1.0 setlinewidth
1 setlinejoin
0 setlinecap
0 0 m
5 0 l
gsave
0.000 setgray
fill
grestore
stroke
grestore
} bind def
23.7881 167.693 o
grestore
gsave
/o {
gsave
newpath
translate
1.0 setlinewidth
1 setlinejoin
0 setlinecap
0 0 m
-5 0 l
gsave
0.000 setgray
fill
grestore
stroke
grestore
} bind def
426.781 167.693 o
grestore
gsave
15.897500 164.669541 translate
0.000000 rotate
0.000000 0.109375 m /three glyphshow
grestore
gsave
/o {
gsave
newpath
translate
1.0 setlinewidth
1 setlinejoin
0 setlinecap
0 0 m
5 0 l
gsave
0.000 setgray
fill
grestore
stroke
grestore
} bind def
23.7881 207.274 o
grestore
gsave
/o {
gsave
newpath
translate
1.0 setlinewidth
1 setlinejoin
0 setlinecap
0 0 m
-5 0 l
gsave
0.000 setgray
fill
grestore
stroke
grestore
} bind def
426.781 207.274 o
grestore
gsave
15.350625 204.305080 translate
0.000000 rotate
0.000000 0.000000 m /four glyphshow
grestore
/BitstreamVeraSerif-Roman findfont
10.000 scalefont
setfont
gsave
10.350625 106.628125 translate
90.000000 rotate
0.000000 2.218750 m /l glyphshow
3.198242 2.218750 m /o glyphshow
9.218750 2.218750 m /g glyphshow
15.620117 2.218750 m /parenleft glyphshow
19.521484 2.218750 m /N glyphshow
28.271484 2.218750 m /parenright glyphshow
grestore
2 setlinecap
gsave
23.7881 215.19 m
426.781 215.19 l
stroke
grestore
gsave
426.781 29.16 m
426.781 215.19 l
stroke
grestore
gsave
23.7881 29.16 m
426.781 29.16 l
stroke
grestore
gsave
23.7881 29.16 m
23.7881 215.19 l
stroke
grestore
gsave
301.913 170.084 m
422.281 170.084 l
422.281 210.69 l
301.913 210.69 l
301.913 170.084 l
cl
gsave
1.000 setgray
fill
grestore
stroke
grestore
5.000 setlinewidth
0.118 0.565 1.000 setrgbcolor
gsave
308.213 203.396 m
320.813 203.396 l
stroke
grestore
0.000 setgray
/BitstreamVeraSerif-Roman findfont
9.000 scalefont
setfont
gsave
330.712656 200.121250 translate
0.000000 rotate
0.000000 0.125000 m /M glyphshow
9.215332 0.125000 m /e glyphshow
14.541504 0.125000 m /t glyphshow
18.158203 0.125000 m /a glyphshow
23.523926 0.125000 m /l glyphshow
26.402344 0.125000 m /hyphen glyphshow
29.443359 0.125000 m /P glyphshow
35.124023 0.125000 m /o glyphshow
40.542480 0.125000 m /o glyphshow
45.960938 0.125000 m /r glyphshow
grestore
3.000 setlinewidth
gsave
308.213 190.177 m
320.813 190.177 l
stroke
grestore
gsave
330.712656 186.902500 translate
0.000000 rotate
0.000000 0.125000 m /M glyphshow
9.215332 0.125000 m /e glyphshow
14.541504 0.125000 m /t glyphshow
18.158203 0.125000 m /a glyphshow
23.523926 0.125000 m /l glyphshow
26.402344 0.125000 m /hyphen glyphshow
29.443359 0.125000 m /I glyphshow
32.998535 0.125000 m /n glyphshow
38.794922 0.125000 m /t glyphshow
42.411621 0.125000 m /e glyphshow
47.737793 0.125000 m /r glyphshow
52.040039 0.125000 m /m glyphshow
60.574219 0.125000 m /e glyphshow
65.900391 0.125000 m /d glyphshow
71.661621 0.125000 m /i glyphshow
74.540039 0.125000 m /a glyphshow
79.905762 0.125000 m /t glyphshow
83.522461 0.125000 m /e glyphshow
grestore
1.000 setlinewidth
1.000 0.000 0.000 setrgbcolor
gsave
308.213 176.959 m
320.813 176.959 l
stroke
grestore
0.000 setgray
gsave
330.712656 173.683750 translate
0.000000 rotate
0.000000 0.125000 m /M glyphshow
9.215332 0.125000 m /e glyphshow
14.541504 0.125000 m /t glyphshow
18.158203 0.125000 m /a glyphshow
23.523926 0.125000 m /l glyphshow
26.402344 0.125000 m /hyphen glyphshow
29.443359 0.125000 m /R glyphshow
36.219727 0.125000 m /i glyphshow
39.098145 0.125000 m /c glyphshow
44.138672 0.125000 m /h glyphshow
grestore

end
showpage
