%!PS-Adobe-3.0 EPSF-3.0
%%Title: /home/hettin12/webplots/05-27-15_thesis_figures/xcorr_function/xcorr_function_big.eps
%%Creator: matplotlib version 1.2.x, http://matplotlib.sourceforge.net/
%%CreationDate: Fri May 29 11:47:38 2015
%%Orientation: portrait
%%BoundingBox: 18 252 594 540
%%EndComments
%%BeginProlog
/mpldict 8 dict def
mpldict begin
/m { moveto } bind def
/l { lineto } bind def
/r { rlineto } bind def
/c { curveto } bind def
/cl { closepath } bind def
/box {
m
1 index 0 r
0 exch r
neg 0 r
cl
} bind def
/clipbox {
box
clip
newpath
} bind def
%!PS-Adobe-3.0 Resource-Font
%%Title: Bitstream Vera Serif
%%Copyright: Copyright (c) 2003 by Bitstream, Inc. All Rights Reserved.
%%Creator: Converted from TrueType to type 3 by PPR
25 dict begin
/_d{bind def}bind def
/_m{moveto}_d
/_l{lineto}_d
/_cl{closepath eofill}_d
/_c{curveto}_d
/_sc{7 -1 roll{setcachedevice}{pop pop pop pop pop pop}ifelse}_d
/_e{exec}_d
/FontName /BitstreamVeraSerif-Roman def
/PaintType 0 def
/FontMatrix[.001 0 0 .001 0 0]def
/FontBBox[-183 -236 1287 928]def
/FontType 3 def
/Encoding [ /space /parenleft /parenright /hyphen /period /slash /zero /one /two /three /four /five /seven /eight /nine /equal /C /F /I /L /P /S /V /a /e /g /i /k /l /n /o /p /r /s /t /u /x /minus ] def
/FontInfo 10 dict dup begin
/FamilyName (Bitstream Vera Serif) def
/FullName (Bitstream Vera Serif) def
/Notice (Copyright (c) 2003 by Bitstream, Inc. All Rights Reserved. Bitstream Vera is a trademark of Bitstream, Inc.) def
/Weight (Roman) def
/Version (Release 1.10) def
/ItalicAngle 0.0 def
/isFixedPitch false def
/UnderlinePosition -213 def
/UnderlineThickness 133 def
end readonly def
/CharStrings 38 dict dup begin
/space{318 0 0 0 0 0 _sc
}_d
/parenleft{390 0 79 -155 319 760 _sc
319 -155 _m
239 -119 179 -63 139 13 _c
99 89 79 186 79 302 _c
79 418 99 514 139 591 _c
179 668 239 724 319 760 _c
319 712 _l
269 677 233 628 211 566 _c
189 503 178 415 178 302 _c
178 188 189 100 211 38 _c
233 -24 269 -72 319 -107 _c
319 -155 _l
_cl}_d
/parenright{390 0 71 -155 311 760 _sc
71 -155 _m
71 -107 _l
121 -72 157 -24 179 38 _c
201 100 212 188 212 302 _c
212 415 201 503 179 566 _c
157 628 121 677 71 712 _c
71 760 _l
150 724 210 668 250 591 _c
290 514 311 418 311 302 _c
311 186 290 89 250 13 _c
210 -63 150 -119 71 -155 _c
_cl}_d
/hyphen{338 0 44 230 294 306 _sc
44 306 _m
294 306 _l
294 230 _l
44 230 _l
44 306 _l
_cl}_d
/period{318 0 94 -13 224 116 _sc
94 51 _m
94 69 100 84 112 97 _c
124 109 140 116 159 116 _c
177 116 192 109 205 97 _c
217 84 224 69 224 51 _c
224 33 217 17 205 5 _c
192 -7 177 -13 159 -13 _c
140 -13 124 -7 112 5 _c
100 17 94 32 94 51 _c
_cl}_d
/slash{337 0 0 -92 337 729 _sc
259 729 _m
337 729 _l
78 -92 _l
0 -92 _l
259 729 _l
_cl}_d
/zero{636 0 66 -13 570 742 _sc
318 34 _m
368 34 405 61 430 116 _c
454 170 467 253 467 364 _c
467 474 454 557 430 612 _c
405 666 368 694 318 694 _c
268 694 230 666 206 612 _c
181 557 169 474 169 364 _c
169 253 181 170 206 116 _c
230 61 268 34 318 34 _c
318 -13 _m
238 -13 176 20 132 86 _c
88 152 66 244 66 364 _c
66 483 88 576 132 642 _c
176 708 238 742 318 742 _c
397 742 459 708 503 642 _c
547 576 570 483 570 364 _c
570 244 547 152 503 86 _c
459 20 397 -13 318 -13 _c
_cl}_d
/one{636 0 122 0 494 742 _sc
142 0 _m
142 52 _l
269 52 _l
269 658 _l
122 563 _l
122 627 _l
300 742 _l
367 742 _l
367 52 _l
494 52 _l
494 0 _l
142 0 _l
_cl}_d
/two{{636 0 68 0 538 742 _sc
128 555 _m
73 555 _l
73 685 _l
107 703 142 717 178 727 _c
213 737 248 742 282 742 _c
358 742 418 723 462 687 _c
506 650 528 600 528 537 _c
528 465 478 380 378 281 _c
370 273 365 268 361 264 _c
177 80 _l
481 80 _l
481 170 _l
538 170 _l
538 0 _l
68 0 _l
68 53 _l
289 274 _l
337 322 372 367 393 408 _c
414 449 425 492 425 537 _c
}_e{425 586 412 624 386 652 _c
360 680 325 694 281 694 _c
234 694 198 682 173 659 _c
147 636 132 601 128 555 _c
_cl}_e}_d
/three{{636 0 76 -13 562 742 _sc
97 698 _m
135 712 171 723 206 731 _c
241 738 274 742 305 742 _c
376 742 432 726 472 696 _c
512 665 532 622 532 568 _c
532 524 518 487 490 458 _c
462 428 423 408 373 398 _c
433 389 479 367 512 332 _c
545 297 562 252 562 197 _c
562 129 539 77 493 41 _c
447 5 382 -13 296 -13 _c
258 -13 220 -9 184 -1 _c
148 6 112 18 76 35 _c
76 177 _l
}_e{131 177 _l
134 129 150 94 178 70 _c
206 46 246 34 298 34 _c
348 34 387 48 416 77 _c
444 106 459 146 459 196 _c
459 253 444 296 414 326 _c
384 355 341 370 284 370 _c
238 370 _l
238 420 _l
262 420 _l
319 420 362 431 390 455 _c
418 479 433 514 433 562 _c
433 604 421 637 398 660 _c
374 682 341 694 297 694 _c
253 694 218 683 194 662 _c
170 641 156 610 152 570 _c
}_e{97 570 _l
97 698 _l
_cl}_e}_d
/four{636 0 31 0 586 742 _sc
349 247 _m
349 635 _l
100 247 _l
349 247 _l
564 0 _m
232 0 _l
232 52 _l
349 52 _l
349 195 _l
31 195 _l
31 248 _l
350 742 _l
447 742 _l
447 247 _l
586 247 _l
586 195 _l
447 195 _l
447 52 _l
564 52 _l
564 0 _l
_cl}_d
/five{{636 0 85 -13 559 729 _sc
503 729 _m
503 649 _l
169 649 _l
169 440 _l
185 452 205 460 228 466 _c
250 472 276 475 304 475 _c
382 475 444 453 490 409 _c
536 365 559 306 559 231 _c
559 153 536 93 490 51 _c
444 8 379 -13 296 -13 _c
262 -13 228 -9 193 -1 _c
157 6 121 18 85 35 _c
85 177 _l
140 177 _l
143 130 158 94 184 70 _c
210 46 248 34 296 34 _c
}_e{347 34 386 51 414 85 _c
442 119 456 167 456 231 _c
456 294 442 342 415 376 _c
387 410 348 427 296 427 _c
266 427 240 421 218 411 _c
196 401 176 385 159 363 _c
117 363 _l
117 729 _l
503 729 _l
_cl}_e}_d
/seven{636 0 84 0 564 729 _sc
564 679 _m
279 0 _l
206 0 _l
478 649 _l
141 649 _l
141 559 _l
84 559 _l
84 729 _l
564 729 _l
564 679 _l
_cl}_d
/eight{{636 0 67 -13 569 742 _sc
466 199 _m
466 251 453 291 427 320 _c
401 349 364 364 318 364 _c
271 364 235 349 209 320 _c
183 291 170 251 170 199 _c
170 147 183 106 209 77 _c
235 48 271 34 318 34 _c
364 34 401 48 427 77 _c
453 106 466 147 466 199 _c
446 553 _m
446 597 434 632 412 657 _c
389 681 358 694 318 694 _c
278 694 246 681 224 657 _c
201 632 190 597 190 553 _c
}_e{190 508 201 473 224 449 _c
246 424 278 412 318 412 _c
358 412 389 424 412 449 _c
434 473 428 453 393 388 _c
448 380 491 360 522 327 _c
553 293 569 251 569 199 _c
569 131 547 78 504 42 _c
460 5 398 -13 318 -13 _c
237 -13 175 5 132 42 _c
88 78 67 131 67 199 _c
67 251 82 293 113 327 _c
144 360 187 380 243 388 _c
193 396 156 415 130 444 _c
}_e{104 472 91 509 91 553 _c
91 611 111 657 151 691 _c
191 725 247 742 318 742 _c
388 742 444 725 484 691 _c
524 657 545 611 545 553 _c
545 509 531 472 505 444 _c
479 415 459 451 446 553 _c
_cl}_e}_d
/nine{{636 0 63 -13 569 742 _sc
468 327 _m
446 302 420 284 392 272 _c
364 260 332 254 297 254 _c
224 254 167 275 125 319 _c
83 363 63 422 63 498 _c
63 572 85 631 131 675 _c
176 719 237 742 313 742 _c
395 742 459 711 503 650 _c
547 588 569 501 569 387 _c
569 259 542 161 490 91 _c
438 21 364 -13 269 -13 _c
243 -13 216 -10 188 -6 _c
160 -2 131 5 101 15 _c
101 136 _l
}_e{156 136 _l
160 103 172 78 194 60 _c
215 42 243 34 279 34 _c
342 34 389 57 420 105 _c
450 153 466 227 468 327 _c
309 694 _m
263 694 227 677 203 643 _c
178 609 166 561 166 498 _c
166 434 178 386 203 352 _c
227 318 263 302 309 302 _c
355 302 390 318 415 351 _c
439 383 452 430 452 492 _c
452 556 439 606 415 641 _c
390 676 355 694 309 694 _c
_cl}_e}_d
/equal{838 0 106 175 732 452 _sc
106 452 _m
732 452 _l
732 374 _l
106 374 _l
106 452 _l
106 253 _m
732 253 _l
732 175 _l
106 175 _l
106 253 _l
_cl}_d
/C{{765 0 56 -13 705 742 _sc
705 193 _m
683 125 647 73 597 39 _c
546 4 482 -13 405 -13 _c
357 -13 312 -5 272 11 _c
231 27 195 50 164 82 _c
127 118 100 160 82 206 _c
64 252 56 305 56 364 _c
56 477 88 568 154 638 _c
219 707 305 742 413 742 _c
453 742 495 736 540 726 _c
584 716 633 700 685 679 _c
685 511 _l
630 511 _l
618 572 593 617 557 646 _c
}_e{521 675 470 690 405 690 _c
327 690 268 662 228 607 _c
188 551 168 470 168 364 _c
168 257 188 176 228 121 _c
268 65 327 38 405 38 _c
459 38 503 51 539 77 _c
574 103 599 141 615 193 _c
705 193 _l
_cl}_e}_d
/F{694 0 55 0 652 729 _sc
55 0 _m
55 52 _l
148 52 _l
148 677 _l
55 677 _l
55 729 _l
652 729 _l
652 567 _l
592 567 _l
592 669 _l
247 669 _l
247 425 _l
496 425 _l
496 516 _l
556 516 _l
556 274 _l
496 274 _l
496 365 _l
247 365 _l
247 52 _l
364 52 _l
364 0 _l
55 0 _l
_cl}_d
/I{395 0 55 0 340 729 _sc
247 52 _m
340 52 _l
340 0 _l
55 0 _l
55 52 _l
148 52 _l
148 677 _l
55 677 _l
55 729 _l
340 729 _l
340 677 _l
247 677 _l
247 52 _l
_cl}_d
/L{664 0 55 0 640 729 _sc
55 0 _m
55 52 _l
148 52 _l
148 677 _l
55 677 _l
55 729 _l
340 729 _l
340 677 _l
247 677 _l
247 60 _l
580 60 _l
580 182 _l
640 182 _l
640 0 _l
55 0 _l
_cl}_d
/P{{673 0 55 0 637 729 _sc
247 371 _m
376 371 _l
424 371 461 384 487 410 _c
512 436 525 474 525 524 _c
525 574 512 612 487 638 _c
461 664 424 677 376 677 _c
247 677 _l
247 371 _l
55 0 _m
55 52 _l
148 52 _l
148 677 _l
55 677 _l
55 729 _l
400 729 _l
472 729 530 710 573 673 _c
615 636 637 586 637 524 _c
637 461 615 411 573 374 _c
530 337 472 319 400 319 _c
247 319 _l
}_e{247 52 _l
360 52 _l
360 0 _l
55 0 _l
_cl}_e}_d
/S{{685 0 84 -13 612 742 _sc
93 35 _m
93 201 _l
149 201 _l
150 145 166 104 197 78 _c
227 51 274 38 336 38 _c
394 38 438 49 468 72 _c
498 95 514 129 514 173 _c
514 208 504 235 486 254 _c
468 272 429 291 370 309 _c
274 338 _l
204 359 154 385 126 417 _c
98 448 84 491 84 547 _c
84 609 106 657 150 691 _c
194 725 255 742 335 742 _c
369 742 406 738 446 731 _c
}_e{486 723 529 713 575 699 _c
575 544 _l
520 544 _l
514 595 497 632 468 655 _c
439 678 395 690 337 690 _c
285 690 246 679 219 658 _c
192 637 179 607 179 567 _c
179 532 189 505 209 485 _c
229 465 272 445 338 426 _c
428 399 _l
494 379 541 353 569 323 _c
597 292 612 251 612 199 _c
612 128 589 75 544 40 _c
498 4 431 -13 342 -13 _c
302 -13 261 -9 219 -1 _c
}_e{177 6 135 18 93 35 _c
_cl}_e}_d
/V{722 0 -9 0 737 729 _sc
175 677 _m
390 117 _l
605 677 _l
523 677 _l
523 729 _l
737 729 _l
737 677 _l
666 677 _l
406 0 _l
322 0 _l
63 677 _l
-9 677 _l
-9 729 _l
256 729 _l
256 677 _l
175 677 _l
_cl}_d
/a{{596 0 50 -13 568 533 _sc
398 163 _m
398 273 _l
282 273 _l
237 273 204 263 182 244 _c
160 224 150 195 150 156 _c
150 120 161 91 183 70 _c
205 48 235 38 273 38 _c
310 38 340 49 363 72 _c
386 95 398 125 398 163 _c
488 324 _m
488 52 _l
568 52 _l
568 0 _l
398 0 _l
398 56 _l
378 32 355 14 329 3 _c
303 -7 272 -13 238 -13 _c
180 -13 134 2 100 32 _c
}_e{66 62 50 104 50 156 _c
50 209 69 250 108 280 _c
146 310 201 325 272 325 _c
398 325 _l
398 361 _l
398 400 386 430 362 452 _c
338 474 304 485 261 485 _c
225 485 197 476 176 460 _c
154 444 141 420 136 388 _c
90 388 _l
90 493 _l
121 506 151 516 181 523 _c
210 529 239 533 267 533 _c
339 533 393 515 431 479 _c
469 443 488 392 488 324 _c
_cl}_e}_d
/e{{592 0 50 -13 542 533 _sc
542 250 _m
155 250 _l
155 246 _l
155 176 168 123 194 87 _c
220 51 259 34 311 34 _c
350 34 382 44 408 65 _c
433 85 451 116 461 157 _c
533 157 _l
519 100 492 57 454 29 _c
415 1 364 -13 302 -13 _c
226 -13 165 11 119 61 _c
73 111 50 177 50 260 _c
50 342 72 408 118 458 _c
163 508 222 533 296 533 _c
374 533 435 508 477 460 _c
}_e{519 412 540 342 542 250 _c
436 302 _m
434 362 421 408 397 439 _c
373 469 340 485 296 485 _c
254 485 222 469 198 438 _c
174 407 160 362 155 302 _c
436 302 _l
_cl}_e}_d
/g{{640 0 50 -221 611 533 _sc
525 467 _m
525 11 _l
525 -63 504 -120 463 -160 _c
422 -200 364 -221 288 -221 _c
254 -221 221 -218 190 -212 _c
158 -206 128 -196 100 -184 _c
100 -75 _l
147 -75 _l
153 -109 166 -133 188 -149 _c
210 -165 241 -173 282 -173 _c
334 -173 373 -158 398 -128 _c
422 -98 435 -51 435 11 _c
435 81 _l
417 48 395 24 368 9 _c
340 -5 307 -13 267 -13 _c
203 -13 150 12 110 62 _c
}_e{70 112 50 178 50 260 _c
50 341 70 407 110 457 _c
150 507 203 533 267 533 _c
307 533 340 525 368 510 _c
395 494 417 470 435 438 _c
435 519 _l
611 519 _l
611 467 _l
525 467 _l
435 285 _m
435 347 423 394 399 427 _c
375 460 340 477 295 477 _c
249 477 214 458 190 422 _c
166 386 155 332 155 260 _c
155 188 166 133 190 97 _c
214 60 249 42 295 42 _c
}_e{340 42 375 58 399 91 _c
423 123 435 171 435 234 _c
435 285 _l
_cl}_e}_d
/i{320 0 36 0 297 736 _sc
97 680 _m
97 695 102 708 113 719 _c
124 730 137 736 153 736 _c
167 736 180 730 191 719 _c
202 708 208 695 208 680 _c
208 664 202 651 192 641 _c
181 630 168 625 153 625 _c
137 625 124 630 113 641 _c
102 651 97 664 97 680 _c
212 52 _m
297 52 _l
297 0 _l
36 0 _l
36 52 _l
122 52 _l
122 467 _l
36 467 _l
36 519 _l
212 519 _l
212 52 _l
_cl}_d
/k{{606 0 29 0 613 760 _sc
286 0 _m
34 0 _l
34 52 _l
115 52 _l
115 708 _l
29 708 _l
29 760 _l
205 760 _l
205 265 _l
424 467 _l
349 467 _l
349 519 _l
584 519 _l
584 467 _l
495 467 _l
341 324 _l
538 52 _l
613 52 _l
613 0 _l
357 0 _l
357 52 _l
431 52 _l
276 265 _l
205 199 _l
205 52 _l
286 52 _l
286 0 _l
_cl}_e}_d
/l{320 0 29 0 290 760 _sc
205 52 _m
290 52 _l
290 0 _l
29 0 _l
29 52 _l
115 52 _l
115 708 _l
29 708 _l
29 760 _l
205 760 _l
205 52 _l
_cl}_d
/n{{644 0 36 0 616 533 _sc
41 0 _m
41 52 _l
122 52 _l
122 467 _l
36 467 _l
36 519 _l
212 519 _l
212 427 _l
228 461 250 488 276 506 _c
302 524 333 533 369 533 _c
426 533 468 516 495 484 _c
522 451 536 400 536 330 _c
536 52 _l
616 52 _l
616 0 _l
368 0 _l
368 52 _l
446 52 _l
446 302 _l
446 365 438 408 422 432 _c
406 456 379 468 340 468 _c
}_e{298 468 266 452 244 422 _c
222 391 212 347 212 289 _c
212 52 _l
290 52 _l
290 0 _l
41 0 _l
_cl}_e}_d
/o{602 0 50 -13 552 533 _sc
301 34 _m
349 34 385 53 410 91 _c
434 129 447 185 447 260 _c
447 334 434 390 410 428 _c
385 466 349 485 301 485 _c
253 485 216 466 192 428 _c
167 390 155 334 155 260 _c
155 185 167 129 192 91 _c
216 53 253 34 301 34 _c
301 -13 _m
225 -13 165 11 119 61 _c
73 111 50 177 50 260 _c
50 342 72 408 118 458 _c
164 508 225 533 301 533 _c
377 533 437 508 483 458 _c
529 408 552 342 552 260 _c
552 177 529 111 483 61 _c
437 11 377 -13 301 -13 _c
_cl}_d
/p{{640 0 29 -207 590 533 _sc
205 285 _m
205 234 _l
205 171 217 123 241 91 _c
265 58 299 42 345 42 _c
391 42 425 60 449 97 _c
473 133 485 188 485 260 _c
485 332 473 386 449 422 _c
425 458 391 477 345 477 _c
299 477 265 460 241 427 _c
217 394 205 347 205 285 _c
115 467 _m
29 467 _l
29 519 _l
205 519 _l
205 438 _l
222 470 244 494 272 510 _c
299 525 333 533 373 533 _c
}_e{437 533 489 507 529 457 _c
569 407 590 341 590 260 _c
590 178 569 112 529 62 _c
489 12 437 -13 373 -13 _c
333 -13 299 -5 272 9 _c
244 24 222 48 205 81 _c
205 -155 _l
290 -155 _l
290 -207 _l
29 -207 _l
29 -155 _l
115 -155 _l
115 467 _l
_cl}_e}_d
/r{478 0 36 0 478 533 _sc
478 520 _m
478 390 _l
426 390 _l
424 416 417 435 405 448 _c
392 460 373 467 349 467 _c
305 467 271 451 247 421 _c
223 390 212 346 212 289 _c
212 52 _l
316 52 _l
316 0 _l
41 0 _l
41 52 _l
122 52 _l
122 468 _l
36 468 _l
36 519 _l
212 519 _l
212 427 _l
229 463 251 489 279 507 _c
307 524 341 533 381 533 _c
395 533 411 531 427 529 _c
443 527 460 524 478 520 _c
_cl}_d
/s{{513 0 56 -13 462 533 _sc
56 29 _m
56 150 _l
108 150 _l
109 111 121 82 144 63 _c
167 43 201 34 246 34 _c
286 34 317 41 338 57 _c
359 72 370 94 370 123 _c
370 145 362 164 347 178 _c
331 192 299 207 249 223 _c
184 245 _l
139 259 107 277 87 299 _c
67 320 57 347 57 381 _c
57 428 74 465 109 492 _c
144 519 192 533 254 533 _c
281 533 310 529 340 522 _c
}_e{370 515 402 505 434 491 _c
434 378 _l
382 378 _l
380 411 369 437 347 456 _c
325 475 295 485 257 485 _c
219 485 190 478 171 465 _c
151 451 142 431 142 405 _c
142 383 149 365 164 352 _c
178 339 208 326 252 312 _c
323 290 _l
372 274 407 255 429 232 _c
451 209 462 180 462 144 _c
462 94 443 56 405 28 _c
367 0 316 -13 250 -13 _c
216 -13 184 -9 152 -3 _c
}_e{120 3 88 14 56 29 _c
_cl}_e}_d
/t{402 0 29 -13 394 680 _sc
108 467 _m
29 467 _l
29 519 _l
108 519 _l
108 680 _l
198 680 _l
198 519 _l
367 519 _l
367 467 _l
198 467 _l
198 137 _l
198 93 202 64 211 52 _c
219 40 235 34 258 34 _c
281 34 298 41 309 55 _c
319 69 325 91 326 122 _c
394 122 _l
391 74 378 40 355 19 _c
332 -2 297 -13 250 -13 _c
198 -13 161 -1 140 21 _c
118 43 108 82 108 137 _c
108 467 _l
_cl}_d
/u{{644 0 27 -13 607 519 _sc
354 519 _m
522 519 _l
522 52 _l
607 52 _l
607 0 _l
432 0 _l
432 92 _l
415 57 393 31 367 13 _c
341 -4 310 -13 276 -13 _c
218 -13 175 3 148 35 _c
121 67 108 119 108 189 _c
108 467 _l
27 467 _l
27 519 _l
198 519 _l
198 217 _l
198 153 205 110 221 87 _c
237 63 264 52 304 52 _c
346 52 377 67 399 98 _c
421 128 432 173 432 231 _c
}_e{432 467 _l
354 467 _l
354 519 _l
_cl}_e}_d
/x{{564 0 12 0 552 519 _sc
291 317 _m
400 467 _l
330 467 _l
330 519 _l
530 519 _l
530 467 _l
461 467 _l
322 275 _l
484 52 _l
552 52 _l
552 0 _l
312 0 _l
312 52 _l
378 52 _l
265 207 _l
152 52 _l
219 52 _l
219 0 _l
22 0 _l
22 52 _l
91 52 _l
234 249 _l
76 467 _l
12 467 _l
12 519 _l
244 519 _l
244 467 _l
182 467 _l
291 317 _l
_cl}_e}_d
/minus{838 0 106 274 732 353 _sc
106 353 _m
732 353 _l
732 274 _l
106 274 _l
106 353 _l
_cl}_d
end readonly def

/BuildGlyph
 {exch begin
 CharStrings exch
 2 copy known not{pop /.notdef}if
 true 3 1 roll get exec
 end}_d

/BuildChar {
 1 index /Encoding get exch get
 1 index /BuildGlyph get exec
}_d

FontName currentdict end definefont pop
end
%%EndProlog
mpldict begin
18 252 translate
576 288 0 0 clipbox
gsave
0 0 m
576 0 l
576 288 l
0 288 l
cl
1.000 setgray
fill
grestore
gsave
76.1214 32.5136 m
567.512 32.5136 l
567.512 282.402 l
76.1214 282.402 l
cl
1.000 setgray
fill
grestore
3.000 setlinewidth
1 setlinejoin
2 setlinecap
[] 0 setdash
0.118 0.565 1.000 setrgbcolor
gsave
491.4 249.9 76.12 32.51 clipbox
76.1214 62.8251 m
82.7552 65.1834 l
89.4136 67.7867 l
96.1088 70.6439 l
102.865 73.7704 l
112.89 78.7034 l
120.875 82.5366 l
125.543 84.5305 l
130.58 86.4116 l
137.742 89.1079 l
142.066 91.0171 l
157.545 98.0769 l
161.046 99.2981 l
164.216 100.17 l
168.085 100.987 l
178.748 103.111 l
181.439 103.96 l
183.785 104.932 l
185.935 106.062 l
187.987 107.394 l
190.05 109.002 l
192.163 110.935 l
194.325 113.218 l
196.537 115.882 l
198.809 118.973 l
201.303 122.76 l
205.247 129.216 l
209.595 136.216 l
212.052 139.753 l
214.301 142.597 l
216.549 145.088 l
218.809 147.264 l
221.106 149.17 l
223.465 150.839 l
226.254 152.519 l
230.627 155.155 l
232.666 156.67 l
234.423 158.251 l
236.057 160.023 l
237.691 162.133 l
239.398 164.71 l
241.192 167.827 l
243.071 171.548 l
245.049 175.97 l
247.113 181.142 l
249.288 187.207 l
251.757 194.784 l
254.754 204.734 l
258.992 219.654 l
265.417 242.246 l
267.985 250.403 l
270.061 256.293 l
271.83 260.674 l
273.378 263.938 l
274.803 266.438 l
276.13 268.332 l
277.358 269.715 l
278.513 270.692 l
279.594 271.325 l
280.626 271.675 l
281.621 271.779 l
282.604 271.659 l
283.599 271.312 l
284.631 270.713 l
285.724 269.816 l
286.928 268.532 l
288.279 266.754 l
289.803 264.367 l
291.547 261.203 l
293.599 257 l
296.166 251.201 l
299.925 242.102 l
305.122 228.904 l
321.878 185.961 l
328.057 170.737 l
331.952 161.72 l
335.158 154.838 l
338.057 149.132 l
340.76 144.29 l
343.291 140.202 l
345.662 136.783 l
347.91 133.924 l
350.293 131.256 l
352.946 128.625 l
356.251 125.678 l
364.408 118.834 l
370.194 114.205 l
374.494 111.042 l
378.106 108.654 l
381.3 106.803 l
384.211 105.367 l
387.798 103.872 l
393.928 101.332 l
396.606 99.9522 l
399.407 98.2446 l
402.749 95.9348 l
407.442 92.3933 l
415.304 86.4553 l
418.731 84.1661 l
421.594 82.5153 l
424.37 81.171 l
427.159 80.0655 l
429.972 79.1878 l
432.834 78.5279 l
435.905 78.0547 l
439.591 77.7218 l
445.598 77.4419 l
450.401 77.1275 l
453.448 76.7058 l
456.028 76.1271 l
458.399 75.367 l
461.249 74.2032 l
467.182 71.457 l
470.512 70.0816 l
473.313 69.1667 l
475.954 68.5348 l
478.46 68.1613 l
480.855 68.0265 l
483.239 68.1167 l
486.334 68.4754 l
493.128 69.3262 l
495.585 69.3591 l
498.189 69.1661 l
501.076 68.7243 l
504.442 67.9759 l
509.135 66.6791 l
513.729 65.4821 l
516.469 64.9978 l
518.754 64.8147 l
520.965 64.8654 l
523.336 65.145 l
525.953 65.6824 l
528.938 66.5297 l
532.66 67.8314 l
541.407 70.98 l
544.245 71.7085 l
546.984 72.1788 l
549.761 72.4294 l
552.586 72.4614 l
555.485 72.2711 l
558.471 71.8511 l
561.566 71.1886 l
564.785 70.2697 l
567.512 69.3189 l
567.512 69.3189 l
stroke
grestore
0.500 setlinewidth
0 setlinecap
0.000 setgray
gsave
491.4 249.9 76.12 32.51 clipbox
/o {
gsave
newpath
translate
0.5 setlinewidth
1 setlinejoin
0 setlinecap
0 -3.5 m
0.928211 -3.5 1.81853 -3.13122 2.47487 -2.47487 c
3.13122 -1.81853 3.5 -0.928211 3.5 0 c
3.5 0.928211 3.13122 1.81853 2.47487 2.47487 c
1.81853 3.13122 0.928211 3.5 0 3.5 c
-0.928211 3.5 -1.81853 3.13122 -2.47487 2.47487 c
-3.13122 1.81853 -3.5 0.928211 -3.5 0 c
-3.5 -0.928211 -3.13122 -1.81853 -2.47487 -2.47487 c
-1.81853 -3.13122 -0.928211 -3.5 0 -3.5 c
cl
gsave
1.000 0.000 0.000 setrgbcolor
fill
grestore
stroke
grestore
} bind def
76.1214 62.8251 o
88.4062 67.3776 o
100.691 72.7381 o
112.976 78.746 o
125.261 84.4177 o
137.545 89.0269 o
149.83 94.7199 o
162.115 99.6179 o
174.4 102.131 o
186.684 106.518 o
198.969 119.204 o
211.254 138.652 o
223.539 150.887 o
235.823 159.749 o
248.108 183.84 o
260.393 224.675 o
272.678 262.531 o
284.962 270.469 o
297.247 248.638 o
309.532 217.476 o
321.817 186.115 o
334.102 157.043 o
346.386 135.821 o
358.671 123.631 o
370.956 113.624 o
383.241 105.817 o
395.525 100.541 o
407.81 92.1082 o
420.095 83.346 o
432.38 78.6175 o
444.664 77.4801 o
456.949 75.8591 o
469.234 70.5761 o
481.519 68.0296 o
493.804 69.3577 o
506.088 67.5425 o
518.373 64.8286 o
530.658 67.1051 o
542.943 71.4044 o
555.227 72.2969 o
567.512 69.3189 o
grestore
1.500 setlinewidth
[6 6] 0 setdash
0.196 0.804 0.196 setrgbcolor
gsave
491.4 249.9 76.12 32.51 clipbox
281.584 32.5136 m
281.584 282.402 l
stroke
grestore
1.000 setlinewidth
[] 0 setdash
0.000 setgray
gsave
/o {
gsave
newpath
translate
1.0 setlinewidth
1 setlinejoin
0 setlinecap
0 0 m
0 5 l
gsave
0.000 setgray
fill
grestore
stroke
grestore
} bind def
76.1214 32.5136 o
grestore
gsave
/o {
gsave
newpath
translate
1.0 setlinewidth
1 setlinejoin
0 setlinecap
0 0 m
0 -5 l
gsave
0.000 setgray
fill
grestore
stroke
grestore
} bind def
76.1214 282.402 o
grestore
/BitstreamVeraSerif-Roman findfont
11.000 scalefont
setfont
gsave
65.465188 20.185500 translate
0.000000 rotate
0.000000 0.156250 m /minus glyphshow
9.216797 0.156250 m /two glyphshow
16.215332 0.156250 m /zero glyphshow
grestore
gsave
/o {
gsave
newpath
translate
1.0 setlinewidth
1 setlinejoin
0 setlinecap
0 0 m
0 5 l
gsave
0.000 setgray
fill
grestore
stroke
grestore
} bind def
137.545 32.5136 o
grestore
gsave
/o {
gsave
newpath
translate
1.0 setlinewidth
1 setlinejoin
0 setlinecap
0 0 m
0 -5 l
gsave
0.000 setgray
fill
grestore
stroke
grestore
} bind def
137.545 282.402 o
grestore
gsave
126.943715 20.185500 translate
0.000000 rotate
0.000000 0.156250 m /minus glyphshow
9.216797 0.156250 m /one glyphshow
16.215332 0.156250 m /five glyphshow
grestore
gsave
/o {
gsave
newpath
translate
1.0 setlinewidth
1 setlinejoin
0 setlinecap
0 0 m
0 5 l
gsave
0.000 setgray
fill
grestore
stroke
grestore
} bind def
198.969 32.5136 o
grestore
gsave
/o {
gsave
newpath
translate
1.0 setlinewidth
1 setlinejoin
0 setlinecap
0 0 m
0 -5 l
gsave
0.000 setgray
fill
grestore
stroke
grestore
} bind def
198.969 282.402 o
grestore
gsave
188.312867 20.185500 translate
0.000000 rotate
0.000000 0.156250 m /minus glyphshow
9.216797 0.156250 m /one glyphshow
16.215332 0.156250 m /zero glyphshow
grestore
gsave
/o {
gsave
newpath
translate
1.0 setlinewidth
1 setlinejoin
0 setlinecap
0 0 m
0 5 l
gsave
0.000 setgray
fill
grestore
stroke
grestore
} bind def
260.393 32.5136 o
grestore
gsave
/o {
gsave
newpath
translate
1.0 setlinewidth
1 setlinejoin
0 setlinecap
0 0 m
0 -5 l
gsave
0.000 setgray
fill
grestore
stroke
grestore
} bind def
260.393 282.402 o
grestore
gsave
253.291395 20.341750 translate
0.000000 rotate
0.000000 0.156250 m /minus glyphshow
9.216797 0.156250 m /five glyphshow
grestore
gsave
/o {
gsave
newpath
translate
1.0 setlinewidth
1 setlinejoin
0 setlinecap
0 0 m
0 5 l
gsave
0.000 setgray
fill
grestore
stroke
grestore
} bind def
321.817 32.5136 o
grestore
gsave
/o {
gsave
newpath
translate
1.0 setlinewidth
1 setlinejoin
0 setlinecap
0 0 m
0 -5 l
gsave
0.000 setgray
fill
grestore
stroke
grestore
} bind def
321.817 282.402 o
grestore
gsave
319.043359 20.185500 translate
0.000000 rotate
0.000000 0.156250 m /zero glyphshow
grestore
gsave
/o {
gsave
newpath
translate
1.0 setlinewidth
1 setlinejoin
0 setlinecap
0 0 m
0 5 l
gsave
0.000 setgray
fill
grestore
stroke
grestore
} bind def
383.241 32.5136 o
grestore
gsave
/o {
gsave
newpath
translate
1.0 setlinewidth
1 setlinejoin
0 setlinecap
0 0 m
0 -5 l
gsave
0.000 setgray
fill
grestore
stroke
grestore
} bind def
383.241 282.402 o
grestore
gsave
380.631262 20.341750 translate
0.000000 rotate
0.000000 0.156250 m /five glyphshow
grestore
gsave
/o {
gsave
newpath
translate
1.0 setlinewidth
1 setlinejoin
0 setlinecap
0 0 m
0 5 l
gsave
0.000 setgray
fill
grestore
stroke
grestore
} bind def
444.664 32.5136 o
grestore
gsave
/o {
gsave
newpath
translate
1.0 setlinewidth
1 setlinejoin
0 setlinecap
0 0 m
0 -5 l
gsave
0.000 setgray
fill
grestore
stroke
grestore
} bind def
444.664 282.402 o
grestore
gsave
438.703539 20.185500 translate
0.000000 rotate
0.000000 0.156250 m /one glyphshow
6.998535 0.156250 m /zero glyphshow
grestore
gsave
/o {
gsave
newpath
translate
1.0 setlinewidth
1 setlinejoin
0 setlinecap
0 0 m
0 5 l
gsave
0.000 setgray
fill
grestore
stroke
grestore
} bind def
506.088 32.5136 o
grestore
gsave
/o {
gsave
newpath
translate
1.0 setlinewidth
1 setlinejoin
0 setlinecap
0 0 m
0 -5 l
gsave
0.000 setgray
fill
grestore
stroke
grestore
} bind def
506.088 282.402 o
grestore
gsave
500.182066 20.185500 translate
0.000000 rotate
0.000000 0.156250 m /one glyphshow
6.998535 0.156250 m /five glyphshow
grestore
gsave
/o {
gsave
newpath
translate
1.0 setlinewidth
1 setlinejoin
0 setlinecap
0 0 m
0 5 l
gsave
0.000 setgray
fill
grestore
stroke
grestore
} bind def
567.512 32.5136 o
grestore
gsave
/o {
gsave
newpath
translate
1.0 setlinewidth
1 setlinejoin
0 setlinecap
0 0 m
0 -5 l
gsave
0.000 setgray
fill
grestore
stroke
grestore
} bind def
567.512 282.402 o
grestore
gsave
561.254344 20.185500 translate
0.000000 rotate
0.000000 0.156250 m /two glyphshow
6.998535 0.156250 m /zero glyphshow
grestore
gsave
289.348047 4.388625 translate
0.000000 rotate
0.000000 2.437500 m /L glyphshow
7.304688 2.437500 m /a glyphshow
13.862793 2.437500 m /g glyphshow
20.904297 2.437500 m /space glyphshow
24.400879 2.437500 m /parenleft glyphshow
28.692383 2.437500 m /P glyphshow
36.093750 2.437500 m /i glyphshow
39.611816 2.437500 m /x glyphshow
45.815430 2.437500 m /e glyphshow
52.325195 2.437500 m /l glyphshow
55.843262 2.437500 m /s glyphshow
61.488281 2.437500 m /parenright glyphshow
grestore
gsave
/o {
gsave
newpath
translate
1.0 setlinewidth
1 setlinejoin
0 setlinecap
0 0 m
5 0 l
gsave
0.000 setgray
fill
grestore
stroke
grestore
} bind def
76.1214 32.5136 o
grestore
gsave
/o {
gsave
newpath
translate
1.0 setlinewidth
1 setlinejoin
0 setlinecap
0 0 m
-5 0 l
gsave
0.000 setgray
fill
grestore
stroke
grestore
} bind def
567.512 32.5136 o
grestore
gsave
28.183938 28.349563 translate
0.000000 rotate
0.000000 0.156250 m /zero glyphshow
6.998535 0.156250 m /period glyphshow
10.495117 0.156250 m /nine glyphshow
17.493652 0.156250 m /eight glyphshow
24.492188 0.156250 m /four glyphshow
31.490723 0.156250 m /eight glyphshow
38.489258 0.156250 m /five glyphshow
grestore
gsave
/o {
gsave
newpath
translate
1.0 setlinewidth
1 setlinejoin
0 setlinecap
0 0 m
5 0 l
gsave
0.000 setgray
fill
grestore
stroke
grestore
} bind def
76.1214 82.4913 o
grestore
gsave
/o {
gsave
newpath
translate
1.0 setlinewidth
1 setlinejoin
0 setlinecap
0 0 m
-5 0 l
gsave
0.000 setgray
fill
grestore
stroke
grestore
} bind def
567.512 82.4913 o
grestore
gsave
28.074563 78.327238 translate
0.000000 rotate
0.000000 0.156250 m /zero glyphshow
6.998535 0.156250 m /period glyphshow
10.495117 0.156250 m /nine glyphshow
17.493652 0.156250 m /eight glyphshow
24.492188 0.156250 m /four glyphshow
31.490723 0.156250 m /nine glyphshow
38.489258 0.156250 m /zero glyphshow
grestore
gsave
/o {
gsave
newpath
translate
1.0 setlinewidth
1 setlinejoin
0 setlinecap
0 0 m
5 0 l
gsave
0.000 setgray
fill
grestore
stroke
grestore
} bind def
76.1214 132.469 o
grestore
gsave
/o {
gsave
newpath
translate
1.0 setlinewidth
1 setlinejoin
0 setlinecap
0 0 m
-5 0 l
gsave
0.000 setgray
fill
grestore
stroke
grestore
} bind def
567.512 132.469 o
grestore
gsave
28.183938 128.304913 translate
0.000000 rotate
0.000000 0.156250 m /zero glyphshow
6.998535 0.156250 m /period glyphshow
10.495117 0.156250 m /nine glyphshow
17.493652 0.156250 m /eight glyphshow
24.492188 0.156250 m /four glyphshow
31.490723 0.156250 m /nine glyphshow
38.489258 0.156250 m /five glyphshow
grestore
gsave
/o {
gsave
newpath
translate
1.0 setlinewidth
1 setlinejoin
0 setlinecap
0 0 m
5 0 l
gsave
0.000 setgray
fill
grestore
stroke
grestore
} bind def
76.1214 182.447 o
grestore
gsave
/o {
gsave
newpath
translate
1.0 setlinewidth
1 setlinejoin
0 setlinecap
0 0 m
-5 0 l
gsave
0.000 setgray
fill
grestore
stroke
grestore
} bind def
567.512 182.447 o
grestore
gsave
28.074563 178.282587 translate
0.000000 rotate
0.000000 0.156250 m /zero glyphshow
6.998535 0.156250 m /period glyphshow
10.495117 0.156250 m /nine glyphshow
17.493652 0.156250 m /eight glyphshow
24.492188 0.156250 m /five glyphshow
31.490723 0.156250 m /zero glyphshow
38.489258 0.156250 m /zero glyphshow
grestore
gsave
/o {
gsave
newpath
translate
1.0 setlinewidth
1 setlinejoin
0 setlinecap
0 0 m
5 0 l
gsave
0.000 setgray
fill
grestore
stroke
grestore
} bind def
76.1214 232.424 o
grestore
gsave
/o {
gsave
newpath
translate
1.0 setlinewidth
1 setlinejoin
0 setlinecap
0 0 m
-5 0 l
gsave
0.000 setgray
fill
grestore
stroke
grestore
} bind def
567.512 232.424 o
grestore
gsave
28.183938 228.260263 translate
0.000000 rotate
0.000000 0.156250 m /zero glyphshow
6.998535 0.156250 m /period glyphshow
10.495117 0.156250 m /nine glyphshow
17.493652 0.156250 m /eight glyphshow
24.492188 0.156250 m /five glyphshow
31.490723 0.156250 m /zero glyphshow
38.489258 0.156250 m /five glyphshow
grestore
gsave
/o {
gsave
newpath
translate
1.0 setlinewidth
1 setlinejoin
0 setlinecap
0 0 m
5 0 l
gsave
0.000 setgray
fill
grestore
stroke
grestore
} bind def
76.1214 282.402 o
grestore
gsave
/o {
gsave
newpath
translate
1.0 setlinewidth
1 setlinejoin
0 setlinecap
0 0 m
-5 0 l
gsave
0.000 setgray
fill
grestore
stroke
grestore
} bind def
567.512 282.402 o
grestore
gsave
28.074563 278.237937 translate
0.000000 rotate
0.000000 0.156250 m /zero glyphshow
6.998535 0.156250 m /period glyphshow
10.495117 0.156250 m /nine glyphshow
17.493652 0.156250 m /eight glyphshow
24.492188 0.156250 m /five glyphshow
31.490723 0.156250 m /one glyphshow
38.489258 0.156250 m /zero glyphshow
grestore
gsave
23.074563 126.450000 translate
90.000000 rotate
0.000000 1.015625 m /C glyphshow
8.416504 1.015625 m /C glyphshow
16.833008 1.015625 m /F glyphshow
24.465332 1.015625 m /space glyphshow
27.961914 1.015625 m /slash glyphshow
31.667969 1.015625 m /space glyphshow
35.164551 1.015625 m /P glyphshow
42.565918 1.015625 m /i glyphshow
46.083984 1.015625 m /x glyphshow
52.287598 1.015625 m /e glyphshow
58.797363 1.015625 m /l glyphshow
grestore
2 setlinecap
gsave
76.1214 282.402 m
567.512 282.402 l
stroke
grestore
gsave
567.512 32.5136 m
567.512 282.402 l
stroke
grestore
gsave
76.1214 32.5136 m
567.512 32.5136 l
stroke
grestore
gsave
76.1214 32.5136 m
76.1214 282.402 l
stroke
grestore
gsave
382.54 217.283 m
561.012 217.283 l
561.012 275.902 l
382.54 275.902 l
382.54 217.283 l
cl
gsave
1.000 setgray
fill
grestore
stroke
grestore
3.000 setlinewidth
0.118 0.565 1.000 setrgbcolor
gsave
391.64 265.377 m
409.84 265.377 l
stroke
grestore
0.000 setgray
/BitstreamVeraSerif-Roman findfont
13.000 scalefont
setfont
gsave
424.140281 258.123875 translate
0.000000 rotate
0.000000 2.703125 m /S glyphshow
8.905762 2.703125 m /p glyphshow
17.227539 2.703125 m /l glyphshow
21.385254 2.703125 m /i glyphshow
25.542969 2.703125 m /n glyphshow
33.915527 2.703125 m /e glyphshow
41.608887 2.703125 m /space glyphshow
45.741211 2.703125 m /I glyphshow
50.876465 2.703125 m /n glyphshow
59.249023 2.703125 m /t glyphshow
64.473145 2.703125 m /e glyphshow
72.166504 2.703125 m /r glyphshow
78.380859 2.703125 m /p glyphshow
86.702637 2.703125 m /o glyphshow
94.529297 2.703125 m /l glyphshow
98.687012 2.703125 m /a glyphshow
106.437500 2.703125 m /t glyphshow
111.661621 2.703125 m /i glyphshow
115.819336 2.703125 m /o glyphshow
123.645996 2.703125 m /n glyphshow
grestore
0.500 setlinewidth
0 setlinecap
gsave
/o {
gsave
newpath
translate
0.5 setlinewidth
1 setlinejoin
0 setlinecap
0 -3.5 m
0.928211 -3.5 1.81853 -3.13122 2.47487 -2.47487 c
3.13122 -1.81853 3.5 -0.928211 3.5 0 c
3.5 0.928211 3.13122 1.81853 2.47487 2.47487 c
1.81853 3.13122 0.928211 3.5 0 3.5 c
-0.928211 3.5 -1.81853 3.13122 -2.47487 2.47487 c
-3.13122 1.81853 -3.5 0.928211 -3.5 0 c
-3.5 -0.928211 -3.13122 -1.81853 -2.47487 -2.47487 c
-1.81853 -3.13122 -0.928211 -3.5 0 -3.5 c
cl
gsave
1.000 0.000 0.000 setrgbcolor
fill
grestore
stroke
grestore
} bind def
391.64 246.299 o
409.84 246.299 o
grestore
gsave
424.140281 241.561375 translate
0.000000 rotate
0.000000 0.187500 m /C glyphshow
9.946777 0.187500 m /o glyphshow
17.773438 0.187500 m /r glyphshow
23.987793 0.187500 m /r glyphshow
30.202148 0.187500 m /e glyphshow
37.895508 0.187500 m /l glyphshow
42.053223 0.187500 m /a glyphshow
49.803711 0.187500 m /t glyphshow
55.027832 0.187500 m /i glyphshow
59.185547 0.187500 m /o glyphshow
67.012207 0.187500 m /n glyphshow
75.384766 0.187500 m /space glyphshow
79.517090 0.187500 m /V glyphshow
87.655273 0.187500 m /a glyphshow
95.405762 0.187500 m /l glyphshow
99.563477 0.187500 m /u glyphshow
107.936035 0.187500 m /e glyphshow
115.629395 0.187500 m /s glyphshow
grestore
1.500 setlinewidth
[6 6] 0 setdash
0.196 0.804 0.196 setrgbcolor
gsave
391.64 227.221 m
409.84 227.221 l
stroke
grestore
0.000 setgray
gsave
424.140281 222.483250 translate
0.000000 rotate
0.000000 0.187500 m /P glyphshow
8.122070 0.187500 m /e glyphshow
15.815430 0.187500 m /a glyphshow
23.565918 0.187500 m /k glyphshow
31.443359 0.187500 m /space glyphshow
35.575684 0.187500 m /equal glyphshow
46.468262 0.187500 m /space glyphshow
50.600586 0.187500 m /hyphen glyphshow
54.993164 0.187500 m /three glyphshow
63.264160 0.187500 m /period glyphshow
67.396484 0.187500 m /two glyphshow
75.667480 0.187500 m /seven glyphshow
83.938477 0.187500 m /five glyphshow
grestore

end
showpage
