%!PS-Adobe-3.0 EPSF-3.0
%%Title: /home/hettin12/webplots/05-27-15_thesis_figures/fibers/2960-54561-375_lines.eps
%%Creator: matplotlib version 1.2.x, http://matplotlib.sourceforge.net/
%%CreationDate: Wed Jul  1 13:16:55 2015
%%Orientation: portrait
%%BoundingBox: -54 -36 666 828
%%EndComments
%%BeginProlog
/mpldict 9 dict def
mpldict begin
/m { moveto } bind def
/l { lineto } bind def
/r { rlineto } bind def
/c { curveto } bind def
/cl { closepath } bind def
/box {
m
1 index 0 r
0 exch r
neg 0 r
cl
} bind def
/clipbox {
box
clip
newpath
} bind def
%!PS-Adobe-3.0 Resource-Font
%%Title: Bitstream Vera Sans
%%Copyright: Copyright (c) 2003 by Bitstream, Inc. All Rights Reserved.
%%Creator: Converted from TrueType to type 3 by PPR
25 dict begin
/_d{bind def}bind def
/_m{moveto}_d
/_l{lineto}_d
/_cl{closepath eofill}_d
/_c{curveto}_d
/_sc{7 -1 roll{setcachedevice}{pop pop pop pop pop pop}ifelse}_d
/_e{exec}_d
/FontName /BitstreamVeraSans-Roman def
/PaintType 0 def
/FontMatrix[.001 0 0 .001 0 0]def
/FontBBox[-183 -236 1287 928]def
/FontType 3 def
/Encoding [ /space /parenleft /parenright /slash /zero /two /four /six /eight /C /F /H /K /N /V /a /c /d /e /i /k /l /m /o /r /s /t /u /x /y /z /minus ] def
/FontInfo 10 dict dup begin
/FamilyName (Bitstream Vera Sans) def
/FullName (Bitstream Vera Sans) def
/Notice (Copyright (c) 2003 by Bitstream, Inc. All Rights Reserved. Bitstream Vera is a trademark of Bitstream, Inc.) def
/Weight (Roman) def
/Version (Release 1.10) def
/ItalicAngle 0.0 def
/isFixedPitch false def
/UnderlinePosition -213 def
/UnderlineThickness 143 def
end readonly def
/CharStrings 32 dict dup begin
/space{318 0 0 0 0 0 _sc
}_d
/parenleft{390 0 86 -131 310 759 _sc
310 759 _m
266 683 234 609 213 536 _c
191 463 181 389 181 314 _c
181 238 191 164 213 91 _c
234 17 266 -56 310 -131 _c
232 -131 _l
183 -54 146 20 122 94 _c
98 168 86 241 86 314 _c
86 386 98 459 122 533 _c
146 607 182 682 232 759 _c
310 759 _l
_cl}_d
/parenright{390 0 80 -131 304 759 _sc
80 759 _m
158 759 _l
206 682 243 607 267 533 _c
291 459 304 386 304 314 _c
304 241 291 168 267 94 _c
243 20 206 -54 158 -131 _c
80 -131 _l
123 -56 155 17 177 91 _c
198 164 209 238 209 314 _c
209 389 198 463 177 536 _c
155 609 123 683 80 759 _c
_cl}_d
/slash{337 0 0 -92 337 729 _sc
254 729 _m
337 729 _l
83 -92 _l
0 -92 _l
254 729 _l
_cl}_d
/zero{636 0 66 -13 570 742 _sc
318 664 _m
267 664 229 639 203 589 _c
177 539 165 464 165 364 _c
165 264 177 189 203 139 _c
229 89 267 64 318 64 _c
369 64 407 89 433 139 _c
458 189 471 264 471 364 _c
471 464 458 539 433 589 _c
407 639 369 664 318 664 _c
318 742 _m
399 742 461 709 505 645 _c
548 580 570 486 570 364 _c
570 241 548 147 505 83 _c
461 19 399 -13 318 -13 _c
236 -13 173 19 130 83 _c
87 147 66 241 66 364 _c
66 486 87 580 130 645 _c
173 709 236 742 318 742 _c
_cl}_d
/two{{636 0 73 0 536 742 _sc
192 83 _m
536 83 _l
536 0 _l
73 0 _l
73 83 _l
110 121 161 173 226 239 _c
290 304 331 346 348 365 _c
380 400 402 430 414 455 _c
426 479 433 504 433 528 _c
433 566 419 598 392 622 _c
365 646 330 659 286 659 _c
255 659 222 653 188 643 _c
154 632 117 616 78 594 _c
78 694 _l
118 710 155 722 189 730 _c
223 738 255 742 284 742 _c
}_e{359 742 419 723 464 685 _c
509 647 532 597 532 534 _c
532 504 526 475 515 449 _c
504 422 484 390 454 354 _c
446 344 420 317 376 272 _c
332 227 271 164 192 83 _c
_cl}_e}_d
/four{636 0 49 0 580 729 _sc
378 643 _m
129 254 _l
378 254 _l
378 643 _l
352 729 _m
476 729 _l
476 254 _l
580 254 _l
580 172 _l
476 172 _l
476 0 _l
378 0 _l
378 172 _l
49 172 _l
49 267 _l
352 729 _l
_cl}_d
/six{{636 0 70 -13 573 742 _sc
330 404 _m
286 404 251 388 225 358 _c
199 328 186 286 186 234 _c
186 181 199 139 225 109 _c
251 79 286 64 330 64 _c
374 64 409 79 435 109 _c
461 139 474 181 474 234 _c
474 286 461 328 435 358 _c
409 388 374 404 330 404 _c
526 713 _m
526 623 _l
501 635 476 644 451 650 _c
425 656 400 659 376 659 _c
310 659 260 637 226 593 _c
}_e{192 549 172 482 168 394 _c
187 422 211 444 240 459 _c
269 474 301 482 336 482 _c
409 482 467 459 509 415 _c
551 371 573 310 573 234 _c
573 159 550 99 506 54 _c
462 9 403 -13 330 -13 _c
246 -13 181 19 137 83 _c
92 147 70 241 70 364 _c
70 479 97 571 152 639 _c
206 707 280 742 372 742 _c
396 742 421 739 447 735 _c
472 730 498 723 526 713 _c
_cl}_e}_d
/eight{{636 0 68 -13 568 742 _sc
318 346 _m
271 346 234 333 207 308 _c
180 283 167 249 167 205 _c
167 161 180 126 207 101 _c
234 76 271 64 318 64 _c
364 64 401 76 428 102 _c
455 127 469 161 469 205 _c
469 249 455 283 429 308 _c
402 333 365 346 318 346 _c
219 388 _m
177 398 144 418 120 447 _c
96 476 85 511 85 553 _c
85 611 105 657 147 691 _c
188 725 245 742 318 742 _c
}_e{390 742 447 725 489 691 _c
530 657 551 611 551 553 _c
551 511 539 476 515 447 _c
491 418 459 398 417 388 _c
464 377 501 355 528 323 _c
554 291 568 251 568 205 _c
568 134 546 80 503 43 _c
459 5 398 -13 318 -13 _c
237 -13 175 5 132 43 _c
89 80 68 134 68 205 _c
68 251 81 291 108 323 _c
134 355 171 377 219 388 _c
183 544 _m
183 506 194 476 218 455 _c
}_e{242 434 275 424 318 424 _c
360 424 393 434 417 455 _c
441 476 453 506 453 544 _c
453 582 441 611 417 632 _c
393 653 360 664 318 664 _c
275 664 242 653 218 632 _c
194 611 183 582 183 544 _c
_cl}_e}_d
/C{{698 0 56 -13 644 742 _sc
644 673 _m
644 569 _l
610 599 575 622 537 638 _c
499 653 460 661 418 661 _c
334 661 270 635 226 584 _c
182 533 160 460 160 364 _c
160 268 182 194 226 143 _c
270 92 334 67 418 67 _c
460 67 499 74 537 90 _c
575 105 610 128 644 159 _c
644 56 _l
609 32 572 15 534 4 _c
496 -7 455 -13 412 -13 _c
302 -13 215 20 151 87 _c
}_e{87 154 56 246 56 364 _c
56 481 87 573 151 641 _c
215 708 302 742 412 742 _c
456 742 497 736 535 725 _c
573 713 610 696 644 673 _c
_cl}_e}_d
/F{575 0 98 0 517 729 _sc
98 729 _m
517 729 _l
517 646 _l
197 646 _l
197 431 _l
486 431 _l
486 348 _l
197 348 _l
197 0 _l
98 0 _l
98 729 _l
_cl}_d
/H{752 0 98 0 654 729 _sc
98 729 _m
197 729 _l
197 430 _l
555 430 _l
555 729 _l
654 729 _l
654 0 _l
555 0 _l
555 347 _l
197 347 _l
197 0 _l
98 0 _l
98 729 _l
_cl}_d
/K{656 0 98 0 677 729 _sc
98 729 _m
197 729 _l
197 421 _l
524 729 _l
651 729 _l
289 389 _l
677 0 _l
547 0 _l
197 351 _l
197 0 _l
98 0 _l
98 729 _l
_cl}_d
/N{748 0 98 0 650 729 _sc
98 729 _m
231 729 _l
554 119 _l
554 729 _l
650 729 _l
650 0 _l
517 0 _l
194 610 _l
194 0 _l
98 0 _l
98 729 _l
_cl}_d
/V{684 0 8 0 676 729 _sc
286 0 _m
8 729 _l
111 729 _l
342 115 _l
573 729 _l
676 729 _l
398 0 _l
286 0 _l
_cl}_d
/a{{613 0 60 -13 522 560 _sc
343 275 _m
270 275 220 266 192 250 _c
164 233 150 205 150 165 _c
150 133 160 107 181 89 _c
202 70 231 61 267 61 _c
317 61 357 78 387 114 _c
417 149 432 196 432 255 _c
432 275 _l
343 275 _l
522 312 _m
522 0 _l
432 0 _l
432 83 _l
411 49 385 25 355 10 _c
325 -5 287 -13 243 -13 _c
187 -13 142 2 109 33 _c
76 64 60 106 60 159 _c
}_e{60 220 80 266 122 298 _c
163 329 224 345 306 345 _c
432 345 _l
432 354 _l
432 395 418 427 391 450 _c
364 472 326 484 277 484 _c
245 484 215 480 185 472 _c
155 464 127 453 100 439 _c
100 522 _l
132 534 164 544 195 550 _c
226 556 256 560 286 560 _c
365 560 424 539 463 498 _c
502 457 522 395 522 312 _c
_cl}_e}_d
/c{{550 0 55 -13 488 560 _sc
488 526 _m
488 442 _l
462 456 437 466 411 473 _c
385 480 360 484 334 484 _c
276 484 230 465 198 428 _c
166 391 150 339 150 273 _c
150 206 166 154 198 117 _c
230 80 276 62 334 62 _c
360 62 385 65 411 72 _c
437 79 462 90 488 104 _c
488 21 _l
462 9 436 0 410 -5 _c
383 -10 354 -13 324 -13 _c
242 -13 176 12 128 64 _c
}_e{79 115 55 185 55 273 _c
55 362 79 432 128 483 _c
177 534 244 560 330 560 _c
358 560 385 557 411 551 _c
437 545 463 537 488 526 _c
_cl}_e}_d
/d{{635 0 55 -13 544 760 _sc
454 464 _m
454 760 _l
544 760 _l
544 0 _l
454 0 _l
454 82 _l
435 49 411 25 382 10 _c
353 -5 319 -13 279 -13 _c
213 -13 159 13 117 65 _c
75 117 55 187 55 273 _c
55 359 75 428 117 481 _c
159 533 213 560 279 560 _c
319 560 353 552 382 536 _c
411 520 435 496 454 464 _c
148 273 _m
148 207 161 155 188 117 _c
215 79 253 61 301 61 _c
}_e{348 61 385 79 413 117 _c
440 155 454 207 454 273 _c
454 339 440 390 413 428 _c
385 466 348 485 301 485 _c
253 485 215 466 188 428 _c
161 390 148 339 148 273 _c
_cl}_e}_d
/e{{615 0 55 -13 562 560 _sc
562 296 _m
562 252 _l
149 252 _l
153 190 171 142 205 110 _c
238 78 284 62 344 62 _c
378 62 412 66 444 74 _c
476 82 509 95 541 113 _c
541 28 _l
509 14 476 3 442 -3 _c
408 -9 373 -13 339 -13 _c
251 -13 182 12 131 62 _c
80 112 55 181 55 268 _c
55 357 79 428 127 481 _c
175 533 241 560 323 560 _c
397 560 455 536 498 489 _c
}_e{540 441 562 377 562 296 _c
472 322 _m
471 371 457 410 431 440 _c
404 469 368 484 324 484 _c
274 484 234 469 204 441 _c
174 413 156 373 152 322 _c
472 322 _l
_cl}_e}_d
/i{278 0 94 0 184 760 _sc
94 547 _m
184 547 _l
184 0 _l
94 0 _l
94 547 _l
94 760 _m
184 760 _l
184 646 _l
94 646 _l
94 760 _l
_cl}_d
/k{579 0 91 0 576 760 _sc
91 760 _m
181 760 _l
181 311 _l
449 547 _l
564 547 _l
274 291 _l
576 0 _l
459 0 _l
181 267 _l
181 0 _l
91 0 _l
91 760 _l
_cl}_d
/l{278 0 94 0 184 760 _sc
94 760 _m
184 760 _l
184 0 _l
94 0 _l
94 760 _l
_cl}_d
/m{{974 0 91 0 889 560 _sc
520 442 _m
542 482 569 511 600 531 _c
631 550 668 560 711 560 _c
767 560 811 540 842 500 _c
873 460 889 403 889 330 _c
889 0 _l
799 0 _l
799 327 _l
799 379 789 418 771 444 _c
752 469 724 482 686 482 _c
639 482 602 466 575 435 _c
548 404 535 362 535 309 _c
535 0 _l
445 0 _l
445 327 _l
445 379 435 418 417 444 _c
398 469 369 482 331 482 _c
}_e{285 482 248 466 221 435 _c
194 404 181 362 181 309 _c
181 0 _l
91 0 _l
91 547 _l
181 547 _l
181 462 _l
201 495 226 520 255 536 _c
283 552 317 560 357 560 _c
397 560 430 550 458 530 _c
486 510 506 480 520 442 _c
_cl}_e}_d
/o{612 0 55 -13 557 560 _sc
306 484 _m
258 484 220 465 192 427 _c
164 389 150 338 150 273 _c
150 207 163 156 191 118 _c
219 80 257 62 306 62 _c
354 62 392 80 420 118 _c
448 156 462 207 462 273 _c
462 337 448 389 420 427 _c
392 465 354 484 306 484 _c
306 560 _m
384 560 445 534 490 484 _c
534 433 557 363 557 273 _c
557 183 534 113 490 63 _c
445 12 384 -13 306 -13 _c
227 -13 165 12 121 63 _c
77 113 55 183 55 273 _c
55 363 77 433 121 484 _c
165 534 227 560 306 560 _c
_cl}_d
/r{411 0 91 0 411 560 _sc
411 463 _m
401 469 390 473 378 476 _c
366 478 353 480 339 480 _c
288 480 249 463 222 430 _c
194 397 181 350 181 288 _c
181 0 _l
91 0 _l
91 547 _l
181 547 _l
181 462 _l
199 495 224 520 254 536 _c
284 552 321 560 365 560 _c
371 560 378 559 386 559 _c
393 558 401 557 411 555 _c
411 463 _l
_cl}_d
/s{{521 0 54 -13 472 560 _sc
443 531 _m
443 446 _l
417 458 391 468 364 475 _c
336 481 308 485 279 485 _c
234 485 200 478 178 464 _c
156 450 145 430 145 403 _c
145 382 153 366 169 354 _c
185 342 217 330 265 320 _c
296 313 _l
360 299 405 279 432 255 _c
458 230 472 195 472 151 _c
472 100 452 60 412 31 _c
372 1 316 -13 246 -13 _c
216 -13 186 -10 154 -5 _c
}_e{122 0 89 8 54 20 _c
54 113 _l
87 95 120 82 152 74 _c
184 65 216 61 248 61 _c
290 61 323 68 346 82 _c
368 96 380 117 380 144 _c
380 168 371 187 355 200 _c
339 213 303 226 247 238 _c
216 245 _l
160 257 119 275 95 299 _c
70 323 58 356 58 399 _c
58 450 76 490 112 518 _c
148 546 200 560 268 560 _c
301 560 332 557 362 552 _c
391 547 418 540 443 531 _c
}_e{_cl}_e}_d
/t{392 0 27 0 368 702 _sc
183 702 _m
183 547 _l
368 547 _l
368 477 _l
183 477 _l
183 180 _l
183 135 189 106 201 94 _c
213 81 238 75 276 75 _c
368 75 _l
368 0 _l
276 0 _l
206 0 158 13 132 39 _c
106 65 93 112 93 180 _c
93 477 _l
27 477 _l
27 547 _l
93 547 _l
93 702 _l
183 702 _l
_cl}_d
/u{634 0 85 -13 543 547 _sc
85 216 _m
85 547 _l
175 547 _l
175 219 _l
175 167 185 129 205 103 _c
225 77 255 64 296 64 _c
344 64 383 79 411 110 _c
439 141 453 183 453 237 _c
453 547 _l
543 547 _l
543 0 _l
453 0 _l
453 84 _l
431 50 405 26 377 10 _c
348 -5 315 -13 277 -13 _c
214 -13 166 6 134 45 _c
101 83 85 140 85 216 _c
_cl}_d
/x{592 0 29 0 559 547 _sc
549 547 _m
351 281 _l
559 0 _l
453 0 _l
294 215 _l
135 0 _l
29 0 _l
241 286 _l
47 547 _l
153 547 _l
298 352 _l
443 547 _l
549 547 _l
_cl}_d
/y{592 0 30 -207 562 547 _sc
322 -50 _m
296 -114 271 -157 247 -177 _c
223 -197 191 -207 151 -207 _c
79 -207 _l
79 -132 _l
132 -132 _l
156 -132 175 -126 189 -114 _c
203 -102 218 -75 235 -31 _c
251 9 _l
30 547 _l
125 547 _l
296 119 _l
467 547 _l
562 547 _l
322 -50 _l
_cl}_d
/z{525 0 43 0 482 547 _sc
55 547 _m
482 547 _l
482 465 _l
144 72 _l
482 72 _l
482 0 _l
43 0 _l
43 82 _l
381 475 _l
55 475 _l
55 547 _l
_cl}_d
/minus{838 0 106 272 732 355 _sc
106 355 _m
732 355 _l
732 272 _l
106 272 _l
106 355 _l
_cl}_d
end readonly def

/BuildGlyph
 {exch begin
 CharStrings exch
 2 copy known not{pop /.notdef}if
 true 3 1 roll get exec
 end}_d

/BuildChar {
 1 index /Encoding get exch get
 1 index /BuildGlyph get exec
}_d

FontName currentdict end definefont pop
%!PS-Adobe-3.0 Resource-Font
%%Title: cmmi10
%%Copyright: Copyright (C) 1994, Basil K. Malyshev. All Rights Reserved.012BaKoMa Fonts Collection, Level-B.
%%Creator: Converted from TrueType to type 3 by PPR
25 dict begin
/_d{bind def}bind def
/_m{moveto}_d
/_l{lineto}_d
/_cl{closepath eofill}_d
/_c{curveto}_d
/_sc{7 -1 roll{setcachedevice}{pop pop pop pop pop pop}ifelse}_d
/_e{exec}_d
/FontName /Cmmi10 def
/PaintType 0 def
/FontMatrix[.001 0 0 .001 0 0]def
/FontBBox[-34 -250 1048 750]def
/FontType 3 def
/Encoding [ /alpha ] def
/FontInfo 10 dict dup begin
/FamilyName (cmmi10) def
/FullName (cmmi10) def
/Notice (Copyright (C) 1994, Basil K. Malyshev. All Rights Reserved.012BaKoMa Fonts Collection, Level-B. ) def
/Weight (Regular) def
/Version (1.1/12-Nov-94) def
/ItalicAngle 0.0 def
/isFixedPitch false def
/UnderlinePosition -133 def
/UnderlineThickness 20 def
end readonly def
/CharStrings 1 dict dup begin
/alpha{{639 0 40 -10 602 442 _sc
201 -10 _m
169 -10 141 -2 117 12 _c
92 26 73 46 60 72 _c
46 97 40 126 40 158 _c
40 203 52 248 78 292 _c
103 336 136 372 178 400 _c
220 428 264 442 310 442 _c
344 442 373 433 399 415 _c
425 397 444 374 458 344 _c
471 314 478 283 478 250 _c
479 183 _l
501 214 521 247 537 281 _c
553 315 565 351 573 387 _c
574 391 577 393 581 393 _c
}_e{593 393 _l
599 393 602 390 602 384 _c
602 383 601 382 601 381 _c
593 350 583 320 571 292 _c
559 264 546 236 530 210 _c
514 184 497 160 479 139 _c
479 56 488 15 508 15 _c
520 15 530 18 538 26 _c
546 33 553 42 559 53 _c
565 63 569 69 571 70 _c
583 70 _l
588 70 591 66 591 60 _c
591 43 581 27 562 12 _c
543 -2 524 -10 506 -10 _c
482 -10 462 -2 446 13 _c
}_e{430 28 419 48 413 73 _c
381 46 347 25 311 11 _c
275 -3 238 -10 201 -10 _c
203 15 _m
274 15 342 44 408 103 _c
408 107 407 111 407 117 _c
406 123 406 126 406 127 _c
406 235 _l
406 355 373 416 308 416 _c
269 416 235 399 206 366 _c
176 332 154 292 139 246 _c
124 200 117 157 117 119 _c
117 90 124 65 139 45 _c
154 25 175 15 203 15 _c
_cl}_e}_d
end readonly def

/BuildGlyph
 {exch begin
 CharStrings exch
 2 copy known not{pop /.notdef}if
 true 3 1 roll get exec
 end}_d

/BuildChar {
 1 index /Encoding get exch get
 1 index /BuildGlyph get exec
}_d

FontName currentdict end definefont pop
end
%%EndProlog
mpldict begin
-54 -36 translate
720 864 0 0 clipbox
gsave
0 0 m
720 0 l
720 864 l
0 864 l
cl
1.000 setgray
fill
grestore
gsave
37.94 87.383 m
240.031 87.383 l
240.031 821.56 l
37.94 821.56 l
cl
1.000 setgray
fill
grestore
1.500 setlinewidth
1 setlinejoin
0 setlinecap
[6 6] 0 setdash
0.000 setgray
gsave
202.1 734.2 37.94 87.38 clipbox
149.09 87.383 m
149.09 821.56 l
stroke
grestore
2 setlinecap
[] 0 setdash
0.118 0.565 1.000 setrgbcolor
gsave
202.1 734.2 37.94 87.38 clipbox
-1 778.477 m
9.62836 778.477 l
9.62836 786.212 l
20.3218 786.212 l
20.3218 787.425 l
31.0178 787.425 l
31.0178 785.191 l
41.7162 785.191 l
41.7162 784.537 l
52.417 784.537 l
52.417 785.315 l
63.1204 785.315 l
63.1204 782.835 l
73.8262 782.835 l
73.8262 772.524 l
84.5344 772.524 l
84.5344 760.275 l
95.2451 760.275 l
95.2451 760.641 l
105.958 760.641 l
105.958 753.942 l
116.674 753.942 l
116.674 739.629 l
127.392 739.629 l
127.392 721.697 l
138.113 721.697 l
138.113 711.827 l
148.836 711.827 l
148.836 716.027 l
159.561 716.027 l
159.561 731.554 l
170.289 731.554 l
170.289 746.629 l
181.02 746.629 l
181.02 755.214 l
191.753 755.214 l
191.753 776.88 l
202.488 776.88 l
202.488 785.81 l
213.226 785.81 l
213.226 775.78 l
223.966 775.78 l
223.966 776.061 l
234.709 776.061 l
234.709 785.016 l
245.455 785.016 l
245.455 775.14 l
256.202 775.14 l
256.202 770.37 l
266.953 770.37 l
266.953 781.831 l
277.705 781.831 l
277.705 788.094 l
288.461 788.094 l
288.461 786.489 l
299.218 786.489 l
299.218 781.55 l
309.978 781.55 l
309.978 775.312 l
320.741 775.312 l
320.741 777.455 l
331.506 777.455 l
331.506 779.144 l
342.274 779.144 l
342.274 776.913 l
353.044 776.913 l
353.044 776.738 l
363.816 776.738 l
363.816 773.784 l
374.591 773.784 l
374.591 779.006 l
385.369 779.006 l
385.369 788.999 l
396.149 788.999 l
396.149 777.275 l
406.931 777.275 l
406.931 780.758 l
417.716 780.758 l
417.716 783.223 l
428.504 783.223 l
428.504 785.4 l
439.294 785.4 l
439.294 782.682 l
450.086 782.682 l
450.086 777.4 l
471.679 777.482 l
471.679 775.412 l
482.478 775.412 l
482.478 769.271 l
493.281 769.271 l
493.281 762.409 l
504.086 762.409 l
504.086 757.198 l
514.893 757.198 l
514.893 759.131 l
525.703 759.131 l
525.703 743.244 l
536.515 743.244 l
536.515 729.428 l
547.33 729.428 l
547.33 718.558 l
558.147 718.558 l
558.147 716.95 l
568.967 716.95 l
568.967 723.355 l
579.789 723.355 l
579.789 736.447 l
590.614 736.447 l
590.614 750.754 l
601.441 750.754 l
601.441 759.371 l
612.271 759.371 l
612.271 762.264 l
623.103 762.264 l
623.103 767.624 l
633.938 767.624 l
633.938 779.09 l
644.775 779.09 l
644.775 776.1 l
655.615 776.1 l
655.615 777.657 l
666.457 777.657 l
666.457 785.423 l
677.302 785.423 l
677.302 786.851 l
688.149 786.851 l
688.149 786.243 l
698.999 786.243 l
698.999 780.241 l
709.851 780.241 l
709.851 775.207 l
720.706 775.207 l
720.706 780.639 l
721 780.639 l
721 780.639 l
stroke
grestore
0.196 0.804 0.196 setrgbcolor
gsave
202.1 734.2 37.94 87.38 clipbox
-1 690.62 m
9.62836 690.62 l
9.62836 691.382 l
20.3218 691.382 l
20.3218 700.557 l
31.0178 700.557 l
31.0178 693.859 l
41.7162 693.859 l
41.7162 697.82 l
52.417 697.82 l
52.417 694.502 l
63.1204 694.502 l
63.1204 690.593 l
73.8262 690.593 l
73.8262 685.608 l
84.5344 685.608 l
84.5344 681.461 l
95.2451 681.461 l
95.2451 677.183 l
105.958 677.183 l
105.958 666.093 l
116.674 666.093 l
116.674 647.442 l
127.392 647.442 l
127.392 632.25 l
138.113 632.25 l
138.113 631.186 l
148.836 631.186 l
148.836 630.606 l
159.561 630.606 l
159.561 646.046 l
170.289 646.046 l
170.289 659.32 l
181.02 659.32 l
181.02 673.665 l
191.753 673.665 l
191.753 689.962 l
202.488 689.962 l
202.488 696.579 l
213.226 696.579 l
213.226 691.712 l
223.966 691.712 l
223.966 689.653 l
234.709 689.653 l
234.709 692.682 l
245.455 692.682 l
245.455 688.403 l
256.202 688.403 l
256.202 688.693 l
266.953 688.693 l
266.953 692.735 l
277.705 692.735 l
277.705 697.451 l
288.461 697.451 l
288.461 702.025 l
299.218 702.025 l
299.218 701.089 l
309.978 701.089 l
309.978 696.685 l
320.741 696.685 l
320.741 695.33 l
342.274 695.291 l
342.274 691.667 l
353.044 691.667 l
353.044 687.11 l
363.816 687.11 l
363.816 689.872 l
374.591 689.872 l
374.591 692.33 l
385.369 692.33 l
385.369 693.462 l
396.149 693.462 l
396.149 692.901 l
406.931 692.901 l
406.931 689.444 l
417.716 689.444 l
417.716 690.544 l
428.504 690.544 l
428.504 694.686 l
439.294 694.686 l
439.294 691.343 l
450.086 691.343 l
450.086 693.913 l
460.881 693.913 l
460.881 692.069 l
471.679 692.069 l
471.679 687.167 l
482.478 687.167 l
482.478 685.39 l
493.281 685.39 l
493.281 681.209 l
504.086 681.209 l
504.086 680.533 l
514.893 680.533 l
514.893 676.246 l
525.703 676.246 l
525.703 660.533 l
536.515 660.533 l
536.515 642.147 l
547.33 642.147 l
547.33 633.711 l
558.147 633.711 l
558.147 632.32 l
568.967 632.32 l
568.967 637.293 l
579.789 637.293 l
579.789 650.037 l
590.614 650.037 l
590.614 658.53 l
601.441 658.53 l
601.441 666.456 l
612.271 666.456 l
612.271 679.607 l
623.103 679.607 l
623.103 685.229 l
633.938 685.229 l
633.938 688.673 l
644.775 688.673 l
644.775 693.034 l
655.615 693.034 l
655.615 689.488 l
666.457 689.488 l
666.457 688.588 l
677.302 688.588 l
677.302 698.99 l
688.149 698.99 l
688.149 697.777 l
698.999 697.777 l
698.999 688.885 l
709.851 688.885 l
709.851 690.215 l
720.706 690.215 l
720.706 694.402 l
721 694.402 l
721 694.402 l
stroke
grestore
1.000 0.000 0.000 setrgbcolor
gsave
202.1 734.2 37.94 87.38 clipbox
-1 610.373 m
9.62836 610.373 l
9.62836 609.653 l
20.3218 609.653 l
20.3218 614.011 l
31.0178 614.011 l
31.0178 609.279 l
41.7162 609.279 l
41.7162 606.587 l
52.417 606.587 l
52.417 604.007 l
63.1204 604.007 l
63.1204 604.897 l
73.8262 604.897 l
73.8262 601.608 l
84.5344 601.608 l
84.5344 592.132 l
95.2451 592.132 l
95.2451 594.415 l
105.958 594.415 l
105.958 577.687 l
116.674 577.687 l
116.674 561.073 l
127.392 561.073 l
127.392 548.911 l
138.113 548.911 l
138.113 544.129 l
148.836 544.129 l
148.836 547.845 l
159.561 547.845 l
159.561 560.166 l
170.289 560.166 l
170.289 572.638 l
181.02 572.638 l
181.02 584.886 l
191.753 584.886 l
191.753 599.44 l
202.488 599.44 l
202.488 606.505 l
213.226 606.505 l
213.226 605.897 l
223.966 605.897 l
223.966 606.576 l
234.709 606.576 l
234.709 605.164 l
245.455 605.164 l
245.455 601.097 l
256.202 601.097 l
256.202 605.02 l
266.953 605.02 l
266.953 606.328 l
277.705 606.328 l
277.705 610.155 l
288.461 610.155 l
288.461 613.546 l
299.218 613.546 l
299.218 609.868 l
309.978 609.868 l
309.978 607.434 l
320.741 607.434 l
320.741 604.926 l
331.506 604.926 l
331.506 607.082 l
342.274 607.082 l
342.274 605.764 l
353.044 605.764 l
353.044 610.151 l
363.816 610.151 l
363.816 600.712 l
374.591 600.712 l
374.591 605.753 l
385.369 605.753 l
385.369 611.245 l
396.149 611.245 l
396.149 604.414 l
406.931 604.414 l
406.931 601.836 l
417.716 601.836 l
417.716 604.154 l
428.504 604.154 l
428.504 602.896 l
439.294 602.896 l
439.294 612.485 l
450.086 612.485 l
450.086 605.894 l
460.881 605.894 l
460.881 602.469 l
471.679 602.469 l
471.679 600.857 l
482.478 600.857 l
482.478 596.282 l
493.281 596.282 l
493.281 594.103 l
504.086 594.103 l
504.086 591.753 l
514.893 591.753 l
514.893 584.587 l
525.703 584.587 l
525.703 573.577 l
536.515 573.577 l
536.515 557.259 l
547.33 557.259 l
547.33 545.37 l
558.147 545.37 l
558.147 544.709 l
568.967 544.709 l
568.967 550.627 l
579.789 550.627 l
579.789 559.854 l
590.614 559.854 l
590.614 573.759 l
601.441 573.759 l
601.441 584.139 l
612.271 584.139 l
612.271 589.725 l
623.103 589.725 l
623.103 594.885 l
633.938 594.885 l
633.938 600.361 l
644.775 600.361 l
644.775 603.597 l
655.615 603.597 l
655.615 601.146 l
666.457 601.146 l
666.457 598.654 l
677.302 598.654 l
677.302 607.95 l
688.149 607.95 l
688.149 607.531 l
698.999 607.531 l
698.999 608.245 l
709.851 608.245 l
709.851 607.104 l
720.706 607.104 l
720.706 603.928 l
721 603.928 l
721 603.928 l
stroke
grestore
0.855 0.647 0.125 setrgbcolor
gsave
202.1 734.2 37.94 87.38 clipbox
-1 510.149 m
9.62836 510.149 l
9.62836 512.922 l
20.3218 512.922 l
20.3218 521.34 l
31.0178 521.34 l
31.0178 518.831 l
41.7162 518.831 l
41.7162 520.448 l
52.417 520.448 l
52.417 516.161 l
63.1204 516.161 l
63.1204 509.748 l
73.8262 509.748 l
73.8262 515.152 l
84.5344 515.152 l
84.5344 508.72 l
95.2451 508.72 l
95.2451 503.946 l
105.958 503.946 l
105.958 493.209 l
116.674 493.209 l
116.674 487.748 l
127.392 487.748 l
127.392 471.14 l
138.113 471.14 l
138.113 456.95 l
148.836 456.95 l
148.836 458.145 l
159.561 458.145 l
159.561 465.802 l
170.289 465.802 l
170.289 475.059 l
181.02 475.059 l
181.02 493.017 l
191.753 493.017 l
191.753 511.92 l
202.488 511.92 l
202.488 516.277 l
213.226 516.277 l
213.226 523.354 l
223.966 523.354 l
223.966 517.103 l
234.709 517.103 l
234.709 521.9 l
245.455 521.9 l
245.455 523.324 l
256.202 523.324 l
256.202 519.335 l
266.953 519.335 l
266.953 516.495 l
277.705 516.495 l
277.705 519.141 l
288.461 519.141 l
288.461 522.108 l
299.218 522.108 l
299.218 520.179 l
309.978 520.179 l
309.978 525.377 l
320.741 525.377 l
320.741 521.894 l
331.506 521.894 l
331.506 522.838 l
342.274 522.838 l
342.274 526.617 l
353.044 526.617 l
353.044 520.226 l
363.816 520.226 l
363.816 518.84 l
374.591 518.84 l
374.591 485.982 l
385.369 485.982 l
385.369 629.969 l
396.149 629.969 l
396.149 794.684 l
406.931 794.684 l
406.931 501.043 l
417.716 501.043 l
417.716 512.794 l
428.504 512.794 l
428.504 520.909 l
439.294 520.909 l
439.294 519.965 l
450.086 519.965 l
450.086 522.729 l
460.881 522.729 l
460.881 513.378 l
471.679 513.378 l
471.679 512.192 l
482.478 512.192 l
482.478 510.853 l
493.281 510.853 l
493.281 507.388 l
504.086 507.388 l
504.086 507.801 l
514.893 507.801 l
514.893 503.182 l
525.703 503.182 l
525.703 497.366 l
536.515 497.366 l
536.515 477.051 l
547.33 477.051 l
547.33 463.024 l
558.147 463.024 l
558.147 456.56 l
568.967 456.56 l
568.967 458.759 l
579.789 458.759 l
579.789 467.099 l
590.614 467.099 l
590.614 477.985 l
601.441 477.985 l
601.441 494.099 l
612.271 494.099 l
612.271 502.841 l
623.103 502.841 l
623.103 501.65 l
633.938 501.65 l
633.938 517.328 l
644.775 517.328 l
644.775 514.615 l
655.615 514.615 l
655.615 518.645 l
666.457 518.645 l
666.457 514.031 l
677.302 514.031 l
677.302 519.695 l
688.149 519.695 l
688.149 527.359 l
698.999 527.359 l
698.999 520.468 l
709.851 520.468 l
709.851 517.46 l
720.706 517.46 l
720.706 521.522 l
721 521.522 l
721 521.522 l
stroke
grestore
0.294 0.000 0.510 setrgbcolor
gsave
202.1 734.2 37.94 87.38 clipbox
-1 435.664 m
9.62836 435.664 l
9.62836 436.162 l
20.3218 436.162 l
20.3218 437.431 l
31.0178 437.431 l
31.0178 447.155 l
41.7162 447.155 l
41.7162 447.815 l
52.417 447.815 l
52.417 440.022 l
63.1204 440.022 l
63.1204 433.607 l
73.8262 433.607 l
73.8262 430.721 l
84.5344 430.721 l
84.5344 425.199 l
95.2451 425.199 l
95.2451 419.315 l
105.958 419.315 l
105.958 416.289 l
116.674 416.289 l
116.674 401.486 l
127.392 401.486 l
127.392 381.338 l
138.113 381.338 l
138.113 372.967 l
148.836 372.967 l
148.836 370.777 l
159.561 370.777 l
159.561 380.242 l
170.289 380.242 l
170.289 393.97 l
181.02 393.97 l
181.02 407.187 l
191.753 407.187 l
191.753 421.691 l
202.488 421.691 l
202.488 434.216 l
213.226 434.216 l
213.226 438.711 l
223.966 438.711 l
223.966 437.003 l
234.709 437.003 l
234.709 433.706 l
245.455 433.706 l
245.455 437.102 l
256.202 437.102 l
256.202 435.38 l
266.953 435.38 l
266.953 433.168 l
277.705 433.168 l
277.705 434.627 l
288.461 434.627 l
288.461 442.426 l
299.218 442.426 l
299.218 444.491 l
309.978 444.491 l
309.978 437.519 l
320.741 437.519 l
320.741 433.623 l
331.506 433.623 l
331.506 436.142 l
342.274 436.142 l
342.274 435.064 l
353.044 435.064 l
353.044 434.413 l
363.816 434.413 l
363.816 436.43 l
374.591 436.43 l
374.591 438.588 l
385.369 438.588 l
385.369 435.482 l
396.149 435.482 l
396.149 432.197 l
406.931 432.197 l
406.931 428.663 l
417.716 428.663 l
417.716 432.175 l
428.504 432.175 l
428.504 440.586 l
439.294 440.586 l
439.294 436.519 l
460.881 436.431 l
460.881 435.803 l
471.679 435.803 l
471.679 430.889 l
482.478 430.889 l
482.478 429.603 l
493.281 429.603 l
493.281 424.592 l
504.086 424.592 l
504.086 418.774 l
514.893 418.774 l
514.893 417.966 l
525.703 417.966 l
525.703 411.449 l
536.515 411.449 l
536.515 396.16 l
547.33 396.16 l
547.33 383.824 l
558.147 383.824 l
558.147 370.478 l
568.967 370.478 l
568.967 370.642 l
579.789 370.642 l
579.789 385.281 l
590.614 385.281 l
590.614 400.066 l
601.441 400.066 l
601.441 409.831 l
612.271 409.831 l
612.271 413.721 l
623.103 413.721 l
623.103 420.938 l
633.938 420.938 l
633.938 425.665 l
644.775 425.665 l
644.775 427.392 l
655.615 427.392 l
655.615 431.255 l
666.457 431.255 l
666.457 429.256 l
677.302 429.256 l
677.302 438.943 l
688.149 438.943 l
688.149 438.268 l
698.999 438.268 l
698.999 440.695 l
709.851 440.695 l
709.851 436.582 l
720.706 436.582 l
720.706 434.83 l
721 434.83 l
721 434.83 l
stroke
grestore
0.627 0.322 0.176 setrgbcolor
gsave
202.1 734.2 37.94 87.38 clipbox
-1 346.44 m
9.62836 346.44 l
9.62836 346.83 l
41.7162 346.87 l
41.7162 349.295 l
52.417 349.295 l
52.417 352.081 l
63.1204 352.081 l
63.1204 348.169 l
73.8262 348.169 l
73.8262 341.735 l
84.5344 341.735 l
84.5344 342.088 l
95.2451 342.088 l
95.2451 333.336 l
105.958 333.336 l
105.958 325.926 l
116.674 325.926 l
116.674 316.31 l
127.392 316.31 l
127.392 303.234 l
138.113 303.234 l
138.113 290.868 l
148.836 290.868 l
148.836 283.757 l
159.561 283.757 l
159.561 285.883 l
170.289 285.883 l
170.289 298.783 l
181.02 298.783 l
181.02 316.654 l
191.753 316.654 l
191.753 330.095 l
202.488 330.095 l
202.488 340.035 l
213.226 340.035 l
213.226 347.248 l
223.966 347.248 l
223.966 350.368 l
234.709 350.368 l
234.709 347.394 l
245.455 347.394 l
245.455 347.675 l
256.202 347.675 l
256.202 347.899 l
266.953 347.899 l
266.953 346.09 l
277.705 346.09 l
277.705 348.357 l
288.461 348.357 l
288.461 350.944 l
299.218 350.944 l
299.218 346.522 l
309.978 346.522 l
309.978 350.48 l
320.741 350.48 l
320.741 355.541 l
331.506 355.541 l
331.506 347.413 l
342.274 347.413 l
342.274 346.568 l
353.044 346.568 l
353.044 345.919 l
374.591 345.953 l
374.591 348.206 l
385.369 348.206 l
385.369 346.429 l
396.149 346.429 l
396.149 346.144 l
406.931 346.144 l
406.931 350.334 l
417.716 350.334 l
417.716 345.936 l
428.504 345.936 l
428.504 345.689 l
439.294 345.689 l
439.294 349.091 l
450.086 349.091 l
450.086 350.222 l
460.881 350.222 l
460.881 351.458 l
471.679 351.458 l
471.679 345.647 l
482.478 345.647 l
482.478 338.322 l
504.086 338.292 l
504.086 337.904 l
514.893 337.904 l
514.893 336.482 l
525.703 336.482 l
525.703 334.206 l
536.515 334.206 l
536.515 313.445 l
547.33 313.445 l
547.33 300.261 l
558.147 300.261 l
558.147 288.683 l
568.967 288.683 l
568.967 284.538 l
579.789 284.538 l
579.789 289.738 l
590.614 289.738 l
590.614 304.368 l
601.441 304.368 l
601.441 321.293 l
612.271 321.293 l
612.271 328.786 l
623.103 328.786 l
623.103 332.267 l
633.938 332.267 l
633.938 340.956 l
644.775 340.956 l
644.775 337.571 l
655.615 337.571 l
655.615 342.609 l
666.457 342.609 l
666.457 345.104 l
677.302 345.104 l
677.302 345.851 l
688.149 345.851 l
688.149 348.358 l
698.999 348.358 l
698.999 350.277 l
709.851 350.277 l
709.851 351.607 l
720.706 351.607 l
720.706 348.586 l
721 348.586 l
721 348.586 l
stroke
grestore
0.000 0.980 0.604 setrgbcolor
gsave
202.1 734.2 37.94 87.38 clipbox
-1 262.859 m
9.62836 262.859 l
9.62836 261.088 l
20.3218 261.088 l
20.3218 263.784 l
31.0178 263.784 l
31.0178 268.982 l
41.7162 268.982 l
41.7162 265.638 l
52.417 265.638 l
52.417 272.493 l
63.1204 272.493 l
63.1204 267.079 l
73.8262 267.079 l
73.8262 258 l
84.5344 258 l
84.5344 253.439 l
95.2451 253.439 l
95.2451 249.831 l
105.958 249.831 l
105.958 243.609 l
116.674 243.609 l
116.674 234.914 l
127.392 234.914 l
127.392 221.063 l
138.113 221.063 l
138.113 204.349 l
148.836 204.349 l
148.836 195.914 l
159.561 195.914 l
159.561 200.405 l
170.289 200.405 l
170.289 213.593 l
181.02 213.593 l
181.02 231.098 l
191.753 231.098 l
191.753 244.383 l
202.488 244.383 l
202.488 254.858 l
213.226 254.858 l
213.226 264.725 l
223.966 264.725 l
223.966 266.012 l
234.709 266.012 l
234.709 260.219 l
245.455 260.219 l
245.455 266.741 l
256.202 266.741 l
256.202 260.232 l
266.953 260.232 l
266.953 258.932 l
277.705 258.932 l
277.705 255.262 l
288.461 255.262 l
288.461 265.141 l
299.218 265.141 l
299.218 267.885 l
309.978 267.885 l
309.978 262.338 l
320.741 262.338 l
320.741 257.636 l
331.506 257.636 l
331.506 258.323 l
342.274 258.323 l
342.274 264.454 l
353.044 264.454 l
353.044 262.799 l
363.816 262.799 l
363.816 261.133 l
374.591 261.133 l
374.591 258.06 l
385.369 258.06 l
385.369 265.222 l
396.149 265.222 l
396.149 267.416 l
406.931 267.416 l
406.931 262.529 l
417.716 262.529 l
417.716 258.027 l
428.504 258.027 l
428.504 260.449 l
439.294 260.449 l
439.294 263.734 l
450.086 263.734 l
450.086 259.418 l
460.881 259.418 l
460.881 260.511 l
471.679 260.511 l
471.679 261.323 l
482.478 261.323 l
482.478 252.758 l
493.281 252.758 l
493.281 252.199 l
504.086 252.199 l
504.086 249.281 l
514.893 249.281 l
514.893 251.965 l
525.703 251.965 l
525.703 245.406 l
536.515 245.406 l
536.515 230.228 l
547.33 230.228 l
547.33 215.652 l
558.147 215.652 l
558.147 200.677 l
568.967 200.677 l
568.967 196.273 l
579.789 196.273 l
579.789 204.289 l
590.614 204.289 l
590.614 218.742 l
601.441 218.742 l
601.441 231.214 l
612.271 231.214 l
612.271 241.074 l
623.103 241.074 l
623.103 248.635 l
633.938 248.635 l
633.938 248.38 l
644.775 248.38 l
644.775 250.564 l
655.615 250.564 l
655.615 256.234 l
666.457 256.234 l
666.457 259.566 l
677.302 259.566 l
677.302 266.169 l
688.149 266.169 l
688.149 261.037 l
698.999 261.037 l
698.999 265.604 l
709.851 265.604 l
709.851 264.121 l
720.706 264.121 l
720.706 261.897 l
721 261.897 l
721 261.897 l
stroke
grestore
0.000 setgray
gsave
202.1 734.2 37.94 87.38 clipbox
-1 178.721 m
9.62836 178.721 l
9.62836 181.093 l
20.3218 181.093 l
20.3218 182.653 l
31.0178 182.653 l
31.0178 183.109 l
41.7162 183.109 l
41.7162 181.099 l
52.417 181.099 l
52.417 178.137 l
63.1204 178.137 l
63.1204 173.774 l
73.8262 173.774 l
73.8262 170.386 l
84.5344 170.386 l
84.5344 162.315 l
95.2451 162.315 l
95.2451 153.953 l
105.958 153.953 l
105.958 143.508 l
116.674 143.508 l
116.674 127.715 l
127.392 127.715 l
127.392 113.295 l
138.113 113.295 l
138.113 109.842 l
148.836 109.842 l
148.836 117.652 l
159.561 117.652 l
159.561 135.568 l
170.289 135.568 l
170.289 151.576 l
181.02 151.576 l
181.02 160.845 l
191.753 160.845 l
191.753 168.192 l
202.488 168.192 l
202.488 174.558 l
213.226 174.558 l
213.226 175.781 l
223.966 175.781 l
223.966 172.163 l
234.709 172.163 l
234.709 170.316 l
245.455 170.316 l
245.455 174.09 l
256.202 174.09 l
256.202 177.113 l
266.953 177.113 l
266.953 174.103 l
277.705 174.103 l
277.705 176.092 l
288.461 176.092 l
288.461 180.013 l
299.218 180.013 l
299.218 174.884 l
309.978 174.884 l
309.978 178.033 l
320.741 178.033 l
320.741 178.316 l
331.506 178.316 l
331.506 180.016 l
342.274 180.016 l
342.274 183.762 l
353.044 183.762 l
353.044 178.189 l
363.816 178.189 l
363.816 172.503 l
374.591 172.503 l
374.591 173.652 l
385.369 173.652 l
385.369 179.354 l
396.149 179.354 l
396.149 176.32 l
406.931 176.32 l
406.931 175.243 l
417.716 175.243 l
417.716 187.49 l
428.504 187.49 l
428.504 178.088 l
439.294 178.088 l
439.294 175.964 l
450.086 175.964 l
450.086 178.838 l
460.881 178.838 l
460.881 164.529 l
471.679 164.529 l
471.679 165.019 l
482.478 165.019 l
482.478 168.73 l
493.281 168.73 l
493.281 165.445 l
504.086 165.445 l
504.086 159.974 l
514.893 159.974 l
514.893 146.942 l
525.703 146.942 l
525.703 135.471 l
536.515 135.471 l
536.515 124.887 l
547.33 124.887 l
547.33 115.507 l
558.147 115.507 l
558.147 115.237 l
568.967 115.237 l
568.967 122.593 l
579.789 122.593 l
579.789 131.417 l
590.614 131.417 l
590.614 147.329 l
601.441 147.329 l
601.441 154.135 l
612.271 154.135 l
612.271 164.618 l
623.103 164.618 l
623.103 171.698 l
633.938 171.698 l
633.938 174.283 l
644.775 174.283 l
644.775 172.864 l
655.615 172.864 l
655.615 175.548 l
666.457 175.548 l
666.457 176.976 l
677.302 176.976 l
677.302 173.871 l
688.149 173.871 l
688.149 175.204 l
698.999 175.204 l
698.999 179.499 l
709.851 179.499 l
709.851 177.008 l
720.706 177.008 l
720.706 177.378 l
721 177.378 l
721 177.378 l
stroke
grestore
0 setlinecap
gsave
/o {
gsave
newpath
translate
1.5 setlinewidth
1 setlinejoin
0 setlinecap
0 0 m
0 14 l
gsave
0.000 setgray
fill
grestore
stroke
grestore
} bind def
53.4854 87.383 o
grestore
gsave
/o {
gsave
newpath
translate
1.5 setlinewidth
1 setlinejoin
0 setlinecap
0 0 m
0 -14 l
gsave
0.000 setgray
fill
grestore
stroke
grestore
} bind def
53.4854 821.56 o
grestore
/BitstreamVeraSans-Roman findfont
18.000 scalefont
setfont
gsave
41.912088 40.989783 translate
45.000000 rotate
0.000000 0.250000 m /minus glyphshow
15.082031 0.250000 m /eight glyphshow
26.534180 0.250000 m /zero glyphshow
37.986328 0.250000 m /zero glyphshow
grestore
gsave
/o {
gsave
newpath
translate
1.5 setlinewidth
1 setlinejoin
0 setlinecap
0 0 m
0 14 l
gsave
0.000 setgray
fill
grestore
stroke
grestore
} bind def
84.5763 87.383 o
grestore
gsave
/o {
gsave
newpath
translate
1.5 setlinewidth
1 setlinejoin
0 setlinecap
0 0 m
0 -14 l
gsave
0.000 setgray
fill
grestore
stroke
grestore
} bind def
84.5763 821.56 o
grestore
gsave
73.002964 40.989783 translate
45.000000 rotate
0.000000 0.250000 m /minus glyphshow
15.082031 0.250000 m /six glyphshow
26.534180 0.250000 m /zero glyphshow
37.986328 0.250000 m /zero glyphshow
grestore
gsave
/o {
gsave
newpath
translate
1.5 setlinewidth
1 setlinejoin
0 setlinecap
0 0 m
0 14 l
gsave
0.000 setgray
fill
grestore
stroke
grestore
} bind def
115.667 87.383 o
grestore
gsave
/o {
gsave
newpath
translate
1.5 setlinewidth
1 setlinejoin
0 setlinecap
0 0 m
0 -14 l
gsave
0.000 setgray
fill
grestore
stroke
grestore
} bind def
115.667 821.56 o
grestore
gsave
104.093839 40.989783 translate
45.000000 rotate
0.000000 0.250000 m /minus glyphshow
15.082031 0.250000 m /four glyphshow
26.534180 0.250000 m /zero glyphshow
37.986328 0.250000 m /zero glyphshow
grestore
gsave
/o {
gsave
newpath
translate
1.5 setlinewidth
1 setlinejoin
0 setlinecap
0 0 m
0 14 l
gsave
0.000 setgray
fill
grestore
stroke
grestore
} bind def
146.758 87.383 o
grestore
gsave
/o {
gsave
newpath
translate
1.5 setlinewidth
1 setlinejoin
0 setlinecap
0 0 m
0 -14 l
gsave
0.000 setgray
fill
grestore
stroke
grestore
} bind def
146.758 821.56 o
grestore
gsave
135.184715 40.989783 translate
45.000000 rotate
0.000000 0.250000 m /minus glyphshow
15.082031 0.250000 m /two glyphshow
26.534180 0.250000 m /zero glyphshow
37.986328 0.250000 m /zero glyphshow
grestore
gsave
/o {
gsave
newpath
translate
1.5 setlinewidth
1 setlinejoin
0 setlinecap
0 0 m
0 14 l
gsave
0.000 setgray
fill
grestore
stroke
grestore
} bind def
177.849 87.383 o
grestore
gsave
/o {
gsave
newpath
translate
1.5 setlinewidth
1 setlinejoin
0 setlinecap
0 0 m
0 -14 l
gsave
0.000 setgray
fill
grestore
stroke
grestore
} bind def
177.849 821.56 o
grestore
gsave
179.450978 67.340559 translate
45.000000 rotate
0.000000 0.250000 m /zero glyphshow
grestore
gsave
/o {
gsave
newpath
translate
1.5 setlinewidth
1 setlinejoin
0 setlinecap
0 0 m
0 14 l
gsave
0.000 setgray
fill
grestore
stroke
grestore
} bind def
208.94 87.383 o
grestore
gsave
/o {
gsave
newpath
translate
1.5 setlinewidth
1 setlinejoin
0 setlinecap
0 0 m
0 -14 l
gsave
0.000 setgray
fill
grestore
stroke
grestore
} bind def
208.94 821.56 o
grestore
gsave
202.487466 51.231782 translate
45.000000 rotate
0.000000 0.250000 m /two glyphshow
11.452148 0.250000 m /zero glyphshow
22.904297 0.250000 m /zero glyphshow
grestore
gsave
/o {
gsave
newpath
translate
1.5 setlinewidth
1 setlinejoin
0 setlinecap
0 0 m
0 14 l
gsave
0.000 setgray
fill
grestore
stroke
grestore
} bind def
240.031 87.383 o
grestore
gsave
/o {
gsave
newpath
translate
1.5 setlinewidth
1 setlinejoin
0 setlinecap
0 0 m
0 -14 l
gsave
0.000 setgray
fill
grestore
stroke
grestore
} bind def
240.031 821.56 o
grestore
gsave
233.423662 50.922423 translate
45.000000 rotate
0.000000 0.250000 m /four glyphshow
11.452148 0.250000 m /zero glyphshow
22.904297 0.250000 m /zero glyphshow
grestore
gsave
72.852533 18.567908 translate
0.000000 rotate
0.000000 3.750000 m /V glyphshow
10.938477 3.750000 m /e glyphshow
22.012695 3.750000 m /l glyphshow
27.013672 3.750000 m /o glyphshow
38.026367 3.750000 m /c glyphshow
47.922852 3.750000 m /i glyphshow
52.923828 3.750000 m /t glyphshow
59.981445 3.750000 m /y glyphshow
70.633789 3.750000 m /space glyphshow
76.355469 3.750000 m /parenleft glyphshow
83.377930 3.750000 m /k glyphshow
93.801758 3.750000 m /m glyphshow
111.335938 3.750000 m /slash glyphshow
117.400391 3.750000 m /s glyphshow
126.778320 3.750000 m /parenright glyphshow
grestore
gsave
32.940000 382.182459 translate
90.000000 rotate
0.000000 0.250000 m /N glyphshow
13.464844 0.250000 m /o glyphshow
24.477539 0.250000 m /r glyphshow
31.502930 0.250000 m /m glyphshow
49.037109 0.250000 m /a glyphshow
60.067383 0.250000 m /l glyphshow
65.068359 0.250000 m /i glyphshow
70.069336 0.250000 m /z glyphshow
79.517578 0.250000 m /e glyphshow
90.591797 0.250000 m /d glyphshow
102.017578 0.250000 m /space glyphshow
107.739258 0.250000 m /F glyphshow
118.092773 0.250000 m /l glyphshow
123.093750 0.250000 m /u glyphshow
134.501953 0.250000 m /x glyphshow
grestore
1.750 setlinewidth
2 setlinecap
gsave
37.94 821.56 m
240.031 821.56 l
stroke
grestore
gsave
240.031 87.383 m
240.031 821.56 l
stroke
grestore
gsave
37.94 87.383 m
240.031 87.383 l
stroke
grestore
gsave
37.94 87.383 m
37.94 821.56 l
stroke
grestore
/BitstreamVeraSans-Roman findfont
21.600 scalefont
setfont
gsave
114.055658 826.247500 translate
0.000000 rotate
0.000000 0.312500 m /C glyphshow
15.077667 0.312500 m /a glyphshow
28.310165 0.312500 m /space glyphshow
35.174194 0.312500 m /K glyphshow
grestore
gsave
260.24 87.383 m
462.33 87.383 l
462.33 821.56 l
260.24 821.56 l
cl
1.000 setgray
fill
grestore
1.500 setlinewidth
0 setlinecap
[6 6] 0 setdash
gsave
202.1 734.2 260.2 87.38 clipbox
371.39 87.383 m
371.39 821.56 l
stroke
grestore
2 setlinecap
[] 0 setdash
0.118 0.565 1.000 setrgbcolor
gsave
202.1 734.2 260.2 87.38 clipbox
-1 755.214 m
5.25185 755.214 l
5.25185 776.88 l
15.8931 776.88 l
15.8931 785.81 l
26.5369 785.81 l
26.5369 775.78 l
37.183 775.78 l
37.183 776.061 l
47.8317 776.061 l
47.8317 785.016 l
58.4827 785.016 l
58.4827 775.14 l
69.1363 775.14 l
69.1363 770.37 l
79.7923 770.37 l
79.7923 781.831 l
90.4507 781.831 l
90.4507 788.094 l
101.112 788.094 l
101.112 786.489 l
111.775 786.489 l
111.775 781.55 l
122.441 781.55 l
122.441 775.312 l
133.109 775.312 l
133.109 777.455 l
143.78 777.455 l
143.78 779.144 l
154.453 779.144 l
154.453 776.913 l
165.129 776.913 l
165.129 776.738 l
175.807 776.738 l
175.807 773.784 l
186.487 773.784 l
186.487 779.006 l
197.17 779.006 l
197.17 788.999 l
207.856 788.999 l
207.856 777.275 l
218.544 777.275 l
218.544 780.758 l
229.234 780.758 l
229.234 783.223 l
239.927 783.223 l
239.927 785.4 l
250.622 785.4 l
250.622 782.682 l
261.32 782.682 l
261.32 777.4 l
282.723 777.482 l
282.723 775.412 l
293.428 775.412 l
293.428 769.271 l
304.136 769.271 l
304.136 762.409 l
314.846 762.409 l
314.846 757.198 l
325.558 757.198 l
325.558 759.131 l
336.273 759.131 l
336.273 743.244 l
346.991 743.244 l
346.991 729.428 l
357.711 729.428 l
357.711 718.558 l
368.433 718.558 l
368.433 716.95 l
379.158 716.95 l
379.158 723.355 l
389.886 723.355 l
389.886 736.447 l
400.615 736.447 l
400.615 750.754 l
411.348 750.754 l
411.348 759.371 l
422.083 759.371 l
422.083 762.264 l
432.82 762.264 l
432.82 767.624 l
443.56 767.624 l
443.56 779.09 l
454.302 779.09 l
454.302 776.1 l
465.047 776.1 l
465.047 777.657 l
475.794 777.657 l
475.794 785.423 l
486.543 785.423 l
486.543 786.851 l
497.295 786.851 l
497.295 786.243 l
508.05 786.243 l
508.05 780.241 l
518.807 780.241 l
518.807 775.207 l
529.567 775.207 l
529.567 780.639 l
540.329 780.639 l
540.329 784.088 l
551.093 784.088 l
551.093 783.331 l
561.86 783.331 l
561.86 781.52 l
572.63 781.52 l
572.63 783.187 l
583.401 783.187 l
583.401 783.038 l
594.176 783.038 l
594.176 781.29 l
604.953 781.29 l
604.953 780.701 l
615.732 780.701 l
615.732 782.391 l
626.514 782.391 l
626.514 786.452 l
637.298 786.452 l
637.298 787.767 l
648.085 787.767 l
648.085 783.547 l
658.875 783.547 l
658.875 782.914 l
669.666 782.914 l
669.666 779.622 l
680.461 779.622 l
680.461 786.726 l
691.257 786.726 l
691.257 781.076 l
702.057 781.076 l
702.057 779.218 l
712.858 779.218 l
712.858 782.95 l
721 782.95 l
721 782.95 l
stroke
grestore
0.196 0.804 0.196 setrgbcolor
gsave
202.1 734.2 260.2 87.38 clipbox
-1 673.665 m
5.25185 673.665 l
5.25185 689.962 l
15.8931 689.962 l
15.8931 696.579 l
26.5369 696.579 l
26.5369 691.712 l
37.183 691.712 l
37.183 689.653 l
47.8317 689.653 l
47.8317 692.682 l
58.4827 692.682 l
58.4827 688.403 l
69.1363 688.403 l
69.1363 688.693 l
79.7923 688.693 l
79.7923 692.735 l
90.4507 692.735 l
90.4507 697.451 l
101.112 697.451 l
101.112 702.025 l
111.775 702.025 l
111.775 701.089 l
122.441 701.089 l
122.441 696.685 l
133.109 696.685 l
133.109 695.33 l
154.453 695.291 l
154.453 691.667 l
165.129 691.667 l
165.129 687.11 l
175.807 687.11 l
175.807 689.872 l
186.487 689.872 l
186.487 692.33 l
197.17 692.33 l
197.17 693.462 l
207.856 693.462 l
207.856 692.901 l
218.544 692.901 l
218.544 689.444 l
229.234 689.444 l
229.234 690.544 l
239.927 690.544 l
239.927 694.686 l
250.622 694.686 l
250.622 691.343 l
261.32 691.343 l
261.32 693.913 l
272.02 693.913 l
272.02 692.069 l
282.723 692.069 l
282.723 687.167 l
293.428 687.167 l
293.428 685.39 l
304.136 685.39 l
304.136 681.209 l
314.846 681.209 l
314.846 680.533 l
325.558 680.533 l
325.558 676.246 l
336.273 676.246 l
336.273 660.533 l
346.991 660.533 l
346.991 642.147 l
357.711 642.147 l
357.711 633.711 l
368.433 633.711 l
368.433 632.32 l
379.158 632.32 l
379.158 637.293 l
389.886 637.293 l
389.886 650.037 l
400.615 650.037 l
400.615 658.53 l
411.348 658.53 l
411.348 666.456 l
422.083 666.456 l
422.083 679.607 l
432.82 679.607 l
432.82 685.229 l
443.56 685.229 l
443.56 688.673 l
454.302 688.673 l
454.302 693.034 l
465.047 693.034 l
465.047 689.488 l
475.794 689.488 l
475.794 688.588 l
486.543 688.588 l
486.543 698.99 l
497.295 698.99 l
497.295 697.777 l
508.05 697.777 l
508.05 688.885 l
518.807 688.885 l
518.807 690.215 l
529.567 690.215 l
529.567 694.402 l
540.329 694.402 l
540.329 696.161 l
551.093 696.161 l
551.093 696.835 l
561.86 696.835 l
561.86 697.739 l
572.63 697.739 l
572.63 695.008 l
583.401 695.008 l
583.401 686.892 l
604.953 686.858 l
604.953 698.129 l
615.732 698.129 l
615.732 694.862 l
626.514 694.862 l
626.514 695.869 l
637.298 695.869 l
637.298 702.395 l
648.085 702.395 l
648.085 706.793 l
658.875 706.793 l
658.875 703.696 l
669.666 703.696 l
669.666 697.305 l
680.461 697.305 l
680.461 693.55 l
691.257 693.55 l
691.257 694.729 l
702.057 694.729 l
702.057 699.293 l
712.858 699.293 l
712.858 692.973 l
721 692.973 l
721 692.973 l
stroke
grestore
1.000 0.000 0.000 setrgbcolor
gsave
202.1 734.2 260.2 87.38 clipbox
-1 584.886 m
5.25185 584.886 l
5.25185 599.44 l
15.8931 599.44 l
15.8931 606.505 l
26.5369 606.505 l
26.5369 605.897 l
37.183 605.897 l
37.183 606.576 l
47.8317 606.576 l
47.8317 605.164 l
58.4827 605.164 l
58.4827 601.097 l
69.1363 601.097 l
69.1363 605.02 l
79.7923 605.02 l
79.7923 606.328 l
90.4507 606.328 l
90.4507 610.155 l
101.112 610.155 l
101.112 613.546 l
111.775 613.546 l
111.775 609.868 l
122.441 609.868 l
122.441 607.434 l
133.109 607.434 l
133.109 604.926 l
143.78 604.926 l
143.78 607.082 l
154.453 607.082 l
154.453 605.764 l
165.129 605.764 l
165.129 610.151 l
175.807 610.151 l
175.807 600.712 l
186.487 600.712 l
186.487 605.753 l
197.17 605.753 l
197.17 611.245 l
207.856 611.245 l
207.856 604.414 l
218.544 604.414 l
218.544 601.836 l
229.234 601.836 l
229.234 604.154 l
239.927 604.154 l
239.927 602.896 l
250.622 602.896 l
250.622 612.485 l
261.32 612.485 l
261.32 605.894 l
272.02 605.894 l
272.02 602.469 l
282.723 602.469 l
282.723 600.857 l
293.428 600.857 l
293.428 596.282 l
304.136 596.282 l
304.136 594.103 l
314.846 594.103 l
314.846 591.753 l
325.558 591.753 l
325.558 584.587 l
336.273 584.587 l
336.273 573.577 l
346.991 573.577 l
346.991 557.259 l
357.711 557.259 l
357.711 545.37 l
368.433 545.37 l
368.433 544.709 l
379.158 544.709 l
379.158 550.627 l
389.886 550.627 l
389.886 559.854 l
400.615 559.854 l
400.615 573.759 l
411.348 573.759 l
411.348 584.139 l
422.083 584.139 l
422.083 589.725 l
432.82 589.725 l
432.82 594.885 l
443.56 594.885 l
443.56 600.361 l
454.302 600.361 l
454.302 603.597 l
465.047 603.597 l
465.047 601.146 l
475.794 601.146 l
475.794 598.654 l
486.543 598.654 l
486.543 607.95 l
497.295 607.95 l
497.295 607.531 l
508.05 607.531 l
508.05 608.245 l
518.807 608.245 l
518.807 607.104 l
529.567 607.104 l
529.567 603.928 l
551.093 603.902 l
551.093 609.437 l
561.86 609.437 l
561.86 613.998 l
572.63 613.998 l
572.63 606.648 l
583.401 606.648 l
583.401 609.635 l
594.176 609.635 l
594.176 610.262 l
604.953 610.262 l
604.953 608.453 l
615.732 608.453 l
615.732 615.465 l
626.514 615.465 l
626.514 612.069 l
637.298 612.069 l
637.298 611.068 l
648.085 611.068 l
648.085 614.628 l
658.875 614.628 l
658.875 609.994 l
669.666 609.994 l
669.666 611.185 l
680.461 611.185 l
680.461 613.505 l
691.257 613.505 l
691.257 611.914 l
702.057 611.914 l
702.057 605.759 l
712.858 605.759 l
712.858 608.509 l
721 608.509 l
721 608.509 l
stroke
grestore
0.855 0.647 0.125 setrgbcolor
gsave
202.1 734.2 260.2 87.38 clipbox
-1 493.017 m
5.25185 493.017 l
5.25185 511.92 l
15.8931 511.92 l
15.8931 516.277 l
26.5369 516.277 l
26.5369 523.354 l
37.183 523.354 l
37.183 517.103 l
47.8317 517.103 l
47.8317 521.9 l
58.4827 521.9 l
58.4827 523.324 l
69.1363 523.324 l
69.1363 519.335 l
79.7923 519.335 l
79.7923 516.495 l
90.4507 516.495 l
90.4507 519.141 l
101.112 519.141 l
101.112 522.108 l
111.775 522.108 l
111.775 520.179 l
122.441 520.179 l
122.441 525.377 l
133.109 525.377 l
133.109 521.894 l
143.78 521.894 l
143.78 522.838 l
154.453 522.838 l
154.453 526.617 l
165.129 526.617 l
165.129 520.226 l
175.807 520.226 l
175.807 518.84 l
186.487 518.84 l
186.487 485.982 l
197.17 485.982 l
197.17 629.969 l
207.856 629.969 l
207.856 794.684 l
218.544 794.684 l
218.544 501.043 l
229.234 501.043 l
229.234 512.794 l
239.927 512.794 l
239.927 520.909 l
250.622 520.909 l
250.622 519.965 l
261.32 519.965 l
261.32 522.729 l
272.02 522.729 l
272.02 513.378 l
282.723 513.378 l
282.723 512.192 l
293.428 512.192 l
293.428 510.853 l
304.136 510.853 l
304.136 507.388 l
314.846 507.388 l
314.846 507.801 l
325.558 507.801 l
325.558 503.182 l
336.273 503.182 l
336.273 497.366 l
346.991 497.366 l
346.991 477.051 l
357.711 477.051 l
357.711 463.024 l
368.433 463.024 l
368.433 456.56 l
379.158 456.56 l
379.158 458.759 l
389.886 458.759 l
389.886 467.099 l
400.615 467.099 l
400.615 477.985 l
411.348 477.985 l
411.348 494.099 l
422.083 494.099 l
422.083 502.841 l
432.82 502.841 l
432.82 501.65 l
443.56 501.65 l
443.56 517.328 l
454.302 517.328 l
454.302 514.615 l
465.047 514.615 l
465.047 518.645 l
475.794 518.645 l
475.794 514.031 l
486.543 514.031 l
486.543 519.695 l
497.295 519.695 l
497.295 527.359 l
508.05 527.359 l
508.05 520.468 l
518.807 520.468 l
518.807 517.46 l
529.567 517.46 l
529.567 521.522 l
540.329 521.522 l
540.329 517.131 l
561.86 517.042 l
561.86 523.945 l
572.63 523.945 l
572.63 520.868 l
583.401 520.868 l
583.401 520.125 l
594.176 520.125 l
594.176 524.428 l
615.732 524.481 l
615.732 526.017 l
626.514 526.017 l
626.514 527.97 l
637.298 527.97 l
637.298 525.921 l
648.085 525.921 l
648.085 523.232 l
658.875 523.232 l
658.875 524.303 l
669.666 524.303 l
669.666 524.553 l
680.461 524.553 l
680.461 521.87 l
691.257 521.87 l
691.257 518.513 l
702.057 518.513 l
702.057 519.204 l
712.858 519.204 l
712.858 516.891 l
721 516.891 l
721 516.891 l
stroke
grestore
0.294 0.000 0.510 setrgbcolor
gsave
202.1 734.2 260.2 87.38 clipbox
-1 407.187 m
5.25185 407.187 l
5.25185 421.691 l
15.8931 421.691 l
15.8931 434.216 l
26.5369 434.216 l
26.5369 438.711 l
37.183 438.711 l
37.183 437.003 l
47.8317 437.003 l
47.8317 433.706 l
58.4827 433.706 l
58.4827 437.102 l
69.1363 437.102 l
69.1363 435.38 l
79.7923 435.38 l
79.7923 433.168 l
90.4507 433.168 l
90.4507 434.627 l
101.112 434.627 l
101.112 442.426 l
111.775 442.426 l
111.775 444.491 l
122.441 444.491 l
122.441 437.519 l
133.109 437.519 l
133.109 433.623 l
143.78 433.623 l
143.78 436.142 l
154.453 436.142 l
154.453 435.064 l
165.129 435.064 l
165.129 434.413 l
175.807 434.413 l
175.807 436.43 l
186.487 436.43 l
186.487 438.588 l
197.17 438.588 l
197.17 435.482 l
207.856 435.482 l
207.856 432.197 l
218.544 432.197 l
218.544 428.663 l
229.234 428.663 l
229.234 432.175 l
239.927 432.175 l
239.927 440.586 l
250.622 440.586 l
250.622 436.519 l
272.02 436.431 l
272.02 435.803 l
282.723 435.803 l
282.723 430.889 l
293.428 430.889 l
293.428 429.603 l
304.136 429.603 l
304.136 424.592 l
314.846 424.592 l
314.846 418.774 l
325.558 418.774 l
325.558 417.966 l
336.273 417.966 l
336.273 411.449 l
346.991 411.449 l
346.991 396.16 l
357.711 396.16 l
357.711 383.824 l
368.433 383.824 l
368.433 370.478 l
379.158 370.478 l
379.158 370.642 l
389.886 370.642 l
389.886 385.281 l
400.615 385.281 l
400.615 400.066 l
411.348 400.066 l
411.348 409.831 l
422.083 409.831 l
422.083 413.721 l
432.82 413.721 l
432.82 420.938 l
443.56 420.938 l
443.56 425.665 l
454.302 425.665 l
454.302 427.392 l
465.047 427.392 l
465.047 431.255 l
475.794 431.255 l
475.794 429.256 l
486.543 429.256 l
486.543 438.943 l
497.295 438.943 l
497.295 438.268 l
508.05 438.268 l
508.05 440.695 l
518.807 440.695 l
518.807 436.582 l
529.567 436.582 l
529.567 434.83 l
540.329 434.83 l
540.329 429.642 l
551.093 429.642 l
551.093 433.89 l
561.86 433.89 l
561.86 441.555 l
572.63 441.555 l
572.63 434.771 l
583.401 434.771 l
583.401 431.852 l
594.176 431.852 l
594.176 440.066 l
604.953 440.066 l
604.953 435.88 l
615.732 435.88 l
615.732 440.419 l
626.514 440.419 l
626.514 442.465 l
637.298 442.465 l
637.298 439.459 l
648.085 439.459 l
648.085 442.26 l
658.875 442.26 l
658.875 445.209 l
669.666 445.209 l
669.666 442.654 l
680.461 442.654 l
680.461 439.752 l
691.257 439.752 l
691.257 438.603 l
702.057 438.603 l
702.057 436.047 l
712.858 436.047 l
712.858 438.171 l
721 438.171 l
721 438.171 l
stroke
grestore
0.627 0.322 0.176 setrgbcolor
gsave
202.1 734.2 260.2 87.38 clipbox
-1 316.654 m
5.25185 316.654 l
5.25185 330.095 l
15.8931 330.095 l
15.8931 340.035 l
26.5369 340.035 l
26.5369 347.248 l
37.183 347.248 l
37.183 350.368 l
47.8317 350.368 l
47.8317 347.394 l
58.4827 347.394 l
58.4827 347.675 l
69.1363 347.675 l
69.1363 347.899 l
79.7923 347.899 l
79.7923 346.09 l
90.4507 346.09 l
90.4507 348.357 l
101.112 348.357 l
101.112 350.944 l
111.775 350.944 l
111.775 346.522 l
122.441 346.522 l
122.441 350.48 l
133.109 350.48 l
133.109 355.541 l
143.78 355.541 l
143.78 347.413 l
154.453 347.413 l
154.453 346.568 l
165.129 346.568 l
165.129 345.919 l
186.487 345.953 l
186.487 348.206 l
197.17 348.206 l
197.17 346.429 l
207.856 346.429 l
207.856 346.144 l
218.544 346.144 l
218.544 350.334 l
229.234 350.334 l
229.234 345.936 l
239.927 345.936 l
239.927 345.689 l
250.622 345.689 l
250.622 349.091 l
261.32 349.091 l
261.32 350.222 l
272.02 350.222 l
272.02 351.458 l
282.723 351.458 l
282.723 345.647 l
293.428 345.647 l
293.428 338.322 l
314.846 338.292 l
314.846 337.904 l
325.558 337.904 l
325.558 336.482 l
336.273 336.482 l
336.273 334.206 l
346.991 334.206 l
346.991 313.445 l
357.711 313.445 l
357.711 300.261 l
368.433 300.261 l
368.433 288.683 l
379.158 288.683 l
379.158 284.538 l
389.886 284.538 l
389.886 289.738 l
400.615 289.738 l
400.615 304.368 l
411.348 304.368 l
411.348 321.293 l
422.083 321.293 l
422.083 328.786 l
432.82 328.786 l
432.82 332.267 l
443.56 332.267 l
443.56 340.956 l
454.302 340.956 l
454.302 337.571 l
465.047 337.571 l
465.047 342.609 l
475.794 342.609 l
475.794 345.104 l
486.543 345.104 l
486.543 345.851 l
497.295 345.851 l
497.295 348.358 l
508.05 348.358 l
508.05 350.277 l
518.807 350.277 l
518.807 351.607 l
529.567 351.607 l
529.567 348.586 l
540.329 348.586 l
540.329 340.172 l
551.093 340.172 l
551.093 347.928 l
561.86 347.928 l
561.86 345.457 l
572.63 345.457 l
572.63 352.422 l
583.401 352.422 l
583.401 349.663 l
594.176 349.663 l
594.176 353.242 l
604.953 353.242 l
604.953 352.229 l
615.732 352.229 l
615.732 350.999 l
626.514 350.999 l
626.514 351.531 l
637.298 351.531 l
637.298 351.932 l
648.085 351.932 l
648.085 354.569 l
658.875 354.569 l
658.875 348.277 l
669.666 348.277 l
669.666 353.123 l
680.461 353.123 l
680.461 351.959 l
691.257 351.959 l
691.257 351.409 l
702.057 351.409 l
702.057 351.208 l
712.858 351.208 l
712.858 349.718 l
721 349.718 l
721 349.718 l
stroke
grestore
0.000 0.980 0.604 setrgbcolor
gsave
202.1 734.2 260.2 87.38 clipbox
-1 231.098 m
5.25185 231.098 l
5.25185 244.383 l
15.8931 244.383 l
15.8931 254.858 l
26.5369 254.858 l
26.5369 264.725 l
37.183 264.725 l
37.183 266.012 l
47.8317 266.012 l
47.8317 260.219 l
58.4827 260.219 l
58.4827 266.741 l
69.1363 266.741 l
69.1363 260.232 l
79.7923 260.232 l
79.7923 258.932 l
90.4507 258.932 l
90.4507 255.262 l
101.112 255.262 l
101.112 265.141 l
111.775 265.141 l
111.775 267.885 l
122.441 267.885 l
122.441 262.338 l
133.109 262.338 l
133.109 257.636 l
143.78 257.636 l
143.78 258.323 l
154.453 258.323 l
154.453 264.454 l
165.129 264.454 l
165.129 262.799 l
175.807 262.799 l
175.807 261.133 l
186.487 261.133 l
186.487 258.06 l
197.17 258.06 l
197.17 265.222 l
207.856 265.222 l
207.856 267.416 l
218.544 267.416 l
218.544 262.529 l
229.234 262.529 l
229.234 258.027 l
239.927 258.027 l
239.927 260.449 l
250.622 260.449 l
250.622 263.734 l
261.32 263.734 l
261.32 259.418 l
272.02 259.418 l
272.02 260.511 l
282.723 260.511 l
282.723 261.323 l
293.428 261.323 l
293.428 252.758 l
304.136 252.758 l
304.136 252.199 l
314.846 252.199 l
314.846 249.281 l
325.558 249.281 l
325.558 251.965 l
336.273 251.965 l
336.273 245.406 l
346.991 245.406 l
346.991 230.228 l
357.711 230.228 l
357.711 215.652 l
368.433 215.652 l
368.433 200.677 l
379.158 200.677 l
379.158 196.273 l
389.886 196.273 l
389.886 204.289 l
400.615 204.289 l
400.615 218.742 l
411.348 218.742 l
411.348 231.214 l
422.083 231.214 l
422.083 241.074 l
432.82 241.074 l
432.82 248.635 l
443.56 248.635 l
443.56 248.38 l
454.302 248.38 l
454.302 250.564 l
465.047 250.564 l
465.047 256.234 l
475.794 256.234 l
475.794 259.566 l
486.543 259.566 l
486.543 266.169 l
497.295 266.169 l
497.295 261.037 l
508.05 261.037 l
508.05 265.604 l
518.807 265.604 l
518.807 264.121 l
529.567 264.121 l
529.567 261.897 l
540.329 261.897 l
540.329 259.201 l
551.093 259.201 l
551.093 258.463 l
561.86 258.463 l
561.86 265.396 l
572.63 265.396 l
572.63 268.566 l
583.401 268.566 l
583.401 262.947 l
594.176 262.947 l
594.176 264.679 l
604.953 264.679 l
604.953 266.804 l
615.732 266.804 l
615.732 265.602 l
626.514 265.602 l
626.514 263.158 l
637.298 263.158 l
637.298 265.398 l
648.085 265.398 l
648.085 264.153 l
658.875 264.153 l
658.875 266.296 l
669.666 266.296 l
669.666 268.756 l
680.461 268.756 l
680.461 269.829 l
691.257 269.829 l
691.257 269.316 l
702.057 269.316 l
702.057 263.873 l
712.858 263.873 l
712.858 260.212 l
721 260.212 l
721 260.212 l
stroke
grestore
0.000 setgray
gsave
202.1 734.2 260.2 87.38 clipbox
-1 160.845 m
5.25185 160.845 l
5.25185 168.192 l
15.8931 168.192 l
15.8931 174.558 l
26.5369 174.558 l
26.5369 175.781 l
37.183 175.781 l
37.183 172.163 l
47.8317 172.163 l
47.8317 170.316 l
58.4827 170.316 l
58.4827 174.09 l
69.1363 174.09 l
69.1363 177.113 l
79.7923 177.113 l
79.7923 174.103 l
90.4507 174.103 l
90.4507 176.092 l
101.112 176.092 l
101.112 180.013 l
111.775 180.013 l
111.775 174.884 l
122.441 174.884 l
122.441 178.033 l
133.109 178.033 l
133.109 178.316 l
143.78 178.316 l
143.78 180.016 l
154.453 180.016 l
154.453 183.762 l
165.129 183.762 l
165.129 178.189 l
175.807 178.189 l
175.807 172.503 l
186.487 172.503 l
186.487 173.652 l
197.17 173.652 l
197.17 179.354 l
207.856 179.354 l
207.856 176.32 l
218.544 176.32 l
218.544 175.243 l
229.234 175.243 l
229.234 187.49 l
239.927 187.49 l
239.927 178.088 l
250.622 178.088 l
250.622 175.964 l
261.32 175.964 l
261.32 178.838 l
272.02 178.838 l
272.02 164.529 l
282.723 164.529 l
282.723 165.019 l
293.428 165.019 l
293.428 168.73 l
304.136 168.73 l
304.136 165.445 l
314.846 165.445 l
314.846 159.974 l
325.558 159.974 l
325.558 146.942 l
336.273 146.942 l
336.273 135.471 l
346.991 135.471 l
346.991 124.887 l
357.711 124.887 l
357.711 115.507 l
368.433 115.507 l
368.433 115.237 l
379.158 115.237 l
379.158 122.593 l
389.886 122.593 l
389.886 131.417 l
400.615 131.417 l
400.615 147.329 l
411.348 147.329 l
411.348 154.135 l
422.083 154.135 l
422.083 164.618 l
432.82 164.618 l
432.82 171.698 l
443.56 171.698 l
443.56 174.283 l
454.302 174.283 l
454.302 172.864 l
465.047 172.864 l
465.047 175.548 l
475.794 175.548 l
475.794 176.976 l
486.543 176.976 l
486.543 173.871 l
497.295 173.871 l
497.295 175.204 l
508.05 175.204 l
508.05 179.499 l
518.807 179.499 l
518.807 177.008 l
529.567 177.008 l
529.567 177.378 l
540.329 177.378 l
540.329 178.374 l
551.093 178.374 l
551.093 180.288 l
561.86 180.288 l
561.86 180.027 l
572.63 180.027 l
572.63 175.652 l
583.401 175.652 l
583.401 174.567 l
594.176 174.567 l
594.176 177.786 l
604.953 177.786 l
604.953 182.258 l
615.732 182.258 l
615.732 186.496 l
626.514 186.496 l
626.514 180.164 l
637.298 180.164 l
637.298 181.697 l
648.085 181.697 l
648.085 186.77 l
658.875 186.77 l
658.875 174.696 l
669.666 174.696 l
669.666 181.974 l
680.461 181.974 l
680.461 181.823 l
691.257 181.823 l
691.257 177.818 l
702.057 177.818 l
702.057 177.255 l
712.858 177.255 l
712.858 175.789 l
721 175.789 l
721 175.789 l
stroke
grestore
0 setlinecap
gsave
/o {
gsave
newpath
translate
1.5 setlinewidth
1 setlinejoin
0 setlinecap
0 0 m
0 14 l
gsave
0.000 setgray
fill
grestore
stroke
grestore
} bind def
275.785 87.383 o
grestore
gsave
/o {
gsave
newpath
translate
1.5 setlinewidth
1 setlinejoin
0 setlinecap
0 0 m
0 -14 l
gsave
0.000 setgray
fill
grestore
stroke
grestore
} bind def
275.785 821.56 o
grestore
/BitstreamVeraSans-Roman findfont
18.000 scalefont
setfont
gsave
264.211848 40.989783 translate
45.000000 rotate
0.000000 0.250000 m /minus glyphshow
15.082031 0.250000 m /eight glyphshow
26.534180 0.250000 m /zero glyphshow
37.986328 0.250000 m /zero glyphshow
grestore
gsave
/o {
gsave
newpath
translate
1.5 setlinewidth
1 setlinejoin
0 setlinecap
0 0 m
0 14 l
gsave
0.000 setgray
fill
grestore
stroke
grestore
} bind def
306.876 87.383 o
grestore
gsave
/o {
gsave
newpath
translate
1.5 setlinewidth
1 setlinejoin
0 setlinecap
0 0 m
0 -14 l
gsave
0.000 setgray
fill
grestore
stroke
grestore
} bind def
306.876 821.56 o
grestore
gsave
295.302724 40.989783 translate
45.000000 rotate
0.000000 0.250000 m /minus glyphshow
15.082031 0.250000 m /six glyphshow
26.534180 0.250000 m /zero glyphshow
37.986328 0.250000 m /zero glyphshow
grestore
gsave
/o {
gsave
newpath
translate
1.5 setlinewidth
1 setlinejoin
0 setlinecap
0 0 m
0 14 l
gsave
0.000 setgray
fill
grestore
stroke
grestore
} bind def
337.967 87.383 o
grestore
gsave
/o {
gsave
newpath
translate
1.5 setlinewidth
1 setlinejoin
0 setlinecap
0 0 m
0 -14 l
gsave
0.000 setgray
fill
grestore
stroke
grestore
} bind def
337.967 821.56 o
grestore
gsave
326.393599 40.989783 translate
45.000000 rotate
0.000000 0.250000 m /minus glyphshow
15.082031 0.250000 m /four glyphshow
26.534180 0.250000 m /zero glyphshow
37.986328 0.250000 m /zero glyphshow
grestore
gsave
/o {
gsave
newpath
translate
1.5 setlinewidth
1 setlinejoin
0 setlinecap
0 0 m
0 14 l
gsave
0.000 setgray
fill
grestore
stroke
grestore
} bind def
369.058 87.383 o
grestore
gsave
/o {
gsave
newpath
translate
1.5 setlinewidth
1 setlinejoin
0 setlinecap
0 0 m
0 -14 l
gsave
0.000 setgray
fill
grestore
stroke
grestore
} bind def
369.058 821.56 o
grestore
gsave
357.484475 40.989783 translate
45.000000 rotate
0.000000 0.250000 m /minus glyphshow
15.082031 0.250000 m /two glyphshow
26.534180 0.250000 m /zero glyphshow
37.986328 0.250000 m /zero glyphshow
grestore
gsave
/o {
gsave
newpath
translate
1.5 setlinewidth
1 setlinejoin
0 setlinecap
0 0 m
0 14 l
gsave
0.000 setgray
fill
grestore
stroke
grestore
} bind def
400.149 87.383 o
grestore
gsave
/o {
gsave
newpath
translate
1.5 setlinewidth
1 setlinejoin
0 setlinecap
0 0 m
0 -14 l
gsave
0.000 setgray
fill
grestore
stroke
grestore
} bind def
400.149 821.56 o
grestore
gsave
401.750738 67.340559 translate
45.000000 rotate
0.000000 0.250000 m /zero glyphshow
grestore
gsave
/o {
gsave
newpath
translate
1.5 setlinewidth
1 setlinejoin
0 setlinecap
0 0 m
0 14 l
gsave
0.000 setgray
fill
grestore
stroke
grestore
} bind def
431.24 87.383 o
grestore
gsave
/o {
gsave
newpath
translate
1.5 setlinewidth
1 setlinejoin
0 setlinecap
0 0 m
0 -14 l
gsave
0.000 setgray
fill
grestore
stroke
grestore
} bind def
431.24 821.56 o
grestore
gsave
424.787225 51.231782 translate
45.000000 rotate
0.000000 0.250000 m /two glyphshow
11.452148 0.250000 m /zero glyphshow
22.904297 0.250000 m /zero glyphshow
grestore
gsave
/o {
gsave
newpath
translate
1.5 setlinewidth
1 setlinejoin
0 setlinecap
0 0 m
0 14 l
gsave
0.000 setgray
fill
grestore
stroke
grestore
} bind def
462.33 87.383 o
grestore
gsave
/o {
gsave
newpath
translate
1.5 setlinewidth
1 setlinejoin
0 setlinecap
0 0 m
0 -14 l
gsave
0.000 setgray
fill
grestore
stroke
grestore
} bind def
462.33 821.56 o
grestore
gsave
455.723421 50.922423 translate
45.000000 rotate
0.000000 0.250000 m /four glyphshow
11.452148 0.250000 m /zero glyphshow
22.904297 0.250000 m /zero glyphshow
grestore
gsave
295.152293 18.567908 translate
0.000000 rotate
0.000000 3.750000 m /V glyphshow
10.938477 3.750000 m /e glyphshow
22.012695 3.750000 m /l glyphshow
27.013672 3.750000 m /o glyphshow
38.026367 3.750000 m /c glyphshow
47.922852 3.750000 m /i glyphshow
52.923828 3.750000 m /t glyphshow
59.981445 3.750000 m /y glyphshow
70.633789 3.750000 m /space glyphshow
76.355469 3.750000 m /parenleft glyphshow
83.377930 3.750000 m /k glyphshow
93.801758 3.750000 m /m glyphshow
111.335938 3.750000 m /slash glyphshow
117.400391 3.750000 m /s glyphshow
126.778320 3.750000 m /parenright glyphshow
grestore
1.750 setlinewidth
2 setlinecap
gsave
260.24 821.56 m
462.33 821.56 l
stroke
grestore
gsave
462.33 87.383 m
462.33 821.56 l
stroke
grestore
gsave
260.24 87.383 m
462.33 87.383 l
stroke
grestore
gsave
260.24 87.383 m
260.24 821.56 l
stroke
grestore
/BitstreamVeraSans-Roman findfont
21.600 scalefont
setfont
gsave
336.605418 826.247500 translate
0.000000 rotate
0.000000 0.312500 m /C glyphshow
15.077667 0.312500 m /a glyphshow
28.310165 0.312500 m /space glyphshow
35.174194 0.312500 m /H glyphshow
grestore
gsave
482.54 87.383 m
684.63 87.383 l
684.63 821.56 l
482.54 821.56 l
cl
1.000 setgray
fill
grestore
1.500 setlinewidth
0 setlinecap
[6 6] 0 setdash
gsave
202.1 734.2 482.5 87.38 clipbox
593.689 87.383 m
593.689 821.56 l
stroke
grestore
2 setlinecap
[] 0 setdash
0.118 0.565 1.000 setrgbcolor
gsave
202.1 734.2 482.5 87.38 clipbox
-1 779.854 m
8.53854 779.854 l
8.53854 780.174 l
19.1294 780.174 l
19.1294 779.975 l
29.7227 779.975 l
29.7227 782.714 l
40.3184 782.714 l
40.3184 779.324 l
50.9165 779.324 l
50.9165 780.321 l
61.5171 780.321 l
61.5171 778.624 l
72.1202 778.624 l
72.1202 779.683 l
82.7257 779.683 l
82.7257 780.372 l
93.3336 780.372 l
93.3336 778.312 l
103.944 778.312 l
103.944 774.473 l
114.557 774.473 l
114.557 775.997 l
125.172 775.997 l
125.172 776.397 l
135.79 776.397 l
135.79 778.394 l
146.41 778.394 l
146.41 778.211 l
157.032 778.211 l
157.032 777.161 l
167.657 777.161 l
167.657 776.475 l
178.285 776.475 l
178.285 776.817 l
188.915 776.817 l
188.915 779.433 l
199.547 779.433 l
199.547 779.796 l
210.182 779.796 l
210.182 778.438 l
220.819 778.438 l
220.819 779.409 l
231.459 779.409 l
231.459 777.613 l
242.101 777.613 l
242.101 778.173 l
252.746 778.173 l
252.746 779.765 l
263.393 779.765 l
263.393 778.612 l
274.043 778.612 l
274.043 779.53 l
284.695 779.53 l
284.695 775.812 l
306.006 775.824 l
306.006 778.699 l
316.665 778.699 l
316.665 780.896 l
327.327 780.896 l
327.327 779.38 l
337.991 779.38 l
337.991 777.729 l
348.658 777.729 l
348.658 778.994 l
359.327 778.994 l
359.327 779.771 l
369.999 779.771 l
369.999 779.202 l
391.349 779.099 l
391.349 778.46 l
402.028 778.46 l
402.028 778.707 l
412.71 778.707 l
412.71 778.005 l
423.394 778.005 l
423.394 776.402 l
434.08 776.402 l
434.08 776.641 l
444.769 776.641 l
444.769 777.839 l
455.46 777.839 l
455.46 778.761 l
466.154 778.761 l
466.154 776.157 l
476.85 776.157 l
476.85 778.234 l
487.549 778.234 l
487.549 776.901 l
498.25 776.901 l
498.25 776.333 l
508.954 776.333 l
508.954 775.641 l
519.66 775.641 l
519.66 773.979 l
530.368 773.979 l
530.368 771.871 l
541.079 771.871 l
541.079 771.055 l
551.793 771.055 l
551.793 769.925 l
562.509 769.925 l
562.509 762.203 l
573.227 762.203 l
573.227 751.892 l
583.948 751.892 l
583.948 744.05 l
594.671 744.05 l
594.671 750.218 l
605.397 750.218 l
605.397 760.928 l
616.125 760.928 l
616.125 766.226 l
626.856 766.226 l
626.856 770.812 l
637.589 770.812 l
637.589 772.386 l
648.325 772.386 l
648.325 772.115 l
659.063 772.115 l
659.063 772.746 l
669.804 772.746 l
669.804 773.748 l
680.547 773.748 l
680.547 776.294 l
691.293 776.294 l
691.293 777.627 l
702.041 777.627 l
702.041 775.279 l
712.791 775.279 l
712.791 775.72 l
721 775.72 l
721 775.72 l
stroke
grestore
0.196 0.804 0.196 setrgbcolor
gsave
202.1 734.2 482.5 87.38 clipbox
-1 690.941 m
8.53854 690.941 l
8.53854 692.603 l
19.1294 692.603 l
19.1294 693.788 l
29.7227 693.788 l
29.7227 693.157 l
40.3184 693.157 l
40.3184 691.426 l
50.9165 691.426 l
50.9165 691.929 l
61.5171 691.929 l
61.5171 693.498 l
72.1202 693.498 l
72.1202 691.06 l
82.7257 691.06 l
82.7257 690.794 l
93.3336 690.794 l
93.3336 688.753 l
103.944 688.753 l
103.944 687.922 l
135.79 687.89 l
135.79 690.778 l
146.41 690.778 l
146.41 690.454 l
157.032 690.454 l
157.032 691.087 l
167.657 691.087 l
167.657 692.397 l
178.285 692.397 l
178.285 695.08 l
188.915 695.08 l
188.915 692.712 l
199.547 692.712 l
199.547 695.092 l
210.182 695.092 l
210.182 691.831 l
220.819 691.831 l
220.819 690.517 l
231.459 690.517 l
231.459 692.339 l
242.101 692.339 l
242.101 692.123 l
263.393 692.032 l
263.393 692.733 l
274.043 692.733 l
274.043 691.623 l
295.349 691.575 l
295.349 692.779 l
306.006 692.779 l
306.006 691.892 l
316.665 691.892 l
316.665 691.373 l
327.327 691.373 l
327.327 689.407 l
337.991 689.407 l
337.991 690.827 l
348.658 690.827 l
348.658 691.647 l
359.327 691.647 l
359.327 694.47 l
369.999 694.47 l
369.999 690.775 l
380.673 690.775 l
380.673 690.971 l
391.349 690.971 l
391.349 690.596 l
402.028 690.596 l
402.028 692.07 l
412.71 692.07 l
412.71 692.444 l
423.394 692.444 l
423.394 691.639 l
444.769 691.558 l
444.769 692.805 l
455.46 692.805 l
455.46 691.676 l
466.154 691.676 l
466.154 688.682 l
476.85 688.682 l
476.85 688.935 l
487.549 688.935 l
487.549 691.038 l
498.25 691.038 l
498.25 690.651 l
508.954 690.651 l
508.954 688.101 l
519.66 688.101 l
519.66 687.573 l
530.368 687.573 l
530.368 687.198 l
541.079 687.198 l
541.079 684.128 l
551.793 684.128 l
551.793 682.573 l
562.509 682.573 l
562.509 677.33 l
573.227 677.33 l
573.227 666.031 l
583.948 666.031 l
583.948 658.852 l
594.671 658.852 l
594.671 663.981 l
605.397 663.981 l
605.397 676.901 l
616.125 676.901 l
616.125 681.186 l
626.856 681.186 l
626.856 683.673 l
637.589 683.673 l
637.589 687.617 l
648.325 687.617 l
648.325 687.908 l
659.063 687.908 l
659.063 688.45 l
669.804 688.45 l
669.804 687.057 l
680.547 687.057 l
680.547 687.518 l
691.293 687.518 l
691.293 689.501 l
702.041 689.501 l
702.041 689.824 l
712.791 689.824 l
712.791 688.832 l
721 688.832 l
721 688.832 l
stroke
grestore
1.000 0.000 0.000 setrgbcolor
gsave
202.1 734.2 482.5 87.38 clipbox
-1 604.75 m
8.53854 604.75 l
8.53854 607.072 l
19.1294 607.072 l
19.1294 607.795 l
29.7227 607.795 l
29.7227 606.294 l
40.3184 606.294 l
40.3184 607.323 l
50.9165 607.323 l
50.9165 607.621 l
61.5171 607.621 l
61.5171 607.022 l
82.7257 607.087 l
82.7257 606.189 l
93.3336 606.189 l
93.3336 603.11 l
103.944 603.11 l
103.944 602.984 l
114.557 602.984 l
114.557 602.223 l
125.172 602.223 l
125.172 603.439 l
135.79 603.439 l
135.79 603.579 l
146.41 603.579 l
146.41 606.524 l
167.657 606.428 l
167.657 605.094 l
178.285 605.094 l
178.285 603.613 l
188.915 603.613 l
188.915 607.174 l
199.547 607.174 l
199.547 607.964 l
210.182 607.964 l
210.182 603.959 l
220.819 603.959 l
220.819 605.618 l
231.459 605.618 l
231.459 606.273 l
242.101 606.273 l
242.101 607.132 l
252.746 607.132 l
252.746 607.268 l
263.393 607.268 l
263.393 608.477 l
274.043 608.477 l
274.043 607.135 l
284.695 607.135 l
284.695 605.548 l
295.349 605.548 l
295.349 606.511 l
306.006 606.511 l
306.006 605.615 l
316.665 605.615 l
316.665 607.945 l
327.327 607.945 l
327.327 606.105 l
337.991 606.105 l
337.991 605.443 l
348.658 605.443 l
348.658 606.826 l
359.327 606.826 l
359.327 607.522 l
369.999 607.522 l
369.999 606.322 l
380.673 606.322 l
380.673 605.005 l
391.349 605.005 l
391.349 604.677 l
402.028 604.677 l
402.028 605.761 l
412.71 605.761 l
412.71 605.344 l
423.394 605.344 l
423.394 605.717 l
434.08 605.717 l
434.08 605.548 l
444.769 605.548 l
444.769 605.246 l
455.46 605.246 l
455.46 604.222 l
466.154 604.222 l
466.154 600.424 l
476.85 600.424 l
476.85 604.052 l
487.549 604.052 l
487.549 605.002 l
498.25 605.002 l
498.25 601.905 l
508.954 601.905 l
508.954 603.273 l
519.66 603.273 l
519.66 602.902 l
530.368 602.902 l
530.368 599.616 l
541.079 599.616 l
541.079 597.891 l
551.793 597.891 l
551.793 594.508 l
562.509 594.508 l
562.509 590.784 l
573.227 590.784 l
573.227 578.615 l
583.948 578.615 l
583.948 571.2 l
594.671 571.2 l
594.671 577.046 l
605.397 577.046 l
605.397 589.188 l
616.125 589.188 l
616.125 597.639 l
626.856 597.639 l
626.856 600.972 l
637.589 600.972 l
637.589 599.616 l
648.325 599.616 l
648.325 601.336 l
659.063 601.336 l
659.063 600.974 l
669.804 600.974 l
669.804 601.5 l
680.547 601.5 l
680.547 602.933 l
691.293 602.933 l
691.293 602.517 l
702.041 602.517 l
702.041 602.948 l
712.791 602.948 l
712.791 602.694 l
721 602.694 l
721 602.694 l
stroke
grestore
0.855 0.647 0.125 setrgbcolor
gsave
202.1 734.2 482.5 87.38 clipbox
-1 520.829 m
8.53854 520.829 l
8.53854 521.372 l
29.7227 521.403 l
29.7227 520.316 l
40.3184 520.316 l
40.3184 521.048 l
50.9165 521.048 l
50.9165 521.719 l
61.5171 521.719 l
61.5171 519.225 l
72.1202 519.225 l
72.1202 519.415 l
82.7257 519.415 l
82.7257 519.924 l
93.3336 519.924 l
93.3336 520.121 l
103.944 520.121 l
103.944 517.425 l
114.557 517.425 l
114.557 514.208 l
125.172 514.208 l
125.172 517.063 l
135.79 517.063 l
135.79 518.234 l
146.41 518.234 l
146.41 521.416 l
157.032 521.416 l
157.032 520.382 l
167.657 520.382 l
167.657 521.889 l
178.285 521.889 l
178.285 522.718 l
188.915 522.718 l
188.915 520.62 l
199.547 520.62 l
199.547 520.4 l
210.182 520.4 l
210.182 520.537 l
220.819 520.537 l
220.819 520.264 l
231.459 520.264 l
231.459 520.896 l
242.101 520.896 l
242.101 521.029 l
252.746 521.029 l
252.746 520.388 l
263.393 520.388 l
263.393 516.826 l
274.043 516.826 l
274.043 518.759 l
284.695 518.759 l
284.695 515.896 l
295.349 515.896 l
295.349 520.48 l
306.006 520.48 l
306.006 515.551 l
316.665 515.551 l
316.665 522.973 l
327.327 522.973 l
327.327 519.434 l
337.991 519.434 l
337.991 518.42 l
348.658 518.42 l
348.658 518.879 l
369.999 518.83 l
369.999 520.67 l
380.673 520.67 l
380.673 518.706 l
391.349 518.706 l
391.349 519.424 l
412.71 519.395 l
412.71 518.454 l
423.394 518.454 l
423.394 516.496 l
434.08 516.496 l
434.08 514.393 l
444.769 514.393 l
444.769 516.171 l
455.46 516.171 l
455.46 519.452 l
466.154 519.452 l
466.154 517.522 l
476.85 517.522 l
476.85 513.684 l
487.549 513.684 l
487.549 517.329 l
498.25 517.329 l
498.25 515.581 l
508.954 515.581 l
508.954 516.375 l
519.66 516.375 l
519.66 513.032 l
541.079 513.059 l
541.079 509.686 l
562.509 509.705 l
562.509 508.479 l
573.227 508.479 l
573.227 500.512 l
583.948 500.512 l
583.948 486.926 l
594.671 486.926 l
594.671 486.419 l
605.397 486.419 l
605.397 496.37 l
616.125 496.37 l
616.125 506.172 l
626.856 506.172 l
626.856 508.831 l
637.589 508.831 l
637.589 511.523 l
648.325 511.523 l
648.325 513.184 l
659.063 513.184 l
659.063 513.656 l
669.804 513.656 l
669.804 514.41 l
680.547 514.41 l
680.547 516.348 l
691.293 516.348 l
691.293 516.567 l
702.041 516.567 l
702.041 515.857 l
712.791 515.857 l
712.791 519.016 l
721 519.016 l
721 519.016 l
stroke
grestore
0.294 0.000 0.510 setrgbcolor
gsave
202.1 734.2 482.5 87.38 clipbox
-1 434.879 m
8.53854 434.879 l
8.53854 432.947 l
19.1294 432.947 l
19.1294 433.454 l
29.7227 433.454 l
29.7227 432.664 l
40.3184 432.664 l
40.3184 430.487 l
50.9165 430.487 l
50.9165 431.301 l
61.5171 431.301 l
61.5171 433.5 l
72.1202 433.5 l
72.1202 431.076 l
82.7257 431.076 l
82.7257 430.351 l
93.3336 430.351 l
93.3336 431.345 l
103.944 431.345 l
103.944 430.587 l
114.557 430.587 l
114.557 428.871 l
125.172 428.871 l
125.172 427.616 l
135.79 427.616 l
135.79 431.366 l
146.41 431.366 l
146.41 431.236 l
157.032 431.236 l
157.032 434.197 l
167.657 434.197 l
167.657 433.463 l
178.285 433.463 l
178.285 434.17 l
199.547 434.144 l
199.547 432.974 l
220.819 432.948 l
220.819 434.718 l
231.459 434.718 l
231.459 433.784 l
242.101 433.784 l
242.101 431.687 l
263.393 431.577 l
263.393 432.35 l
274.043 432.35 l
274.043 433.703 l
284.695 433.703 l
284.695 433.492 l
295.349 433.492 l
295.349 430.948 l
306.006 430.948 l
306.006 432.019 l
316.665 432.019 l
316.665 433.177 l
327.327 433.177 l
327.327 431.375 l
337.991 431.375 l
337.991 431.88 l
348.658 431.88 l
348.658 431.025 l
359.327 431.025 l
359.327 434.223 l
369.999 434.223 l
369.999 433.926 l
380.673 433.926 l
380.673 431.45 l
391.349 431.45 l
391.349 431.915 l
402.028 431.915 l
402.028 432.292 l
412.71 432.292 l
412.71 433.386 l
423.394 433.386 l
423.394 433.827 l
434.08 433.827 l
434.08 434.384 l
444.769 434.384 l
444.769 431.165 l
466.154 431.193 l
466.154 431.833 l
476.85 431.833 l
476.85 431.067 l
487.549 431.067 l
487.549 430.654 l
498.25 430.654 l
498.25 430.076 l
508.954 430.076 l
508.954 429.502 l
519.66 429.502 l
519.66 428.538 l
530.368 428.538 l
530.368 427.696 l
541.079 427.696 l
541.079 427.91 l
551.793 427.91 l
551.793 425.482 l
562.509 425.482 l
562.509 419.478 l
573.227 419.478 l
573.227 412.03 l
583.948 412.03 l
583.948 403.14 l
594.671 403.14 l
594.671 399.734 l
605.397 399.734 l
605.397 410.272 l
616.125 410.272 l
616.125 419.068 l
626.856 419.068 l
626.856 421.626 l
637.589 421.626 l
637.589 425.521 l
648.325 425.521 l
648.325 429.063 l
669.804 429.086 l
669.804 428.314 l
680.547 428.314 l
680.547 430.659 l
691.293 430.659 l
691.293 431.357 l
702.041 431.357 l
702.041 430.216 l
712.791 430.216 l
712.791 432.02 l
721 432.02 l
721 432.02 l
stroke
grestore
0.627 0.322 0.176 setrgbcolor
gsave
202.1 734.2 482.5 87.38 clipbox
-1 346.101 m
8.53854 346.101 l
8.53854 347.081 l
19.1294 347.081 l
19.1294 346.11 l
29.7227 346.11 l
29.7227 345.603 l
40.3184 345.603 l
40.3184 346.089 l
50.9165 346.089 l
50.9165 348.381 l
61.5171 348.381 l
61.5171 346.847 l
72.1202 346.847 l
72.1202 348.586 l
82.7257 348.586 l
82.7257 345.697 l
93.3336 345.697 l
93.3336 345.544 l
103.944 345.544 l
103.944 345.406 l
114.557 345.406 l
114.557 345.777 l
125.172 345.777 l
125.172 343.628 l
135.79 343.628 l
135.79 345.866 l
146.41 345.866 l
146.41 346.133 l
157.032 346.133 l
157.032 345.406 l
167.657 345.406 l
167.657 347.059 l
178.285 347.059 l
178.285 348.281 l
188.915 348.281 l
188.915 347.762 l
199.547 347.762 l
199.547 348.414 l
210.182 348.414 l
210.182 350.571 l
220.819 350.571 l
220.819 347.906 l
231.459 347.906 l
231.459 347.437 l
242.101 347.437 l
242.101 348.696 l
252.746 348.696 l
252.746 345.079 l
263.393 345.079 l
263.393 346.464 l
274.043 346.464 l
274.043 347.205 l
284.695 347.205 l
284.695 345.094 l
306.006 345.165 l
306.006 348.197 l
316.665 348.197 l
316.665 345.298 l
327.327 345.298 l
327.327 347.584 l
337.991 347.584 l
337.991 346.838 l
348.658 346.838 l
348.658 346.083 l
359.327 346.083 l
359.327 346.897 l
369.999 346.897 l
369.999 346.681 l
380.673 346.681 l
380.673 346.482 l
391.349 346.482 l
391.349 343.761 l
402.028 343.761 l
402.028 345.692 l
412.71 345.692 l
412.71 347.751 l
423.394 347.751 l
423.394 346.454 l
434.08 346.454 l
434.08 347.488 l
444.769 347.488 l
444.769 344.511 l
466.154 344.556 l
466.154 344.324 l
476.85 344.324 l
476.85 343.426 l
487.549 343.426 l
487.549 342.647 l
498.25 342.647 l
498.25 343.638 l
508.954 343.638 l
508.954 344.692 l
519.66 344.692 l
519.66 342.676 l
530.368 342.676 l
530.368 341.831 l
541.079 341.831 l
541.079 339.317 l
551.793 339.317 l
551.793 340.252 l
562.509 340.252 l
562.509 336.791 l
573.227 336.791 l
573.227 331.744 l
583.948 331.744 l
583.948 321.365 l
594.671 321.365 l
594.671 315.119 l
605.397 315.119 l
605.397 319.154 l
616.125 319.154 l
616.125 329.018 l
626.856 329.018 l
626.856 334.269 l
637.589 334.269 l
637.589 337.35 l
648.325 337.35 l
648.325 339.468 l
659.063 339.468 l
659.063 340.942 l
669.804 340.942 l
669.804 342.971 l
680.547 342.971 l
680.547 342.057 l
691.293 342.057 l
691.293 341.756 l
702.041 341.756 l
702.041 344.988 l
712.791 344.988 l
712.791 345.141 l
721 345.141 l
721 345.141 l
stroke
grestore
0.000 0.980 0.604 setrgbcolor
gsave
202.1 734.2 482.5 87.38 clipbox
-1 260.472 m
8.53854 260.472 l
8.53854 260.804 l
19.1294 260.804 l
19.1294 260.595 l
29.7227 260.595 l
29.7227 261.22 l
40.3184 261.22 l
40.3184 262.312 l
50.9165 262.312 l
50.9165 261.136 l
61.5171 261.136 l
61.5171 259.861 l
72.1202 259.861 l
72.1202 260.615 l
82.7257 260.615 l
82.7257 259.767 l
93.3336 259.767 l
93.3336 258.1 l
103.944 258.1 l
103.944 255.73 l
114.557 255.73 l
114.557 256.618 l
135.79 256.575 l
135.79 256.816 l
146.41 256.816 l
146.41 258.65 l
157.032 258.65 l
157.032 258.044 l
167.657 258.044 l
167.657 259.587 l
178.285 259.587 l
178.285 256.908 l
188.915 256.908 l
188.915 259.509 l
199.547 259.509 l
199.547 257.73 l
210.182 257.73 l
210.182 259.774 l
220.819 259.774 l
220.819 261.367 l
231.459 261.367 l
231.459 260.425 l
242.101 260.425 l
242.101 259.36 l
252.746 259.36 l
252.746 258.795 l
263.393 258.795 l
263.393 259.346 l
274.043 259.346 l
274.043 258.51 l
284.695 258.51 l
284.695 257.466 l
295.349 257.466 l
295.349 259.098 l
306.006 259.098 l
306.006 258.733 l
316.665 258.733 l
316.665 258.246 l
327.327 258.246 l
327.327 259.503 l
337.991 259.503 l
337.991 258.801 l
348.658 258.801 l
348.658 257.188 l
359.327 257.188 l
359.327 262.662 l
369.999 262.662 l
369.999 259.544 l
380.673 259.544 l
380.673 259.046 l
391.349 259.046 l
391.349 259.623 l
402.028 259.623 l
402.028 262.197 l
412.71 262.197 l
412.71 260.376 l
423.394 260.376 l
423.394 259.305 l
434.08 259.305 l
434.08 259.143 l
444.769 259.143 l
444.769 261.745 l
455.46 261.745 l
455.46 260.333 l
466.154 260.333 l
466.154 259.305 l
476.85 259.305 l
476.85 257.627 l
487.549 257.627 l
487.549 256.176 l
498.25 256.176 l
498.25 255.483 l
508.954 255.483 l
508.954 256.093 l
519.66 256.093 l
519.66 256.903 l
530.368 256.903 l
530.368 257.395 l
541.079 257.395 l
541.079 257.752 l
551.793 257.752 l
551.793 253.667 l
562.509 253.667 l
562.509 250.232 l
573.227 250.232 l
573.227 246.442 l
583.948 246.442 l
583.948 235.455 l
594.671 235.455 l
594.671 227.353 l
605.397 227.353 l
605.397 231.493 l
616.125 231.493 l
616.125 242.156 l
626.856 242.156 l
626.856 247.808 l
637.589 247.808 l
637.589 252.911 l
648.325 252.911 l
648.325 255.085 l
659.063 255.085 l
659.063 254.406 l
669.804 254.406 l
669.804 255.191 l
680.547 255.191 l
680.547 260.179 l
691.293 260.179 l
691.293 259.212 l
712.791 259.311 l
712.791 257.368 l
721 257.368 l
721 257.368 l
stroke
grestore
0.000 setgray
gsave
202.1 734.2 482.5 87.38 clipbox
-1 173.83 m
8.53854 173.83 l
8.53854 175.578 l
19.1294 175.578 l
19.1294 175.138 l
29.7227 175.138 l
29.7227 173.32 l
40.3184 173.32 l
40.3184 172.361 l
50.9165 172.361 l
50.9165 175.286 l
61.5171 175.286 l
61.5171 174.177 l
72.1202 174.177 l
72.1202 172.471 l
82.7257 172.471 l
82.7257 171.695 l
93.3336 171.695 l
93.3336 171.475 l
103.944 171.475 l
103.944 172.698 l
114.557 172.698 l
114.557 168.656 l
125.172 168.656 l
125.172 172.712 l
135.79 172.712 l
135.79 174.714 l
146.41 174.714 l
146.41 171.962 l
157.032 171.962 l
157.032 174.681 l
167.657 174.681 l
167.657 175.954 l
178.285 175.954 l
178.285 173.86 l
188.915 173.86 l
188.915 175.761 l
199.547 175.761 l
199.547 175.633 l
210.182 175.633 l
210.182 176.637 l
220.819 176.637 l
220.819 177.015 l
231.459 177.015 l
231.459 173.316 l
242.101 173.316 l
242.101 173.647 l
252.746 173.647 l
252.746 175.261 l
263.393 175.261 l
263.393 174.752 l
274.043 174.752 l
274.043 174.553 l
284.695 174.553 l
284.695 174.161 l
295.349 174.161 l
295.349 176.84 l
306.006 176.84 l
306.006 175.993 l
316.665 175.993 l
316.665 172.745 l
327.327 172.745 l
327.327 174.377 l
337.991 174.377 l
337.991 174.059 l
348.658 174.059 l
348.658 174.621 l
359.327 174.621 l
359.327 175.692 l
369.999 175.692 l
369.999 173.4 l
391.349 173.39 l
391.349 171.085 l
402.028 171.085 l
402.028 173.707 l
412.71 173.707 l
412.71 174.479 l
423.394 174.479 l
423.394 173.478 l
434.08 173.478 l
434.08 173.117 l
444.769 173.117 l
444.769 173.984 l
455.46 173.984 l
455.46 174.647 l
466.154 174.647 l
466.154 174.287 l
476.85 174.287 l
476.85 172.084 l
487.549 172.084 l
487.549 173.479 l
498.25 173.479 l
498.25 169.514 l
508.954 169.514 l
508.954 168.743 l
519.66 168.743 l
519.66 171.831 l
530.368 171.831 l
530.368 169.195 l
541.079 169.195 l
541.079 165.025 l
551.793 165.025 l
551.793 161.798 l
562.509 161.798 l
562.509 154.023 l
573.227 154.023 l
573.227 144.355 l
583.948 144.355 l
583.948 141.119 l
594.671 141.119 l
594.671 148.324 l
605.397 148.324 l
605.397 159.219 l
616.125 159.219 l
616.125 165.131 l
626.856 165.131 l
626.856 165.534 l
637.589 165.534 l
637.589 166.569 l
648.325 166.569 l
648.325 170.373 l
659.063 170.373 l
659.063 169.894 l
669.804 169.894 l
669.804 166.245 l
680.547 166.245 l
680.547 172.053 l
691.293 172.053 l
691.293 173.695 l
702.041 173.695 l
702.041 175.24 l
712.791 175.24 l
712.791 172.019 l
721 172.019 l
721 172.019 l
stroke
grestore
0 setlinecap
gsave
/o {
gsave
newpath
translate
1.5 setlinewidth
1 setlinejoin
0 setlinecap
0 0 m
0 14 l
gsave
0.000 setgray
fill
grestore
stroke
grestore
} bind def
498.085 87.383 o
grestore
gsave
/o {
gsave
newpath
translate
1.5 setlinewidth
1 setlinejoin
0 setlinecap
0 0 m
0 -14 l
gsave
0.000 setgray
fill
grestore
stroke
grestore
} bind def
498.085 821.56 o
grestore
/BitstreamVeraSans-Roman findfont
18.000 scalefont
setfont
gsave
486.511608 40.989783 translate
45.000000 rotate
0.000000 0.250000 m /minus glyphshow
15.082031 0.250000 m /eight glyphshow
26.534180 0.250000 m /zero glyphshow
37.986328 0.250000 m /zero glyphshow
grestore
gsave
/o {
gsave
newpath
translate
1.5 setlinewidth
1 setlinejoin
0 setlinecap
0 0 m
0 14 l
gsave
0.000 setgray
fill
grestore
stroke
grestore
} bind def
529.176 87.383 o
grestore
gsave
/o {
gsave
newpath
translate
1.5 setlinewidth
1 setlinejoin
0 setlinecap
0 0 m
0 -14 l
gsave
0.000 setgray
fill
grestore
stroke
grestore
} bind def
529.176 821.56 o
grestore
gsave
517.602483 40.989783 translate
45.000000 rotate
0.000000 0.250000 m /minus glyphshow
15.082031 0.250000 m /six glyphshow
26.534180 0.250000 m /zero glyphshow
37.986328 0.250000 m /zero glyphshow
grestore
gsave
/o {
gsave
newpath
translate
1.5 setlinewidth
1 setlinejoin
0 setlinecap
0 0 m
0 14 l
gsave
0.000 setgray
fill
grestore
stroke
grestore
} bind def
560.267 87.383 o
grestore
gsave
/o {
gsave
newpath
translate
1.5 setlinewidth
1 setlinejoin
0 setlinecap
0 0 m
0 -14 l
gsave
0.000 setgray
fill
grestore
stroke
grestore
} bind def
560.267 821.56 o
grestore
gsave
548.693359 40.989783 translate
45.000000 rotate
0.000000 0.250000 m /minus glyphshow
15.082031 0.250000 m /four glyphshow
26.534180 0.250000 m /zero glyphshow
37.986328 0.250000 m /zero glyphshow
grestore
gsave
/o {
gsave
newpath
translate
1.5 setlinewidth
1 setlinejoin
0 setlinecap
0 0 m
0 14 l
gsave
0.000 setgray
fill
grestore
stroke
grestore
} bind def
591.358 87.383 o
grestore
gsave
/o {
gsave
newpath
translate
1.5 setlinewidth
1 setlinejoin
0 setlinecap
0 0 m
0 -14 l
gsave
0.000 setgray
fill
grestore
stroke
grestore
} bind def
591.358 821.56 o
grestore
gsave
579.784234 40.989783 translate
45.000000 rotate
0.000000 0.250000 m /minus glyphshow
15.082031 0.250000 m /two glyphshow
26.534180 0.250000 m /zero glyphshow
37.986328 0.250000 m /zero glyphshow
grestore
gsave
/o {
gsave
newpath
translate
1.5 setlinewidth
1 setlinejoin
0 setlinecap
0 0 m
0 14 l
gsave
0.000 setgray
fill
grestore
stroke
grestore
} bind def
622.448 87.383 o
grestore
gsave
/o {
gsave
newpath
translate
1.5 setlinewidth
1 setlinejoin
0 setlinecap
0 0 m
0 -14 l
gsave
0.000 setgray
fill
grestore
stroke
grestore
} bind def
622.448 821.56 o
grestore
gsave
624.050498 67.340559 translate
45.000000 rotate
0.000000 0.250000 m /zero glyphshow
grestore
gsave
/o {
gsave
newpath
translate
1.5 setlinewidth
1 setlinejoin
0 setlinecap
0 0 m
0 14 l
gsave
0.000 setgray
fill
grestore
stroke
grestore
} bind def
653.539 87.383 o
grestore
gsave
/o {
gsave
newpath
translate
1.5 setlinewidth
1 setlinejoin
0 setlinecap
0 0 m
0 -14 l
gsave
0.000 setgray
fill
grestore
stroke
grestore
} bind def
653.539 821.56 o
grestore
gsave
647.086985 51.231782 translate
45.000000 rotate
0.000000 0.250000 m /two glyphshow
11.452148 0.250000 m /zero glyphshow
22.904297 0.250000 m /zero glyphshow
grestore
gsave
/o {
gsave
newpath
translate
1.5 setlinewidth
1 setlinejoin
0 setlinecap
0 0 m
0 14 l
gsave
0.000 setgray
fill
grestore
stroke
grestore
} bind def
684.63 87.383 o
grestore
gsave
/o {
gsave
newpath
translate
1.5 setlinewidth
1 setlinejoin
0 setlinecap
0 0 m
0 -14 l
gsave
0.000 setgray
fill
grestore
stroke
grestore
} bind def
684.63 821.56 o
grestore
gsave
678.023181 50.922423 translate
45.000000 rotate
0.000000 0.250000 m /four glyphshow
11.452148 0.250000 m /zero glyphshow
22.904297 0.250000 m /zero glyphshow
grestore
gsave
517.452052 18.567908 translate
0.000000 rotate
0.000000 3.750000 m /V glyphshow
10.938477 3.750000 m /e glyphshow
22.012695 3.750000 m /l glyphshow
27.013672 3.750000 m /o glyphshow
38.026367 3.750000 m /c glyphshow
47.922852 3.750000 m /i glyphshow
52.923828 3.750000 m /t glyphshow
59.981445 3.750000 m /y glyphshow
70.633789 3.750000 m /space glyphshow
76.355469 3.750000 m /parenleft glyphshow
83.377930 3.750000 m /k glyphshow
93.801758 3.750000 m /m glyphshow
111.335938 3.750000 m /slash glyphshow
117.400391 3.750000 m /s glyphshow
126.778320 3.750000 m /parenright glyphshow
grestore
1.750 setlinewidth
2 setlinecap
gsave
482.54 821.56 m
684.63 821.56 l
stroke
grestore
gsave
684.63 87.383 m
684.63 821.56 l
stroke
grestore
gsave
482.54 87.383 m
684.63 87.383 l
stroke
grestore
gsave
482.54 87.383 m
482.54 821.56 l
stroke
grestore
gsave
568.084865 825.560000 translate
0.000000 rotate
/BitstreamVeraSans-Roman findfont
21.6 scalefont
setfont
0.000000 1.968750 moveto
/H glyphshow

/Cmmi10 findfont
21.6 scalefont
setfont
16.237488 1.968750 moveto
/alpha glyphshow


grestore

end
showpage
